,1
AR,1.59604016499569
CA,1.12292391807379
FSL,1.12894721252181
GGD,6.63317911639258
HPI,1.3217116018258699
LTU,3.2194341727977402
NIIP,6.803146390486569
PSCF,2.95837314378592
PSD,7.15979717305435
REER,1.33937322130335
ULC,2.23701134176571
UR,9.047476563821501
XMS,1.55572752038272
YUR,2.97433119075175
