,MeanDecreaseAccuracy
FSL,1.72314814814815
REER,1.8268518518518602
AR,2.12777777777778
XMS,3.7046296296296397
HPI,4.10740740740743
PSCF,4.8388888888889205
ULC,5.82129629629632
LTU,5.96111111111113
YUR,5.98240740740743
GGD,7.72314814814816
PSD,7.790740740740739
UR,9.65462962962961
NIIP,9.81203703703704
CA,14.497222222222197
