"num.trees","mtry","min.node.size","replace","sample.fraction","bacc0","acc0","bacc","acc"
500,0,1,TRUE,0.5,69.3156108597285,71.025641025641,57.5390271493213,57.4358974358974
500,2,1,TRUE,0.5,69.487556561086,71.025641025641,50.3195701357466,53.0769230769231
500,3,1,TRUE,0.5,69.5079185520362,71.2820512820513,57.5390271493213,57.4358974358974
500,4,1,TRUE,0.5,69.564479638009,71.5384615384615,54.9841628959276,52.8205128205128
500,5,1,TRUE,0.5,70.935520361991,73.0769230769231,57.4276018099548,56.9230769230769
500,0,3,TRUE,0.5,67.3733031674208,70,57.3823529411765,56.9230769230769
500,2,3,TRUE,0.5,67.9213800904977,69.7435897435898,49.7171945701358,48.974358974359
500,3,3,TRUE,0.5,67.3733031674208,70,57.3823529411765,56.9230769230769
500,4,3,TRUE,0.5,67.9983031674208,70.2564102564103,50.9756787330317,51.2820512820513
500,5,3,TRUE,0.5,68.204185520362,70,54.8263574660633,55.8974358974359
500,0,5,TRUE,0.5,67.0927601809955,68.974358974359,58.4128959276018,58.2051282051282
500,2,5,TRUE,0.5,66.60407239819,68.974358974359,54.2466063348416,55.6410256410256
500,3,5,TRUE,0.5,67.0927601809955,68.974358974359,58.4128959276018,58.2051282051282
500,4,5,TRUE,0.5,67.8512443438914,70,54.777149321267,56.6666666666667
500,5,5,TRUE,0.5,67.6809954751131,70,53.9830316742081,52.8205128205128
500,0,10,TRUE,0.5,64.5786199095023,65.8974358974359,57.3371040723982,56.9230769230769
500,2,10,TRUE,0.5,64.972850678733,66.6666666666667,54.2975113122172,54.6153846153846
500,3,10,TRUE,0.5,64.5786199095023,65.8974358974359,57.3371040723982,56.9230769230769
500,4,10,TRUE,0.5,65.472850678733,66.9230769230769,54.0350678733032,54.6153846153846
500,5,10,TRUE,0.5,66.8122171945701,67.948717948718,55.5707013574661,54.8717948717949
500,0,1,TRUE,0.632,71.7296380090498,73.8461538461538,59.018665158371,57.9487179487179
500,2,1,TRUE,0.632,71.197963800905,73.0769230769231,55.4411764705882,55.6410256410256
500,3,1,TRUE,0.632,71.7296380090498,73.8461538461538,59.018665158371,57.9487179487179
500,4,1,TRUE,0.632,71.1843891402715,73.5897435897436,58.697963800905,58.7179487179487
500,5,1,TRUE,0.632,71.2296380090498,73.5897435897436,49.6561085972851,51.2820512820513
500,0,3,TRUE,0.632,70.572963800905,72.8205128205128,57.5509049773756,58.2051282051282
500,2,3,TRUE,0.632,69.9711538461539,72.3076923076923,57.6679864253394,56.9230769230769
500,3,3,TRUE,0.632,70.572963800905,72.8205128205128,57.5509049773756,58.2051282051282
500,4,3,TRUE,0.632,71.3631221719457,74.3589743589744,56.2794117647059,56.6666666666667
500,5,3,TRUE,0.632,71.0690045248869,73.8461538461538,55.0175339366516,56.4102564102564
500,0,5,TRUE,0.632,71.1951357466063,73.5897435897436,54.6487556561086,54.6153846153846
500,2,5,TRUE,0.632,68.0311085972851,70.5128205128205,53.4513574660633,55.3846153846154
500,3,5,TRUE,0.632,71.1951357466063,73.5897435897436,54.6487556561086,54.6153846153846
500,4,5,TRUE,0.632,68.8461538461539,71.7948717948718,56.8184389140272,55.3846153846154
500,5,5,TRUE,0.632,71.4219457013575,73.8461538461539,51.3472850678733,52.5641025641026
500,0,10,TRUE,0.632,67.0158371040724,68.4615384615385,54.1679864253394,55.1282051282051
500,2,10,TRUE,0.632,66.2533936651584,68.2051282051282,56.9010180995475,58.2051282051282
500,3,10,TRUE,0.632,67.1628959276018,68.7179487179487,54.1679864253394,55.1282051282051
500,4,10,TRUE,0.632,69.0972850678733,71.5384615384615,55.1102941176471,55.6410256410256
500,5,10,TRUE,0.632,68.5656108597285,70.7692307692308,53.9881221719457,54.6153846153846
500,0,1,TRUE,0.8,72.7845022624434,74.6153846153846,54.2545248868778,55.8974358974359
500,2,1,TRUE,0.8,71.2969457013575,73.8461538461538,55.039592760181,55.8974358974359
500,3,1,TRUE,0.8,72.7845022624434,74.6153846153846,54.2545248868778,55.8974358974359
500,4,1,TRUE,0.8,71.5101809954751,74.6153846153846,55.8783936651584,57.9487179487179
500,5,1,TRUE,0.8,71.3150452488688,74.8717948717949,54.9847285067873,56.1538461538461
500,0,3,TRUE,0.8,71.9219457013575,74.1025641025641,56.9626696832579,57.1794871794872
500,2,3,TRUE,0.8,70.4490950226244,72.3076923076923,53.39592760181,55.6410256410256
500,3,3,TRUE,0.8,72.1142533936652,74.3589743589744,56.9626696832579,57.1794871794872
500,4,3,TRUE,0.8,70.6227375565611,74.3589743589744,58.1487556561086,59.4871794871795
500,5,3,TRUE,0.8,70.783371040724,74.1025641025641,53.0316742081448,54.1025641025641
500,0,5,TRUE,0.8,71.1730769230769,73.3333333333333,57.1300904977376,57.6923076923077
500,2,5,TRUE,0.8,70.2788461538462,72.3076923076923,53.6306561085973,52.8205128205128
500,3,5,TRUE,0.8,71.1730769230769,73.3333333333333,57.1300904977376,57.6923076923077
500,4,5,TRUE,0.8,69.7941176470588,73.5897435897436,54.7358597285068,55.6410256410256
500,5,5,TRUE,0.8,69.9892533936652,73.3333333333333,51.5825791855204,52.5641025641026
500,0,10,TRUE,0.8,68.3597285067873,71.025641025641,55.9038461538462,57.1794871794872
500,2,10,TRUE,0.8,67.1148190045249,69.2307692307692,54.3280542986425,53.3333333333333
500,3,10,TRUE,0.8,68.3597285067873,71.025641025641,55.9038461538462,57.1794871794872
500,4,10,TRUE,0.8,69.262443438914,72.8205128205128,57.1193438914027,58.7179487179487
500,5,10,TRUE,0.8,68.1057692307692,71.7948717948718,53.5141402714932,55.8974358974359
