PC_CA-avg_3y,REER-pch_3y,X_GS_share_M-pch_5y,FSL-pch,GD-pc_gdp,HPI-pch,NIIP-pc_gdp,ULC-pch_3y,ACT-pch_3y,LTU-pch_3y,YUR-pch_3y,PSCF-pc_gdp,PSD-pc_gdp,UR-avg_3y,label
6.6,0.1,-3.82,10.9,18.7,86.73,28.9,8.8,1.1,-0.2,-0.9,21.4,284.3,4.8,1
0.0,-8.2,-2.16,8.1,40.0,100.0,-32.9,0.1,2.4,-0.6,-6.9,0.3,68.1,6.1,1
-8.29,-2.87,-6.92,-3.25,103.96,105.69,-99.18,0.48,-0.03,2.36,7.79,-0.74,186.38,11.24,4
8.2,-0.9,-6.74,4.0,64.6,100.0,48.9,-0.4,0.6,1.1,-0.4,0.0,262.8,7.2,2
-2.47,-6.83,1.96,4.54,105.34,100.95,-143.87,-10.06,0.08,1.36,-2.74,8.51,338.17,15.17,3
6.6,-1.8,-12.99,-6.4,78.7,93.91,34.7,6.1,0.9,-1.0,-2.0,2.0,103.0,5.5,2
1.9,-3.8,-22.85,-1.3,77.3,85.73,-82.2,7.5,2.8,-0.6,0.2,-0.9,94.6,10.7,2
-3.26,-1.83,-19.94,10.79,110.3,99.33,-161.32,-6.48,0.76,5.96,13.55,-0.88,344.87,14.54,4
-2.09,-6.32,-3.45,8.78,107.08,100.18,-152.44,-10.66,0.34,2.84,3.58,5.2,345.93,15.6,3
4.1,-9.2,-7.55,9.1,42.3,107.27,0.1,2.8,1.0,-0.1,-4.7,8.1,192.0,7.4,2
6.4,-9.0,-16.75,3.2,81.1,92.39,28.7,2.5,0.9,-1.1,-3.1,1.4,101.9,6.1,1
0.53,-2.97,2.97,7.05,29.73,100.22,-69.4,15.86,2.65,0.79,-0.39,1.79,124.27,11.79,3
-2.6,-1.2,-14.69,3.93,119.22,97.07,-144.13,-5.28,0.12,4.97,11.93,-1.11,284.81,14.78,4
-4.92,-2.98,43.03,4.55,34.55,112.79,-66.37,3.04,1.29,0.55,5.62,2.34,73.41,6.92,4
-3.6,-3.03,-19.98,-13.28,160.87,103.69,-126.73,-7.77,-0.44,9.49,19.76,-3.14,157.39,20.32,4
-4.91,-3.04,44.96,4.54,34.4,113.32,-66.3,2.81,1.27,0.54,5.81,2.47,73.49,6.91,4
2.3,-6.4,37.84,9.6,76.7,100.0,-198.4,-18.6,1.0,-3.9,-10.6,-2.3,305.1,11.9,2
-2.7,-3.2,-19.21,5.1,119.7,124.69,-18.2,4.9,-0.8,1.3,8.0,3.1,121.8,8.2,2
1.57,0.1,5.46,2.74,81.92,101.92,-73.45,-5.25,1.96,-2.13,-6.79,-0.34,106.44,15.58,3
1.36,-4.68,6.8,8.43,31.42,107.18,-47.56,7.86,0.15,-2.43,-9.61,2.49,105.17,9.29,3
1.9,-0.8,24.41,-0.2,6.1,74.62,-54.0,-2.2,0.5,5.4,10.4,-0.8,118.9,14.2,1
-5.8,-0.98,3.72,-1.45,70.15,103.3,-80.31,-2.92,-0.13,1.56,4.57,-1.19,125.04,9.08,4
0.46,-1.66,-11.55,0.97,72.6,105.11,-65.22,-3.72,1.31,0.96,2.74,-2.0,112.01,13.53,3
-7.09,-3.59,-14.26,-3.62,122.99,100.49,-113.04,-3.85,-0.12,3.13,11.01,-2.66,207.91,12.9,4
-4.52,-1.15,12.8,3.44,37.2,103.32,-65.97,2.89,1.12,0.8,2.26,-0.28,70.3,7.0,4
-2.41,-1.01,-12.63,1.01,123.03,96.15,-136.64,-4.82,-0.13,4.54,11.3,-1.26,258.94,14.85,4
-2.2,-1.0,20.12,1.2,39.2,98.2,-57.3,6.7,1.6,-0.1,0.1,-2.3,62.1,6.9,2
1.5,-2.4,-9.7,1.4,135.3,100.0,-19.3,2.0,0.5,1.3,5.0,-1.4,115.1,12.2,3
-3.3,-2.57,-17.72,-11.79,155.28,101.88,-125.49,-7.02,-0.49,8.38,17.89,-2.85,165.87,19.31,4
-0.2,-0.3,-10.28,-9.9,95.8,96.24,-92.8,-5.1,0.8,5.7,14.0,-10.1,178.1,24.1,2
1.2,1.7,19.36,16.7,40.6,95.51,-46.8,8.7,2.3,-3.2,-13.3,0.2,54.2,12.0,1
-1.7,2.7,-27.3,9.3,59.8,100.2,-3.1,7.6,0.5,0.2,0.4,1.7,148.8,8.2,2
1.2,5.3,8.56,23.0,34.7,116.33,-25.0,5.9,2.4,-1.7,-8.0,4.2,67.3,4.0,1
2.0,0.2,2.7,2.2,78.3,110.5,2.8,4.0,1.0,0.3,-0.5,3.6,121.8,5.7,1
8.6,-6.0,-12.82,6.0,66.2,105.12,26.7,2.6,0.9,0.8,1.5,6.1,252.1,5.3,2
8.3,-1.7,-8.55,-0.9,39.8,100.0,33.4,2.2,-0.1,-0.4,-3.6,2.9,211.4,6.9,1
-1.61,-2.46,-2.09,-11.3,166.21,96.18,-136.13,-1.62,0.54,-2.23,-4.63,-1.13,136.84,21.45,4
-1.68,-4.16,-8.87,-10.72,177.41,99.77,-136.77,-5.2,0.54,2.63,-1.42,-1.89,123.78,24.6,4
-0.8,-1.2,-0.62,0.0,68.4,94.14,26.9,9.8,5.9,-0.3,-0.5,2.3,153.0,6.2,1
2.4,-1.8,-12.5,1.5,82.4,88.31,-1.9,5.8,0.7,0.2,0.4,3.0,129.4,4.9,1
-0.3,-3.5,27.95,6.5,50.6,104.11,-61.2,4.1,1.7,-2.3,-9.1,2.9,76.5,6.2,1
2.3,-7.2,-9.31,0.4,76.1,100.0,-67.9,1.1,4.9,-1.9,-10.9,-2.5,83.2,8.2,1
-0.7,-4.4,-15.44,6.9,87.8,108.42,-8.7,5.4,0.3,1.1,3.6,6.4,135.3,9.2,2
-1.14,-3.6,-10.55,1.23,118.53,79.19,-131.1,-0.95,0.23,1.36,-0.53,-1.89,262.43,15.42,2
-1.96,-2.77,-12.99,-6.48,151.98,98.19,-125.27,-6.66,-0.35,6.68,8.95,-2.21,171.21,19.85,4
4.9,-2.0,18.08,5.3,74.1,110.35,-24.2,3.7,3.3,-2.2,-9.0,0.9,76.3,7.9,1
-0.8,-7.8,-18.3,1.4,90.6,106.3,-12.8,4.1,0.5,0.8,0.8,4.2,138.3,9.4,2
-1.2,-0.6,11.9,-1.2,38.7,89.75,-50.6,6.1,2.2,-2.3,-13.8,-0.3,56.7,13.5,1
-3.6,0.5,13.76,0.8,37.6,101.39,-62.8,-4.7,0.0,0.8,1.6,-1.4,66.8,7.0,4
0.5,1.7,8.2,6.2,38.6,113.36,-56.2,15.2,2.4,-1.3,-2.6,2.4,76.9,9.4,1
-4.69,-1.55,-8.82,-5.04,124.67,98.79,-113.82,-2.49,-0.54,3.2,9.39,-1.32,202.93,13.77,4
1.47,-4.7,8.83,9.1,29.79,106.73,-47.82,8.43,0.27,-2.79,-10.83,2.88,104.66,9.37,3
-4.5,-4.4,-26.64,-17.7,177.4,109.06,-130.4,-10.0,-0.3,12.8,25.3,-4.0,132.3,23.3,4
-1.44,-5.55,-3.58,7.42,112.45,100.0,-147.06,-8.5,0.32,2.43,2.78,3.08,312.65,15.43,3
-2.1,-5.3,-17.51,0.6,86.3,106.97,-88.9,-5.0,1.2,6.7,15.2,-11.2,188.5,22.0,3
-0.7,2.1,-4.08,1.4,54.7,93.4,-62.2,2.6,1.2,0.8,-0.2,5.0,75.2,14.0,1
-2.54,-1.14,-13.98,2.94,120.51,96.75,-141.58,-5.12,0.04,4.83,11.71,-1.16,276.0,14.8,4
-0.1,3.1,9.93,10.3,10.2,82.54,-49.7,11.2,1.2,-3.8,-14.2,4.8,115.2,10.3,1
-0.9,-0.8,-19.37,0.6,84.7,102.67,-86.8,-6.8,2.0,1.7,8.3,-0.1,117.2,16.8,3
-3.2,-1.7,5.89,5.7,39.4,98.21,-66.7,8.0,1.0,-3.1,-13.0,-0.6,91.0,14.4,1
-0.62,-3.3,-4.55,0.09,112.07,106.45,-101.1,-2.43,0.91,1.11,0.89,-6.01,177.55,16.64,3
-4.5,-10.8,-1.18,-1.7,86.2,108.73,-10.0,5.1,0.9,-1.1,-4.9,7.2,167.7,4.8,1
-1.92,-4.38,-16.64,-7.29,167.32,101.21,-129.05,-8.79,-0.1,8.97,8.24,-2.66,148.19,23.47,4
-3.3,3.4,-11.62,-7.7,84.2,88.7,-17.8,3.9,1.0,0.2,0.8,6.6,170.2,7.8,2
0.63,-2.73,-5.21,2.73,119.83,100.34,-16.69,1.88,0.58,0.84,2.8,1.88,126.96,11.41,3
0.01,-0.32,-12.06,1.35,84.54,101.24,-82.29,-6.42,2.54,0.79,3.89,-0.85,114.35,16.85,3
2.35,0.06,17.04,3.72,79.35,103.63,-68.66,-4.66,1.02,-5.01,-17.88,0.74,100.63,14.44,3
5.5,-2.5,-13.78,1.6,46.1,92.83,27.8,3.6,-1.4,1.3,6.8,4.4,221.0,7.3,2
2.6,-2.6,9.87,3.4,98.6,109.14,-85.5,-0.5,-0.3,-5.2,-14.6,0.7,139.7,19.6,2
-2.9,-7.6,12.18,8.6,67.7,95.5,19.6,8.6,4.5,0.1,-0.7,0.1,162.4,6.5,2
3.6,-5.5,-4.56,6.9,40.7,112.4,4.5,3.9,1.0,-0.2,-5.1,13.3,197.9,7.0,2
-0.6,4.8,10.22,4.7,40.2,107.31,-59.0,16.7,2.3,-1.7,-5.9,2.3,80.5,10.1,1
2.3,0.9,-2.83,-2.8,82.9,107.03,4.1,5.4,0.7,0.6,1.5,3.4,123.5,5.8,1
6.9,-2.5,-17.81,1.8,44.0,91.0,37.2,1.5,-1.3,0.3,-0.7,-3.0,216.1,7.7,1
-4.39,-1.74,35.69,3.04,35.42,109.46,-64.8,-0.52,0.73,0.62,4.45,1.15,70.98,6.94,4
-1.9,-5.6,-19.39,-7.9,178.9,103.49,-131.9,-10.4,0.1,10.7,7.7,-3.0,130.8,26.2,4
5.0,-1.0,21.39,0.4,22.3,109.55,51.8,4.0,-0.6,0.5,-6.8,27.4,322.9,6.1,1
1.8,0.0,9.47,3.5,81.0,102.01,-72.4,-5.6,1.9,-4.4,-18.1,-0.2,104.1,15.6,3
2.0,-4.7,-21.72,0.4,81.9,92.57,-3.2,3.8,0.8,0.0,-1.3,1.2,128.2,4.8,1
-0.6,-3.2,1.14,4.6,98.0,100.81,-13.0,1.7,0.7,0.2,-0.3,6.5,143.7,10.3,3
-2.8,6.0,-21.25,-3.6,83.2,88.09,-28.1,3.0,0.4,0.8,2.1,1.5,176.1,7.9,2
6.1,-2.4,-5.55,15.1,22.0,88.53,58.4,5.9,0.7,0.4,1.5,25.9,303.7,4.8,1
0.7,-3.1,0.87,-1.6,131.2,100.0,-118.9,0.2,0.0,-0.5,-6.0,-1.9,179.5,14.4,3
1.9,-3.2,-3.29,-2.0,99.3,100.0,-88.9,-1.1,0.0,0.4,-4.6,-2.7,155.8,24.2,2
2.8,0.1,23.24,3.9,78.0,104.96,-65.6,-3.9,0.3,-5.5,-17.7,1.5,97.8,13.5,3
-3.7,-4.77,-24.41,-14.69,177.86,107.35,-130.86,-10.12,-0.18,12.15,19.89,-3.69,131.84,24.19,4
-7.19,-3.08,14.82,-0.78,81.16,109.53,-88.39,0.62,0.32,1.73,7.65,0.63,150.24,9.83,4
0.17,-4.53,-15.78,0.97,49.53,112.21,-44.65,1.52,-1.12,1.6,3.95,-1.83,110.91,8.32,3
-3.62,0.43,14.45,0.87,37.53,101.65,-62.86,-4.57,0.02,0.79,1.69,-1.32,66.93,7.0,4
0.11,-1.82,-7.17,-7.39,132.87,97.96,-123.71,-2.84,-0.39,2.15,4.3,-5.63,190.29,15.38,3
-2.03,-0.63,-8.44,-4.92,130.78,94.28,-121.42,-3.88,-0.66,3.67,10.0,-1.57,206.33,14.99,4
-4.19,-4.54,-25.78,-16.54,177.58,108.4,-130.58,-10.05,-0.25,12.55,23.22,-3.88,132.12,23.64,4
-8.8,-3.0,-9.92,-4.5,114.4,105.9,-104.1,-0.5,-0.3,2.6,8.6,-0.9,204.2,11.9,4
-3.1,-1.7,-20.1,11.6,109.2,99.48,-163.8,-6.5,0.8,6.1,13.6,-0.7,352.8,14.6,4
5.4,0.5,16.34,37.8,22.7,94.97,59.3,7.1,2.9,0.2,5.9,28.7,324.9,5.7,1
-4.99,-3.25,-18.21,1.76,122.54,97.61,-133.82,-6.3,0.26,4.35,12.99,-2.86,256.94,13.93,4
7.0,-2.4,-8.35,10.3,61.7,114.1,20.1,5.3,0.3,0.4,1.4,8.2,247.2,4.8,1
0.1,-1.8,-7.32,-7.5,132.9,97.92,-123.8,-2.9,-0.4,2.2,4.5,-5.7,190.5,15.4,3
0.45,-1.68,-11.62,0.95,72.45,105.17,-65.06,-3.69,1.29,0.97,2.78,-2.0,112.02,13.49,3
1.7,0.7,-18.42,-3.2,81.3,95.34,1.3,6.4,1.1,0.1,0.2,1.0,127.1,5.0,1
-1.5,-3.0,-0.36,-13.0,176.2,96.77,-140.7,-1.0,0.9,-3.9,-8.8,-1.0,118.1,23.3,4
9.5,0.7,-11.35,8.0,67.8,96.72,48.0,3.7,0.9,1.3,2.7,4.3,267.2,6.8,2
0.8,-0.8,14.29,1.9,126.0,114.05,-109.9,2.8,1.5,-3.9,-10.9,2.0,161.9,10.9,2
-5.6,-5.0,17.63,10.4,70.2,95.13,6.3,11.1,2.7,0.4,1.6,6.8,168.5,6.7,1
0.2,-6.3,71.33,4.3,67.8,117.65,-167.2,-15.4,0.9,-3.6,-9.0,0.2,250.5,8.4,2
-1.14,-3.76,-13.04,-2.95,106.74,103.0,-104.21,-4.08,0.5,4.73,10.51,-8.79,189.38,19.11,3
2.0,1.9,-15.75,-0.8,84.0,96.68,3.4,7.9,0.8,0.3,1.4,0.9,124.8,5.3,1
-1.98,-0.71,-7.73,-5.76,133.52,94.25,-121.17,-3.67,-0.62,3.25,9.02,-1.57,198.13,15.39,4
-0.43,-2.95,-20.23,-0.16,66.6,108.88,-61.89,-2.78,0.02,2.17,7.54,-1.67,114.29,11.74,3
2.9,-2.8,9.08,3.6,57.8,100.0,37.4,-1.4,4.9,-0.6,-2.2,8.8,134.8,5.7,1
-0.3,4.8,20.52,13.0,10.6,93.21,-46.7,14.8,0.5,-3.8,-7.4,5.6,115.4,8.7,1
-0.4,-0.2,-12.95,1.2,105.5,100.51,43.2,7.4,-0.2,-0.1,1.3,7.9,163.0,7.7,2
0.4,-7.1,58.59,1.5,73.9,107.14,-171.7,-17.7,0.9,-3.8,-9.9,-15.7,284.4,10.1,2
7.4,-1.5,-3.18,2.6,72.1,100.0,46.6,5.9,0.4,-0.4,-0.8,2.9,97.8,4.9,2
2.0,3.0,2.18,14.3,9.3,105.85,-32.5,12.4,3.6,-1.4,-2.9,4.8,107.6,6.3,1
-2.9,-3.2,-10.3,1.1,51.8,93.78,-60.6,-0.3,1.0,2.9,6.4,1.9,71.1,14.1,1
0.8,0.1,-5.77,2.0,84.4,100.0,-78.4,-6.1,3.0,0.0,0.1,-1.5,111.9,16.9,3
-1.39,-1.06,4.06,-0.3,43.75,114.12,-46.39,7.32,-0.33,1.02,3.34,-0.55,93.78,7.02,2
-3.99,-0.62,24.66,1.92,36.51,105.4,-63.8,-2.62,0.36,0.71,3.02,-0.13,68.88,6.97,4
0.8,-3.22,6.44,8.21,27.59,100.5,-66.81,15.6,2.48,-0.18,-3.42,2.46,120.92,11.58,3
-2.0,2.5,13.52,13.2,36.7,100.0,-64.1,17.2,1.3,-3.3,-12.2,-0.5,80.4,10.9,1
2.0,1.3,-9.15,-0.1,84.9,100.0,2.2,6.4,0.4,0.5,1.2,2.1,124.0,5.6,1
2.3,-3.3,20.41,7.1,25.3,112.26,-43.3,13.5,2.3,-3.5,-10.9,4.1,99.0,7.7,2
-2.3,-1.0,4.68,0.7,50.4,97.43,-69.1,2.9,2.2,0.2,-1.9,4.6,78.1,9.8,1
-1.28,-4.2,-10.34,0.32,100.56,106.68,-95.65,-3.58,1.04,3.61,7.28,-8.33,182.44,19.03,3
-0.89,-4.35,-9.57,-0.35,105.69,103.96,-101.86,-2.75,0.68,3.59,6.04,-7.18,184.61,18.72,3
-1.0,2.7,20.49,4.1,37.8,100.0,-54.6,0.6,1.3,0.0,-0.9,0.2,58.0,6.9,1
-7.69,-3.06,7.05,-1.95,91.59,108.39,-93.32,0.27,0.13,2.0,7.95,0.15,167.18,10.48,4
-6.93,-2.51,0.99,0.07,76.39,105.12,-86.18,3.08,0.68,1.72,5.65,-0.31,139.33,9.49,4
0.71,-2.7,-5.62,2.6,121.26,100.3,-16.93,1.89,0.58,0.89,3.0,1.57,125.87,11.48,3
-2.0,-6.2,-4.75,9.8,107.5,100.0,-154.5,-10.8,0.4,3.2,5.1,4.4,347.8,15.7,3
-8.38,-3.15,-11.0,-4.28,116.54,104.55,-106.33,-1.33,-0.26,2.73,9.2,-1.34,205.12,12.15,4
-0.5,-3.0,2.4,4.6,98.4,103.03,-16.6,1.5,0.5,-0.3,-1.9,6.8,145.5,10.0,2
2.18,0.04,14.75,3.65,79.85,103.14,-69.79,-4.95,1.29,-4.82,-17.95,0.45,101.68,14.79,3
2.3,-4.3,2.9,2.5,99.2,104.41,-85.5,-1.2,-0.1,-3.5,-11.1,-0.7,147.5,22.1,2
-0.9,-1.1,-5.63,-1.2,46.5,123.73,-39.8,7.7,-1.5,1.7,5.3,0.5,112.9,7.1,2
-2.6,-0.5,7.39,4.3,39.8,98.86,-45.2,3.4,0.8,0.5,8.2,2.1,68.3,6.9,1
0.3,-1.2,4.06,10.4,51.9,100.0,-63.9,2.7,1.5,-1.8,-7.5,5.1,80.6,13.0,1
0.8,-0.8,-23.17,-5.8,78.5,89.7,-92.2,7.7,2.5,0.8,1.8,-6.0,101.1,11.1,2
2.42,0.1,17.79,3.54,79.2,104.03,-68.0,-4.31,0.81,-4.47,-14.36,0.94,100.45,14.14,3
-2.13,-0.73,-9.56,-3.33,128.7,94.78,-125.51,-4.13,-0.52,3.9,10.35,-1.49,220.46,14.95,4
0.4,-3.6,6.93,10.9,9.8,76.91,-50.7,0.1,0.8,1.8,-6.5,7.6,117.2,13.0,1
5.9,-4.9,-9.35,3.1,79.8,90.51,23.3,5.6,1.4,-1.1,-1.9,2.0,102.4,6.8,1
1.58,-1.77,-4.63,1.96,120.93,100.53,-33.35,-0.01,0.87,-0.21,-1.11,-1.08,112.19,13.1,3
-8.5,-2.92,-8.17,-3.77,108.3,105.77,-101.22,0.08,-0.14,2.46,8.13,-0.81,193.78,11.51,4
1.5,-4.7,9.44,9.3,29.3,106.59,-47.9,8.6,0.3,-2.9,-11.2,3.0,104.5,9.4,3
0.5,-1.8,5.22,-0.3,131.5,106.06,-110.3,-0.5,0.7,-3.1,-9.9,-2.1,169.3,12.6,3
-1.15,-3.79,-13.11,-2.9,106.41,103.06,-103.96,-4.09,0.51,4.76,10.58,-8.83,189.36,19.15,3
7.6,-2.3,-2.96,6.7,61.9,104.39,61.4,-0.3,0.3,0.0,-2.4,3.9,259.3,6.8,2
0.11,-2.93,-2.52,3.52,110.61,100.54,-15.13,1.8,0.63,0.57,1.49,3.83,134.03,10.94,3
0.19,-1.8,-4.57,-5.92,132.59,99.71,-120.84,-2.37,-0.16,1.04,1.34,-4.91,185.85,14.79,3
6.5,-7.8,-17.73,2.5,44.9,88.3,36.1,-0.2,-1.6,1.5,2.3,7.9,224.0,7.8,2
0.7,-3.7,2.44,16.3,36.8,106.67,-26.9,2.7,2.1,-1.3,-8.4,4.3,68.7,5.1,1
-2.01,-1.85,-8.71,4.33,64.91,98.17,10.83,5.4,2.19,0.46,1.73,4.07,155.94,7.86,2
-3.09,-1.69,-19.94,11.37,109.5,99.41,-163.21,-6.46,0.78,6.07,13.55,-0.71,350.75,14.61,4
-2.1,-6.2,-25.74,7.2,126.5,118.48,-23.0,2.0,1.2,2.2,10.0,-0.9,124.2,9.2,2
-1.95,-5.58,-19.54,-8.1,178.87,103.6,-131.87,-10.39,0.09,10.74,8.06,-3.02,130.83,26.14,4
-0.02,-3.96,2.29,-1.32,125.67,100.36,-121.97,-1.71,-0.04,-0.46,-6.76,0.91,209.36,14.46,3
-6.03,-3.14,32.6,1.9,57.27,112.15,-77.1,1.42,0.77,1.11,6.97,1.73,111.47,8.35,4
-5.0,-2.0,12.3,4.8,37.0,104.31,-67.6,6.8,1.7,0.8,2.6,0.3,72.1,7.0,4
-1.15,-4.03,-9.24,0.27,102.74,106.64,-96.68,-3.36,1.02,3.14,6.07,-7.89,181.52,18.58,3
-4.94,-2.68,33.56,4.63,35.3,110.18,-66.75,4.2,1.42,0.63,4.69,1.71,73.0,6.94,4
0.27,-2.87,-3.35,3.27,113.46,100.47,-15.61,1.82,0.62,0.66,1.9,3.23,131.85,11.09,3
-3.4,-4.3,-0.26,7.4,55.7,96.29,-68.9,3.1,1.7,1.4,3.6,3.3,75.4,10.0,1
-1.2,-3.8,-10.57,1.9,119.9,78.16,-133.4,-0.7,0.2,1.1,-1.4,-1.4,267.5,14.9,2
-1.4,2.1,-23.06,1.4,63.0,100.0,4.8,3.2,0.6,0.7,3.4,6.8,151.5,8.8,2
0.0,5.3,-1.35,15.8,39.9,104.36,-42.9,15.0,3.1,-2.1,-7.4,4.3,56.5,9.2,1
1.07,-3.58,11.9,8.93,21.88,106.2,-56.96,12.98,1.35,-0.6,-1.41,3.5,110.64,9.13,2
0.4,-2.82,-4.01,3.08,115.71,100.43,-15.99,1.84,0.61,0.72,2.22,2.75,130.12,11.2,3
-1.61,-3.71,-5.59,-11.6,176.94,98.62,-138.28,-3.58,0.68,0.11,-4.27,-1.55,121.59,24.1,4
-0.1,-4.5,-20.85,-0.7,53.6,113.34,-44.0,0.1,-1.4,2.5,7.0,-2.8,112.2,8.1,3
0.6,-2.8,5.59,7.9,27.1,98.77,-72.2,17.6,3.1,0.6,-1.2,2.3,125.6,12.2,3
-2.9,-7.4,7.99,-0.2,103.4,101.8,-134.3,-9.4,-0.2,-0.3,-9.8,12.2,329.5,14.7,3
-8.48,-2.92,-8.07,-3.73,107.95,105.77,-101.06,0.11,-0.13,2.45,8.1,-0.8,193.2,11.49,4
2.7,-5.2,-2.11,19.5,75.5,113.15,-59.6,5.4,5.4,-2.5,-13.7,-3.1,76.6,6.5,1
-2.91,-1.39,-10.24,-4.84,130.84,94.73,-119.99,-4.36,-0.54,3.58,10.55,-2.14,204.06,14.67,4
-7.15,-3.57,-14.12,-3.65,122.72,100.67,-112.76,-3.75,-0.13,3.11,10.94,-2.61,207.79,12.87,4
-3.27,-1.7,-11.09,-4.62,130.62,94.97,-119.91,-4.58,-0.47,3.57,10.81,-2.35,204.83,14.55,4
5.6,10.3,-19.51,5.6,37.7,78.8,-15.5,4.0,1.4,0.4,-1.3,2.4,191.0,8.1,2
-2.0,-0.6,-8.1,-5.4,131.4,94.13,-120.2,-3.8,-0.7,3.6,9.9,-1.6,202.1,15.0,4
-0.08,-4.45,-20.05,-0.44,52.8,112.9,-44.85,0.63,-1.26,2.44,6.75,-2.65,112.6,8.22,3
-4.8,1.4,1.39,10.7,53.7,101.1,-65.3,5.3,1.8,1.6,5.9,4.8,73.4,9.8,1
-5.9,-4.0,-17.3,-3.0,129.0,96.71,-119.3,-6.2,0.0,3.5,12.7,-3.9,210.5,13.6,4
-2.8,-7.8,-25.92,10.4,80.1,89.4,-11.6,5.8,-0.3,1.3,6.3,1.6,176.6,7.8,2
-4.9,-3.2,49.92,4.5,34.0,114.69,-66.1,2.2,1.2,0.5,6.3,2.8,73.7,6.9,4
-0.8,-4.0,-1.01,11.7,16.7,97.0,-77.7,12.2,-0.1,3.8,13.0,2.6,128.3,11.3,2
-0.6,-10.0,-6.24,5.2,42.2,96.3,-36.6,4.0,3.0,0.0,-2.2,1.7,71.5,6.7,1
0.9,-0.4,-5.01,2.4,104.9,101.22,54.5,-0.9,0.1,0.1,-3.6,23.8,194.8,8.3,1
3.1,0.0,10.82,-7.7,72.9,123.65,-54.9,9.1,4.2,-2.0,-9.7,0.7,70.0,5.4,1
0.94,-3.61,11.04,9.11,21.54,105.58,-58.35,12.93,1.25,-0.31,-0.44,3.44,111.82,9.28,2
-1.3,-2.6,23.22,7.0,37.3,105.21,-49.0,9.5,0.7,-0.2,-3.1,0.6,53.7,6.5,1
-7.73,-3.37,-12.65,-3.95,119.8,102.5,-109.72,-2.61,-0.19,2.93,10.12,-2.01,206.53,12.53,4
