PC_CA-avg_3y,REER-pch_3y,X_GS_share_M-pch_5y,FSL-pch,GD-pc_gdp,HPI-pch,NIIP-pc_gdp,ULC-pch_3y,ACT-pch_3y,LTU-pch_3y,YUR-pch_3y,PSCF-pc_gdp,PSD-pc_gdp,UR-avg_3y,label
-2.0,2.5,13.52,13.2,36.7,100.0,-64.1,17.2,1.3,-3.3,-12.2,-0.5,80.4,10.9,1
-2.77,-7.22,6.08,1.3,104.01,101.53,-137.32,-9.61,-0.11,0.22,-7.57,11.03,332.24,14.85,3
0.0,-8.2,-2.16,8.1,40.0,100.0,-32.9,0.1,2.4,-0.6,-6.9,0.3,68.1,6.1,1
0.61,-1.64,5.59,0.03,127.1,105.71,-107.0,-0.94,0.8,-3.21,-10.61,-1.93,163.62,12.86,3
-7.41,-3.48,-13.47,-3.78,121.42,101.48,-111.41,-3.24,-0.16,3.03,10.57,-2.34,207.23,12.72,4
1.06,-4.65,1.18,6.57,35.93,108.43,-46.84,6.28,-0.16,-1.43,-6.24,1.42,106.6,9.05,3
1.5,-4.7,9.44,9.3,29.3,106.59,-47.9,8.6,0.3,-2.9,-11.2,3.0,104.5,9.4,3
-7.05,-3.6,-14.37,-3.59,123.21,100.35,-113.27,-3.94,-0.12,3.14,11.07,-2.71,208.0,12.93,4
-0.73,-1.96,-9.09,5.25,95.98,101.46,-14.7,3.46,1.09,0.4,0.94,4.34,142.26,10.17,3
7.6,-2.3,-2.96,6.7,61.9,104.39,61.4,-0.3,0.3,0.0,-2.4,3.9,259.3,6.8,2
-1.5,-3.0,-0.36,-13.0,176.2,96.77,-140.7,-1.0,0.9,-3.9,-8.8,-1.0,118.1,23.3,4
0.27,-3.61,-6.93,3.83,39.65,105.67,-58.84,9.31,0.97,1.5,2.68,-0.12,119.25,10.26,3
-4.19,-9.34,-15.72,-2.64,118.19,86.84,-127.31,-6.97,-1.4,4.73,7.02,-0.62,255.78,14.17,4
7.4,-1.5,-3.18,2.6,72.1,100.0,46.6,5.9,0.4,-0.4,-0.8,2.9,97.8,4.9,2
-0.8,-1.3,-14.53,5.6,94.9,101.8,-15.6,4.4,1.3,0.5,1.6,3.2,141.5,10.1,3
-1.7,-8.6,7.91,5.6,41.6,92.0,-67.5,-6.5,0.9,3.3,-4.8,-5.4,96.8,16.9,1
-2.3,-1.0,4.68,0.7,50.4,97.43,-69.1,2.9,2.2,0.2,-1.9,4.6,78.1,9.8,1
0.6,-2.8,5.59,7.9,27.1,98.77,-72.2,17.6,3.1,0.6,-1.2,2.3,125.6,12.2,3
-0.54,-3.18,0.81,4.5,99.13,100.79,-13.19,1.71,0.69,0.23,-0.14,6.26,142.84,10.36,3
-1.0,2.6,3.79,13.9,39.3,109.86,-37.9,16.3,2.2,-2.1,-6.0,4.5,56.1,8.0,1
0.4,-7.1,58.59,1.5,73.9,107.14,-171.7,-17.7,0.9,-3.8,-9.9,-15.7,284.4,10.1,2
-5.9,-4.0,-17.3,-3.0,129.0,96.71,-119.3,-6.2,0.0,3.5,12.7,-3.9,210.5,13.6,4
-0.6,4.8,10.22,4.7,40.2,107.31,-59.0,16.7,2.3,-1.7,-5.9,2.3,80.5,10.1,1
-7.53,-3.07,9.61,-1.56,88.16,108.77,-91.7,0.38,0.19,1.91,7.85,0.31,161.61,10.27,4
6.1,-2.4,-5.55,15.1,22.0,88.53,58.4,5.9,0.7,0.4,1.5,25.9,303.7,4.8,1
-4.97,-6.0,-17.55,-2.71,126.78,92.2,-123.81,-7.1,-0.46,4.04,11.14,-3.07,227.23,13.99,4
-3.99,-0.19,13.35,1.91,37.43,102.2,-64.13,-1.51,0.47,0.8,1.88,-0.93,68.27,7.0,4
-2.1,-6.2,-25.74,7.2,126.5,118.48,-23.0,2.0,1.2,2.2,10.0,-0.9,124.2,9.2,2
-6.66,-5.94,-12.61,-3.64,116.16,97.05,-114.88,-3.51,-0.81,3.59,7.86,-0.77,228.16,12.96,4
-5.0,-2.03,13.36,4.79,36.92,104.6,-67.56,6.67,1.69,0.79,2.7,0.37,72.14,7.0,4
-2.8,6.0,-21.25,-3.6,83.2,88.09,-28.1,3.0,0.4,0.8,2.1,1.5,176.1,7.9,2
-0.3,4.8,20.52,13.0,10.6,93.21,-46.7,14.8,0.5,-3.8,-7.4,5.6,115.4,8.7,1
-3.69,-8.77,-17.9,-2.3,123.71,85.97,-130.05,-8.35,-1.1,4.78,8.98,-1.92,250.38,14.53,4
-3.13,-5.11,-18.75,-6.39,163.56,101.41,-128.03,-9.11,0.07,8.49,9.24,-3.28,155.31,22.33,4
-3.2,-1.7,5.89,5.7,39.4,98.21,-66.7,8.0,1.0,-3.1,-13.0,-0.6,91.0,14.4,1
-3.09,-6.92,13.07,-0.92,98.86,102.44,-130.95,-6.87,-0.3,-1.69,-10.52,9.57,317.31,13.89,3
-1.7,2.7,-27.3,9.3,59.8,100.2,-3.1,7.6,0.5,0.2,0.4,1.7,148.8,8.2,2
0.5,-0.6,-13.33,2.5,107.0,99.24,44.8,4.3,1.0,0.8,4.5,-2.0,162.2,8.2,2
-0.14,-1.08,-15.69,0.65,87.05,102.86,-23.08,3.04,0.57,0.97,3.27,1.02,130.68,9.78,3
2.33,-1.63,18.28,5.84,60.49,105.55,-59.24,0.59,0.3,-4.57,-15.36,2.04,100.21,12.03,3
0.7,-3.7,2.44,16.3,36.8,106.67,-26.9,2.7,2.1,-1.3,-8.4,4.3,68.7,5.1,1
-2.04,-10.3,-18.64,-3.56,136.92,85.52,-136.1,-10.04,-1.32,7.14,6.7,-1.22,236.32,18.37,4
1.86,0.01,10.24,3.52,80.83,102.18,-72.02,-5.5,1.81,-4.46,-18.08,-0.1,103.75,15.48,3
2.26,0.05,15.75,3.68,79.63,103.36,-69.3,-4.82,1.17,-4.9,-17.92,0.58,101.23,14.64,3
-1.0,-5.6,-13.98,5.3,175.9,100.0,-135.4,-9.7,0.3,3.7,-5.5,-3.0,128.0,26.3,4
9.5,0.7,-11.35,8.0,67.8,96.72,48.0,3.7,0.9,1.3,2.7,4.3,267.2,6.8,2
2.3,-6.4,37.84,9.6,76.7,100.0,-198.4,-18.6,1.0,-3.9,-10.6,-2.3,305.1,11.9,2
0.5,-1.8,5.22,-0.3,131.5,106.06,-110.3,-0.5,0.7,-3.1,-9.9,-2.1,169.3,12.6,3
6.6,0.1,-3.82,10.9,18.7,86.73,28.9,8.8,1.1,-0.2,-0.9,21.4,284.3,4.8,1
-0.69,-2.38,-5.6,5.03,96.67,101.24,-14.12,2.86,0.96,0.33,0.52,5.08,142.75,10.21,3
-2.9,-7.4,7.99,-0.2,103.4,101.8,-134.3,-9.4,-0.2,-0.3,-9.8,12.2,329.5,14.7,3
-8.8,-3.0,-9.92,-4.5,114.4,105.9,-104.1,-0.5,-0.3,2.6,8.6,-0.9,204.2,11.9,4
-1.97,-7.98,-19.01,-5.7,157.6,94.37,-134.03,-10.22,-0.62,8.89,7.19,-2.1,184.35,22.23,4
1.9,-3.8,-22.85,-1.3,77.3,85.73,-82.2,7.5,2.8,-0.6,0.2,-0.9,94.6,10.7,2
5.1,-3.7,-9.63,12.6,45.2,89.38,-2.3,7.5,1.6,-0.1,0.1,4.6,193.3,8.0,2
-8.39,-2.72,-8.05,-4.08,108.34,105.54,-100.84,-0.83,-0.28,2.46,8.05,-0.94,193.37,11.51,4
0.64,-3.01,6.65,8.12,26.95,98.94,-70.74,17.16,2.97,0.35,-1.94,1.49,123.31,12.06,3
-3.3,-6.4,18.62,-1.7,93.9,103.14,-127.3,-4.1,-0.4,-3.2,-11.3,6.7,304.0,13.0,3
-6.39,-6.31,-12.95,-3.53,116.38,95.95,-116.21,-3.88,-0.88,3.71,7.77,-0.76,231.12,13.09,4
2.0,1.3,-9.15,-0.1,84.9,100.0,2.2,6.4,0.4,0.5,1.2,2.1,124.0,5.6,1
1.2,5.3,8.56,23.0,34.7,116.33,-25.0,5.9,2.4,-1.7,-8.0,4.2,67.3,4.0,1
4.9,-2.0,18.08,5.3,74.1,110.35,-24.2,3.7,3.3,-2.2,-9.0,0.9,76.3,7.9,1
-1.99,-8.44,-18.94,-5.27,153.51,92.62,-134.44,-10.18,-0.76,8.55,7.1,-1.92,194.63,21.47,4
2.1,-2.4,26.53,-6.2,43.1,92.23,-74.7,-20.6,-1.4,6.9,17.4,-2.4,115.2,17.7,1
1.28,-4.55,10.8,9.37,28.09,104.18,-52.98,10.76,0.99,-2.28,-9.48,0.62,106.26,10.06,3
0.3,-1.2,4.06,10.4,51.9,100.0,-63.9,2.7,1.5,-1.8,-7.5,5.1,80.6,13.0,1
2.0,1.9,-15.75,-0.8,84.0,96.68,3.4,7.9,0.8,0.3,1.4,0.9,124.8,5.3,1
1.27,-2.29,-10.18,1.82,131.29,100.18,-18.93,2.24,0.58,1.22,4.66,-0.94,117.72,11.99,3
-8.1,-3.96,-10.8,-4.22,114.97,103.02,-107.6,-1.48,-0.47,2.92,8.36,-0.86,211.99,12.24,4
-4.69,-2.61,44.18,3.91,34.57,112.58,-65.58,1.11,1.01,0.55,5.55,2.13,72.61,6.92,4
-0.1,-4.3,-15.53,-5.1,104.8,100.36,40.8,4.9,0.0,-0.1,-2.1,14.7,191.0,7.7,2
0.8,-0.8,14.29,1.9,126.0,114.05,-109.9,2.8,1.5,-3.9,-10.9,2.0,161.9,10.9,2
0.9,-4.3,13.16,9.5,26.0,100.0,-61.8,14.5,2.2,-1.2,-6.5,-3.5,109.3,11.2,3
5.1,-1.5,33.28,5.2,20.1,105.69,54.6,1.2,0.1,0.4,2.2,-9.6,309.0,6.3,1
7.0,-0.4,-9.53,4.6,75.7,95.98,40.8,7.4,0.4,-0.6,-0.8,-0.3,98.4,5.2,2
-4.13,-0.45,13.2,2.33,37.37,102.51,-64.63,-0.31,0.65,0.8,1.98,-0.75,68.82,7.0,4
2.9,-2.8,9.08,3.6,57.8,100.0,37.4,-1.4,4.9,-0.6,-2.2,8.8,134.8,5.7,1
6.5,-7.8,-17.73,2.5,44.9,88.3,36.1,-0.2,-1.6,1.5,2.3,7.9,224.0,7.8,2
1.9,-3.2,-3.29,-2.0,99.3,100.0,-88.9,-1.1,0.0,0.4,-4.6,-2.7,155.8,24.2,2
1.8,0.0,9.47,3.5,81.0,102.01,-72.4,-5.6,1.9,-4.4,-18.1,-0.2,104.1,15.6,3
-2.0,-6.2,-4.75,9.8,107.5,100.0,-154.5,-10.8,0.4,3.2,5.1,4.4,347.8,15.7,3
1.3,-0.6,-18.21,-10.1,70.0,105.16,-39.3,0.1,-1.0,2.0,6.9,-3.7,107.2,9.1,3
-0.6,-10.0,-6.24,5.2,42.2,96.3,-36.6,4.0,3.0,0.0,-2.2,1.7,71.5,6.7,1
2.3,-3.3,20.41,7.1,25.3,112.26,-43.3,13.5,2.3,-3.5,-10.9,4.1,99.0,7.7,2
4.6,-0.6,3.7,3.4,78.7,103.87,-28.9,1.3,1.1,-0.9,-6.4,-0.8,81.1,8.9,2
3.2,1.2,-12.73,-0.1,80.3,98.61,-38.4,0.1,0.6,1.7,4.5,-4.7,97.9,9.6,2
-4.97,-2.36,23.65,4.71,36.1,107.44,-67.15,5.41,1.55,0.71,3.72,1.05,72.58,6.97,4
-6.13,-2.3,5.67,2.03,60.09,104.78,-78.49,4.62,1.1,1.34,4.39,-0.06,111.5,8.46,4
1.38,-4.45,8.94,9.12,29.01,105.57,-51.06,9.77,0.66,-2.45,-9.9,2.91,107.24,9.76,3
-4.4,-0.93,12.93,3.08,37.26,103.06,-65.54,1.87,0.97,0.8,2.17,-0.43,69.83,7.0,4
-4.59,-1.27,12.72,3.64,37.17,103.46,-66.21,3.46,1.21,0.8,2.31,-0.19,70.56,7.0,4
-4.09,-0.9,27.4,2.2,36.24,106.41,-64.04,-2.1,0.45,0.69,3.37,0.18,69.4,6.96,4
-3.99,-8.11,-17.82,-2.4,124.44,87.45,-128.57,-8.05,-0.95,4.6,9.49,-2.2,244.89,14.4,4
-4.8,1.4,1.39,10.7,53.7,101.1,-65.3,5.3,1.8,1.6,5.9,4.8,73.4,9.8,1
-0.7,-4.4,-15.44,6.9,87.8,108.42,-8.7,5.4,0.3,1.1,3.6,6.4,135.3,9.2,2
2.3,0.9,-2.83,-2.8,82.9,107.03,4.1,5.4,0.7,0.6,1.5,3.4,123.5,5.8,1
-5.0,-2.0,12.3,4.8,37.0,104.31,-67.6,6.8,1.7,0.8,2.6,0.3,72.1,7.0,4
8.3,-1.7,-8.55,-0.9,39.8,100.0,33.4,2.2,-0.1,-0.4,-3.6,2.9,211.4,6.9,1
7.0,-2.4,-8.35,10.3,61.7,114.1,20.1,5.3,0.3,0.4,1.4,8.2,247.2,4.8,1
2.12,0.03,13.85,3.63,80.05,102.95,-70.24,-5.06,1.39,-4.75,-17.97,0.34,102.1,14.93,3
1.9,-0.8,24.41,-0.2,6.1,74.62,-54.0,-2.2,0.5,5.4,10.4,-0.8,118.9,14.2,1
-3.6,0.5,13.76,0.8,37.6,101.39,-62.8,-4.7,0.0,0.8,1.6,-1.4,66.8,7.0,4
5.0,-1.0,21.39,0.4,22.3,109.55,51.8,4.0,-0.6,0.5,-6.8,27.4,322.9,6.1,1
0.3,-0.9,-0.15,1.1,17.1,97.38,-73.5,15.3,1.7,2.7,6.5,2.6,130.6,12.2,2
-1.7,-6.7,27.02,-0.7,39.8,89.47,-54.3,-4.2,2.2,3.3,-2.9,0.3,61.1,15.5,1
8.6,-6.0,-12.82,6.0,66.2,105.12,26.7,2.6,0.9,0.8,1.5,6.1,252.1,5.3,2
-0.29,-2.78,-1.98,2.23,93.48,101.51,-17.24,1.44,0.43,0.49,0.86,4.85,137.81,10.11,3
-0.5,-3.0,2.4,4.6,98.4,103.03,-16.6,1.5,0.5,-0.3,-1.9,6.8,145.5,10.0,2
-8.46,-3.12,-10.8,-4.32,116.14,104.81,-105.91,-1.18,-0.26,2.71,9.09,-1.26,204.95,12.1,4
-1.73,-4.27,6.62,-4.38,111.94,100.73,-125.68,-3.54,-0.4,-0.7,-3.99,0.96,251.49,14.11,3
-0.8,-2.2,-14.22,0.5,93.4,103.54,-16.6,4.6,0.9,0.5,1.6,2.1,137.4,9.8,2
-0.1,-4.5,-20.85,-0.7,53.6,113.34,-44.0,0.1,-1.4,2.5,7.0,-2.8,112.2,8.1,3
-1.4,0.4,-15.78,3.9,62.6,100.14,5.2,0.4,0.7,0.6,0.2,1.5,148.0,9.0,1
-2.8,-7.8,-25.92,10.4,80.1,89.4,-11.6,5.8,-0.3,1.3,6.3,1.6,176.6,7.8,2
-2.6,-0.5,7.39,4.3,39.8,98.86,-45.2,3.4,0.8,0.5,8.2,2.1,68.3,6.9,1
-4.5,-10.8,-1.18,-1.7,86.2,108.73,-10.0,5.1,0.9,-1.1,-4.9,7.2,167.7,4.8,1
2.7,-5.2,-2.11,19.5,75.5,113.15,-59.6,5.4,5.4,-2.5,-13.7,-3.1,76.6,6.5,1
-0.4,-0.2,-12.95,1.2,105.5,100.51,43.2,7.4,-0.2,-0.1,1.3,7.9,163.0,7.7,2
3.58,-1.8,-6.29,1.63,78.17,97.04,-48.96,3.63,1.74,-0.79,-3.92,-0.84,86.18,9.58,2
-4.99,-2.16,17.4,4.76,36.59,105.72,-67.4,6.18,1.63,0.76,3.1,0.64,72.32,6.99,4
0.47,-1.8,4.33,-0.81,131.6,105.48,-111.26,-0.67,0.62,-2.72,-8.88,-2.36,170.81,12.8,3
5.4,0.5,16.34,37.8,22.7,94.97,59.3,7.1,2.9,0.2,5.9,28.7,324.9,5.7,1
2.3,-4.3,2.9,2.5,99.2,104.41,-85.5,-1.2,-0.1,-3.5,-11.1,-0.7,147.5,22.1,2
-2.1,-12.2,-18.34,-1.8,119.9,78.23,-137.8,-9.9,-1.9,5.7,6.3,-0.5,279.1,15.2,4
1.2,1.7,19.36,16.7,40.6,95.51,-46.8,8.7,2.3,-3.2,-13.3,0.2,54.2,12.0,1
-6.14,-3.92,-16.7,-3.12,127.81,97.46,-118.06,-5.73,-0.02,3.43,12.36,-3.65,209.98,13.46,4
2.63,-0.04,21.9,3.59,81.98,105.04,-68.93,-3.65,0.33,-5.32,-17.12,1.23,103.12,13.43,3
-4.9,-3.2,49.92,4.5,34.0,114.69,-66.1,2.2,1.2,0.5,6.3,2.8,73.7,6.9,4
0.63,-0.82,-17.04,-5.12,77.9,104.09,-31.78,1.46,-0.27,1.52,5.22,-1.51,118.08,9.42,3
-5.49,-4.89,-17.41,-2.87,128.01,94.71,-121.31,-6.6,-0.21,3.74,12.01,-3.53,217.94,13.77,4
-0.33,-1.14,-15.35,2.12,89.38,102.54,-20.85,3.45,0.79,0.83,2.77,1.67,133.9,9.88,3
-1.2,-3.8,-10.57,1.9,119.9,78.16,-133.4,-0.7,0.2,1.1,-1.4,-1.4,267.5,14.9,2
-7.98,-2.45,-6.19,-3.66,102.29,105.19,-97.59,-1.16,-0.25,2.32,7.5,-0.98,182.54,11.13,4
-4.9,0.2,1.09,11.7,86.8,105.51,0.3,3.7,0.9,-1.4,-7.7,8.8,166.4,5.4,1
1.21,-4.51,11.22,9.4,27.72,103.44,-54.54,11.42,1.21,-2.09,-8.95,-0.1,106.79,10.26,3
-0.6,-3.2,1.14,4.6,98.0,100.81,-13.0,1.7,0.7,0.2,-0.3,6.5,143.7,10.3,3
-5.6,-5.0,17.63,10.4,70.2,95.13,6.3,11.1,2.7,0.4,1.6,6.8,168.5,6.7,1
2.6,-2.6,9.87,3.4,98.6,109.14,-85.5,-0.5,-0.3,-5.2,-14.6,0.7,139.7,19.6,2
-1.2,-2.6,-4.91,-4.0,60.9,101.0,0.1,-3.5,1.3,0.2,-0.4,7.4,145.3,8.9,1
-2.2,-2.0,5.15,17.4,51.3,111.76,-68.3,8.1,1.8,-4.2,-10.8,9.6,94.5,9.8,1
1.01,-4.38,12.46,9.46,26.62,101.24,-59.19,13.39,1.84,-1.52,-7.38,-2.28,108.4,10.86,3
-2.04,-5.55,-19.2,-7.83,177.58,103.54,-131.33,-10.2,0.09,10.53,7.72,-2.96,132.3,25.91,4
8.3,-1.7,-2.87,5.1,37.2,104.7,38.2,2.1,1.9,-0.4,-2.6,2.8,209.5,6.4,1
-4.8,10.7,2.71,-8.6,86.9,100.0,-22.7,3.2,0.8,-1.1,-6.6,2.8,161.7,6.3,1
0.72,-2.56,-7.76,1.11,65.42,108.45,-56.26,-2.36,0.02,-0.48,-3.83,-1.68,108.7,11.34,3
-6.97,-1.77,-1.57,-2.63,87.3,104.31,-89.53,-1.98,-0.19,1.96,6.13,-1.08,155.72,10.17,4
-4.5,-4.4,-26.64,-17.7,177.4,109.06,-130.4,-10.0,-0.3,12.8,25.3,-4.0,132.3,23.3,4
2.0,3.0,2.18,14.3,9.3,105.85,-32.5,12.4,3.6,-1.4,-2.9,4.8,107.6,6.3,1
1.76,-0.08,8.9,3.42,80.49,102.22,-71.87,-5.49,1.84,-4.27,-17.63,-0.25,104.25,15.46,3
2.4,-1.8,-12.5,1.5,82.4,88.31,-1.9,5.8,0.7,0.2,0.4,3.0,129.4,4.9,1
-5.75,-4.15,-14.1,-6.0,142.89,104.84,-116.38,-4.87,-0.12,6.18,8.2,-1.83,171.78,18.22,4
1.09,-0.75,2.45,-1.1,102.69,100.3,-93.88,-4.47,0.94,-1.64,-8.65,-2.5,140.21,15.52,3
2.0,0.2,2.7,2.2,78.3,110.5,2.8,4.0,1.0,0.3,-0.5,3.6,121.8,5.7,1
8.2,-0.9,-6.74,4.0,64.6,100.0,48.9,-0.4,0.6,1.1,-0.4,0.0,262.8,7.2,2
1.11,-1.88,8.22,3.54,20.44,103.44,-61.2,14.57,1.94,0.18,-0.58,3.21,117.73,10.37,2
-0.69,-1.26,-14.72,4.81,93.64,101.97,-16.8,4.18,1.18,0.58,1.87,2.85,139.77,10.05,3
-1.0,2.7,20.49,4.1,37.8,100.0,-54.6,0.6,1.3,0.0,-0.9,0.2,58.0,6.9,1
-2.9,-11.1,-17.33,-2.12,119.24,81.54,-133.77,-8.78,-1.71,5.33,6.57,-0.55,270.15,14.81,4
1.33,-0.5,4.78,0.43,95.5,100.87,-86.76,-4.85,1.26,-2.56,-11.79,-1.74,128.24,15.54,3
-1.96,-7.56,-19.08,-6.09,161.42,96.01,-133.65,-10.25,-0.49,9.22,7.29,-2.26,174.74,22.94,4
-0.3,-3.6,-14.64,19.5,104.4,90.26,-164.7,-3.7,0.6,-2.2,-6.2,2.6,278.4,13.7,2
-0.04,-1.05,-15.87,-0.11,85.84,103.02,-24.22,2.84,0.46,1.05,3.53,0.69,129.02,9.74,3
-4.03,0.21,11.79,0.36,43.98,101.76,-66.23,-4.35,-0.02,0.95,2.18,-1.36,78.22,7.41,4
-0.65,-2.72,-2.83,4.85,97.21,101.06,-13.66,2.38,0.85,0.28,0.18,5.66,143.14,10.25,3
1.0,-1.7,-13.57,2.7,105.2,100.0,45.2,0.5,0.7,1.0,2.3,12.1,176.1,8.5,1
4.1,-9.2,-7.55,9.1,42.3,107.27,0.1,2.8,1.0,-0.1,-4.7,8.1,192.0,7.4,2
8.4,-1.8,1.52,-0.1,56.9,110.72,59.4,-0.1,0.7,-1.0,-3.8,3.7,249.1,5.9,2
1.7,0.7,-18.42,-3.2,81.3,95.34,1.3,6.4,1.1,0.1,0.2,1.0,127.1,5.0,1
7.77,-6.72,-14.77,4.61,57.74,98.44,30.43,1.49,-0.09,1.08,1.82,6.82,240.94,6.29,2
-2.22,-6.49,-1.64,7.36,106.5,100.44,-149.56,-10.46,0.25,2.34,1.46,6.31,343.33,15.46,3
-4.93,-2.79,37.14,4.6,35.02,111.16,-66.61,3.76,1.37,0.6,5.04,1.95,73.16,6.93,4
1.5,-2.4,-9.7,1.4,135.3,100.0,-19.3,2.0,0.5,1.3,5.0,-1.4,115.1,12.2,3
-0.8,-4.0,-1.01,11.7,16.7,97.0,-77.7,12.2,-0.1,3.8,13.0,2.6,128.3,11.3,2
-1.4,2.1,-23.06,1.4,63.0,100.0,4.8,3.2,0.6,0.7,3.4,6.8,151.5,8.8,2
-3.61,0.47,14.1,0.83,37.57,101.51,-62.83,-4.64,0.01,0.8,1.64,-1.36,66.86,7.0,4
-0.2,-0.3,-10.28,-9.9,95.8,96.24,-92.8,-5.1,0.8,5.7,14.0,-10.1,178.1,24.1,2
-8.46,-3.12,-10.79,-4.32,116.13,104.81,-105.9,-1.17,-0.26,2.71,9.08,-1.25,204.95,12.1,4
-3.61,-8.95,-17.93,-2.28,123.5,85.55,-130.47,-8.43,-1.15,4.83,8.84,-1.85,251.93,14.57,4
-3.14,-9.95,-18.05,-2.13,122.4,83.31,-132.72,-8.88,-1.38,5.1,8.06,-1.43,260.25,14.76,4
-1.9,-5.6,-19.39,-7.9,178.9,103.49,-131.9,-10.4,0.1,10.7,7.7,-3.0,130.8,26.2,4
0.9,-0.4,-5.01,2.4,104.9,101.22,54.5,-0.9,0.1,0.1,-3.6,23.8,194.8,8.3,1
0.13,-2.92,-2.62,3.49,110.94,100.53,-15.19,1.8,0.63,0.58,1.54,3.76,133.78,10.96,3
0.2,-6.3,71.33,4.3,67.8,117.65,-167.2,-15.4,0.9,-3.6,-9.0,0.2,250.5,8.4,2
2.0,-4.7,-21.72,0.4,81.9,92.57,-3.2,3.8,0.8,0.0,-1.3,1.2,128.2,4.8,1
7.9,-2.1,1.07,4.8,35.5,108.16,40.8,2.4,0.7,-0.4,-1.8,0.1,201.7,6.0,1
-3.2,1.9,11.12,4.3,15.2,102.33,-82.8,17.9,-1.9,3.4,13.1,3.5,129.1,9.5,2
-3.4,-4.3,-0.26,7.4,55.7,96.29,-68.9,3.1,1.7,1.4,3.6,3.3,75.4,10.0,1
-0.1,3.1,9.93,10.3,10.2,82.54,-49.7,11.2,1.2,-3.8,-14.2,4.8,115.2,10.3,1
-1.3,-1.4,9.18,2.4,51.3,100.0,-62.1,0.2,1.6,-1.1,-5.7,3.5,78.9,8.9,1
2.8,0.1,23.24,3.9,78.0,104.96,-65.6,-3.9,0.3,-5.5,-17.7,1.5,97.8,13.5,3
0.34,-4.41,-5.97,3.76,41.52,107.5,-51.79,6.4,0.18,0.88,1.09,-3.11,110.93,9.46,3
0.1,-1.8,-7.32,-7.5,132.9,97.92,-123.8,-2.9,-0.4,2.2,4.5,-5.7,190.5,15.4,3
-3.75,-8.65,-17.89,-2.32,123.84,86.24,-129.78,-8.3,-1.08,4.75,9.07,-1.97,249.38,14.51,4
