PC_CA-avg_3y,REER-pch_3y,X_GS_share_M-pch_5y,FSL-pch,GD-pc_gdp,HPI-pch,NIIP-pc_gdp,ULC-pch_3y,ACT-pch_3y,LTU-pch_3y,YUR-pch_3y,PSCF-pc_gdp,PSD-pc_gdp,UR-avg_3y,label
-3.3,3.4,-11.62,-7.7,84.2,88.7,-17.8,3.9,1.0,0.2,0.8,6.6,170.2,7.8,2
0.2,-6.3,71.33,4.3,67.8,117.65,-167.2,-15.4,0.9,-3.6,-9.0,0.2,250.5,8.4,2
-2.16,-12.11,-18.26,-1.83,119.85,78.49,-137.48,-9.81,-1.89,5.67,6.32,-0.5,278.4,15.17,4
-4.5,-4.4,-26.64,-17.7,177.4,109.06,-130.4,-10.0,-0.3,12.8,25.3,-4.0,132.3,23.3,4
2.18,-2.2,16.62,6.49,54.65,105.74,-57.11,2.09,0.3,-4.25,-14.58,2.22,101.01,11.53,3
1.2,1.7,19.36,16.7,40.6,95.51,-46.8,8.7,2.3,-3.2,-13.3,0.2,54.2,12.0,1
-0.8,-2.2,-14.22,0.5,93.4,103.54,-16.6,4.6,0.9,0.5,1.6,2.1,137.4,9.8,2
-4.93,-2.02,12.05,4.44,39.78,104.16,-69.06,6.64,1.68,0.71,2.37,0.27,73.02,7.33,4
1.07,-1.23,-18.64,-8.58,67.35,106.48,-40.06,0.1,-1.06,2.08,6.92,-3.55,108.01,8.94,3
-0.3,-3.5,27.95,6.5,50.6,104.11,-61.2,4.1,1.7,-2.3,-9.1,2.9,76.5,6.2,1
2.3,-7.2,-9.31,0.4,76.1,100.0,-67.9,1.1,4.9,-1.9,-10.9,-2.5,83.2,8.2,1
1.47,-4.64,9.32,9.26,29.23,106.35,-48.63,8.87,0.38,-2.79,-10.9,2.98,105.14,9.48,3
-4.38,-0.9,12.94,3.03,37.27,103.02,-65.48,1.72,0.95,0.8,2.16,-0.45,69.76,7.0,4
-3.21,-10.68,-16.95,-2.25,118.99,82.79,-132.24,-8.35,-1.64,5.19,6.68,-0.57,266.75,14.66,4
-8.27,-3.73,-10.58,-4.29,114.83,103.72,-106.76,-1.24,-0.43,2.84,8.42,-0.87,210.11,12.16,4
-3.11,-10.03,-18.06,-2.12,122.31,83.12,-132.9,-8.92,-1.4,5.12,7.99,-1.4,260.94,14.78,4
4.6,-0.6,3.7,3.4,78.7,103.87,-28.9,1.3,1.1,-0.9,-6.4,-0.8,81.1,8.9,2
-1.2,-2.6,-4.91,-4.0,60.9,101.0,0.1,-3.5,1.3,0.2,-0.4,7.4,145.3,8.9,1
0.72,-2.52,5.98,7.46,32.45,99.09,-72.22,15.3,2.98,0.1,-2.88,2.05,123.47,12.54,3
0.72,-2.03,-11.33,2.82,121.67,100.61,-18.05,2.81,0.77,1.03,3.85,0.15,124.01,11.49,3
0.8,-0.8,-23.17,-5.8,78.5,89.7,-92.2,7.7,2.5,0.8,1.8,-6.0,101.1,11.1,2
-4.26,-0.69,13.07,2.7,37.32,102.78,-65.08,0.76,0.81,0.8,2.07,-0.59,69.32,7.0,4
1.69,-0.3,8.63,3.0,85.89,101.81,-76.93,-5.04,1.71,-4.02,-16.92,-0.37,111.44,15.48,3
-2.02,-3.5,-10.66,-4.5,128.53,90.16,-124.6,-5.32,-1.0,4.12,9.0,-1.33,221.33,15.05,4
-5.59,-0.84,4.68,-1.23,67.05,103.12,-78.64,-3.09,-0.12,1.49,4.28,-1.21,119.49,8.88,4
-3.64,0.43,13.72,0.91,37.58,101.47,-62.93,-4.38,0.05,0.8,1.63,-1.35,66.95,7.0,4
-0.8,-1.2,-0.62,0.0,68.4,94.14,26.9,9.8,5.9,-0.3,-0.5,2.3,153.0,6.2,1
5.9,-4.9,-9.35,3.1,79.8,90.51,23.3,5.6,1.4,-1.1,-1.9,2.0,102.4,6.8,1
-2.09,-11.24,-17.49,-2.1,120.86,79.55,-136.34,-9.39,-1.8,5.53,6.6,-0.59,272.7,15.18,4
-0.6,-3.2,1.14,4.6,98.0,100.81,-13.0,1.7,0.7,0.2,-0.3,6.5,143.7,10.3,3
-4.8,1.4,1.39,10.7,53.7,101.1,-65.3,5.3,1.8,1.6,5.9,4.8,73.4,9.8,1
2.1,-2.4,26.53,-6.2,43.1,92.23,-74.7,-20.6,-1.4,6.9,17.4,-2.4,115.2,17.7,1
0.8,-0.8,14.29,1.9,126.0,114.05,-109.9,2.8,1.5,-3.9,-10.9,2.0,161.9,10.9,2
0.9,-0.4,-5.01,2.4,104.9,101.22,54.5,-0.9,0.1,0.1,-3.6,23.8,194.8,8.3,1
-2.2,-1.0,20.12,1.2,39.2,98.2,-57.3,6.7,1.6,-0.1,0.1,-2.3,62.1,6.9,2
0.4,-3.6,6.93,10.9,9.8,76.91,-50.7,0.1,0.8,1.8,-6.5,7.6,117.2,13.0,1
-5.8,-7.11,-13.68,-3.29,116.86,93.53,-119.17,-4.7,-1.02,3.99,7.57,-0.72,237.69,13.38,4
-4.8,-1.59,-8.85,-5.03,124.4,98.98,-113.57,-2.44,-0.54,3.19,9.36,-1.31,202.96,13.72,4
-1.2,-3.8,-10.57,1.9,119.9,78.16,-133.4,-0.7,0.2,1.1,-1.4,-1.4,267.5,14.9,2
-0.3,-3.6,-14.64,19.5,104.4,90.26,-164.7,-3.7,0.6,-2.2,-6.2,2.6,278.4,13.7,2
1.0,-1.7,-13.57,2.7,105.2,100.0,45.2,0.5,0.7,1.0,2.3,12.1,176.1,8.5,1
-1.1,-4.0,-9.78,-10.4,178.5,98.35,-137.6,-3.3,0.7,-1.5,-11.0,-2.1,125.1,25.0,4
2.0,0.2,2.7,2.2,78.3,110.5,2.8,4.0,1.0,0.3,-0.5,3.6,121.8,5.7,1
2.19,-3.16,19.24,6.76,24.83,111.42,-45.01,13.6,2.27,-3.15,-9.91,4.01,100.79,7.96,2
-3.71,-8.72,-17.9,-2.31,123.76,86.06,-129.96,-8.33,-1.09,4.77,9.01,-1.94,250.02,14.52,4
-0.1,3.1,9.93,10.3,10.2,82.54,-49.7,11.2,1.2,-3.8,-14.2,4.8,115.2,10.3,1
-2.9,-7.4,7.99,-0.2,103.4,101.8,-134.3,-9.4,-0.2,-0.3,-9.8,12.2,329.5,14.7,3
-1.7,2.7,-27.3,9.3,59.8,100.2,-3.1,7.6,0.5,0.2,0.4,1.7,148.8,8.2,2
-0.3,4.8,20.52,13.0,10.6,93.21,-46.7,14.8,0.5,-3.8,-7.4,5.6,115.4,8.7,1
-2.1,-5.3,-17.51,0.6,86.3,106.97,-88.9,-5.0,1.2,6.7,15.2,-11.2,188.5,22.0,3
-2.42,-11.77,-17.94,-1.93,119.64,79.54,-136.21,-9.46,-1.82,5.55,6.41,-0.52,275.56,15.04,4
-3.23,-6.57,16.84,-1.45,95.49,102.92,-128.47,-4.99,-0.37,-2.71,-11.05,7.62,308.27,13.28,3
2.9,-2.8,9.08,3.6,57.8,100.0,37.4,-1.4,4.9,-0.6,-2.2,8.8,134.8,5.7,1
0.39,-3.15,-19.93,-3.96,59.29,110.5,-42.37,0.1,-1.26,2.33,6.97,-3.11,110.47,8.45,3
-2.8,-7.8,-25.92,10.4,80.1,89.4,-11.6,5.8,-0.3,1.3,6.3,1.6,176.6,7.8,2
4.9,-2.0,18.08,5.3,74.1,110.35,-24.2,3.7,3.3,-2.2,-9.0,0.9,76.3,7.9,1
-6.71,-2.45,2.28,0.6,71.92,105.03,-84.07,3.51,0.8,1.61,5.31,-0.24,131.7,9.21,4
9.5,0.7,-11.35,8.0,67.8,96.72,48.0,3.7,0.9,1.3,2.7,4.3,267.2,6.8,2
2.4,-1.8,-12.5,1.5,82.4,88.31,-1.9,5.8,0.7,0.2,0.4,3.0,129.4,4.9,1
7.6,-2.3,-2.96,6.7,61.9,104.39,61.4,-0.3,0.3,0.0,-2.4,3.9,259.3,6.8,2
0.6,-4.59,-7.56,3.69,42.94,110.38,-45.71,3.83,-0.65,0.13,-0.98,-0.26,108.82,8.67,3
-0.9,-1.1,-5.63,-1.2,46.5,123.73,-39.8,7.7,-1.5,1.7,5.3,0.5,112.9,7.1,2
-8.15,-3.22,-11.57,-4.17,117.66,103.85,-107.49,-1.77,-0.23,2.8,9.51,-1.57,205.61,12.28,4
-0.1,-4.3,-15.53,-5.1,104.8,100.36,40.8,4.9,0.0,-0.1,-2.1,14.7,191.0,7.7,2
-0.4,-0.65,-14.0,1.14,84.01,102.55,-84.12,-6.58,1.98,0.56,3.38,-0.12,114.76,16.58,3
-0.52,-2.55,-20.07,-0.02,69.97,107.72,-66.53,-3.53,0.39,2.08,7.68,-1.38,114.83,12.68,3
1.68,-0.27,9.09,3.93,75.74,101.69,-72.38,-3.33,2.02,-3.91,-16.45,0.04,106.2,15.27,3
-3.4,-4.3,-0.26,7.4,55.7,96.29,-68.9,3.1,1.7,1.4,3.6,3.3,75.4,10.0,1
2.0,3.0,2.18,14.3,9.3,105.85,-32.5,12.4,3.6,-1.4,-2.9,4.8,107.6,6.3,1
1.7,0.7,-18.42,-3.2,81.3,95.34,1.3,6.4,1.1,0.1,0.2,1.0,127.1,5.0,1
-2.9,-7.6,12.18,8.6,67.7,95.5,19.6,8.6,4.5,0.1,-0.7,0.1,162.4,6.5,2
-0.4,-0.2,-12.95,1.2,105.5,100.51,43.2,7.4,-0.2,-0.1,1.3,7.9,163.0,7.7,2
-4.5,-10.8,-1.18,-1.7,86.2,108.73,-10.0,5.1,0.9,-1.1,-4.9,7.2,167.7,4.8,1
-3.3,-6.4,18.62,-1.7,93.9,103.14,-127.3,-4.1,-0.4,-3.2,-11.3,6.7,304.0,13.0,3
-6.04,-1.15,2.63,-1.69,73.71,103.51,-82.22,-2.73,-0.14,1.65,4.89,-1.16,131.4,9.3,4
7.0,-0.4,-9.53,4.6,75.7,95.98,40.8,7.4,0.4,-0.6,-0.8,-0.3,98.4,5.2,2
2.3,-3.3,20.41,7.1,25.3,112.26,-43.3,13.5,2.3,-3.5,-10.9,4.1,99.0,7.7,2
1.8,0.0,9.47,3.5,81.0,102.01,-72.4,-5.6,1.9,-4.4,-18.1,-0.2,104.1,15.6,3
-2.0,2.5,13.52,13.2,36.7,100.0,-64.1,17.2,1.3,-3.3,-12.2,-0.5,80.4,10.9,1
0.0,-8.2,-2.16,8.1,40.0,100.0,-32.9,0.1,2.4,-0.6,-6.9,0.3,68.1,6.1,1
2.8,0.1,23.24,3.9,78.0,104.96,-65.6,-3.9,0.3,-5.5,-17.7,1.5,97.8,13.5,3
6.5,-7.8,-17.73,2.5,44.9,88.3,36.1,-0.2,-1.6,1.5,2.3,7.9,224.0,7.8,2
6.6,-1.8,-12.99,-6.4,78.7,93.91,34.7,6.1,0.9,-1.0,-2.0,2.0,103.0,5.5,2
-3.2,-1.7,5.89,5.7,39.4,98.21,-66.7,8.0,1.0,-3.1,-13.0,-0.6,91.0,14.4,1
0.3,-1.2,4.06,10.4,51.9,100.0,-63.9,2.7,1.5,-1.8,-7.5,5.1,80.6,13.0,1
-5.65,-0.88,4.41,-1.29,67.93,103.17,-79.11,-3.04,-0.12,1.51,4.36,-1.2,121.06,8.93,4
-2.06,-7.91,-14.55,-3.13,124.15,84.11,-131.29,-7.64,-1.46,4.92,7.63,-0.91,250.62,15.13,4
-3.21,-6.62,16.26,-1.37,96.01,102.84,-128.85,-5.28,-0.36,-2.56,-10.97,7.92,309.66,13.38,3
-2.1,-2.01,3.65,-9.08,136.85,98.08,-118.58,-2.05,0.64,-2.57,-5.85,-1.11,103.53,18.67,4
0.34,-2.59,-3.63,-1.11,120.86,100.59,-111.76,-1.36,0.44,-0.01,-2.82,-1.5,165.65,14.93,3
-3.22,-2.51,5.85,-4.27,107.94,100.47,-104.85,2.82,1.29,-1.6,-3.21,-0.36,95.54,15.31,4
-3.12,-0.31,10.5,-2.38,69.55,100.32,-80.76,-3.85,0.21,-0.28,-0.8,-1.31,78.63,10.76,4
0.6,-2.8,5.59,7.9,27.1,98.77,-72.2,17.6,3.1,0.6,-1.2,2.3,125.6,12.2,3
-0.5,-3.0,2.4,4.6,98.4,103.03,-16.6,1.5,0.5,-0.3,-1.9,6.8,145.5,10.0,2
5.1,-3.7,-9.63,12.6,45.2,89.38,-2.3,7.5,1.6,-0.1,0.1,4.6,193.3,8.0,2
-8.34,-2.88,-7.21,-3.37,104.97,105.71,-99.65,0.39,-0.06,2.38,7.87,-0.75,188.11,11.3,4
-3.2,1.9,11.12,4.3,15.2,102.33,-82.8,17.9,-1.9,3.4,13.1,3.5,129.1,9.5,2
-1.9,-5.6,-19.39,-7.9,178.9,103.49,-131.9,-10.4,0.1,10.7,7.7,-3.0,130.8,26.2,4
0.08,-2.21,-6.95,-0.75,113.23,101.03,-106.49,-2.51,0.77,0.35,-0.47,-1.2,155.42,15.33,3
-0.6,4.8,10.22,4.7,40.2,107.31,-59.0,16.7,2.3,-1.7,-5.9,2.3,80.5,10.1,1
-8.8,-3.0,-9.92,-4.5,114.4,105.9,-104.1,-0.5,-0.3,2.6,8.6,-0.9,204.2,11.9,4
5.0,-1.0,21.39,0.4,22.3,109.55,51.8,4.0,-0.6,0.5,-6.8,27.4,322.9,6.1,1
0.7,-3.1,0.87,-1.6,131.2,100.0,-118.9,0.2,0.0,-0.5,-6.0,-1.9,179.5,14.4,3
8.3,-1.7,-2.87,5.1,37.2,104.7,38.2,2.1,1.9,-0.4,-2.6,2.8,209.5,6.4,1
1.5,-2.4,-9.7,1.4,135.3,100.0,-19.3,2.0,0.5,1.3,5.0,-1.4,115.1,12.2,3
-0.89,-0.84,-19.39,0.58,84.34,102.79,-86.3,-6.72,1.96,1.71,8.28,-0.13,117.14,16.7,3
-0.7,2.1,-4.08,1.4,54.7,93.4,-62.2,2.6,1.2,0.8,-0.2,5.0,75.2,14.0,1
-6.35,-3.85,-16.17,-3.23,126.76,98.12,-116.97,-5.32,-0.05,3.36,12.07,-3.44,209.53,13.34,4
1.38,-2.44,-9.1,1.58,133.24,100.04,-18.95,1.98,0.51,1.24,4.71,-0.96,116.68,12.09,3
3.1,0.0,10.82,-7.7,72.9,123.65,-54.9,9.1,4.2,-2.0,-9.7,0.7,70.0,5.4,1
6.1,-2.4,-5.55,15.1,22.0,88.53,58.4,5.9,0.7,0.4,1.5,25.9,303.7,4.8,1
5.6,10.3,-19.51,5.6,37.7,78.8,-15.5,4.0,1.4,0.4,-1.3,2.4,191.0,8.1,2
6.4,-9.0,-16.75,3.2,81.1,92.39,28.7,2.5,0.9,-1.1,-3.1,1.4,101.9,6.1,1
-5.9,-4.0,-17.3,-3.0,129.0,96.71,-119.3,-6.2,0.0,3.5,12.7,-3.9,210.5,13.6,4
5.8,3.2,-12.21,1.8,37.3,78.22,-8.3,4.1,0.6,0.7,2.6,7.0,189.1,8.2,2
0.3,-0.9,-0.15,1.1,17.1,97.38,-73.5,15.3,1.7,2.7,6.5,2.6,130.6,12.2,2
-1.5,-3.0,-0.36,-13.0,176.2,96.77,-140.7,-1.0,0.9,-3.9,-8.8,-1.0,118.1,23.3,4
2.04,-0.75,9.88,2.57,63.83,101.74,-39.59,3.33,1.29,-0.6,-3.95,-1.36,73.95,8.15,2
-5.1,-0.51,6.94,-0.73,59.72,102.69,-74.69,-3.49,-0.09,1.32,3.62,-1.26,106.37,8.41,4
0.78,-3.18,6.36,8.18,27.54,100.33,-67.36,15.81,2.54,-0.1,-3.19,2.44,121.4,11.64,3
-2.8,6.0,-21.25,-3.6,83.2,88.09,-28.1,3.0,0.4,0.8,2.1,1.5,176.1,7.9,2
-4.9,0.2,1.09,11.7,86.8,105.51,0.3,3.7,0.9,-1.4,-7.7,8.8,166.4,5.4,1
1.3,-0.6,-18.21,-10.1,70.0,105.16,-39.3,0.1,-1.0,2.0,6.9,-3.7,107.2,9.1,3
7.7,-1.2,-15.87,7.3,44.3,93.87,43.3,2.3,-1.2,-0.1,-2.1,-0.3,214.0,7.4,1
-1.69,-4.04,-16.57,2.18,89.01,105.34,-65.78,-2.03,1.23,4.74,10.91,-6.66,173.67,18.25,3
1.34,-0.56,-16.15,-9.09,70.82,104.93,-41.76,-0.32,-0.78,1.52,5.04,-3.44,106.97,9.58,3
-1.8,0.2,-32.46,-11.6,56.2,101.77,3.0,9.3,0.7,-0.3,-1.5,2.8,147.0,7.9,2
-2.06,-7.59,-14.27,-3.23,124.47,84.56,-130.8,-7.47,-1.42,4.86,7.73,-0.94,248.47,15.12,4
-7.74,-4.45,-11.25,-4.07,115.27,101.54,-109.41,-1.98,-0.55,3.09,8.24,-0.84,216.01,12.42,4
-0.57,-1.22,-14.94,3.87,92.15,102.17,-18.22,3.93,1.05,0.67,2.18,2.44,137.71,9.99,3
-3.6,0.5,13.76,0.8,37.6,101.39,-62.8,-4.7,0.0,0.8,1.6,-1.4,66.8,7.0,4
-8.69,-3.04,-10.2,-4.44,114.95,105.55,-104.67,-0.72,-0.29,2.63,8.76,-1.01,204.44,11.96,4
-4.3,3.4,-2.78,0.6,43.5,99.72,-63.9,5.4,-0.1,2.6,14.4,2.9,69.5,13.4,1
0.8,-0.8,-0.07,-1.05,107.79,104.71,-103.11,4.68,1.88,-2.1,-6.03,-1.07,138.59,10.98,2
5.4,0.5,16.34,37.8,22.7,94.97,59.3,7.1,2.9,0.2,5.9,28.7,324.9,5.7,1
-2.2,-2.0,5.15,17.4,51.3,111.76,-68.3,8.1,1.8,-4.2,-10.8,9.6,94.5,9.8,1
-0.8,-4.0,-1.01,11.7,16.7,97.0,-77.7,12.2,-0.1,3.8,13.0,2.6,128.3,11.3,2
8.2,-0.9,-6.74,4.0,64.6,100.0,48.9,-0.4,0.6,1.1,-0.4,0.0,262.8,7.2,2
-1.7,-6.7,27.02,-0.7,39.8,89.47,-54.3,-4.2,2.2,3.3,-2.9,0.3,61.1,15.5,1
1.52,-0.34,-6.25,-4.23,74.75,103.8,-53.6,-2.36,0.25,-0.76,-3.9,-2.19,105.86,11.91,3
-4.92,-1.86,12.38,4.58,37.03,104.15,-67.33,6.16,1.61,0.8,2.54,0.21,71.8,7.0,4
5.5,-2.5,-13.78,1.6,46.1,92.83,27.8,3.6,-1.4,1.3,6.8,4.4,221.0,7.3,2
0.5,-0.6,-13.33,2.5,107.0,99.24,44.8,4.3,1.0,0.8,4.5,-2.0,162.2,8.2,2
-1.03,-4.52,8.53,-1.64,115.1,101.36,-122.53,-1.66,-0.17,-1.67,-8.29,1.81,233.23,13.8,3
-7.74,-4.46,-11.26,-4.07,115.27,101.51,-109.45,-1.99,-0.55,3.09,8.24,-0.84,216.08,12.42,4
2.0,1.3,-9.15,-0.1,84.9,100.0,2.2,6.4,0.4,0.5,1.2,2.1,124.0,5.6,1
6.9,-2.5,-17.81,1.8,44.0,91.0,37.2,1.5,-1.3,0.3,-0.7,-3.0,216.1,7.7,1
-3.29,-6.42,18.42,-1.67,94.08,103.11,-127.43,-4.2,-0.4,-3.15,-11.27,6.8,304.48,13.03,3
8.3,-1.7,-8.55,-0.9,39.8,100.0,33.4,2.2,-0.1,-0.4,-3.6,2.9,211.4,6.9,1
2.62,-0.56,21.33,4.65,71.27,105.19,-63.15,-2.17,0.3,-5.14,-16.8,1.71,98.73,12.93,3
-0.63,-2.93,-1.11,4.74,97.56,100.95,-13.37,2.09,0.79,0.24,-0.03,6.03,143.38,10.27,3
-0.9,-0.8,-19.37,0.6,84.7,102.67,-86.8,-6.8,2.0,1.7,8.3,-0.1,117.2,16.8,3
1.5,-4.7,9.44,9.3,29.3,106.59,-47.9,8.6,0.3,-2.9,-11.2,3.0,104.5,9.4,3
-2.19,-1.49,-11.23,9.01,63.02,98.29,6.14,8.01,2.13,0.16,-0.05,1.05,154.34,7.51,2
2.6,0.08,20.53,3.82,78.59,104.38,-66.94,-4.23,0.61,-5.28,-17.78,1.17,99.04,13.91,3
-2.9,-3.2,-10.3,1.1,51.8,93.78,-60.6,-0.3,1.0,2.9,6.4,1.9,71.1,14.1,1
-1.57,-2.98,-0.1,-12.64,173.36,96.92,-139.21,-0.84,0.92,-3.8,-8.57,-0.97,117.16,22.97,4
0.89,-3.41,6.83,8.35,27.81,101.28,-64.4,14.71,2.2,-0.52,-4.41,2.52,118.82,11.3,3
-5.8,-7.11,-13.69,-3.29,116.86,93.53,-119.17,-4.7,-1.02,3.99,7.57,-0.72,237.69,13.38,4
-2.1,-12.2,-18.34,-1.8,119.9,78.23,-137.8,-9.9,-1.9,5.7,6.3,-0.5,279.1,15.2,4
-1.63,-3.85,-16.43,2.42,89.43,105.09,-62.24,-1.58,1.24,4.44,10.25,-5.96,171.41,17.67,3
-3.96,-9.64,-16.0,-2.55,118.37,85.91,-128.44,-7.29,-1.46,4.84,6.94,-0.61,258.3,14.28,4
1.91,-2.81,-3.32,3.04,134.6,98.79,-12.51,1.59,1.09,-0.16,-2.61,0.18,111.41,11.85,3
-1.3,-2.6,23.22,7.0,37.3,105.21,-49.0,9.5,0.7,-0.2,-3.1,0.6,53.7,6.5,1
1.2,5.3,8.56,23.0,34.7,116.33,-25.0,5.9,2.4,-1.7,-8.0,4.2,67.3,4.0,1
2.3,0.9,-2.83,-2.8,82.9,107.03,4.1,5.4,0.7,0.6,1.5,3.4,123.5,5.8,1
-1.7,-8.6,7.91,5.6,41.6,92.0,-67.5,-6.5,0.9,3.3,-4.8,-5.4,96.8,16.9,1
1.03,-2.43,10.07,3.8,33.72,116.82,-41.91,11.2,0.79,-1.43,-4.46,2.67,104.52,7.46,2
-0.77,-1.6,-12.04,5.44,95.39,101.64,-15.19,3.97,1.2,0.45,1.3,3.72,141.85,10.13,3
-4.47,-1.05,12.86,3.28,37.23,103.2,-65.77,2.42,1.05,0.8,2.22,-0.35,70.08,7.0,4
-2.0,-0.6,-8.1,-5.4,131.4,94.13,-120.2,-3.8,-0.7,3.6,9.9,-1.6,202.1,15.0,4
-0.8,-7.8,-18.3,1.4,90.6,106.3,-12.8,4.1,0.5,0.8,0.8,4.2,138.3,9.4,2
-5.0,-2.0,12.3,4.8,37.0,104.31,-67.6,6.8,1.7,0.8,2.6,0.3,72.1,7.0,4
-6.44,-6.25,-12.89,-3.55,116.34,96.14,-115.99,-3.82,-0.86,3.69,7.79,-0.76,230.63,13.06,4
-1.0,2.7,20.49,4.1,37.8,100.0,-54.6,0.6,1.3,0.0,-0.9,0.2,58.0,6.9,1
-4.63,-2.9,-14.31,-3.78,129.78,95.87,-119.59,-5.42,-0.23,3.53,11.79,-3.15,207.77,14.05,4
-4.95,-6.04,-17.56,-2.7,126.74,92.11,-123.9,-7.12,-0.47,4.05,11.11,-3.05,227.56,14.0,4
-4.13,-1.35,-8.67,-5.12,126.08,97.82,-115.16,-2.77,-0.57,3.29,9.49,-1.38,202.76,14.03,4
7.4,-1.5,-3.18,2.6,72.1,100.0,46.6,5.9,0.4,-0.4,-0.8,2.9,97.8,4.9,2
-1.2,-0.6,11.9,-1.2,38.7,89.75,-50.6,6.1,2.2,-2.3,-13.8,-0.3,56.7,13.5,1
-1.93,-4.78,-17.13,1.24,87.41,106.3,-79.45,-3.79,1.21,5.9,13.45,-9.34,182.44,20.47,3
-0.8,-1.3,-14.53,5.6,94.9,101.8,-15.6,4.4,1.3,0.5,1.6,3.2,141.5,10.1,3
-1.0,2.6,3.79,13.9,39.3,109.86,-37.9,16.3,2.2,-2.1,-6.0,4.5,56.1,8.0,1
2.2,-3.1,1.19,4.2,134.1,97.93,-7.7,1.3,1.5,-1.2,-8.0,1.3,108.8,11.6,3
-2.3,-1.0,4.68,0.7,50.4,97.43,-69.1,2.9,2.2,0.2,-1.9,4.6,78.1,9.8,1
2.3,-6.4,37.84,9.6,76.7,100.0,-198.4,-18.6,1.0,-3.9,-10.6,-2.3,305.1,11.9,2
5.1,-1.5,33.28,5.2,20.1,105.69,54.6,1.2,0.1,0.4,2.2,-9.6,309.0,6.3,1
3.2,1.2,-12.73,-0.1,80.3,98.61,-38.4,0.1,0.6,1.7,4.5,-4.7,97.9,9.6,2
-0.1,-4.5,-20.85,-0.7,53.6,113.34,-44.0,0.1,-1.4,2.5,7.0,-2.8,112.2,8.1,3
2.46,-0.71,-11.41,-1.77,78.59,95.9,-64.5,4.9,1.89,0.06,-1.79,-3.72,92.35,10.14,2
4.1,-9.2,-7.55,9.1,42.3,107.27,0.1,2.8,1.0,-0.1,-4.7,8.1,192.0,7.4,2
-3.03,-1.5,-10.54,-4.76,130.76,94.81,-119.96,-4.44,-0.51,3.57,10.64,-2.21,204.32,14.63,4
