PC_CA-avg_3y,REER-pch_3y,X_GS_share_M-pch_5y,FSL-pch,GD-pc_gdp,HPI-pch,NIIP-pc_gdp,ULC-pch_3y,ACT-pch_3y,LTU-pch_3y,YUR-pch_3y,PSCF-pc_gdp,PSD-pc_gdp,UR-avg_3y,label
-4.9,0.2,1.09,11.7,86.8,105.51,0.3,3.7,0.9,-1.4,-7.7,8.8,166.4,5.4,1
-3.3,-6.4,18.62,-1.7,93.9,103.14,-127.3,-4.1,-0.4,-3.2,-11.3,6.7,304.0,13.0,3
-2.58,-2.69,3.53,-7.53,133.39,99.09,-118.22,1.4,1.15,-2.45,-5.29,-0.6,103.95,18.29,4
-8.8,-3.0,-9.92,-4.5,114.4,105.9,-104.1,-0.5,-0.3,2.6,8.6,-0.9,204.2,11.9,4
1.35,-2.46,-8.93,1.63,132.65,100.06,-18.85,1.98,0.51,1.22,4.62,-0.84,117.13,12.07,3
2.3,-3.3,20.41,7.1,25.3,112.26,-43.3,13.5,2.3,-3.5,-10.9,4.1,99.0,7.7,2
-4.8,10.7,2.71,-8.6,86.9,100.0,-22.7,3.2,0.8,-1.1,-6.6,2.8,161.7,6.3,1
0.5,1.7,8.2,6.2,38.6,113.36,-56.2,15.2,2.4,-1.3,-2.6,2.4,76.9,9.4,1
-2.29,-0.89,-11.23,-0.97,125.61,95.52,-131.57,-4.5,-0.31,4.25,10.86,-1.37,241.39,14.9,4
0.3,-1.2,4.06,10.4,51.9,100.0,-63.9,2.7,1.5,-1.8,-7.5,5.1,80.6,13.0,1
1.0,-1.7,-13.57,2.7,105.2,100.0,45.2,0.5,0.7,1.0,2.3,12.1,176.1,8.5,1
-1.39,-1.06,4.06,-0.3,43.75,114.12,-46.39,7.32,-0.33,1.02,3.34,-0.55,93.78,7.02,2
-2.12,-11.96,-18.38,-1.49,119.65,78.72,-138.4,-9.82,-1.84,5.71,6.47,-0.5,280.81,15.19,4
-5.6,-5.0,17.63,10.4,70.2,95.13,6.3,11.1,2.7,0.4,1.6,6.8,168.5,6.7,1
4.9,-2.0,18.08,5.3,74.1,110.35,-24.2,3.7,3.3,-2.2,-9.0,0.9,76.3,7.9,1
2.0,1.9,-15.75,-0.8,84.0,96.68,3.4,7.9,0.8,0.3,1.4,0.9,124.8,5.3,1
1.9,-3.8,-22.85,-1.3,77.3,85.73,-82.2,7.5,2.8,-0.6,0.2,-0.9,94.6,10.7,2
-1.9,-5.6,-19.39,-7.9,178.9,103.49,-131.9,-10.4,0.1,10.7,7.7,-3.0,130.8,26.2,4
0.6,-0.92,-9.12,1.4,77.55,102.97,-70.75,-4.72,2.02,0.56,1.63,-1.79,111.97,14.94,3
-1.1,-4.0,-9.78,-10.4,178.5,98.35,-137.6,-3.3,0.7,-1.5,-11.0,-2.1,125.1,25.0,4
0.9,-0.4,-5.01,2.4,104.9,101.22,54.5,-0.9,0.1,0.1,-3.6,23.8,194.8,8.3,1
0.48,-1.8,4.53,-0.7,131.58,105.61,-111.05,-0.63,0.64,-2.81,-9.1,-2.3,170.47,12.75,3
-1.3,-2.6,23.22,7.0,37.3,105.21,-49.0,9.5,0.7,-0.2,-3.1,0.6,53.7,6.5,1
-2.7,-3.2,-19.21,5.1,119.7,124.69,-18.2,4.9,-0.8,1.3,8.0,3.1,121.8,8.2,2
-1.39,-3.26,-2.85,-12.31,176.81,97.19,-139.88,-1.61,0.85,-3.26,-9.38,-1.29,119.95,23.75,4
-2.5,-6.93,7.2,-0.35,106.47,101.6,-132.6,-8.34,-0.18,-0.32,-9.38,10.64,312.94,14.67,3
-0.35,0.06,-10.9,-9.54,95.09,95.78,-89.13,-4.64,0.78,5.42,13.33,-9.44,177.99,23.18,2
-1.2,-0.6,11.9,-1.2,38.7,89.75,-50.6,6.1,2.2,-2.3,-13.8,-0.3,56.7,13.5,1
-1.92,-4.45,-16.79,-7.32,167.95,101.33,-129.2,-8.88,-0.08,9.06,8.21,-2.68,147.24,23.62,4
0.7,-3.1,0.87,-1.6,131.2,100.0,-118.9,0.2,0.0,-0.5,-6.0,-1.9,179.5,14.4,3
-3.2,-1.7,5.89,5.7,39.4,98.21,-66.7,8.0,1.0,-3.1,-13.0,-0.6,91.0,14.4,1
1.32,-2.47,-8.76,1.68,132.05,100.07,-18.75,1.97,0.52,1.2,4.54,-0.71,117.59,12.03,3
-4.67,-2.09,11.11,3.13,50.08,103.6,-74.47,6.07,1.62,0.36,1.53,0.18,76.42,8.53,4
-4.5,-10.8,-1.18,-1.7,86.2,108.73,-10.0,5.1,0.9,-1.1,-4.9,7.2,167.7,4.8,1
-0.5,1.7,26.02,2.0,37.2,92.55,-53.6,-7.8,3.0,6.7,19.3,-1.8,68.8,15.7,1
5.8,3.2,-12.21,1.8,37.3,78.22,-8.3,4.1,0.6,0.7,2.6,7.0,189.1,8.2,2
-3.75,-8.65,-17.89,-2.32,123.84,86.24,-129.78,-8.3,-1.08,4.75,9.07,-1.97,249.38,14.51,4
1.12,-4.44,11.82,9.43,27.19,102.37,-56.8,12.38,1.52,-1.81,-8.19,-1.16,107.57,10.55,3
1.69,-1.72,9.46,5.62,62.09,103.69,-63.44,-0.41,1.31,-3.85,-15.58,0.97,104.25,13.33,3
-0.3,-3.6,-14.64,19.5,104.4,90.26,-164.7,-3.7,0.6,-2.2,-6.2,2.6,278.4,13.7,2
-6.3,-3.86,-16.28,-3.21,126.98,97.98,-117.2,-5.41,-0.04,3.38,12.13,-3.49,209.63,13.37,4
-0.8,-7.8,-18.3,1.4,90.6,106.3,-12.8,4.1,0.5,0.8,0.8,4.2,138.3,9.4,2
-3.37,-3.11,27.33,-3.36,97.88,106.64,-99.61,0.76,1.07,-1.48,-0.48,1.09,93.64,14.27,4
-3.2,-9.83,-18.04,-2.15,122.53,83.56,-132.46,-8.83,-1.35,5.07,8.15,-1.48,259.31,14.74,4
-4.3,3.4,-2.78,0.6,43.5,99.72,-63.9,5.4,-0.1,2.6,14.4,2.9,69.5,13.4,1
-2.0,2.5,13.52,13.2,36.7,100.0,-64.1,17.2,1.3,-3.3,-12.2,-0.5,80.4,10.9,1
-2.2,-2.0,5.15,17.4,51.3,111.76,-68.3,8.1,1.8,-4.2,-10.8,9.6,94.5,9.8,1
-2.9,-7.4,7.99,-0.2,103.4,101.8,-134.3,-9.4,-0.2,-0.3,-9.8,12.2,329.5,14.7,3
0.9,-4.3,13.16,9.5,26.0,100.0,-61.8,14.5,2.2,-1.2,-6.5,-3.5,109.3,11.2,3
1.5,-4.7,9.44,9.3,29.3,106.59,-47.9,8.6,0.3,-2.9,-11.2,3.0,104.5,9.4,3
-2.07,-8.34,-14.93,-3.0,123.72,83.52,-131.95,-7.87,-1.5,5.0,7.5,-0.87,253.49,15.13,4
-3.1,-1.7,-20.1,11.6,109.2,99.48,-163.8,-6.5,0.8,6.1,13.6,-0.7,352.8,14.6,4
1.18,-1.46,-0.39,2.13,72.09,105.69,-63.17,-3.75,0.83,-2.16,-9.94,-1.05,106.73,13.16,3
0.94,-4.63,-1.07,5.83,37.73,108.93,-46.55,5.65,-0.29,-1.03,-4.89,0.99,107.17,8.95,3
2.6,-2.6,9.87,3.4,98.6,109.14,-85.5,-0.5,-0.3,-5.2,-14.6,0.7,139.7,19.6,2
-5.83,-3.95,-17.37,-2.66,128.53,96.78,-120.35,-6.21,0.02,3.56,12.72,-3.82,213.85,13.62,4
2.0,-4.7,-21.72,0.4,81.9,92.57,-3.2,3.8,0.8,0.0,-1.3,1.2,128.2,4.8,1
-0.6,4.8,10.22,4.7,40.2,107.31,-59.0,16.7,2.3,-1.7,-5.9,2.3,80.5,10.1,1
-3.4,-4.3,-0.26,7.4,55.7,96.29,-68.9,3.1,1.7,1.4,3.6,3.3,75.4,10.0,1
0.19,-1.99,-6.15,-6.65,132.66,98.22,-123.1,-2.46,-0.34,1.81,2.99,-5.16,188.92,15.26,3
1.5,-2.4,-9.7,1.4,135.3,100.0,-19.3,2.0,0.5,1.3,5.0,-1.4,115.1,12.2,3
8.4,-1.8,1.52,-0.1,56.9,110.72,59.4,-0.1,0.7,-1.0,-3.8,3.7,249.1,5.9,2
-2.0,-0.6,-8.1,-5.4,131.4,94.13,-120.2,-3.8,-0.7,3.6,9.9,-1.6,202.1,15.0,4
-2.67,-6.22,-19.34,5.83,113.81,90.33,-152.61,-7.96,-0.36,5.93,10.46,-0.61,321.08,14.86,4
2.3,0.9,-2.83,-2.8,82.9,107.03,4.1,5.4,0.7,0.6,1.5,3.4,123.5,5.8,1
-0.29,-4.0,-12.44,1.33,70.58,108.55,-32.15,0.71,-0.6,1.62,4.21,0.76,124.24,8.94,3
-0.37,-3.79,-8.89,2.18,77.75,106.53,-27.14,0.97,-0.26,1.25,3.03,2.26,129.33,9.3,3
-0.1,-4.3,-15.53,-5.1,104.8,100.36,40.8,4.9,0.0,-0.1,-2.1,14.7,191.0,7.7,2
-0.34,-2.4,-3.95,-6.75,127.83,98.6,-124.25,-3.06,-0.4,1.5,2.45,-4.09,205.25,15.09,3
5.6,10.3,-19.51,5.6,37.7,78.8,-15.5,4.0,1.4,0.4,-1.3,2.4,191.0,8.1,2
-2.58,-1.18,-14.48,3.63,119.6,96.97,-143.37,-5.23,0.1,4.93,11.87,-1.12,282.17,14.79,4
0.0,-8.2,-2.16,8.1,40.0,100.0,-32.9,0.1,2.4,-0.6,-6.9,0.3,68.1,6.1,1
-1.7,2.7,-27.3,9.3,59.8,100.2,-3.1,7.6,0.5,0.2,0.4,1.7,148.8,8.2,2
-1.87,-5.54,-19.06,-7.99,178.89,103.31,-132.1,-10.15,0.12,10.28,7.05,-2.97,130.6,26.16,4
6.6,0.1,-3.82,10.9,18.7,86.73,28.9,8.8,1.1,-0.2,-0.9,21.4,284.3,4.8,1
0.5,-0.6,-13.33,2.5,107.0,99.24,44.8,4.3,1.0,0.8,4.5,-2.0,162.2,8.2,2
7.0,-2.4,-8.35,10.3,61.7,114.1,20.1,5.3,0.3,0.4,1.4,8.2,247.2,4.8,1
8.3,-1.7,-2.87,5.1,37.2,104.7,38.2,2.1,1.9,-0.4,-2.6,2.8,209.5,6.4,1
-7.1,-2.4,-9.47,-4.72,118.65,102.96,-108.12,-1.32,-0.4,2.85,8.92,-1.07,203.68,12.67,4
-0.1,3.1,9.93,10.3,10.2,82.54,-49.7,11.2,1.2,-3.8,-14.2,4.8,115.2,10.3,1
0.2,-6.3,71.33,4.3,67.8,117.65,-167.2,-15.4,0.9,-3.6,-9.0,0.2,250.5,8.4,2
-5.9,-4.0,-17.3,-3.0,129.0,96.71,-119.3,-6.2,0.0,3.5,12.7,-3.9,210.5,13.6,4
0.0,5.3,-1.35,15.8,39.9,104.36,-42.9,15.0,3.1,-2.1,-7.4,4.3,56.5,9.2,1
3.1,0.0,10.82,-7.7,72.9,123.65,-54.9,9.1,4.2,-2.0,-9.7,0.7,70.0,5.4,1
-4.98,-2.28,21.06,4.73,36.3,106.73,-67.25,5.73,1.58,0.73,3.46,0.88,72.47,6.98,4
-1.16,-3.84,-8.29,-10.81,178.14,98.1,-138.09,-2.94,0.73,-1.88,-10.65,-1.93,123.99,24.73,4
0.22,-4.44,-10.03,2.55,44.82,109.1,-49.66,4.68,-0.25,1.32,2.7,-3.02,111.28,9.09,3
-0.5,-3.0,2.4,4.6,98.4,103.03,-16.6,1.5,0.5,-0.3,-1.9,6.8,145.5,10.0,2
-0.27,-3.86,-5.51,-0.84,115.63,102.42,-108.49,-1.6,0.42,2.0,1.35,-5.13,182.62,17.04,3
-2.25,-10.66,-18.6,0.16,118.33,81.34,-141.61,-9.4,-1.5,5.76,7.37,-0.53,289.89,15.11,4
-4.91,-3.06,45.55,4.53,34.35,113.48,-66.27,2.73,1.26,0.53,5.87,2.51,73.51,6.91,4
0.1,-1.8,-7.32,-7.5,132.9,97.92,-123.8,-2.9,-0.4,2.2,4.5,-5.7,190.5,15.4,3
-0.73,-3.46,-5.55,0.13,110.09,106.49,-100.16,-2.63,0.94,1.54,1.99,-6.41,178.39,17.05,3
-1.7,-6.7,27.02,-0.7,39.8,89.47,-54.3,-4.2,2.2,3.3,-2.9,0.3,61.1,15.5,1
-2.1,-5.3,-17.51,0.6,86.3,106.97,-88.9,-5.0,1.2,6.7,15.2,-11.2,188.5,22.0,3
-2.5,-8.04,-19.04,3.51,115.66,86.65,-148.1,-8.55,-0.83,5.86,9.19,-0.58,308.29,14.96,4
0.4,-3.6,6.93,10.9,9.8,76.91,-50.7,0.1,0.8,1.8,-6.5,7.6,117.2,13.0,1
-0.9,-1.1,-5.63,-1.2,46.5,123.73,-39.8,7.7,-1.5,1.7,5.3,0.5,112.9,7.1,2
2.2,-3.1,1.19,4.2,134.1,97.93,-7.7,1.3,1.5,-1.2,-8.0,1.3,108.8,11.6,3
5.1,-1.5,33.28,5.2,20.1,105.69,54.6,1.2,0.1,0.4,2.2,-9.6,309.0,6.3,1
-0.2,-0.3,-10.28,-9.9,95.8,96.24,-92.8,-5.1,0.8,5.7,14.0,-10.1,178.1,24.1,2
-2.8,-7.8,-25.92,10.4,80.1,89.4,-11.6,5.8,-0.3,1.3,6.3,1.6,176.6,7.8,2
-1.1,-4.51,-10.93,-0.19,102.38,104.47,-99.64,-3.14,0.77,4.12,7.61,-7.87,185.28,19.28,3
2.4,-1.8,-12.5,1.5,82.4,88.31,-1.9,5.8,0.7,0.2,0.4,3.0,129.4,4.9,1
-2.02,-3.43,-10.6,-4.52,128.6,90.25,-124.49,-5.29,-0.99,4.11,9.02,-1.33,220.88,15.05,4
-2.99,-7.18,10.35,-0.53,101.29,102.1,-132.75,-8.22,-0.24,-0.94,-10.13,10.98,323.84,14.32,3
-5.0,-2.0,12.3,4.8,37.0,104.31,-67.6,6.8,1.7,0.8,2.6,0.3,72.1,7.0,4
-4.8,1.4,1.39,10.7,53.7,101.1,-65.3,5.3,1.8,1.6,5.9,4.8,73.4,9.8,1
0.8,-0.8,14.29,1.9,126.0,114.05,-109.9,2.8,1.5,-3.9,-10.9,2.0,161.9,10.9,2
-1.7,-8.6,7.91,5.6,41.6,92.0,-67.5,-6.5,0.9,3.3,-4.8,-5.4,96.8,16.9,1
-0.6,-3.2,1.14,4.6,98.0,100.81,-13.0,1.7,0.7,0.2,-0.3,6.5,143.7,10.3,3
-3.3,3.4,-11.62,-7.7,84.2,88.7,-17.8,3.9,1.0,0.2,0.8,6.6,170.2,7.8,2
2.3,-7.2,-9.31,0.4,76.1,100.0,-67.9,1.1,4.9,-1.9,-10.9,-2.5,83.2,8.2,1
-0.9,-0.8,-19.37,0.6,84.7,102.67,-86.8,-6.8,2.0,1.7,8.3,-0.1,117.2,16.8,3
-1.69,-4.21,-9.24,-10.62,177.46,99.91,-136.59,-5.39,0.53,2.92,-1.1,-1.93,124.03,24.65,4
-1.57,-4.94,-15.44,-8.93,178.74,101.37,-134.25,-7.48,0.35,5.68,0.0,-2.63,128.45,25.71,4
1.2,1.7,19.36,16.7,40.6,95.51,-46.8,8.7,2.3,-3.2,-13.3,0.2,54.2,12.0,1
7.9,-2.1,1.07,4.8,35.5,108.16,40.8,2.4,0.7,-0.4,-1.8,0.1,201.7,6.0,1
9.5,0.7,-11.35,8.0,67.8,96.72,48.0,3.7,0.9,1.3,2.7,4.3,267.2,6.8,2
-0.7,2.1,-4.08,1.4,54.7,93.4,-62.2,2.6,1.2,0.8,-0.2,5.0,75.2,14.0,1
0.03,-1.91,-7.63,-7.26,131.49,98.19,-122.75,-2.96,-0.35,2.34,4.82,-5.87,190.44,15.6,3
-0.89,-4.35,-9.57,-0.35,105.69,103.96,-101.86,-2.75,0.68,3.59,6.04,-7.18,184.61,18.72,3
5.9,-4.9,-9.35,3.1,79.8,90.51,23.3,5.6,1.4,-1.1,-1.9,2.0,102.4,6.8,1
0.92,-4.32,13.01,9.49,26.14,100.27,-61.23,14.26,2.12,-1.27,-6.69,-3.23,109.1,11.13,3
-3.02,-2.57,5.13,-5.29,115.87,100.04,-109.02,2.38,1.25,-1.86,-3.86,-0.44,98.16,16.24,4
-1.3,-1.4,9.18,2.4,51.3,100.0,-62.1,0.2,1.6,-1.1,-5.7,3.5,78.9,8.9,1
2.0,0.2,2.7,2.2,78.3,110.5,2.8,4.0,1.0,0.3,-0.5,3.6,121.8,5.7,1
6.6,-1.8,-12.99,-6.4,78.7,93.91,34.7,6.1,0.9,-1.0,-2.0,2.0,103.0,5.5,2
-6.01,-2.27,6.4,2.33,57.54,104.73,-77.29,4.86,1.17,1.28,4.19,-0.02,107.16,8.3,4
8.3,-1.7,-8.55,-0.9,39.8,100.0,33.4,2.2,-0.1,-0.4,-3.6,2.9,211.4,6.9,1
-0.09,-0.37,-12.87,1.27,84.56,101.39,-82.79,-6.47,2.48,0.89,4.38,-0.77,114.67,16.85,3
-0.8,-2.2,-14.22,0.5,93.4,103.54,-16.6,4.6,0.9,0.5,1.6,2.1,137.4,9.8,2
6.9,-2.5,-17.81,1.8,44.0,91.0,37.2,1.5,-1.3,0.3,-0.7,-3.0,216.1,7.7,1
-4.9,-3.2,49.92,4.5,34.0,114.69,-66.1,2.2,1.2,0.5,6.3,2.8,73.7,6.9,4
-1.0,2.7,20.49,4.1,37.8,100.0,-54.6,0.6,1.3,0.0,-0.9,0.2,58.0,6.9,1
5.1,-3.7,-9.63,12.6,45.2,89.38,-2.3,7.5,1.6,-0.1,0.1,4.6,193.3,8.0,2
-0.25,-3.81,-20.57,-0.46,59.44,111.34,-52.04,-1.2,-0.76,2.35,7.24,-2.29,113.14,9.73,3
-3.0,-2.71,-19.93,10.31,110.23,97.44,-161.3,-6.83,0.54,6.06,12.9,-0.68,345.72,14.66,4
-2.1,-12.2,-18.34,-1.8,119.9,78.23,-137.8,-9.9,-1.9,5.7,6.3,-0.5,279.1,15.2,4
-1.8,0.2,-32.46,-11.6,56.2,101.77,3.0,9.3,0.7,-0.3,-1.5,2.8,147.0,7.9,2
0.59,-2.75,-5.02,2.78,119.2,100.35,-16.58,1.87,0.59,0.83,2.71,2.01,127.44,11.38,3
-3.17,-2.52,5.68,-4.51,109.84,100.36,-105.85,2.72,1.28,-1.66,-3.37,-0.38,96.17,15.53,4
1.9,-0.8,24.41,-0.2,6.1,74.62,-54.0,-2.2,0.5,5.4,10.4,-0.8,118.9,14.2,1
-0.8,-4.0,-1.01,11.7,16.7,97.0,-77.7,12.2,-0.1,3.8,13.0,2.6,128.3,11.3,2
-0.59,-3.22,0.73,4.5,97.17,101.05,-13.58,1.67,0.66,0.24,-0.16,6.33,143.11,10.26,3
-1.4,2.1,-23.06,1.4,63.0,100.0,4.8,3.2,0.6,0.7,3.4,6.8,151.5,8.8,2
-3.06,-2.11,-20.03,11.07,109.62,98.65,-162.78,-6.63,0.69,6.08,13.31,-0.69,349.91,14.62,4
1.87,-3.11,1.18,4.25,129.83,98.27,-8.33,1.35,1.41,-1.03,-7.09,1.92,112.93,11.45,3
-2.8,6.0,-21.25,-3.6,83.2,88.09,-28.1,3.0,0.4,0.8,2.1,1.5,176.1,7.9,2
-1.2,-3.8,-10.57,1.9,119.9,78.16,-133.4,-0.7,0.2,1.1,-1.4,-1.4,267.5,14.9,2
7.74,-6.73,-14.82,4.57,57.53,98.27,30.53,1.46,-0.12,1.09,1.83,6.83,240.66,6.32,2
-5.13,-3.33,-15.49,-3.47,129.47,96.2,-119.48,-5.73,-0.14,3.52,12.15,-3.45,208.85,13.88,4
-1.5,-3.0,-0.36,-13.0,176.2,96.77,-140.7,-1.0,0.9,-3.9,-8.8,-1.0,118.1,23.3,4
-4.79,-3.09,-18.41,2.77,121.18,97.8,-136.88,-6.32,0.32,4.53,13.06,-2.64,266.73,14.0,4
0.01,-3.18,1.15,4.51,105.92,100.18,-11.84,1.61,0.88,-0.11,-1.99,5.36,136.04,10.59,3
-2.03,-4.3,-11.36,-4.25,127.74,89.06,-125.81,-5.74,-1.08,4.27,8.75,-1.25,226.63,15.06,4
-2.2,-1.0,20.12,1.2,39.2,98.2,-57.3,6.7,1.6,-0.1,0.1,-2.3,62.1,6.9,2
1.19,0.06,0.21,2.59,83.07,100.79,-76.05,-5.9,2.57,-1.73,-7.04,-0.99,108.84,16.39,3
-4.78,-2.06,11.49,3.66,45.93,103.83,-72.29,6.3,1.65,0.5,1.87,0.22,75.05,8.05,4
0.31,-4.55,-13.18,1.83,47.45,111.63,-44.99,2.25,-0.97,1.13,2.39,-1.33,110.25,8.43,3
7.0,-0.4,-9.53,4.6,75.7,95.98,40.8,7.4,0.4,-0.6,-0.8,-0.3,98.4,5.2,2
-3.2,1.9,11.12,4.3,15.2,102.33,-82.8,17.9,-1.9,3.4,13.1,3.5,129.1,9.5,2
1.8,0.0,9.47,3.5,81.0,102.01,-72.4,-5.6,1.9,-4.4,-18.1,-0.2,104.1,15.6,3
-2.6,-0.5,7.39,4.3,39.8,98.86,-45.2,3.4,0.8,0.5,8.2,2.1,68.3,6.9,1
0.73,-0.19,-8.45,-0.76,59.93,113.75,-39.24,4.68,-0.67,1.7,4.98,-1.57,106.94,8.09,2
-2.96,-7.24,9.68,-0.44,101.89,102.01,-133.19,-8.56,-0.23,-0.76,-10.04,11.33,325.45,14.43,3
-4.21,-1.38,-8.69,-5.11,125.88,97.95,-114.97,-2.73,-0.57,3.28,9.48,-1.37,202.78,13.99,4
0.8,-0.8,-23.17,-5.8,78.5,89.7,-92.2,7.7,2.5,0.8,1.8,-6.0,101.1,11.1,2
7.4,-1.5,-3.18,2.6,72.1,100.0,46.6,5.9,0.4,-0.4,-0.8,2.9,97.8,4.9,2
6.4,-9.0,-16.75,3.2,81.1,92.39,28.7,2.5,0.9,-1.1,-3.1,1.4,101.9,6.1,1
-2.98,-2.58,5.01,-5.45,117.17,99.97,-109.7,2.31,1.24,-1.91,-3.97,-0.45,98.59,16.39,4
1.2,5.3,8.56,23.0,34.7,116.33,-25.0,5.9,2.4,-1.7,-8.0,4.2,67.3,4.0,1
-2.59,-3.06,15.73,-7.4,130.7,102.5,-116.83,0.02,1.0,-2.49,-3.97,0.22,103.89,18.05,4
-5.0,-2.03,13.11,4.79,36.94,104.53,-67.57,6.7,1.69,0.79,2.68,0.35,72.13,7.0,4
2.9,-2.8,9.08,3.6,57.8,100.0,37.4,-1.4,4.9,-0.6,-2.2,8.8,134.8,5.7,1
0.8,0.1,-5.77,2.0,84.4,100.0,-78.4,-6.1,3.0,0.0,0.1,-1.5,111.9,16.9,3
-1.62,-4.92,-14.37,0.22,93.97,105.78,-94.03,-4.11,0.99,5.47,11.58,-9.61,186.96,20.7,3
-0.1,-4.5,-20.85,-0.7,53.6,113.34,-44.0,0.1,-1.4,2.5,7.0,-2.8,112.2,8.1,3
0.7,-3.7,2.44,16.3,36.8,106.67,-26.9,2.7,2.1,-1.3,-8.4,4.3,68.7,5.1,1
-2.1,-6.2,-25.74,7.2,126.5,118.48,-23.0,2.0,1.2,2.2,10.0,-0.9,124.2,9.2,2
-0.4,-0.2,-12.95,1.2,105.5,100.51,43.2,7.4,-0.2,-0.1,1.3,7.9,163.0,7.7,2
3.2,1.2,-12.73,-0.1,80.3,98.61,-38.4,0.1,0.6,1.7,4.5,-4.7,97.9,9.6,2
6.5,-7.8,-17.73,2.5,44.9,88.3,36.1,-0.2,-1.6,1.5,2.3,7.9,224.0,7.8,2
8.6,-6.0,-12.82,6.0,66.2,105.12,26.7,2.6,0.9,0.8,1.5,6.1,252.1,5.3,2
2.1,-2.4,26.53,-6.2,43.1,92.23,-74.7,-20.6,-1.4,6.9,17.4,-2.4,115.2,17.7,1
-0.11,-1.02,16.34,5.87,20.88,107.91,-60.58,15.43,0.46,-0.48,-0.4,3.84,112.17,8.49,2
0.5,-1.8,5.22,-0.3,131.5,106.06,-110.3,-0.5,0.7,-3.1,-9.9,-2.1,169.3,12.6,3
-4.77,-6.43,-17.61,-2.64,126.3,91.24,-124.78,-7.3,-0.56,4.15,10.8,-2.89,230.82,14.07,4
