PC_CA-avg_3y,REER-pch_3y,X_GS_share_M-pch_5y,FSL-pch,GD-pc_gdp,HPI-pch,NIIP-pc_gdp,ULC-pch_3y,ACT-pch_3y,LTU-pch_3y,YUR-pch_3y,PSCF-pc_gdp,PSD-pc_gdp,UR-avg_3y,label
1.9,-3.2,-3.29,-2.0,99.3,100.0,-88.9,-1.1,0.0,0.4,-4.6,-2.7,155.8,24.2,2
-2.82,-0.79,8.54,-4.3,88.86,99.68,-91.61,-3.33,0.33,-0.94,-2.25,-1.25,85.77,13.03,4
-2.0,-0.6,-8.1,-5.4,131.4,94.13,-120.2,-3.8,-0.7,3.6,9.9,-1.6,202.1,15.0,4
-1.5,-3.0,-0.36,-13.0,176.2,96.77,-140.7,-1.0,0.9,-3.9,-8.8,-1.0,118.1,23.3,4
-5.25,-3.46,-17.95,0.4,124.39,97.36,-129.67,-6.27,0.19,4.11,12.91,-3.15,243.65,13.83,4
-5.8,-3.92,-17.4,-2.5,128.32,96.81,-120.84,-6.21,0.03,3.59,12.73,-3.79,215.42,13.63,4
1.9,-0.8,24.41,-0.2,6.1,74.62,-54.0,-2.2,0.5,5.4,10.4,-0.8,118.9,14.2,1
0.53,-2.01,4.52,-0.51,131.45,105.08,-111.69,-0.39,0.59,-2.68,-9.27,-2.07,170.95,12.89,3
0.4,-3.6,6.93,10.9,9.8,76.91,-50.7,0.1,0.8,1.8,-6.5,7.6,117.2,13.0,1
2.46,0.07,18.59,3.77,79.01,103.96,-67.89,-4.47,0.84,-5.13,-17.83,0.93,99.93,14.21,3
0.2,-6.3,71.33,4.3,67.8,117.65,-167.2,-15.4,0.9,-3.6,-9.0,0.2,250.5,8.4,2
-1.15,-1.41,-13.86,-0.65,92.11,101.46,-16.77,4.5,0.91,0.46,1.49,2.73,142.0,9.52,2
-4.52,-2.02,-17.56,7.58,110.5,101.08,-148.89,-5.0,0.53,5.23,12.35,-0.75,315.68,13.93,4
-0.06,-4.51,-20.0,-0.42,52.92,113.15,-44.11,0.34,-1.35,2.35,6.49,-2.64,111.98,8.14,3
5.9,-4.9,-9.35,3.1,79.8,90.51,23.3,5.6,1.4,-1.1,-1.9,2.0,102.4,6.8,1
-0.2,-0.3,-10.28,-9.9,95.8,96.24,-92.8,-5.1,0.8,5.7,14.0,-10.1,178.1,24.1,2
2.0,0.2,2.7,2.2,78.3,110.5,2.8,4.0,1.0,0.3,-0.5,3.6,121.8,5.7,1
0.94,0.09,-3.59,2.22,83.91,100.29,-77.54,-6.03,2.84,-0.63,-2.51,-1.31,110.78,16.71,3
-2.9,-7.6,12.18,8.6,67.7,95.5,19.6,8.6,4.5,0.1,-0.7,0.1,162.4,6.5,2
-2.9,-7.4,7.99,-0.2,103.4,101.8,-134.3,-9.4,-0.2,-0.3,-9.8,12.2,329.5,14.7,3
-5.66,-2.28,-15.53,4.37,111.54,102.36,-136.98,-3.8,0.31,4.53,11.35,-0.79,286.05,13.39,4
0.88,0.1,-4.58,2.08,84.14,100.2,-77.87,-6.01,2.89,-0.23,-0.63,-1.38,111.32,16.76,3
2.0,1.9,-15.75,-0.8,84.0,96.68,3.4,7.9,0.8,0.3,1.4,0.9,124.8,5.3,1
-1.31,-4.04,-13.85,-2.31,103.05,103.72,-101.44,-4.25,0.62,5.08,11.35,-9.22,189.22,19.63,3
7.7,-1.2,-15.87,7.3,44.3,93.87,43.3,2.3,-1.2,-0.1,-2.1,-0.3,214.0,7.4,1
-1.12,-3.78,-10.92,3.43,118.55,79.21,-136.13,-0.96,0.23,0.81,-1.82,-1.05,268.45,14.8,2
-4.99,-3.25,-18.21,1.74,122.57,97.61,-133.74,-6.3,0.26,4.34,12.99,-2.86,256.69,13.92,4
-7.13,-3.58,-14.17,-3.64,122.81,100.61,-112.86,-3.78,-0.13,3.12,10.96,-2.63,207.83,12.88,4
0.4,-1.21,-13.69,1.25,106.64,99.42,44.14,4.4,0.84,0.65,3.42,0.74,166.92,8.12,2
0.5,1.7,8.2,6.2,38.6,113.36,-56.2,15.2,2.4,-1.3,-2.6,2.4,76.9,9.4,1
2.3,-6.4,37.84,9.6,76.7,100.0,-198.4,-18.6,1.0,-3.9,-10.6,-2.3,305.1,11.9,2
-2.8,-7.8,-25.92,10.4,80.1,89.4,-11.6,5.8,-0.3,1.3,6.3,1.6,176.6,7.8,2
-0.14,-0.73,-18.97,-3.08,79.65,103.53,-70.48,-4.43,0.97,1.8,7.82,-1.34,113.76,14.15,3
5.8,3.2,-12.21,1.8,37.3,78.22,-8.3,4.1,0.6,0.7,2.6,7.0,189.1,8.2,2
-0.5,-3.0,2.4,4.6,98.4,103.03,-16.6,1.5,0.5,-0.3,-1.9,6.8,145.5,10.0,2
-4.92,-1.63,-8.88,-5.01,124.11,99.18,-113.3,-2.39,-0.53,3.17,9.34,-1.3,203.0,13.67,4
1.69,0.59,-3.55,0.26,68.82,98.5,-43.68,1.94,0.88,1.2,3.27,-4.03,87.9,8.85,2
3.1,0.0,10.82,-7.7,72.9,123.65,-54.9,9.1,4.2,-2.0,-9.7,0.7,70.0,5.4,1
-1.3,-1.4,9.18,2.4,51.3,100.0,-62.1,0.2,1.6,-1.1,-5.7,3.5,78.9,8.9,1
-5.9,-4.0,-17.3,-3.0,129.0,96.71,-119.3,-6.2,0.0,3.5,12.7,-3.9,210.5,13.6,4
0.26,-1.16,-3.13,2.99,89.6,100.31,-53.39,-3.12,2.12,0.08,-0.05,1.56,124.06,14.38,3
0.3,-0.9,-0.15,1.1,17.1,97.38,-73.5,15.3,1.7,2.7,6.5,2.6,130.6,12.2,2
3.6,-5.5,-4.56,6.9,40.7,112.4,4.5,3.9,1.0,-0.2,-5.1,13.3,197.9,7.0,2
-1.7,-6.7,27.02,-0.7,39.8,89.47,-54.3,-4.2,2.2,3.3,-2.9,0.3,61.1,15.5,1
-2.44,-1.43,5.95,-6.83,114.22,98.84,-105.86,-2.65,0.5,-1.8,-4.15,-1.18,95.16,16.01,4
0.5,-0.6,-13.33,2.5,107.0,99.24,44.8,4.3,1.0,0.8,4.5,-2.0,162.2,8.2,2
5.6,10.3,-19.51,5.6,37.7,78.8,-15.5,4.0,1.4,0.4,-1.3,2.4,191.0,8.1,2
-0.6,4.8,10.22,4.7,40.2,107.31,-59.0,16.7,2.3,-1.7,-5.9,2.3,80.5,10.1,1
-0.62,-3.01,1.17,4.63,99.61,104.26,-16.69,1.69,0.43,-0.21,-1.34,6.59,144.16,9.9,2
2.72,0.1,22.13,3.83,78.25,104.77,-66.09,-3.98,0.4,-5.29,-17.02,1.38,98.34,13.63,3
9.5,0.7,-11.35,8.0,67.8,96.72,48.0,3.7,0.9,1.3,2.7,4.3,267.2,6.8,2
-1.05,-3.77,-11.25,4.85,117.31,80.19,-138.64,-1.2,0.27,0.55,-2.2,-0.73,269.32,14.7,2
-4.95,-3.22,-18.25,1.97,122.26,97.65,-134.44,-6.3,0.27,4.38,13.01,-2.81,258.93,13.94,4
-1.0,-5.6,-13.98,5.3,175.9,100.0,-135.4,-9.7,0.3,3.7,-5.5,-3.0,128.0,26.3,4
1.15,-1.03,-18.5,-9.06,68.19,106.06,-39.82,0.1,-1.04,2.06,6.91,-3.6,107.75,8.99,3
-4.5,-10.8,-1.18,-1.7,86.2,108.73,-10.0,5.1,0.9,-1.1,-4.9,7.2,167.7,4.8,1
2.0,3.0,2.18,14.3,9.3,105.85,-32.5,12.4,3.6,-1.4,-2.9,4.8,107.6,6.3,1
-0.85,-3.62,-6.58,0.17,108.04,106.53,-99.19,-2.84,0.96,1.99,3.13,-6.82,179.27,17.48,3
4.9,-2.0,18.08,5.3,74.1,110.35,-24.2,3.7,3.3,-2.2,-9.0,0.9,76.3,7.9,1
-0.8,-1.2,-0.62,0.0,68.4,94.14,26.9,9.8,5.9,-0.3,-0.5,2.3,153.0,6.2,1
-2.47,-6.83,1.9,4.58,105.36,100.94,-143.96,-10.07,0.09,1.37,-2.68,8.47,338.25,15.18,3
-1.0,2.7,20.49,4.1,37.8,100.0,-54.6,0.6,1.3,0.0,-0.9,0.2,58.0,6.9,1
-4.89,-2.11,-16.91,6.56,110.83,101.49,-145.1,-4.62,0.46,5.0,12.03,-0.76,306.26,13.75,4
0.1,-1.8,-7.32,-7.5,132.9,97.92,-123.8,-2.9,-0.4,2.2,4.5,-5.7,190.5,15.4,3
1.37,-1.94,-9.19,-3.77,56.72,105.63,-42.11,2.87,-0.58,0.4,0.99,-1.51,106.32,9.2,3
6.4,-9.0,-16.75,3.2,81.1,92.39,28.7,2.5,0.9,-1.1,-3.1,1.4,101.9,6.1,1
-3.2,1.9,11.12,4.3,15.2,102.33,-82.8,17.9,-1.9,3.4,13.1,3.5,129.1,9.5,2
-6.97,-3.69,-12.43,-5.4,131.52,105.26,-111.48,-3.13,-0.19,4.75,8.36,-1.46,184.72,15.7,4
-0.9,-0.8,-19.37,0.6,84.7,102.67,-86.8,-6.8,2.0,1.7,8.3,-0.1,117.2,16.8,3
-3.1,-1.7,-20.1,11.6,109.2,99.48,-163.8,-6.5,0.8,6.1,13.6,-0.7,352.8,14.6,4
0.97,-4.63,-0.65,5.97,37.4,108.84,-46.6,5.77,-0.27,-1.1,-5.14,1.07,107.07,8.97,3
2.3,-7.2,-9.31,0.4,76.1,100.0,-67.9,1.1,4.9,-1.9,-10.9,-2.5,83.2,8.2,1
0.24,-1.8,-2.81,-4.91,132.4,100.85,-118.95,-2.04,-0.0,0.29,-0.68,-4.41,182.88,14.39,3
6.6,0.1,-3.82,10.9,18.7,86.73,28.9,8.8,1.1,-0.2,-0.9,21.4,284.3,4.8,1
2.17,0.04,14.51,3.65,79.9,103.09,-69.91,-4.98,1.31,-4.8,-17.95,0.42,101.8,14.83,3
-1.1,-4.0,-9.78,-10.4,178.5,98.35,-137.6,-3.3,0.7,-1.5,-11.0,-2.1,125.1,25.0,4
-0.8,-4.0,-1.01,11.7,16.7,97.0,-77.7,12.2,-0.1,3.8,13.0,2.6,128.3,11.3,2
8.3,-1.7,-2.87,5.1,37.2,104.7,38.2,2.1,1.9,-0.4,-2.6,2.8,209.5,6.4,1
-3.4,-4.3,-0.26,7.4,55.7,96.29,-68.9,3.1,1.7,1.4,3.6,3.3,75.4,10.0,1
0.24,-4.54,-14.48,1.4,48.49,111.92,-44.82,1.89,-1.04,1.36,3.17,-1.58,110.58,8.37,3
-5.96,-3.98,-17.16,-3.03,128.72,96.89,-119.01,-6.09,-0.01,3.48,12.62,-3.84,210.38,13.57,4
-0.5,1.7,26.02,2.0,37.2,92.55,-53.6,-7.8,3.0,6.7,19.3,-1.8,68.8,15.7,1
0.36,-2.37,-3.74,-4.92,132.16,98.83,-121.66,-1.55,-0.23,1.02,-0.09,-4.04,185.69,14.96,3
-3.75,0.23,13.6,1.23,37.54,101.71,-63.32,-3.46,0.18,0.8,1.71,-1.22,67.37,7.0,4
8.4,-1.8,1.52,-0.1,56.9,110.72,59.4,-0.1,0.7,-1.0,-3.8,3.7,249.1,5.9,2
-1.7,2.7,-27.3,9.3,59.8,100.2,-3.1,7.6,0.5,0.2,0.4,1.7,148.8,8.2,2
3.2,1.2,-12.73,-0.1,80.3,98.61,-38.4,0.1,0.6,1.7,4.5,-4.7,97.9,9.6,2
-1.4,0.4,-15.78,3.9,62.6,100.14,5.2,0.4,0.7,0.6,0.2,1.5,148.0,9.0,1
0.51,-2.69,-1.74,-3.48,131.74,99.34,-120.46,-0.79,-0.13,0.36,-2.66,-3.11,183.0,14.72,3
-7.67,-2.7,-3.34,-1.75,91.48,105.43,-93.29,1.66,0.29,2.07,6.82,-0.54,165.08,10.45,4
-3.6,0.5,13.76,0.8,37.6,101.39,-62.8,-4.7,0.0,0.8,1.6,-1.4,66.8,7.0,4
-2.0,2.5,13.52,13.2,36.7,100.0,-64.1,17.2,1.3,-3.3,-12.2,-0.5,80.4,10.9,1
-3.47,-2.44,6.78,-2.96,97.67,101.02,-99.46,3.4,1.35,-1.25,-2.37,-0.27,92.15,14.1,4
2.7,-5.2,-2.11,19.5,75.5,113.15,-59.6,5.4,5.4,-2.5,-13.7,-3.1,76.6,6.5,1
-5.88,-1.97,-9.14,-4.89,121.71,100.84,-111.02,-1.92,-0.47,3.03,9.16,-1.2,203.3,13.23,4
-4.25,-2.65,-18.95,5.59,117.35,98.34,-145.47,-6.38,0.47,5.03,13.23,-2.02,294.2,14.19,4
-2.02,-0.62,-8.36,-5.04,130.92,94.24,-121.13,-3.86,-0.67,3.65,9.98,-1.58,205.33,14.99,4
3.23,1.16,-12.38,-0.03,80.27,98.72,-38.2,0.13,0.61,1.64,4.27,-4.62,97.54,9.59,2
-2.2,-1.0,20.12,1.2,39.2,98.2,-57.3,6.7,1.6,-0.1,0.1,-2.3,62.1,6.9,2
-5.0,-2.0,12.3,4.8,37.0,104.31,-67.6,6.8,1.7,0.8,2.6,0.3,72.1,7.0,4
0.64,-3.14,0.49,-1.56,130.28,100.14,-118.29,0.09,0.02,-0.35,-5.57,-2.09,179.68,14.56,3
-3.87,0.02,13.48,1.58,37.48,101.96,-63.73,-2.47,0.33,0.8,1.79,-1.07,67.83,7.0,4
2.3,0.9,-2.83,-2.8,82.9,107.03,4.1,5.4,0.7,0.6,1.5,3.4,123.5,5.8,1
8.2,-0.9,-6.74,4.0,64.6,100.0,48.9,-0.4,0.6,1.1,-0.4,0.0,262.8,7.2,2
7.6,-2.3,-2.96,6.7,61.9,104.39,61.4,-0.3,0.3,0.0,-2.4,3.9,259.3,6.8,2
-2.1,-5.3,-17.51,0.6,86.3,106.97,-88.9,-5.0,1.2,6.7,15.2,-11.2,188.5,22.0,3
-2.6,-0.5,7.39,4.3,39.8,98.86,-45.2,3.4,0.8,0.5,8.2,2.1,68.3,6.9,1
1.2,1.7,19.36,16.7,40.6,95.51,-46.8,8.7,2.3,-3.2,-13.3,0.2,54.2,12.0,1
-2.76,-0.89,8.14,-4.69,92.74,99.55,-93.79,-3.23,0.36,-1.07,-2.54,-1.24,87.21,13.48,4
0.5,-1.8,5.22,-0.3,131.5,106.06,-110.3,-0.5,0.7,-3.1,-9.9,-2.1,169.3,12.6,3
-1.8,0.2,-32.46,-11.6,56.2,101.77,3.0,9.3,0.7,-0.3,-1.5,2.8,147.0,7.9,2
-1.2,-3.8,-10.57,1.9,119.9,78.16,-133.4,-0.7,0.2,1.1,-1.4,-1.4,267.5,14.9,2
-4.3,3.4,-2.78,0.6,43.5,99.72,-63.9,5.4,-0.1,2.6,14.4,2.9,69.5,13.4,1
1.5,-4.7,9.44,9.3,29.3,106.59,-47.9,8.6,0.3,-2.9,-11.2,3.0,104.5,9.4,3
6.6,-1.8,-12.99,-6.4,78.7,93.91,34.7,6.1,0.9,-1.0,-2.0,2.0,103.0,5.5,2
-0.31,-2.89,-1.86,-0.02,117.43,106.34,-103.64,-1.9,0.86,-0.05,-2.09,-4.93,175.28,15.53,3
2.6,-2.6,9.87,3.4,98.6,109.14,-85.5,-0.5,-0.3,-5.2,-14.6,0.7,139.7,19.6,2
-7.66,-3.39,-12.82,-3.91,120.15,102.28,-110.08,-2.74,-0.18,2.95,10.21,-2.08,206.68,12.57,4
0.56,-1.61,-10.7,-4.4,80.86,103.47,-29.1,0.72,-0.34,1.3,4.11,0.26,121.36,9.57,3
0.8,-0.8,14.29,1.9,126.0,114.05,-109.9,2.8,1.5,-3.9,-10.9,2.0,161.9,10.9,2
2.0,1.3,-9.15,-0.1,84.9,100.0,2.2,6.4,0.4,0.5,1.2,2.1,124.0,5.6,1
1.8,0.0,9.47,3.5,81.0,102.01,-72.4,-5.6,1.9,-4.4,-18.1,-0.2,104.1,15.6,3
5.4,0.5,16.34,37.8,22.7,94.97,59.3,7.1,2.9,0.2,5.9,28.7,324.9,5.7,1
7.9,-2.1,1.07,4.8,35.5,108.16,40.8,2.4,0.7,-0.4,-1.8,0.1,201.7,6.0,1
-0.3,4.8,20.52,13.0,10.6,93.21,-46.7,14.8,0.5,-3.8,-7.4,5.6,115.4,8.7,1
-1.2,-2.6,-4.91,-4.0,60.9,101.0,0.1,-3.5,1.3,0.2,-0.4,7.4,145.3,8.9,1
-2.0,-6.2,-4.75,9.8,107.5,100.0,-154.5,-10.8,0.4,3.2,5.1,4.4,347.8,15.7,3
7.1,-1.61,-6.87,-0.79,74.58,97.71,42.12,5.98,0.59,-0.63,-1.25,2.56,99.76,5.13,2
-5.19,-4.36,-14.88,-6.28,148.15,104.64,-118.65,-5.68,-0.09,6.84,8.13,-2.0,165.79,19.38,4
-4.86,-1.75,12.45,4.4,37.06,104.02,-67.12,5.65,1.53,0.8,2.5,0.13,71.57,7.0,4
-8.8,-3.0,-9.92,-4.5,114.4,105.9,-104.1,-0.5,-0.3,2.6,8.6,-0.9,204.2,11.9,4
4.6,-0.6,3.7,3.4,78.7,103.87,-28.9,1.3,1.1,-0.9,-6.4,-0.8,81.1,8.9,2
1.2,5.3,8.56,23.0,34.7,116.33,-25.0,5.9,2.4,-1.7,-8.0,4.2,67.3,4.0,1
1.64,-5.38,-0.21,10.87,54.92,92.02,7.16,7.98,2.85,-0.01,-0.25,2.66,179.95,7.35,2
2.64,-0.48,21.56,4.56,72.07,105.16,-63.44,-2.38,0.3,-5.18,-16.91,1.68,98.62,13.0,3
-1.78,-2.92,0.66,-11.57,164.99,97.38,-134.81,-0.37,0.96,-3.52,-7.88,-0.9,114.4,21.99,4
1.4,-2.61,-4.65,-0.59,50.04,105.86,-43.52,4.27,-0.36,-0.4,-1.98,-0.41,105.88,9.25,3
1.7,0.7,-18.42,-3.2,81.3,95.34,1.3,6.4,1.1,0.1,0.2,1.0,127.1,5.0,1
-4.4,-0.92,12.93,3.08,37.26,103.05,-65.53,1.85,0.97,0.8,2.17,-0.43,69.82,7.0,4
-2.7,-3.2,-19.21,5.1,119.7,124.69,-18.2,4.9,-0.8,1.3,8.0,3.1,121.8,8.2,2
2.33,-2.83,4.82,1.33,98.87,105.64,-86.8,-0.73,-0.18,-3.05,-10.77,-0.6,145.87,21.36,2
0.9,-0.4,-5.01,2.4,104.9,101.22,54.5,-0.9,0.1,0.1,-3.6,23.8,194.8,8.3,1
8.3,-1.7,-8.55,-0.9,39.8,100.0,33.4,2.2,-0.1,-0.4,-3.6,2.9,211.4,6.9,1
-0.8,-2.2,-14.22,0.5,93.4,103.54,-16.6,4.6,0.9,0.5,1.6,2.1,137.4,9.8,2
0.3,-1.2,4.06,10.4,51.9,100.0,-63.9,2.7,1.5,-1.8,-7.5,5.1,80.6,13.0,1
0.8,0.1,-5.77,2.0,84.4,100.0,-78.4,-6.1,3.0,0.0,0.1,-1.5,111.9,16.9,3
5.22,7.33,-16.7,5.84,38.26,85.11,-11.74,3.98,1.32,0.29,-2.01,4.45,192.3,7.89,2
-4.89,-4.47,-15.29,-6.43,150.95,104.53,-119.85,-6.11,-0.07,7.19,8.09,-2.09,162.61,20.0,4
-2.9,-3.2,-10.3,1.1,51.8,93.78,-60.6,-0.3,1.0,2.9,6.4,1.9,71.1,14.1,1
-1.7,-8.6,7.91,5.6,41.6,92.0,-67.5,-6.5,0.9,3.3,-4.8,-5.4,96.8,16.9,1
0.48,-1.72,-9.86,-3.76,82.08,103.28,-27.95,0.79,-0.27,1.22,3.79,0.7,122.95,9.62,3
-4.75,-3.05,-18.45,3.01,120.85,97.85,-137.61,-6.32,0.33,4.57,13.07,-2.58,269.06,14.01,4
0.0,5.3,-1.35,15.8,39.9,104.36,-42.9,15.0,3.1,-2.1,-7.4,4.3,56.5,9.2,1
2.9,-2.8,9.08,3.6,57.8,100.0,37.4,-1.4,4.9,-0.6,-2.2,8.8,134.8,5.7,1
-0.57,-3.14,1.01,4.55,97.74,100.79,-14.23,1.55,0.74,0.2,-0.29,6.35,143.1,10.42,3
-0.3,-3.6,-14.64,19.5,104.4,90.26,-164.7,-3.7,0.6,-2.2,-6.2,2.6,278.4,13.7,2
0.58,-2.31,3.5,-0.81,131.38,103.67,-113.7,-0.22,0.42,-2.07,-8.36,-2.02,173.33,13.31,3
-1.11,-1.6,-0.68,1.9,95.28,99.88,-16.86,2.03,0.61,-0.19,-1.31,6.76,150.92,9.52,2
-3.3,-6.4,18.62,-1.7,93.9,103.14,-127.3,-4.1,-0.4,-3.2,-11.3,6.7,304.0,13.0,3
2.0,-4.7,-21.72,0.4,81.9,92.57,-3.2,3.8,0.8,0.0,-1.3,1.2,128.2,4.8,1
4.03,0.13,-2.99,1.97,79.35,101.73,-32.77,0.81,0.9,0.16,-1.96,-2.39,87.94,9.19,2
-2.2,-6.47,-1.93,7.58,106.59,100.4,-150.02,-10.49,0.27,2.42,1.8,6.13,343.74,15.48,3
-4.9,0.2,1.09,11.7,86.8,105.51,0.3,3.7,0.9,-1.4,-7.7,8.8,166.4,5.4,1
-7.98,-2.44,-6.16,-3.66,102.22,105.18,-97.55,-1.17,-0.25,2.31,7.49,-0.98,182.41,11.12,4
2.38,0.74,-11.32,-0.32,73.57,103.61,-38.68,1.61,0.18,1.7,4.66,-3.66,100.89,9.1,2
-3.43,-1.97,-19.77,9.9,111.5,99.16,-158.63,-6.47,0.71,5.8,13.5,-1.07,336.26,14.48,4
5.0,-1.0,21.39,0.4,22.3,109.55,51.8,4.0,-0.6,0.5,-6.8,27.4,322.9,6.1,1
-3.97,-0.16,13.37,1.86,37.44,102.16,-64.07,-1.66,0.45,0.8,1.86,-0.95,68.2,7.0,4
-3.17,-6.72,15.27,-1.23,96.9,102.72,-129.51,-5.77,-0.34,-2.29,-10.83,8.43,312.04,13.54,3
-3.83,0.09,13.52,1.46,37.5,101.87,-63.59,-2.8,0.28,0.8,1.76,-1.12,67.67,7.0,4
0.09,-0.28,-11.46,1.41,84.53,101.12,-81.91,-6.39,2.58,0.71,3.53,-0.91,114.12,16.86,3
7.4,-1.5,-3.18,2.6,72.1,100.0,46.6,5.9,0.4,-0.4,-0.8,2.9,97.8,4.9,2
-0.4,-0.2,-12.95,1.2,105.5,100.51,43.2,7.4,-0.2,-0.1,1.3,7.9,163.0,7.7,2
1.0,-1.7,-13.57,2.7,105.2,100.0,45.2,0.5,0.7,1.0,2.3,12.1,176.1,8.5,1
7.0,-0.4,-9.53,4.6,75.7,95.98,40.8,7.4,0.4,-0.6,-0.8,-0.3,98.4,5.2,2
1.07,-2.05,-6.07,-5.14,97.91,98.51,-90.45,-2.69,0.32,2.51,2.79,-5.64,164.66,24.16,2
0.95,-0.63,-18.39,-8.4,72.34,104.76,-46.85,-1.0,-0.52,1.95,7.12,-3.13,108.79,10.32,3
-8.41,-2.9,-7.62,-3.54,106.39,105.74,-100.32,0.26,-0.09,2.41,7.98,-0.78,190.53,11.39,4
-0.3,-3.5,27.95,6.5,50.6,104.11,-61.2,4.1,1.7,-2.3,-9.1,2.9,76.5,6.2,1
-0.6,-10.0,-6.24,5.2,42.2,96.3,-36.6,4.0,3.0,0.0,-2.2,1.7,71.5,6.7,1
-2.2,-2.0,5.15,17.4,51.3,111.76,-68.3,8.1,1.8,-4.2,-10.8,9.6,94.5,9.8,1
-8.15,-3.24,-10.81,-4.82,120.46,105.67,-106.71,-1.43,-0.26,3.36,8.52,-1.1,197.3,13.24,4
7.0,-2.4,-8.35,10.3,61.7,114.1,20.1,5.3,0.3,0.4,1.4,8.2,247.2,4.8,1
-4.72,-2.97,-14.53,-3.72,129.72,95.93,-119.57,-5.48,-0.21,3.53,11.86,-3.21,207.97,14.02,4
-6.98,-2.58,-13.18,0.65,112.74,103.85,-123.2,-2.42,0.05,3.72,10.2,-0.84,251.74,12.76,4
-2.53,-1.06,-9.35,-5.07,131.07,94.48,-120.08,-4.13,-0.61,3.59,10.28,-1.91,203.24,14.81,4
2.8,0.1,23.24,3.9,78.0,104.96,-65.6,-3.9,0.3,-5.5,-17.7,1.5,97.8,13.5,3
-1.4,2.1,-23.06,1.4,63.0,100.0,4.8,3.2,0.6,0.7,3.4,6.8,151.5,8.8,2
0.97,-4.63,-0.54,6.01,37.3,108.81,-46.62,5.8,-0.26,-1.12,-5.21,1.09,107.04,8.97,3
-3.3,3.4,-11.62,-7.7,84.2,88.7,-17.8,3.9,1.0,0.2,0.8,6.6,170.2,7.8,2
-0.9,-1.1,-5.63,-1.2,46.5,123.73,-39.8,7.7,-1.5,1.7,5.3,0.5,112.9,7.1,2
0.7,-3.1,0.87,-1.6,131.2,100.0,-118.9,0.2,0.0,-0.5,-6.0,-1.9,179.5,14.4,3
5.1,-3.7,-9.63,12.6,45.2,89.38,-2.3,7.5,1.6,-0.1,0.1,4.6,193.3,8.0,2
-0.1,-4.5,-20.85,-0.7,53.6,113.34,-44.0,0.1,-1.4,2.5,7.0,-2.8,112.2,8.1,3
-0.6,-3.2,1.14,4.6,98.0,100.81,-13.0,1.7,0.7,0.2,-0.3,6.5,143.7,10.3,3
-1.9,-5.6,-19.39,-7.9,178.9,103.49,-131.9,-10.4,0.1,10.7,7.7,-3.0,130.8,26.2,4
-6.4,-2.37,4.13,1.38,65.45,104.89,-81.02,4.12,0.96,1.46,4.81,-0.14,120.65,8.8,4
1.3,-0.6,-18.21,-10.1,70.0,105.16,-39.3,0.1,-1.0,2.0,6.9,-3.7,107.2,9.1,3
-3.16,-1.61,-10.84,-4.68,130.68,94.9,-119.93,-4.52,-0.49,3.57,10.74,-2.29,204.61,14.58,4
0.36,-0.58,3.54,-3.26,112.78,106.26,-102.42,-0.66,1.19,0.3,-0.0,-3.29,168.99,16.68,2
-0.1,-4.3,-15.53,-5.1,104.8,100.36,40.8,4.9,0.0,-0.1,-2.1,14.7,191.0,7.7,2
-3.81,0.13,13.55,1.39,37.51,101.82,-63.5,-3.02,0.25,0.8,1.75,-1.15,67.58,7.0,4
