PC_CA-avg_3y,REER-pch_3y,X_GS_share_M-pch_5y,FSL-pch,GD-pc_gdp,HPI-pch,NIIP-pc_gdp,ULC-pch_3y,ACT-pch_3y,LTU-pch_3y,YUR-pch_3y,PSCF-pc_gdp,PSD-pc_gdp,UR-avg_3y,label
6.6,0.1,-3.82,10.9,18.7,86.73,28.9,8.8,1.1,-0.2,-0.9,21.4,284.3,4.8,1
-4.35,-2.65,-13.64,-3.95,129.95,95.68,-119.66,-5.25,-0.28,3.54,11.59,-2.99,207.16,14.16,4
-2.1,-12.2,-18.34,-1.8,119.9,78.23,-137.8,-9.9,-1.9,5.7,6.3,-0.5,279.1,15.2,4
-2.2,-2.0,5.15,17.4,51.3,111.76,-68.3,8.1,1.8,-4.2,-10.8,9.6,94.5,9.8,1
-1.59,-3.58,-4.61,-11.86,176.8,98.27,-138.74,-3.1,0.72,-0.64,-5.12,-1.45,120.93,23.95,4
-7.1,-2.4,-9.47,-4.72,118.65,102.96,-108.12,-1.32,-0.4,2.85,8.92,-1.07,203.68,12.67,4
5.4,0.5,16.34,37.8,22.7,94.97,59.3,7.1,2.9,0.2,5.9,28.7,324.9,5.7,1
1.7,-0.13,3.69,0.66,78.7,102.67,-65.49,-4.41,1.29,-3.06,-12.88,-0.93,104.75,14.24,3
-0.8,-1.3,-14.53,5.6,94.9,101.8,-15.6,4.4,1.3,0.5,1.6,3.2,141.5,10.1,3
-0.37,-0.64,-13.7,1.17,83.97,102.54,-83.97,-6.56,1.98,0.5,3.11,-0.12,114.62,16.56,3
7.4,-1.5,-3.18,2.6,72.1,100.0,46.6,5.9,0.4,-0.4,-0.8,2.9,97.8,4.9,2
0.19,-0.97,-16.27,-1.84,83.11,103.39,-26.82,2.36,0.21,1.21,4.11,-0.07,125.26,9.63,3
-4.2,-4.54,-25.8,-16.56,177.57,108.41,-130.57,-10.05,-0.25,12.56,23.25,-3.88,132.13,23.64,4
0.25,-3.46,-2.11,-1.24,123.92,101.13,-114.04,-0.64,0.19,0.67,-2.56,-3.41,180.96,15.63,3
1.2,1.7,19.36,16.7,40.6,95.51,-46.8,8.7,2.3,-3.2,-13.3,0.2,54.2,12.0,1
1.9,-0.8,24.41,-0.2,6.1,74.62,-54.0,-2.2,0.5,5.4,10.4,-0.8,118.9,14.2,1
7.0,-0.4,-9.53,4.6,75.7,95.98,40.8,7.4,0.4,-0.6,-0.8,-0.3,98.4,5.2,2
0.31,-0.93,-16.47,-2.66,81.79,103.57,-28.08,2.14,0.09,1.29,4.39,-0.43,123.44,9.57,3
-1.4,0.4,-15.78,3.9,62.6,100.14,5.2,0.4,0.7,0.6,0.2,1.5,148.0,9.0,1
-0.3,-3.6,-14.64,19.5,104.4,90.26,-164.7,-3.7,0.6,-2.2,-6.2,2.6,278.4,13.7,2
-6.1,-2.29,5.89,2.12,59.33,104.77,-78.13,4.69,1.12,1.32,4.33,-0.05,110.21,8.41,4
1.9,0.01,10.88,3.54,80.69,102.31,-71.71,-5.43,1.74,-4.51,-18.06,-0.03,103.46,15.39,3
2.3,-3.3,20.41,7.1,25.3,112.26,-43.3,13.5,2.3,-3.5,-10.9,4.1,99.0,7.7,2
-8.66,-2.95,-9.88,-4.52,114.75,105.66,-104.43,-0.57,-0.31,2.62,8.63,-0.91,204.16,11.96,4
2.3,-4.3,2.9,2.5,99.2,104.41,-85.5,-1.2,-0.1,-3.5,-11.1,-0.7,147.5,22.1,2
2.14,-3.52,-20.54,-0.89,77.42,87.31,-77.56,6.96,2.65,-0.63,-0.38,-0.89,93.42,10.54,2
-2.05,-0.68,-8.5,-5.66,132.39,94.45,-120.42,-3.93,-0.69,3.8,10.23,-1.65,200.6,15.18,4
-2.68,-6.15,-19.35,5.92,113.74,90.47,-152.78,-7.94,-0.34,5.93,10.51,-0.62,321.56,14.85,4
0.14,-6.56,47.25,1.57,81.44,102.39,-165.42,-14.91,0.79,-3.0,-8.51,-13.36,281.63,10.89,2
4.6,-0.6,3.7,3.4,78.7,103.87,-28.9,1.3,1.1,-0.9,-6.4,-0.8,81.1,8.9,2
-1.4,2.1,-23.06,1.4,63.0,100.0,4.8,3.2,0.6,0.7,3.4,6.8,151.5,8.8,2
-5.6,-5.0,17.63,10.4,70.2,95.13,6.3,11.1,2.7,0.4,1.6,6.8,168.5,6.7,1
1.27,-2.49,-8.5,1.75,131.18,100.09,-18.6,1.97,0.52,1.18,4.42,-0.53,118.26,11.99,3
2.9,-2.8,9.08,3.6,57.8,100.0,37.4,-1.4,4.9,-0.6,-2.2,8.8,134.8,5.7,1
-2.9,-7.4,7.99,-0.2,103.4,101.8,-134.3,-9.4,-0.2,-0.3,-9.8,12.2,329.5,14.7,3
-4.95,-3.22,-18.25,1.96,122.27,97.65,-134.42,-6.3,0.27,4.38,13.01,-2.81,258.86,13.94,4
-0.71,-2.18,-7.28,5.14,96.33,101.34,-14.4,3.15,1.02,0.36,0.72,4.73,142.52,10.19,3
-1.8,0.2,-32.46,-11.6,56.2,101.77,3.0,9.3,0.7,-0.3,-1.5,2.8,147.0,7.9,2
0.0,-8.2,-2.16,8.1,40.0,100.0,-32.9,0.1,2.4,-0.6,-6.9,0.3,68.1,6.1,1
1.5,-4.7,9.44,9.3,29.3,106.59,-47.9,8.6,0.3,-2.9,-11.2,3.0,104.5,9.4,3
-1.73,-6.01,5.68,-0.65,112.41,101.22,-129.31,-6.29,-0.14,-0.36,-8.57,7.63,280.88,14.6,3
1.8,0.0,9.47,3.5,81.0,102.01,-72.4,-5.6,1.9,-4.4,-18.1,-0.2,104.1,15.6,3
0.1,-1.8,-7.32,-7.5,132.9,97.92,-123.8,-2.9,-0.4,2.2,4.5,-5.7,190.5,15.4,3
-0.9,-1.1,-5.63,-1.2,46.5,123.73,-39.8,7.7,-1.5,1.7,5.3,0.5,112.9,7.1,2
-2.7,-10.9,-18.18,-1.99,121.34,81.16,-134.87,-9.31,-1.6,5.35,7.32,-1.04,268.22,14.95,4
-0.7,-4.4,-15.44,6.9,87.8,108.42,-8.7,5.4,0.3,1.1,3.6,6.4,135.3,9.2,2
5.0,-1.0,21.39,0.4,22.3,109.55,51.8,4.0,-0.6,0.5,-6.8,27.4,322.9,6.1,1
-5.0,-2.0,12.3,4.8,37.0,104.31,-67.6,6.8,1.7,0.8,2.6,0.3,72.1,7.0,4
4.29,-0.69,2.68,3.24,79.53,103.85,-28.2,1.49,1.09,-0.82,-5.95,-0.64,84.29,8.95,2
2.06,-2.64,15.37,6.98,50.23,105.89,-55.51,3.23,0.3,-4.02,-13.99,2.36,101.62,11.16,3
2.2,-3.1,1.19,4.2,134.1,97.93,-7.7,1.3,1.5,-1.2,-8.0,1.3,108.8,11.6,3
1.76,-2.93,16.05,5.71,28.85,114.18,-42.71,12.53,1.66,-2.63,-8.19,3.5,101.33,7.6,2
-6.0,-3.97,-17.04,-3.05,128.5,97.03,-118.77,-6.0,-0.01,3.47,12.56,-3.8,210.28,13.54,4
-3.3,3.4,-11.62,-7.7,84.2,88.7,-17.8,3.9,1.0,0.2,0.8,6.6,170.2,7.8,2
1.61,-2.51,-7.97,1.85,135.11,99.67,-17.46,1.89,0.66,0.9,2.93,-0.97,114.1,12.1,3
-1.2,-0.6,11.9,-1.2,38.7,89.75,-50.6,6.1,2.2,-2.3,-13.8,-0.3,56.7,13.5,1
-0.8,-7.8,-18.3,1.4,90.6,106.3,-12.8,4.1,0.5,0.8,0.8,4.2,138.3,9.4,2
-3.4,-1.82,-11.41,-4.54,130.54,95.06,-119.88,-4.66,-0.45,3.56,10.91,-2.43,205.12,14.5,4
2.3,-6.4,37.84,9.6,76.7,100.0,-198.4,-18.6,1.0,-3.9,-10.6,-2.3,305.1,11.9,2
-1.7,-6.7,27.02,-0.7,39.8,89.47,-54.3,-4.2,2.2,3.3,-2.9,0.3,61.1,15.5,1
1.39,-0.49,-13.05,-7.57,72.05,104.57,-45.47,-0.96,-0.46,0.81,2.24,-3.05,106.62,10.31,3
-0.5,1.7,26.02,2.0,37.2,92.55,-53.6,-7.8,3.0,6.7,19.3,-1.8,68.8,15.7,1
-2.51,-5.32,-21.08,-10.18,178.55,104.79,-131.55,-10.31,0.01,11.19,11.8,-3.23,131.15,25.52,4
5.6,10.3,-19.51,5.6,37.7,78.8,-15.5,4.0,1.4,0.4,-1.3,2.4,191.0,8.1,2
-1.89,-4.96,-16.52,-0.19,90.82,106.09,-92.29,-4.8,1.04,6.26,14.16,-10.67,188.69,21.36,3
6.9,-2.5,-17.81,1.8,44.0,91.0,37.2,1.5,-1.3,0.3,-0.7,-3.0,216.1,7.7,1
2.8,0.1,23.24,3.9,78.0,104.96,-65.6,-3.9,0.3,-5.5,-17.7,1.5,97.8,13.5,3
-2.41,-1.48,5.76,-7.02,116.13,98.77,-106.94,-2.6,0.51,-1.86,-4.29,-1.17,95.87,16.24,4
-5.9,-4.0,-17.3,-3.0,129.0,96.71,-119.3,-6.2,0.0,3.5,12.7,-3.9,210.5,13.6,4
2.4,-1.8,-12.5,1.5,82.4,88.31,-1.9,5.8,0.7,0.2,0.4,3.0,129.4,4.9,1
0.42,-3.32,-0.95,-1.38,126.74,100.69,-115.92,-0.32,0.12,0.21,-3.9,-2.82,180.39,15.15,3
2.0,-4.7,-21.72,0.4,81.9,92.57,-3.2,3.8,0.8,0.0,-1.3,1.2,128.2,4.8,1
1.17,-4.48,11.49,9.41,27.48,102.97,-55.55,11.85,1.35,-1.96,-8.61,-0.58,107.14,10.39,3
1.9,-3.8,-22.85,-1.3,77.3,85.73,-82.2,7.5,2.8,-0.6,0.2,-0.9,94.6,10.7,2
2.36,0.06,17.2,3.72,79.32,103.67,-68.58,-4.65,1.0,-5.02,-17.88,0.75,100.56,14.42,3
2.1,-2.4,26.53,-6.2,43.1,92.23,-74.7,-20.6,-1.4,6.9,17.4,-2.4,115.2,17.7,1
2.0,3.0,2.18,14.3,9.3,105.85,-32.5,12.4,3.6,-1.4,-2.9,4.8,107.6,6.3,1
-0.6,-3.2,1.14,4.6,98.0,100.81,-13.0,1.7,0.7,0.2,-0.3,6.5,143.7,10.3,3
0.9,-4.3,13.16,9.5,26.0,100.0,-61.8,14.5,2.2,-1.2,-6.5,-3.5,109.3,11.2,3
-2.87,-6.01,5.68,-0.88,91.18,104.51,-113.55,-4.42,0.17,0.35,-1.81,0.29,262.63,16.22,3
-3.15,-1.74,-20.05,11.32,109.58,99.43,-162.95,-6.49,0.78,6.05,13.58,-0.76,350.07,14.58,4
-3.2,-1.7,5.89,5.7,39.4,98.21,-66.7,8.0,1.0,-3.1,-13.0,-0.6,91.0,14.4,1
2.06,-1.6,19.34,6.07,57.88,103.04,-64.13,3.22,1.04,-3.84,-13.37,-0.43,102.25,12.61,3
-2.06,-7.94,-14.58,-3.12,124.13,84.07,-131.33,-7.66,-1.46,4.93,7.62,-0.9,250.8,15.13,4
8.3,-1.7,-8.55,-0.9,39.8,100.0,33.4,2.2,-0.1,-0.4,-3.6,2.9,211.4,6.9,1
2.0,0.2,2.7,2.2,78.3,110.5,2.8,4.0,1.0,0.3,-0.5,3.6,121.8,5.7,1
5.9,-4.9,-9.35,3.1,79.8,90.51,23.3,5.6,1.4,-1.1,-1.9,2.0,102.4,6.8,1
-1.3,-1.4,9.18,2.4,51.3,100.0,-62.1,0.2,1.6,-1.1,-5.7,3.5,78.9,8.9,1
-0.29,-1.41,-11.98,-4.37,114.27,99.76,-109.5,-4.41,0.53,2.01,5.97,-3.54,162.17,15.94,3
-2.99,-2.83,-19.91,10.15,110.36,97.18,-160.99,-6.87,0.51,6.06,12.81,-0.68,344.83,14.66,4
-0.6,4.8,10.22,4.7,40.2,107.31,-59.0,16.7,2.3,-1.7,-5.9,2.3,80.5,10.1,1
8.4,-1.8,1.52,-0.1,56.9,110.72,59.4,-0.1,0.7,-1.0,-3.8,3.7,249.1,5.9,2
-2.01,-1.8,-9.16,-5.03,130.21,92.49,-122.02,-4.43,-0.82,3.82,9.53,-1.49,210.07,15.02,4
1.0,-1.7,-13.57,2.7,105.2,100.0,45.2,0.5,0.7,1.0,2.3,12.1,176.1,8.5,1
-2.67,-6.2,-19.35,5.85,113.79,90.37,-152.65,-7.96,-0.36,5.93,10.47,-0.61,321.2,14.86,4
-1.98,-0.71,-7.73,-5.76,133.52,94.25,-121.17,-3.67,-0.62,3.25,9.02,-1.57,198.13,15.39,4
-3.48,-2.43,6.81,-2.91,97.31,101.04,-99.27,3.42,1.35,-1.24,-2.34,-0.26,92.03,14.06,4
-0.64,-2.82,-1.98,4.8,97.38,101.01,-13.52,2.24,0.82,0.26,0.08,5.84,143.26,10.26,3
-4.8,1.4,1.39,10.7,53.7,101.1,-65.3,5.3,1.8,1.6,5.9,4.8,73.4,9.8,1
-1.0,2.7,20.49,4.1,37.8,100.0,-54.6,0.6,1.3,0.0,-0.9,0.2,58.0,6.9,1
-5.0,-1.66,-8.9,-5.0,123.89,99.33,-113.09,-2.34,-0.52,3.16,9.33,-1.29,203.03,13.63,4
-2.06,-7.14,-13.88,-3.37,124.91,85.16,-130.13,-7.24,-1.38,4.78,7.87,-0.98,245.54,15.11,4
-2.8,6.0,-21.25,-3.6,83.2,88.09,-28.1,3.0,0.4,0.8,2.1,1.5,176.1,7.9,2
1.7,0.7,-18.42,-3.2,81.3,95.34,1.3,6.4,1.1,0.1,0.2,1.0,127.1,5.0,1
-1.7,2.7,-27.3,9.3,59.8,100.2,-3.1,7.6,0.5,0.2,0.4,1.7,148.8,8.2,2
4.9,-2.0,18.08,5.3,74.1,110.35,-24.2,3.7,3.3,-2.2,-9.0,0.9,76.3,7.9,1
-0.9,-0.8,-19.37,0.6,84.7,102.67,-86.8,-6.8,2.0,1.7,8.3,-0.1,117.2,16.8,3
-0.7,2.1,-4.08,1.4,54.7,93.4,-62.2,2.6,1.2,0.8,-0.2,5.0,75.2,14.0,1
-1.9,-5.58,-19.21,-7.95,178.87,103.43,-131.98,-10.31,0.11,10.56,7.55,-2.98,130.68,26.17,4
-3.3,-6.4,18.62,-1.7,93.9,103.14,-127.3,-4.1,-0.4,-3.2,-11.3,6.7,304.0,13.0,3
9.5,0.7,-11.35,8.0,67.8,96.72,48.0,3.7,0.9,1.3,2.7,4.3,267.2,6.8,2
-1.9,-5.6,-19.39,-7.9,178.9,103.49,-131.9,-10.4,0.1,10.7,7.7,-3.0,130.8,26.2,4
-0.4,-0.2,-12.95,1.2,105.5,100.51,43.2,7.4,-0.2,-0.1,1.3,7.9,163.0,7.7,2
-8.8,-3.0,-9.92,-4.5,114.4,105.9,-104.1,-0.5,-0.3,2.6,8.6,-0.9,204.2,11.9,4
-0.3,4.8,20.52,13.0,10.6,93.21,-46.7,14.8,0.5,-3.8,-7.4,5.6,115.4,8.7,1
-3.47,0.28,12.85,-0.09,46.49,101.09,-67.8,-4.46,0.06,0.5,0.93,-1.37,70.09,8.05,4
-4.9,0.2,1.09,11.7,86.8,105.51,0.3,3.7,0.9,-1.4,-7.7,8.8,166.4,5.4,1
-2.49,-8.07,-19.03,3.47,115.69,86.59,-148.03,-8.56,-0.84,5.86,9.17,-0.58,308.11,14.96,4
-0.39,-2.58,-9.59,-5.7,122.54,99.93,-116.04,-3.37,-0.04,3.2,6.88,-6.92,190.06,16.87,3
6.5,-7.8,-17.73,2.5,44.9,88.3,36.1,-0.2,-1.6,1.5,2.3,7.9,224.0,7.8,2
0.4,-7.1,58.59,1.5,73.9,107.14,-171.7,-17.7,0.9,-3.8,-9.9,-15.7,284.4,10.1,2
-3.4,-4.3,-0.26,7.4,55.7,96.29,-68.9,3.1,1.7,1.4,3.6,3.3,75.4,10.0,1
-3.1,-1.7,-20.1,11.6,109.2,99.48,-163.8,-6.5,0.8,6.1,13.6,-0.7,352.8,14.6,4
-0.8,-4.0,-1.01,11.7,16.7,97.0,-77.7,12.2,-0.1,3.8,13.0,2.6,128.3,11.3,2
-2.1,-5.3,-17.51,0.6,86.3,106.97,-88.9,-5.0,1.2,6.7,15.2,-11.2,188.5,22.0,3
-1.5,-3.0,-0.36,-13.0,176.2,96.77,-140.7,-1.0,0.9,-3.9,-8.8,-1.0,118.1,23.3,4
-2.0,-0.6,-8.1,-5.4,131.4,94.13,-120.2,-3.8,-0.7,3.6,9.9,-1.6,202.1,15.0,4
4.97,-0.07,-9.33,3.72,38.58,91.09,-3.48,4.02,0.75,0.36,-0.3,9.37,192.41,7.75,2
-3.04,-0.43,10.01,-2.86,74.38,100.16,-83.47,-3.72,0.24,-0.45,-1.16,-1.29,80.41,11.33,4
-5.16,-5.59,-17.5,-2.77,127.24,93.13,-122.89,-6.92,-0.37,3.93,11.46,-3.24,223.8,13.91,4
6.6,-1.8,-12.99,-6.4,78.7,93.91,34.7,6.1,0.9,-1.0,-2.0,2.0,103.0,5.5,2
-2.8,-7.8,-25.92,10.4,80.1,89.4,-11.6,5.8,-0.3,1.3,6.3,1.6,176.6,7.8,2
0.4,-3.6,6.93,10.9,9.8,76.91,-50.7,0.1,0.8,1.8,-6.5,7.6,117.2,13.0,1
0.1,-5.59,26.96,9.28,87.07,99.85,-168.68,-11.65,0.77,-3.11,-8.3,-7.8,281.81,11.66,2
-1.98,-4.87,-17.69,0.6,86.15,106.56,-88.7,-5.17,1.28,6.22,14.54,-10.13,181.65,21.5,3
-4.77,-6.43,-17.61,-2.64,126.31,91.24,-124.78,-7.3,-0.56,4.15,10.8,-2.89,230.81,14.07,4
2.16,-2.25,16.47,6.55,54.12,105.76,-56.92,2.23,0.3,-4.23,-14.51,2.24,101.09,11.49,3
-2.0,2.5,13.52,13.2,36.7,100.0,-64.1,17.2,1.3,-3.3,-12.2,-0.5,80.4,10.9,1
-4.2,-0.58,13.13,2.52,37.34,102.65,-64.87,0.25,0.73,0.8,2.03,-0.67,69.08,7.0,4
7.0,-2.4,-8.35,10.3,61.7,114.1,20.1,5.3,0.3,0.4,1.4,8.2,247.2,4.8,1
1.07,-2.46,10.43,3.92,33.43,116.66,-41.96,11.28,0.84,-1.51,-4.69,2.72,104.33,7.47,2
-2.9,-3.2,-10.3,1.1,51.8,93.78,-60.6,-0.3,1.0,2.9,6.4,1.9,71.1,14.1,1
0.7,-3.1,0.87,-1.6,131.2,100.0,-118.9,0.2,0.0,-0.5,-6.0,-1.9,179.5,14.4,3
-0.8,-2.2,-14.22,0.5,93.4,103.54,-16.6,4.6,0.9,0.5,1.6,2.1,137.4,9.8,2
-3.2,1.9,11.12,4.3,15.2,102.33,-82.8,17.9,-1.9,3.4,13.1,3.5,129.1,9.5,2
1.9,-3.2,-3.29,-2.0,99.3,100.0,-88.9,-1.1,0.0,0.4,-4.6,-2.7,155.8,24.2,2
-0.64,-3.61,-14.97,5.83,91.12,106.93,1.05,5.78,0.21,0.87,3.17,6.68,140.5,8.92,2
-7.2,-1.92,-2.64,-2.87,90.78,104.51,-91.4,-1.79,-0.21,2.05,6.45,-1.05,161.95,10.39,4
5.8,3.2,-12.21,1.8,37.3,78.22,-8.3,4.1,0.6,0.7,2.6,7.0,189.1,8.2,2
0.5,1.7,8.2,6.2,38.6,113.36,-56.2,15.2,2.4,-1.3,-2.6,2.4,76.9,9.4,1
-0.25,-1.12,-15.5,1.47,88.35,102.68,-21.84,3.27,0.69,0.89,2.99,1.38,132.48,9.84,3
-6.67,-2.25,-9.35,-4.78,119.72,102.21,-109.14,-1.53,-0.43,2.91,9.01,-1.12,203.54,12.87,4
-2.7,-3.2,-19.21,5.1,119.7,124.69,-18.2,4.9,-0.8,1.3,8.0,3.1,121.8,8.2,2
-3.6,0.5,13.76,0.8,37.6,101.39,-62.8,-4.7,0.0,0.8,1.6,-1.4,66.8,7.0,4
-2.95,-7.26,9.43,-0.4,102.12,101.98,-133.35,-8.68,-0.23,-0.69,-10.0,11.46,326.05,14.47,3
-4.5,-10.8,-1.18,-1.7,86.2,108.73,-10.0,5.1,0.9,-1.1,-4.9,7.2,167.7,4.8,1
1.49,-4.47,7.9,8.22,31.57,106.51,-47.42,8.13,0.23,-2.63,-10.19,2.63,104.65,9.38,3
1.03,-3.14,1.17,4.37,119.01,99.13,-9.92,1.47,1.17,-0.61,-4.78,3.47,123.39,11.06,3
-4.3,3.4,-2.78,0.6,43.5,99.72,-63.9,5.4,-0.1,2.6,14.4,2.9,69.5,13.4,1
-2.9,-7.6,12.18,8.6,67.7,95.5,19.6,8.6,4.5,0.1,-0.7,0.1,162.4,6.5,2
7.63,-4.24,-6.32,0.96,52.01,101.59,49.91,-0.14,-0.24,0.02,-1.32,5.41,238.88,6.67,2
-0.6,-0.77,-19.21,-0.88,82.67,103.01,-80.24,-5.85,1.59,1.74,8.11,-0.6,115.82,15.74,3
4.1,-9.2,-7.55,9.1,42.3,107.27,0.1,2.8,1.0,-0.1,-4.7,8.1,192.0,7.4,2
-1.87,-5.38,-17.81,-8.32,178.68,102.93,-132.63,-9.62,0.17,9.49,6.33,-2.83,129.74,25.96,4
0.29,-0.94,-16.45,-2.57,81.94,103.55,-27.94,2.16,0.1,1.28,4.36,-0.39,123.65,9.58,3
-1.73,-4.49,-11.25,-10.08,177.75,100.62,-135.66,-6.38,0.44,4.45,0.64,-2.14,125.37,24.96,4
-0.2,-0.3,-10.28,-9.9,95.8,96.24,-92.8,-5.1,0.8,5.7,14.0,-10.1,178.1,24.1,2
-1.93,-4.21,-16.25,-7.21,165.71,100.89,-128.65,-8.57,-0.12,8.73,8.31,-2.61,150.6,23.09,4
-2.4,-5.57,-8.5,0.03,88.19,106.02,-98.47,-4.78,0.8,4.23,8.59,-6.74,217.3,19.76,3
-4.87,-3.1,-14.86,-3.64,129.64,96.03,-119.54,-5.56,-0.19,3.53,11.96,-3.29,208.28,13.97,4
1.79,-2.69,-5.15,2.57,134.8,99.13,-14.45,1.71,0.92,0.25,-0.44,-0.27,112.47,11.95,3
3.6,-5.5,-4.56,6.9,40.7,112.4,4.5,3.9,1.0,-0.2,-5.1,13.3,197.9,7.0,2
0.9,-0.4,-5.01,2.4,104.9,101.22,54.5,-0.9,0.1,0.1,-3.6,23.8,194.8,8.3,1
1.5,-2.4,-9.7,1.4,135.3,100.0,-19.3,2.0,0.5,1.3,5.0,-1.4,115.1,12.2,3
-1.2,-3.8,-10.57,1.9,119.9,78.16,-133.4,-0.7,0.2,1.1,-1.4,-1.4,267.5,14.9,2
-2.0,-1.75,-9.06,4.26,64.87,98.21,10.68,5.35,2.15,0.46,1.77,4.14,155.83,7.89,2
1.91,-2.81,-3.32,3.04,134.6,98.79,-12.51,1.59,1.09,-0.16,-2.61,0.18,111.41,11.85,3
-2.75,-5.35,-19.49,6.94,112.92,92.09,-154.75,-7.68,-0.14,5.96,11.06,-0.63,327.16,14.81,4
5.1,-1.5,33.28,5.2,20.1,105.69,54.6,1.2,0.1,0.4,2.2,-9.6,309.0,6.3,1
-1.2,-2.6,-4.91,-4.0,60.9,101.0,0.1,-3.5,1.3,0.2,-0.4,7.4,145.3,8.9,1
2.3,0.9,-2.83,-2.8,82.9,107.03,4.1,5.4,0.7,0.6,1.5,3.4,123.5,5.8,1
-2.5,-1.33,6.37,-6.42,110.12,98.97,-103.56,-2.76,0.47,-1.66,-3.84,-1.19,93.64,15.53,4
-4.5,-4.4,-26.64,-17.7,177.4,109.06,-130.4,-10.0,-0.3,12.8,25.3,-4.0,132.3,23.3,4
-2.77,-1.37,-16.48,6.47,115.89,97.87,-150.65,-5.69,0.35,5.35,12.48,-0.97,307.35,14.72,4
-4.01,-0.24,13.33,1.99,37.42,102.26,-64.22,-1.29,0.5,0.8,1.9,-0.9,68.37,7.0,4
-3.91,-2.37,-19.29,7.36,114.94,98.68,-150.89,-6.41,0.57,5.35,13.34,-1.63,311.52,14.31,4
-1.0,2.6,3.79,13.9,39.3,109.86,-37.9,16.3,2.2,-2.1,-6.0,4.5,56.1,8.0,1
3.1,0.0,10.82,-7.7,72.9,123.65,-54.9,9.1,4.2,-2.0,-9.7,0.7,70.0,5.4,1
-2.02,-5.23,-16.96,0.53,87.66,106.76,-89.81,-4.84,1.16,6.48,14.56,-10.92,188.23,21.77,3
-1.7,-8.6,7.91,5.6,41.6,92.0,-67.5,-6.5,0.9,3.3,-4.8,-5.4,96.8,16.9,1
8.3,-1.7,-2.87,5.1,37.2,104.7,38.2,2.1,1.9,-0.4,-2.6,2.8,209.5,6.4,1
0.3,-0.9,-0.15,1.1,17.1,97.38,-73.5,15.3,1.7,2.7,6.5,2.6,130.6,12.2,2
2.6,-2.6,9.87,3.4,98.6,109.14,-85.5,-0.5,-0.3,-5.2,-14.6,0.7,139.7,19.6,2
1.3,-0.6,-18.21,-10.1,70.0,105.16,-39.3,0.1,-1.0,2.0,6.9,-3.7,107.2,9.1,3
-2.6,-0.5,7.39,4.3,39.8,98.86,-45.2,3.4,0.8,0.5,8.2,2.1,68.3,6.9,1
-2.1,-6.2,-25.74,7.2,126.5,118.48,-23.0,2.0,1.2,2.2,10.0,-0.9,124.2,9.2,2
-2.53,-7.67,-19.1,3.98,115.28,87.4,-149.02,-8.43,-0.74,5.87,9.45,-0.59,310.9,14.94,4
2.0,1.3,-9.15,-0.1,84.9,100.0,2.2,6.4,0.4,0.5,1.2,2.1,124.0,5.6,1
-4.83,-3.12,-18.37,2.58,121.44,97.77,-136.3,-6.31,0.31,4.49,13.04,-2.68,264.86,13.98,4
1.03,-1.31,-1.46,-4.08,97.03,101.88,-89.61,-3.09,0.32,0.93,1.49,-5.37,161.3,22.13,2
2.0,1.9,-15.75,-0.8,84.0,96.68,3.4,7.9,0.8,0.3,1.4,0.9,124.8,5.3,1
-4.79,-1.63,12.51,4.21,37.09,103.88,-66.9,5.12,1.45,0.8,2.45,0.05,71.32,7.0,4
