PC_CA-avg_3y,REER-pch_3y,X_GS_share_M-pch_5y,FSL-pch,GD-pc_gdp,HPI-pch,NIIP-pc_gdp,ULC-pch_3y,ACT-pch_3y,LTU-pch_3y,YUR-pch_3y,PSCF-pc_gdp,PSD-pc_gdp,UR-avg_3y,label
-1.7,2.7,-27.3,9.3,59.8,100.2,-3.1,7.6,0.5,0.2,0.4,1.7,148.8,8.2,2
-3.99,-2.29,8.64,-0.35,77.29,102.13,-88.76,4.54,1.47,-0.56,-0.7,-0.08,85.41,11.72,4
-1.2,-0.6,11.9,-1.2,38.7,89.75,-50.6,6.1,2.2,-2.3,-13.8,-0.3,56.7,13.5,1
-3.99,-3.43,-24.28,-7.12,152.77,105.6,-142.46,-8.74,0.1,10.38,21.08,-2.81,211.92,20.16,4
-0.5,1.7,26.02,2.0,37.2,92.55,-53.6,-7.8,3.0,6.7,19.3,-1.8,68.8,15.7,1
0.9,-0.4,-5.01,2.4,104.9,101.22,54.5,-0.9,0.1,0.1,-3.6,23.8,194.8,8.3,1
5.8,3.2,-12.21,1.8,37.3,78.22,-8.3,4.1,0.6,0.7,2.6,7.0,189.1,8.2,2
6.34,-7.67,-16.98,2.75,44.66,89.67,34.31,0.03,-1.45,1.4,1.88,8.21,222.52,7.75,2
2.3,-6.4,37.84,9.6,76.7,100.0,-198.4,-18.6,1.0,-3.9,-10.6,-2.3,305.1,11.9,2
0.06,-1.48,-2.58,-0.01,116.65,104.98,-102.85,-2.5,1.11,-1.58,-4.13,-1.47,152.77,13.93,3
-3.3,-6.4,18.62,-1.7,93.9,103.14,-127.3,-4.1,-0.4,-3.2,-11.3,6.7,304.0,13.0,3
-1.5,-3.0,-0.36,-13.0,176.2,96.77,-140.7,-1.0,0.9,-3.9,-8.8,-1.0,118.1,23.3,4
-1.99,-8.47,-18.93,-5.25,153.25,92.51,-134.47,-10.18,-0.77,8.53,7.09,-1.91,195.28,21.42,4
5.1,-1.5,33.28,5.2,20.1,105.69,54.6,1.2,0.1,0.4,2.2,-9.6,309.0,6.3,1
-4.9,-3.2,49.92,4.5,34.0,114.69,-66.1,2.2,1.2,0.5,6.3,2.8,73.7,6.9,4
0.5,-0.6,-13.33,2.5,107.0,99.24,44.8,4.3,1.0,0.8,4.5,-2.0,162.2,8.2,2
-1.7,-8.6,7.91,5.6,41.6,92.0,-67.5,-6.5,0.9,3.3,-4.8,-5.4,96.8,16.9,1
2.29,-2.62,4.49,4.16,125.7,98.98,-16.37,0.52,1.32,-1.84,-9.45,1.33,107.15,11.88,3
2.2,-3.1,1.19,4.2,134.1,97.93,-7.7,1.3,1.5,-1.2,-8.0,1.3,108.8,11.6,3
-4.54,-2.13,10.63,2.45,55.35,103.32,-77.23,5.77,1.59,0.18,1.1,0.13,78.16,9.15,4
0.1,-1.8,-7.32,-7.5,132.9,97.92,-123.8,-2.9,-0.4,2.2,4.5,-5.7,190.5,15.4,3
1.92,0.1,10.52,3.07,80.81,102.78,-71.21,-4.86,1.48,-3.09,-9.89,0.18,103.98,14.99,3
1.5,-2.4,-9.7,1.4,135.3,100.0,-19.3,2.0,0.5,1.3,5.0,-1.4,115.1,12.2,3
-2.03,-9.83,-18.72,-3.99,141.11,87.31,-135.68,-10.08,-1.18,7.5,6.8,-1.4,225.79,19.15,4
2.13,-3.03,0.13,3.93,134.22,98.13,-8.83,1.37,1.4,-0.96,-6.73,1.04,109.42,11.66,3
-2.8,6.0,-21.25,-3.6,83.2,88.09,-28.1,3.0,0.4,0.8,2.1,1.5,176.1,7.9,2
-4.05,-3.54,-24.55,-8.33,155.58,105.99,-141.09,-8.88,0.05,10.66,21.56,-2.94,202.85,20.52,4
-4.38,-9.07,-15.47,-2.72,118.03,87.65,-126.33,-6.7,-1.36,4.64,7.08,-0.64,253.61,14.08,4
0.5,-1.8,5.22,-0.3,131.5,106.06,-110.3,-0.5,0.7,-3.1,-9.9,-2.1,169.3,12.6,3
-2.2,-1.0,20.12,1.2,39.2,98.2,-57.3,6.7,1.6,-0.1,0.1,-2.3,62.1,6.9,2
-2.6,-0.5,7.39,4.3,39.8,98.86,-45.2,3.4,0.8,0.5,8.2,2.1,68.3,6.9,1
0.93,-4.32,12.95,9.49,26.19,100.37,-61.02,14.17,2.09,-1.3,-6.76,-3.13,109.03,11.1,3
1.09,-4.43,11.98,9.44,27.05,102.1,-57.38,12.62,1.6,-1.74,-8.0,-1.43,107.77,10.63,3
2.3,-3.3,20.41,7.1,25.3,112.26,-43.3,13.5,2.3,-3.5,-10.9,4.1,99.0,7.7,2
-1.0,2.7,20.49,4.1,37.8,100.0,-54.6,0.6,1.3,0.0,-0.9,0.2,58.0,6.9,1
-2.95,-3.09,21.04,-5.55,115.67,104.4,-108.94,0.36,1.03,-2.03,-2.37,0.62,99.2,16.32,4
-0.25,-3.8,-19.46,0.68,62.66,110.81,-37.77,1.04,-0.81,2.06,5.81,-1.48,118.63,8.54,3
0.9,-4.3,13.16,9.5,26.0,100.0,-61.8,14.5,2.2,-1.2,-6.5,-3.5,109.3,11.2,3
-0.6,4.8,10.22,4.7,40.2,107.31,-59.0,16.7,2.3,-1.7,-5.9,2.3,80.5,10.1,1
-2.91,-7.38,8.2,-0.23,103.21,101.83,-134.16,-9.29,-0.2,-0.36,-9.83,12.09,328.98,14.67,3
0.35,-0.14,-9.37,1.63,84.48,100.71,-80.62,-6.29,2.74,0.45,2.27,-1.13,113.3,16.87,3
-5.0,-2.01,12.48,4.8,36.99,104.36,-67.59,6.78,1.7,0.8,2.62,0.31,72.11,7.0,4
-4.5,-10.8,-1.18,-1.7,86.2,108.73,-10.0,5.1,0.9,-1.1,-4.9,7.2,167.7,4.8,1
0.3,-1.2,4.06,10.4,51.9,100.0,-63.9,2.7,1.5,-1.8,-7.5,5.1,80.6,13.0,1
0.54,-4.37,0.75,5.78,36.07,104.87,-55.3,9.24,0.89,0.15,-1.57,-3.24,110.36,10.07,3
-3.2,-1.7,5.89,5.7,39.4,98.21,-66.7,8.0,1.0,-3.1,-13.0,-0.6,91.0,14.4,1
1.9,-3.2,-3.29,-2.0,99.3,100.0,-88.9,-1.1,0.0,0.4,-4.6,-2.7,155.8,24.2,2
1.45,-0.23,7.74,2.7,80.44,104.13,-73.31,-4.95,0.92,-2.88,-8.24,0.92,104.86,14.7,3
-1.9,-5.6,-19.39,-7.9,178.9,103.49,-131.9,-10.4,0.1,10.7,7.7,-3.0,130.8,26.2,4
-4.53,-4.61,-15.78,-6.6,154.31,104.41,-121.3,-6.63,-0.05,7.61,8.04,-2.2,158.78,20.75,4
-0.1,-4.3,-15.53,-5.1,104.8,100.36,40.8,4.9,0.0,-0.1,-2.1,14.7,191.0,7.7,2
-3.4,-4.3,-0.26,7.4,55.7,96.29,-68.9,3.1,1.7,1.4,3.6,3.3,75.4,10.0,1
0.94,-4.63,-1.08,5.83,37.74,108.93,-46.55,5.65,-0.29,-1.03,-4.88,0.99,107.17,8.95,3
-2.32,-9.92,-18.72,1.11,117.58,82.84,-143.44,-9.16,-1.31,5.79,7.88,-0.54,295.08,15.07,4
-2.3,-1.0,4.68,0.7,50.4,97.43,-69.1,2.9,2.2,0.2,-1.9,4.6,78.1,9.8,1
-0.8,-1.3,-14.53,5.6,94.9,101.8,-15.6,4.4,1.3,0.5,1.6,3.2,141.5,10.1,3
-0.4,-0.2,-12.95,1.2,105.5,100.51,43.2,7.4,-0.2,-0.1,1.3,7.9,163.0,7.7,2
-0.3,4.8,20.52,13.0,10.6,93.21,-46.7,14.8,0.5,-3.8,-7.4,5.6,115.4,8.7,1
-0.5,-3.0,2.4,4.6,98.4,103.03,-16.6,1.5,0.5,-0.3,-1.9,6.8,145.5,10.0,2
-2.12,-11.97,-18.38,-1.51,119.67,78.69,-138.36,-9.83,-1.84,5.71,6.46,-0.5,280.68,15.19,4
-2.04,-6.21,-4.04,9.45,107.09,100.09,-153.68,-10.6,0.38,3.01,4.6,4.47,346.48,15.62,3
-0.9,-0.8,-19.37,0.6,84.7,102.67,-86.8,-6.8,2.0,1.7,8.3,-0.1,117.2,16.8,3
-1.4,0.4,-15.78,3.9,62.6,100.14,5.2,0.4,0.7,0.6,0.2,1.5,148.0,9.0,1
-2.79,-4.97,-19.55,7.43,112.53,92.86,-155.71,-7.56,-0.04,5.98,11.33,-0.64,329.85,14.79,4
2.7,-5.2,-2.11,19.5,75.5,113.15,-59.6,5.4,5.4,-2.5,-13.7,-3.1,76.6,6.5,1
-1.1,-4.0,-9.78,-10.4,178.5,98.35,-137.6,-3.3,0.7,-1.5,-11.0,-2.1,125.1,25.0,4
-8.25,-3.75,-10.61,-4.28,114.85,103.64,-106.86,-1.27,-0.43,2.85,8.41,-0.87,210.32,12.17,4
4.1,-9.2,-7.55,9.1,42.3,107.27,0.1,2.8,1.0,-0.1,-4.7,8.1,192.0,7.4,2
1.63,0.1,6.26,2.79,81.75,102.06,-73.09,-5.19,1.88,-2.28,-7.28,-0.26,106.05,15.49,3
1.18,-4.02,8.06,8.8,28.51,103.78,-56.64,11.84,1.31,-1.64,-7.6,2.75,112.09,10.41,3
-2.98,-2.92,-19.9,10.04,110.44,97.01,-160.78,-6.9,0.49,6.05,12.75,-0.68,344.24,14.67,4
-1.2,-3.8,-10.57,1.9,119.9,78.16,-133.4,-0.7,0.2,1.1,-1.4,-1.4,267.5,14.9,2
0.26,-1.81,-12.3,3.66,113.54,100.97,-17.31,3.29,0.93,0.87,3.17,1.08,129.32,11.07,3
-5.66,-2.28,-15.53,4.37,111.54,102.36,-136.98,-3.8,0.31,4.53,11.35,-0.79,286.05,13.39,4
-2.69,-6.02,-19.38,6.08,113.61,90.73,-153.09,-7.9,-0.31,5.94,10.59,-0.62,322.45,14.85,4
-0.7,2.1,-4.08,1.4,54.7,93.4,-62.2,2.6,1.2,0.8,-0.2,5.0,75.2,14.0,1
1.0,-1.7,-13.57,2.7,105.2,100.0,45.2,0.5,0.7,1.0,2.3,12.1,176.1,8.5,1
7.9,-2.1,1.07,4.8,35.5,108.16,40.8,2.4,0.7,-0.4,-1.8,0.1,201.7,6.0,1
0.7,-3.31,8.14,8.44,26.73,99.18,-68.69,16.55,2.8,-0.01,-2.99,0.34,120.1,11.86,3
-4.97,-2.42,25.35,4.7,35.96,107.91,-67.08,5.2,1.53,0.7,3.88,1.17,72.65,6.97,4
2.0,-4.7,-21.72,0.4,81.9,92.57,-3.2,3.8,0.8,0.0,-1.3,1.2,128.2,4.8,1
-7.2,-3.08,14.56,-0.82,81.51,109.5,-88.55,0.6,0.31,1.74,7.66,0.61,150.81,9.85,4
2.0,0.2,2.7,2.2,78.3,110.5,2.8,4.0,1.0,0.3,-0.5,3.6,121.8,5.7,1
4.6,-0.6,3.7,3.4,78.7,103.87,-28.9,1.3,1.1,-0.9,-6.4,-0.8,81.1,8.9,2
5.9,-4.9,-9.35,3.1,79.8,90.51,23.3,5.6,1.4,-1.1,-1.9,2.0,102.4,6.8,1
-2.2,-2.0,5.15,17.4,51.3,111.76,-68.3,8.1,1.8,-4.2,-10.8,9.6,94.5,9.8,1
-5.32,-7.78,-14.29,-3.1,117.26,91.54,-121.59,-5.38,-1.13,4.21,7.41,-0.69,243.08,13.61,4
-3.43,-3.11,28.23,-3.05,95.35,106.96,-98.28,0.82,1.07,-1.4,-0.21,1.16,92.85,13.98,4
2.9,-2.8,9.08,3.6,57.8,100.0,37.4,-1.4,4.9,-0.6,-2.2,8.8,134.8,5.7,1
-2.8,-7.8,-25.92,10.4,80.1,89.4,-11.6,5.8,-0.3,1.3,6.3,1.6,176.6,7.8,2
7.0,-2.4,-8.35,10.3,61.7,114.1,20.1,5.3,0.3,0.4,1.4,8.2,247.2,4.8,1
8.3,-1.7,-2.87,5.1,37.2,104.7,38.2,2.1,1.9,-0.4,-2.6,2.8,209.5,6.4,1
-4.0,-9.59,-15.95,-2.57,118.34,86.09,-128.23,-7.23,-1.45,4.82,6.95,-0.61,257.83,14.26,4
-4.35,-4.11,-25.93,-14.52,170.0,108.02,-134.02,-9.62,-0.18,12.07,24.03,-3.64,156.21,22.36,4
1.49,-4.7,9.3,9.25,29.41,106.62,-47.88,8.56,0.29,-2.87,-11.11,2.97,104.54,9.39,3
-3.01,-6.36,13.44,0.85,96.92,102.44,-133.33,-5.59,-0.22,-1.78,-7.66,6.19,313.72,13.6,3
-8.8,-3.0,-9.92,-4.5,114.4,105.9,-104.1,-0.5,-0.3,2.6,8.6,-0.9,204.2,11.9,4
-5.6,-5.0,17.63,10.4,70.2,95.13,6.3,11.1,2.7,0.4,1.6,6.8,168.5,6.7,1
-1.9,-5.73,-19.37,-7.78,177.7,102.97,-132.02,-10.39,0.06,10.6,7.67,-2.95,133.83,25.98,4
-5.56,-4.22,-14.37,-6.1,144.72,104.77,-117.17,-5.15,-0.11,6.41,8.18,-1.89,169.69,18.62,4
8.4,-1.8,1.52,-0.1,56.9,110.72,59.4,-0.1,0.7,-1.0,-3.8,3.7,249.1,5.9,2
-4.5,-4.4,-26.64,-17.7,177.4,109.06,-130.4,-10.0,-0.3,12.8,25.3,-4.0,132.3,23.3,4
7.4,-1.5,-3.18,2.6,72.1,100.0,46.6,5.9,0.4,-0.4,-0.8,2.9,97.8,4.9,2
4.9,-2.0,18.08,5.3,74.1,110.35,-24.2,3.7,3.3,-2.2,-9.0,0.9,76.3,7.9,1
2.0,3.0,2.18,14.3,9.3,105.85,-32.5,12.4,3.6,-1.4,-2.9,4.8,107.6,6.3,1
-0.1,3.1,9.93,10.3,10.2,82.54,-49.7,11.2,1.2,-3.8,-14.2,4.8,115.2,10.3,1
-7.26,-5.12,-11.86,-3.88,115.67,99.52,-111.87,-2.67,-0.67,3.31,8.07,-0.81,221.47,12.66,4
9.5,0.7,-11.35,8.0,67.8,96.72,48.0,3.7,0.9,1.3,2.7,4.3,267.2,6.8,2
0.3,-0.9,-0.15,1.1,17.1,97.38,-73.5,15.3,1.7,2.7,6.5,2.6,130.6,12.2,2
2.3,-4.3,2.9,2.5,99.2,104.41,-85.5,-1.2,-0.1,-3.5,-11.1,-0.7,147.5,22.1,2
7.7,-1.2,-15.87,7.3,44.3,93.87,43.3,2.3,-1.2,-0.1,-2.1,-0.3,214.0,7.4,1
-0.8,-1.2,-0.62,0.0,68.4,94.14,26.9,9.8,5.9,-0.3,-0.5,2.3,153.0,6.2,1
-2.9,-7.4,7.99,-0.2,103.4,101.8,-134.3,-9.4,-0.2,-0.3,-9.8,12.2,329.5,14.7,3
-0.31,-0.66,-12.6,1.12,83.63,103.03,-83.43,-6.34,1.73,0.56,4.17,0.15,114.12,16.28,3
-4.3,3.4,-2.78,0.6,43.5,99.72,-63.9,5.4,-0.1,2.6,14.4,2.9,69.5,13.4,1
-5.23,-7.91,-14.41,-3.06,117.33,91.15,-122.07,-5.51,-1.15,4.25,7.37,-0.69,244.14,13.66,4
-0.83,-0.85,-18.13,0.55,87.06,102.84,-87.99,-6.48,1.93,1.46,7.38,-0.2,119.83,16.59,3
0.2,-6.3,71.33,4.3,67.8,117.65,-167.2,-15.4,0.9,-3.6,-9.0,0.2,250.5,8.4,2
-3.2,1.9,11.12,4.3,15.2,102.33,-82.8,17.9,-1.9,3.4,13.1,3.5,129.1,9.5,2
-1.0,-5.6,-13.98,5.3,175.9,100.0,-135.4,-9.7,0.3,3.7,-5.5,-3.0,128.0,26.3,4
2.4,-1.8,-12.5,1.5,82.4,88.31,-1.9,5.8,0.7,0.2,0.4,3.0,129.4,4.9,1
0.8,-0.8,-23.17,-5.8,78.5,89.7,-92.2,7.7,2.5,0.8,1.8,-6.0,101.1,11.1,2
-2.9,-7.6,12.18,8.6,67.7,95.5,19.6,8.6,4.5,0.1,-0.7,0.1,162.4,6.5,2
-0.1,-4.5,-20.85,-0.7,53.6,113.34,-44.0,0.1,-1.4,2.5,7.0,-2.8,112.2,8.1,3
1.2,5.3,8.56,23.0,34.7,116.33,-25.0,5.9,2.4,-1.7,-8.0,4.2,67.3,4.0,1
1.05,-1.8,7.59,3.36,20.19,102.98,-62.13,14.62,1.93,0.37,-0.05,3.16,118.7,10.51,2
-2.68,-3.07,17.13,-6.91,126.73,103.0,-114.75,0.11,1.0,-2.37,-3.55,0.32,102.65,17.59,4
1.84,0.1,9.37,2.99,81.06,102.59,-71.72,-4.95,1.59,-2.87,-9.19,0.07,104.54,15.13,3
-0.3,-3.5,27.95,6.5,50.6,104.11,-61.2,4.1,1.7,-2.3,-9.1,2.9,76.5,6.2,1
3.1,0.0,10.82,-7.7,72.9,123.65,-54.9,9.1,4.2,-2.0,-9.7,0.7,70.0,5.4,1
-0.3,-3.6,-14.64,19.5,104.4,90.26,-164.7,-3.7,0.6,-2.2,-6.2,2.6,278.4,13.7,2
0.01,-4.22,-16.52,0.71,49.26,110.95,-48.62,2.97,-0.66,2.19,5.66,-1.96,114.4,8.77,3
-0.52,-1.18,-14.83,-2.45,102.88,100.88,-100.75,-5.33,1.09,1.89,6.87,-2.21,144.85,16.27,3
-5.7,-2.18,8.23,3.1,51.18,104.6,-74.29,5.46,1.33,1.13,3.7,0.08,96.3,7.9,4
0.57,-0.52,-6.28,-1.1,100.23,99.32,-93.22,-5.06,1.89,0.72,1.54,-2.87,137.55,16.41,3
-1.4,2.1,-23.06,1.4,63.0,100.0,4.8,3.2,0.6,0.7,3.4,6.8,151.5,8.8,2
-4.94,-2.7,34.36,4.62,35.24,110.4,-66.72,4.1,1.41,0.62,4.77,1.77,73.04,6.94,4
0.6,-2.8,5.59,7.9,27.1,98.77,-72.2,17.6,3.1,0.6,-1.2,2.3,125.6,12.2,3
1.13,-4.45,11.73,9.42,27.27,102.53,-56.47,12.24,1.47,-1.85,-8.3,-1.01,107.46,10.51,3
5.1,-3.7,-9.63,12.6,45.2,89.38,-2.3,7.5,1.6,-0.1,0.1,4.6,193.3,8.0,2
7.0,-0.4,-9.53,4.6,75.7,95.98,40.8,7.4,0.4,-0.6,-0.8,-0.3,98.4,5.2,2
3.6,-5.5,-4.56,6.9,40.7,112.4,4.5,3.9,1.0,-0.2,-5.1,13.3,197.9,7.0,2
6.6,0.1,-3.82,10.9,18.7,86.73,28.9,8.8,1.1,-0.2,-0.9,21.4,284.3,4.8,1
0.4,-7.1,58.59,1.5,73.9,107.14,-171.7,-17.7,0.9,-3.8,-9.9,-15.7,284.4,10.1,2
0.33,-3.47,-4.8,4.52,37.51,104.49,-61.12,10.73,1.33,1.35,2.02,0.3,120.34,10.59,3
-8.0,-4.1,-10.93,-4.18,115.06,102.59,-108.13,-1.62,-0.49,2.97,8.33,-0.85,213.15,12.29,4
-2.0,2.5,13.52,13.2,36.7,100.0,-64.1,17.2,1.3,-3.3,-12.2,-0.5,80.4,10.9,1
1.2,1.7,19.36,16.7,40.6,95.51,-46.8,8.7,2.3,-3.2,-13.3,0.2,54.2,12.0,1
2.28,-2.67,4.17,4.16,126.51,98.88,-15.53,0.6,1.34,-1.78,-9.31,1.33,107.31,11.86,3
-4.93,-2.02,12.05,4.44,39.8,104.16,-69.07,6.64,1.68,0.71,2.37,0.27,73.02,7.33,4
8.2,-0.9,-6.74,4.0,64.6,100.0,48.9,-0.4,0.6,1.1,-0.4,0.0,262.8,7.2,2
1.5,-4.7,9.44,9.3,29.3,106.59,-47.9,8.6,0.3,-2.9,-11.2,3.0,104.5,9.4,3
1.97,-2.87,-2.34,3.29,134.49,98.6,-11.46,1.53,1.18,-0.39,-3.79,0.42,110.84,11.79,3
8.3,-1.7,-8.55,-0.9,39.8,100.0,33.4,2.2,-0.1,-0.4,-3.6,2.9,211.4,6.9,1
0.49,-1.8,4.87,-0.5,131.54,105.83,-110.68,-0.57,0.67,-2.95,-9.5,-2.2,169.89,12.68,3
1.12,-2.45,-4.47,4.7,119.98,99.32,-10.54,2.42,1.43,-0.59,-4.54,1.98,120.57,11.06,3
-1.0,2.6,3.79,13.9,39.3,109.86,-37.9,16.3,2.2,-2.1,-6.0,4.5,56.1,8.0,1
-0.8,-2.2,-14.22,0.5,93.4,103.54,-16.6,4.6,0.9,0.5,1.6,2.1,137.4,9.8,2
0.47,-2.36,20.29,4.7,30.96,106.54,-49.0,10.73,2.01,-2.12,-6.42,1.49,83.98,7.37,2
-0.59,-1.02,-13.92,0.4,95.07,103.42,-92.01,-5.4,1.71,0.64,4.27,-0.54,128.75,15.87,3
5.0,-1.0,21.39,0.4,22.3,109.55,51.8,4.0,-0.6,0.5,-6.8,27.4,322.9,6.1,1
-1.93,-6.49,-19.25,-7.08,170.94,100.08,-132.7,-10.33,-0.17,10.03,7.51,-2.66,150.81,24.72,4
-0.53,-1.43,-13.96,5.1,99.68,101.59,-16.04,4.12,1.21,0.59,2.0,2.66,138.38,10.35,3
-2.33,-9.75,-18.75,1.32,117.41,83.18,-143.86,-9.11,-1.27,5.79,8.0,-0.55,296.27,15.06,4
0.8,0.1,-5.77,2.0,84.4,100.0,-78.4,-6.1,3.0,0.0,0.1,-1.5,111.9,16.9,3
0.69,-0.41,-1.06,2.02,81.82,103.65,-77.69,-5.55,1.27,-1.39,-2.87,0.59,108.86,15.38,3
-7.72,-2.72,-3.62,-1.86,92.44,105.45,-93.75,1.57,0.27,2.09,6.9,-0.56,166.73,10.51,4
-0.11,-0.38,-13.03,1.25,84.56,101.42,-82.88,-6.47,2.47,0.91,4.48,-0.75,114.73,16.85,3
0.0,5.3,-1.35,15.8,39.9,104.36,-42.9,15.0,3.1,-2.1,-7.4,4.3,56.5,9.2,1
-0.6,-10.0,-6.24,5.2,42.2,96.3,-36.6,4.0,3.0,0.0,-2.2,1.7,71.5,6.7,1
1.9,-3.8,-22.85,-1.3,77.3,85.73,-82.2,7.5,2.8,-0.6,0.2,-0.9,94.6,10.7,2
-1.2,-2.6,-4.91,-4.0,60.9,101.0,0.1,-3.5,1.3,0.2,-0.4,7.4,145.3,8.9,1
0.5,-0.84,13.6,2.07,54.89,100.45,-46.02,4.55,1.4,-0.42,-2.48,-1.7,69.65,7.69,2
-0.48,-0.58,-16.05,0.94,84.63,102.02,-84.75,-6.63,2.24,1.28,6.3,-0.44,115.9,16.82,3
-6.87,-5.65,-12.34,-3.72,115.98,97.93,-113.81,-3.21,-0.76,3.49,7.94,-0.78,225.77,12.85,4
2.8,0.1,23.24,3.9,78.0,104.96,-65.6,-3.9,0.3,-5.5,-17.7,1.5,97.8,13.5,3
-3.1,-1.7,-20.1,11.6,109.2,99.48,-163.8,-6.5,0.8,6.1,13.6,-0.7,352.8,14.6,4
-2.0,-6.2,-4.75,9.8,107.5,100.0,-154.5,-10.8,0.4,3.2,5.1,4.4,347.8,15.7,3
-2.66,-2.67,3.85,-7.08,129.9,99.28,-116.39,1.59,1.17,-2.34,-5.01,-0.57,102.8,17.88,4
6.4,-9.0,-16.75,3.2,81.1,92.39,28.7,2.5,0.9,-1.1,-3.1,1.4,101.9,6.1,1
-6.08,-4.03,-13.66,-5.84,139.87,104.95,-115.08,-4.41,-0.14,5.8,8.24,-1.73,175.22,17.55,4
-8.21,-2.86,-10.98,-2.83,113.86,105.23,-110.31,-1.12,-0.19,2.96,9.12,-0.88,219.65,12.18,4
-6.76,-3.66,-17.86,-10.77,144.32,107.4,-116.59,-5.01,-0.3,7.44,16.53,-2.37,170.06,17.31,4
-0.7,-4.4,-15.44,6.9,87.8,108.42,-8.7,5.4,0.3,1.1,3.6,6.4,135.3,9.2,2
7.6,-2.3,-2.96,6.7,61.9,104.39,61.4,-0.3,0.3,0.0,-2.4,3.9,259.3,6.8,2
1.63,-0.18,9.8,2.86,80.11,104.24,-72.29,-4.81,0.84,-3.23,-9.5,1.0,103.92,14.54,3
-1.7,-6.7,27.02,-0.7,39.8,89.47,-54.3,-4.2,2.2,3.3,-2.9,0.3,61.1,15.5,1
-4.9,0.2,1.09,11.7,86.8,105.51,0.3,3.7,0.9,-1.4,-7.7,8.8,166.4,5.4,1
0.8,-0.8,14.29,1.9,126.0,114.05,-109.9,2.8,1.5,-3.9,-10.9,2.0,161.9,10.9,2
1.9,-0.8,24.41,-0.2,6.1,74.62,-54.0,-2.2,0.5,5.4,10.4,-0.8,118.9,14.2,1
-2.1,-12.2,-18.34,-1.8,119.9,78.23,-137.8,-9.9,-1.9,5.7,6.3,-0.5,279.1,15.2,4
2.0,1.9,-15.75,-0.8,84.0,96.68,3.4,7.9,0.8,0.3,1.4,0.9,124.8,5.3,1
6.5,-7.8,-17.73,2.5,44.9,88.3,36.1,-0.2,-1.6,1.5,2.3,7.9,224.0,7.8,2
2.6,-2.6,9.87,3.4,98.6,109.14,-85.5,-0.5,-0.3,-5.2,-14.6,0.7,139.7,19.6,2
-4.96,-2.52,28.48,4.67,35.71,108.77,-66.95,4.82,1.48,0.67,4.19,1.38,72.79,6.96,4
0.6,-5.89,2.64,10.35,57.85,92.82,10.02,8.12,3.23,0.01,-0.35,2.07,175.92,7.16,2
-5.0,-2.0,12.3,4.8,37.0,104.31,-67.6,6.8,1.7,0.8,2.6,0.3,72.1,7.0,4
-2.1,-2.83,1.81,-9.96,152.39,98.06,-128.2,0.33,1.04,-3.1,-6.85,-0.78,110.23,20.51,4
