PC_CA-avg_3y,REER-pch_3y,X_GS_share_M-pch_5y,FSL-pch,GD-pc_gdp,HPI-pch,NIIP-pc_gdp,ULC-pch_3y,ACT-pch_3y,LTU-pch_3y,YUR-pch_3y,PSCF-pc_gdp,PSD-pc_gdp,UR-avg_3y,label
4.6,-0.6,3.7,3.4,78.7,103.87,-28.9,1.3,1.1,-0.9,-6.4,-0.8,81.1,8.9,2
-2.29,-10.24,-18.67,0.7,117.91,82.19,-142.64,-9.27,-1.4,5.77,7.66,-0.54,292.82,15.09,4
-2.8,6.0,-21.25,-3.6,83.2,88.09,-28.1,3.0,0.4,0.8,2.1,1.5,176.1,7.9,2
1.5,-4.7,9.44,9.3,29.3,106.59,-47.9,8.6,0.3,-2.9,-11.2,3.0,104.5,9.4,3
-3.44,-3.11,28.36,-3.0,94.97,107.01,-98.09,0.83,1.07,-1.39,-0.17,1.17,92.74,13.93,4
-5.1,-8.09,-14.57,-3.01,117.44,90.6,-122.73,-5.7,-1.18,4.31,7.33,-0.68,245.61,13.72,4
-2.6,-0.5,7.39,4.3,39.8,98.86,-45.2,3.4,0.8,0.5,8.2,2.1,68.3,6.9,1
1.75,-3.12,1.18,4.26,128.25,98.4,-8.56,1.36,1.37,-0.97,-6.75,2.14,114.46,11.39,3
2.1,-2.4,26.53,-6.2,43.1,92.23,-74.7,-20.6,-1.4,6.9,17.4,-2.4,115.2,17.7,1
5.9,-4.9,-9.35,3.1,79.8,90.51,23.3,5.6,1.4,-1.1,-1.9,2.0,102.4,6.8,1
0.2,-6.3,71.33,4.3,67.8,117.65,-167.2,-15.4,0.9,-3.6,-9.0,0.2,250.5,8.4,2
-1.23,-0.67,-21.73,1.4,70.71,101.76,-0.12,3.45,0.57,0.73,2.67,6.07,147.81,8.97,2
2.0,3.0,2.18,14.3,9.3,105.85,-32.5,12.4,3.6,-1.4,-2.9,4.8,107.6,6.3,1
6.1,-2.4,-5.55,15.1,22.0,88.53,58.4,5.9,0.7,0.4,1.5,25.9,303.7,4.8,1
-2.9,-7.6,12.18,8.6,67.7,95.5,19.6,8.6,4.5,0.1,-0.7,0.1,162.4,6.5,2
-2.07,-8.34,-14.93,-3.0,123.72,83.52,-131.95,-7.87,-1.5,5.0,7.5,-0.87,253.49,15.13,4
6.71,-1.76,-11.58,-5.11,77.75,94.78,36.41,6.07,0.83,-0.91,-1.83,2.13,102.25,5.41,2
7.4,-1.5,-3.18,2.6,72.1,100.0,46.6,5.9,0.4,-0.4,-0.8,2.9,97.8,4.9,2
2.3,0.9,-2.83,-2.8,82.9,107.03,4.1,5.4,0.7,0.6,1.5,3.4,123.5,5.8,1
-0.69,-1.26,-14.72,4.81,93.64,101.97,-16.8,4.18,1.18,0.58,1.87,2.85,139.77,10.05,3
2.6,-2.6,9.87,3.4,98.6,109.14,-85.5,-0.5,-0.3,-5.2,-14.6,0.7,139.7,19.6,2
-4.5,-4.4,-26.64,-17.7,177.4,109.06,-130.4,-10.0,-0.3,12.8,25.3,-4.0,132.3,23.3,4
-0.8,-5.12,-16.35,0.97,91.94,104.98,-14.62,4.34,0.69,0.66,1.18,3.2,137.87,9.59,2
-2.01,-2.13,-9.45,-4.93,129.88,92.03,-122.52,-4.6,-0.86,3.88,9.43,-1.45,212.25,15.03,4
-5.06,-3.31,-18.14,1.39,123.05,97.54,-132.67,-6.29,0.24,4.28,12.97,-2.94,253.26,13.9,4
0.62,-4.59,-7.22,3.8,42.67,110.3,-45.75,3.92,-0.64,0.07,-1.19,-0.19,108.74,8.68,3
1.02,-3.69,7.39,8.56,28.13,102.43,-60.81,13.38,1.79,-1.04,-5.89,2.63,115.71,10.89,3
-4.5,-10.8,-1.18,-1.7,86.2,108.73,-10.0,5.1,0.9,-1.1,-4.9,7.2,167.7,4.8,1
2.62,0.02,18.32,2.24,77.05,104.98,-62.48,-3.43,0.15,-4.61,-14.78,0.88,98.92,12.98,3
-3.2,1.9,11.12,4.3,15.2,102.33,-82.8,17.9,-1.9,3.4,13.1,3.5,129.1,9.5,2
-2.46,-1.0,-9.19,-5.12,131.12,94.44,-120.09,-4.08,-0.62,3.59,10.23,-1.87,203.09,14.83,4
-2.66,-4.58,13.22,4.96,115.5,106.25,-105.9,-4.63,0.68,2.34,-0.48,-0.53,104.89,18.04,4
1.01,-1.29,-19.51,-4.64,81.41,91.76,-91.26,6.45,2.14,0.2,-0.01,-5.26,107.61,12.64,2
-2.8,-3.08,18.85,-6.32,121.88,103.62,-112.2,0.22,1.01,-2.22,-3.03,0.45,101.14,17.04,4
7.0,-0.4,-9.53,4.6,75.7,95.98,40.8,7.4,0.4,-0.6,-0.8,-0.3,98.4,5.2,2
2.3,-6.4,37.84,9.6,76.7,100.0,-198.4,-18.6,1.0,-3.9,-10.6,-2.3,305.1,11.9,2
-5.43,-3.17,41.81,3.28,44.89,113.5,-71.25,1.83,1.0,0.78,6.61,2.3,91.38,7.58,4
0.94,-3.53,7.06,8.44,27.94,101.77,-62.89,14.15,2.03,-0.74,-5.03,2.57,117.52,11.13,3
-1.4,2.1,-23.06,1.4,63.0,100.0,4.8,3.2,0.6,0.7,3.4,6.8,151.5,8.8,2
-0.6,-3.2,1.14,4.6,98.0,100.81,-13.0,1.7,0.7,0.2,-0.3,6.5,143.7,10.3,3
-5.6,-5.0,17.63,10.4,70.2,95.13,6.3,11.1,2.7,0.4,1.6,6.8,168.5,6.7,1
2.0,1.9,-15.75,-0.8,84.0,96.68,3.4,7.9,0.8,0.3,1.4,0.9,124.8,5.3,1
1.3,-0.6,-18.21,-10.1,70.0,105.16,-39.3,0.1,-1.0,2.0,6.9,-3.7,107.2,9.1,3
2.3,-1.74,17.96,5.96,59.38,105.58,-58.83,0.88,0.3,-4.51,-15.21,2.07,100.36,11.93,3
0.12,-1.8,-6.81,-7.2,132.84,98.25,-123.25,-2.8,-0.35,1.98,3.91,-5.55,189.63,15.29,3
0.09,-1.94,-11.28,0.98,90.99,103.59,-18.62,4.06,0.93,0.27,0.29,1.62,128.17,9.65,2
-0.1,-4.5,-20.85,-0.7,53.6,113.34,-44.0,0.1,-1.4,2.5,7.0,-2.8,112.2,8.1,3
3.6,-5.5,-4.56,6.9,40.7,112.4,4.5,3.9,1.0,-0.2,-5.1,13.3,197.9,7.0,2
-0.55,-0.77,-19.19,-1.1,82.36,103.07,-79.25,-5.7,1.52,1.75,8.08,-0.67,115.61,15.58,3
-7.35,-3.5,-13.6,-3.75,121.68,101.32,-111.68,-3.34,-0.15,3.05,10.64,-2.4,207.34,12.75,4
-0.9,-1.1,-5.63,-1.2,46.5,123.73,-39.8,7.7,-1.5,1.7,5.3,0.5,112.9,7.1,2
-0.8,-7.8,-18.3,1.4,90.6,106.3,-12.8,4.1,0.5,0.8,0.8,4.2,138.3,9.4,2
-0.32,-3.09,-0.32,4.17,103.03,100.7,-13.85,1.74,0.67,0.35,0.41,5.43,139.84,10.56,3
-4.3,3.4,-2.78,0.6,43.5,99.72,-63.9,5.4,-0.1,2.6,14.4,2.9,69.5,13.4,1
5.0,-1.0,21.39,0.4,22.3,109.55,51.8,4.0,-0.6,0.5,-6.8,27.4,322.9,6.1,1
6.6,-1.8,-12.99,-6.4,78.7,93.91,34.7,6.1,0.9,-1.0,-2.0,2.0,103.0,5.5,2
-2.0,-6.2,-4.75,9.8,107.5,100.0,-154.5,-10.8,0.4,3.2,5.1,4.4,347.8,15.7,3
-2.8,-4.81,-19.58,7.63,112.37,93.19,-156.1,-7.51,0.0,5.98,11.44,-0.64,330.98,14.78,4
-1.01,-3.3,1.11,-5.61,120.22,99.62,-124.94,-3.29,-0.4,0.44,-0.64,-1.67,227.39,14.62,3
-2.3,-1.0,4.68,0.7,50.4,97.43,-69.1,2.9,2.2,0.2,-1.9,4.6,78.1,9.8,1
9.5,0.7,-11.35,8.0,67.8,96.72,48.0,3.7,0.9,1.3,2.7,4.3,267.2,6.8,2
0.95,-3.54,7.08,8.44,27.95,101.8,-62.77,14.11,2.01,-0.76,-5.08,2.57,117.42,11.11,3
2.3,-7.2,-9.31,0.4,76.1,100.0,-67.9,1.1,4.9,-1.9,-10.9,-2.5,83.2,8.2,1
1.9,-3.2,-3.29,-2.0,99.3,100.0,-88.9,-1.1,0.0,0.4,-4.6,-2.7,155.8,24.2,2
8.2,-0.9,-6.74,4.0,64.6,100.0,48.9,-0.4,0.6,1.1,-0.4,0.0,262.8,7.2,2
5.4,0.5,16.34,37.8,22.7,94.97,59.3,7.1,2.9,0.2,5.9,28.7,324.9,5.7,1
-3.3,-6.4,18.62,-1.7,93.9,103.14,-127.3,-4.1,-0.4,-3.2,-11.3,6.7,304.0,13.0,3
-3.4,-4.3,-0.26,7.4,55.7,96.29,-68.9,3.1,1.7,1.4,3.6,3.3,75.4,10.0,1
2.75,0.03,22.82,3.99,76.8,104.81,-65.76,-3.39,0.37,-5.36,-17.31,1.52,98.45,13.47,3
1.9,-0.8,24.41,-0.2,6.1,74.62,-54.0,-2.2,0.5,5.4,10.4,-0.8,118.9,14.2,1
-1.9,-5.6,-19.39,-7.9,178.9,103.49,-131.9,-10.4,0.1,10.7,7.7,-3.0,130.8,26.2,4
-2.09,-11.38,-17.62,-2.05,120.71,79.35,-136.56,-9.47,-1.82,5.55,6.55,-0.58,273.66,15.19,4
0.1,-1.8,-7.32,-7.5,132.9,97.92,-123.8,-2.9,-0.4,2.2,4.5,-5.7,190.5,15.4,3
1.57,-2.47,-8.64,1.67,135.18,99.8,-18.17,1.93,0.6,1.06,3.73,-1.14,114.48,12.14,3
-0.65,-1.05,-16.37,-1.42,96.72,101.49,-96.02,-5.83,1.4,1.82,7.35,-1.5,135.47,16.45,3
1.5,-2.4,-9.7,1.4,135.3,100.0,-19.3,2.0,0.5,1.3,5.0,-1.4,115.1,12.2,3
-1.0,-5.6,-13.98,5.3,175.9,100.0,-135.4,-9.7,0.3,3.7,-5.5,-3.0,128.0,26.3,4
-0.8,-2.2,-14.22,0.5,93.4,103.54,-16.6,4.6,0.9,0.5,1.6,2.1,137.4,9.8,2
-0.34,-0.75,-19.08,-2.11,80.98,103.3,-74.77,-5.05,1.24,1.78,7.95,-1.01,114.67,14.85,3
0.5,1.7,8.2,6.2,38.6,113.36,-56.2,15.2,2.4,-1.3,-2.6,2.4,76.9,9.4,1
-2.17,-0.77,-9.94,-2.79,127.99,94.95,-126.9,-4.21,-0.47,3.98,10.47,-1.46,225.25,14.94,4
-0.8,-1.3,-14.53,5.6,94.9,101.8,-15.6,4.4,1.3,0.5,1.6,3.2,141.5,10.1,3
-3.1,-1.7,-20.1,11.6,109.2,99.48,-163.8,-6.5,0.8,6.1,13.6,-0.7,352.8,14.6,4
-0.1,3.1,9.93,10.3,10.2,82.54,-49.7,11.2,1.2,-3.8,-14.2,4.8,115.2,10.3,1
-3.07,-1.53,-10.63,-4.74,130.74,94.84,-119.95,-4.46,-0.51,3.57,10.67,-2.23,204.41,14.62,4
0.49,-0.68,-13.38,2.34,106.95,99.26,44.71,4.31,0.98,0.78,4.36,-1.64,162.82,8.19,2
-1.8,0.2,-32.46,-11.6,56.2,101.77,3.0,9.3,0.7,-0.3,-1.5,2.8,147.0,7.9,2
-2.81,-4.7,-19.6,7.77,112.26,93.41,-156.37,-7.47,0.03,5.99,11.51,-0.64,331.74,14.77,4
-3.02,-2.55,-19.96,10.52,110.06,97.77,-161.71,-6.77,0.58,6.07,13.01,-0.68,346.87,14.65,4
-0.26,-2.47,-5.49,-6.63,129.37,98.38,-125.06,-3.68,-0.38,1.9,2.79,-3.56,207.11,15.32,3
-1.5,-3.0,-0.36,-13.0,176.2,96.77,-140.7,-1.0,0.9,-3.9,-8.8,-1.0,118.1,23.3,4
-2.0,-0.6,-8.1,-5.4,131.4,94.13,-120.2,-3.8,-0.7,3.6,9.9,-1.6,202.1,15.0,4
-2.9,-3.2,-10.3,1.1,51.8,93.78,-60.6,-0.3,1.0,2.9,6.4,1.9,71.1,14.1,1
-1.99,-5.85,-24.74,6.62,123.62,117.18,-22.44,2.23,1.17,2.05,9.27,-0.64,125.35,9.25,2
-0.75,-2.33,-11.44,1.19,94.24,103.45,-16.6,4.08,0.83,0.37,1.01,2.89,138.76,9.83,2
-0.6,-10.0,-6.24,5.2,42.2,96.3,-36.6,4.0,3.0,0.0,-2.2,1.7,71.5,6.7,1
-1.2,-0.6,11.9,-1.2,38.7,89.75,-50.6,6.1,2.2,-2.3,-13.8,-0.3,56.7,13.5,1
0.4,-7.1,58.59,1.5,73.9,107.14,-171.7,-17.7,0.9,-3.8,-9.9,-15.7,284.4,10.1,2
-0.5,-3.0,2.4,4.6,98.4,103.03,-16.6,1.5,0.5,-0.3,-1.9,6.8,145.5,10.0,2
-6.58,-3.11,24.1,0.62,68.69,110.9,-82.49,1.04,0.55,1.41,7.29,1.2,130.0,9.06,4
-2.7,-5.86,-19.4,6.29,113.44,91.05,-153.49,-7.85,-0.27,5.94,10.71,-0.62,323.58,14.84,4
-2.88,-6.33,11.02,2.04,98.32,102.12,-136.15,-6.28,-0.14,-1.12,-5.97,5.95,318.25,13.88,3
-4.8,10.7,2.71,-8.6,86.9,100.0,-22.7,3.2,0.8,-1.1,-6.6,2.8,161.7,6.3,1
5.5,-2.5,-13.78,1.6,46.1,92.83,27.8,3.6,-1.4,1.3,6.8,4.4,221.0,7.3,2
-5.9,-4.0,-17.3,-3.0,129.0,96.71,-119.3,-6.2,0.0,3.5,12.7,-3.9,210.5,13.6,4
-0.89,-1.16,-6.12,-1.1,49.16,122.58,-38.48,7.52,-1.36,1.63,5.09,0.59,114.29,7.25,2
2.42,-1.32,19.15,5.5,63.58,105.44,-60.36,-0.2,0.3,-4.73,-15.78,1.94,99.78,12.29,3
-2.68,-3.07,17.13,-6.91,126.73,103.0,-114.75,0.11,1.0,-2.37,-3.55,0.32,102.65,17.59,4
-1.4,0.4,-15.78,3.9,62.6,100.14,5.2,0.4,0.7,0.6,0.2,1.5,148.0,9.0,1
2.0,-4.7,-21.72,0.4,81.9,92.57,-3.2,3.8,0.8,0.0,-1.3,1.2,128.2,4.8,1
-4.9,-3.2,49.92,4.5,34.0,114.69,-66.1,2.2,1.2,0.5,6.3,2.8,73.7,6.9,4
-1.55,0.89,-16.87,-1.04,89.56,97.72,-20.93,4.0,0.71,0.61,1.79,1.87,151.97,9.08,2
-2.1,-12.2,-18.34,-1.8,119.9,78.23,-137.8,-9.9,-1.9,5.7,6.3,-0.5,279.1,15.2,4
8.3,-1.7,-2.87,5.1,37.2,104.7,38.2,2.1,1.9,-0.4,-2.6,2.8,209.5,6.4,1
1.96,-0.59,16.65,2.36,97.57,105.36,-81.95,-2.66,0.45,-4.62,-14.85,0.18,123.95,13.17,3
-0.8,-4.0,-1.01,11.7,16.7,97.0,-77.7,12.2,-0.1,3.8,13.0,2.6,128.3,11.3,2
3.1,0.0,10.82,-7.7,72.9,123.65,-54.9,9.1,4.2,-2.0,-9.7,0.7,70.0,5.4,1
2.4,-1.8,-12.5,1.5,82.4,88.31,-1.9,5.8,0.7,0.2,0.4,3.0,129.4,4.9,1
2.2,-3.1,1.19,4.2,134.1,97.93,-7.7,1.3,1.5,-1.2,-8.0,1.3,108.8,11.6,3
2.0,1.3,-9.15,-0.1,84.9,100.0,2.2,6.4,0.4,0.5,1.2,2.1,124.0,5.6,1
-3.1,-1.71,-20.1,11.58,109.21,99.46,-163.77,-6.5,0.8,6.1,13.59,-0.7,352.72,14.6,4
8.4,-1.8,1.52,-0.1,56.9,110.72,59.4,-0.1,0.7,-1.0,-3.8,3.7,249.1,5.9,2
-0.4,-3.12,0.09,4.29,101.62,100.73,-13.61,1.73,0.68,0.31,0.21,5.73,140.92,10.48,3
-0.8,-1.2,-0.62,0.0,68.4,94.14,26.9,9.8,5.9,-0.3,-0.5,2.3,153.0,6.2,1
-6.06,-3.14,32.07,1.82,57.98,112.07,-77.43,1.39,0.75,1.13,6.99,1.7,112.63,8.39,4
0.65,-2.91,5.81,7.98,27.22,99.21,-70.83,17.09,2.94,0.4,-1.76,2.34,124.41,12.04,3
8.6,-6.0,-12.82,6.0,66.2,105.12,26.7,2.6,0.9,0.8,1.5,6.1,252.1,5.3,2
-8.8,-3.0,-9.92,-4.5,114.4,105.9,-104.1,-0.5,-0.3,2.6,8.6,-0.9,204.2,11.9,4
0.6,-2.8,5.59,7.9,27.1,98.77,-72.2,17.6,3.1,0.6,-1.2,2.3,125.6,12.2,3
2.7,-5.2,-2.11,19.5,75.5,113.15,-59.6,5.4,5.4,-2.5,-13.7,-3.1,76.6,6.5,1
-7.65,-3.4,-12.86,-3.9,120.21,102.24,-110.15,-2.77,-0.18,2.96,10.23,-2.09,206.71,12.58,4
-2.09,-10.47,-16.81,-2.34,121.62,80.61,-135.17,-8.99,-1.72,5.39,6.84,-0.66,267.59,15.17,4
1.9,-3.8,-22.85,-1.3,77.3,85.73,-82.2,7.5,2.8,-0.6,0.2,-0.9,94.6,10.7,2
-1.2,-2.6,-4.91,-4.0,60.9,101.0,0.1,-3.5,1.3,0.2,-0.4,7.4,145.3,8.9,1
-4.9,0.2,1.09,11.7,86.8,105.51,0.3,3.7,0.9,-1.4,-7.7,8.8,166.4,5.4,1
1.64,-5.38,-0.21,10.87,54.92,92.02,7.16,7.98,2.85,-0.01,-0.25,2.66,179.95,7.35,2
-3.23,-6.39,17.32,-1.06,94.66,102.97,-128.82,-4.47,-0.36,-2.84,-10.39,6.57,306.44,13.15,3
-2.05,-0.65,-8.67,-4.6,130.35,94.38,-122.26,-3.93,-0.63,3.72,10.07,-1.56,209.22,14.98,4
1.75,-0.15,11.19,2.97,79.89,104.31,-71.6,-4.72,0.78,-3.46,-10.35,1.05,103.29,14.43,3
5.1,-1.5,33.28,5.2,20.1,105.69,54.6,1.2,0.1,0.4,2.2,-9.6,309.0,6.3,1
-3.72,-2.21,-19.48,8.34,113.62,98.86,-153.87,-6.43,0.62,5.52,13.4,-1.41,321.06,14.38,4
-4.8,1.4,1.39,10.7,53.7,101.1,-65.3,5.3,1.8,1.6,5.9,4.8,73.4,9.8,1
-3.11,4.4,-15.31,-6.13,83.82,88.47,-21.75,3.55,0.77,0.43,1.3,4.64,172.46,7.84,2
2.9,-2.8,9.08,3.6,57.8,100.0,37.4,-1.4,4.9,-0.6,-2.2,8.8,134.8,5.7,1
-3.2,-1.7,5.89,5.7,39.4,98.21,-66.7,8.0,1.0,-3.1,-13.0,-0.6,91.0,14.4,1
0.5,-1.8,5.22,-0.3,131.5,106.06,-110.3,-0.5,0.7,-3.1,-9.9,-2.1,169.3,12.6,3
5.1,-3.7,-9.63,12.6,45.2,89.38,-2.3,7.5,1.6,-0.1,0.1,4.6,193.3,8.0,2
0.5,-0.6,-13.33,2.5,107.0,99.24,44.8,4.3,1.0,0.8,4.5,-2.0,162.2,8.2,2
1.39,-3.84,-18.75,1.14,65.92,87.85,-81.35,8.38,2.26,0.23,2.6,-0.24,100.93,10.81,2
-3.2,-1.65,-10.93,-4.66,130.66,94.92,-119.92,-4.54,-0.48,3.57,10.76,-2.31,204.68,14.57,4
7.9,-2.1,1.07,4.8,35.5,108.16,40.8,2.4,0.7,-0.4,-1.8,0.1,201.7,6.0,1
-2.9,-7.4,7.99,-0.2,103.4,101.8,-134.3,-9.4,-0.2,-0.3,-9.8,12.2,329.5,14.7,3
-0.65,-2.77,-2.4,4.83,97.3,101.03,-13.59,2.31,0.84,0.27,0.13,5.75,143.2,10.25,3
-2.61,-1.21,-14.73,4.0,119.13,97.09,-144.31,-5.29,0.13,4.98,11.95,-1.1,285.42,14.78,4
8.3,-1.7,-8.55,-0.9,39.8,100.0,33.4,2.2,-0.1,-0.4,-3.6,2.9,211.4,6.9,1
7.6,-2.3,-2.96,6.7,61.9,104.39,61.4,-0.3,0.3,0.0,-2.4,3.9,259.3,6.8,2
0.16,-0.98,-16.21,-1.56,83.54,103.33,-26.41,2.44,0.25,1.18,4.02,0.05,125.85,9.64,3
-2.1,-6.2,-25.74,7.2,126.5,118.48,-23.0,2.0,1.2,2.2,10.0,-0.9,124.2,9.2,2
2.36,-0.01,18.12,3.5,78.81,104.68,-68.15,-4.25,0.5,-4.63,-14.57,1.31,100.13,13.9,3
-1.4,-0.44,-1.95,0.01,39.63,119.03,-49.24,9.94,-1.59,2.07,7.01,1.16,116.46,7.63,2
6.4,-9.0,-16.75,3.2,81.1,92.39,28.7,2.5,0.9,-1.1,-3.1,1.4,101.9,6.1,1
-0.5,1.7,26.02,2.0,37.2,92.55,-53.6,-7.8,3.0,6.7,19.3,-1.8,68.8,15.7,1
0.14,-2.79,-14.63,-2.01,105.7,99.9,42.43,4.66,0.41,0.27,0.59,7.9,179.27,7.9,2
0.31,-2.85,-3.57,3.21,114.22,100.46,-15.74,1.83,0.61,0.68,2.0,3.06,131.26,11.13,3
0.21,-3.64,-20.26,-2.78,57.24,111.53,-42.96,0.1,-1.31,2.39,6.98,-3.0,111.09,8.32,3
5.6,10.3,-19.51,5.6,37.7,78.8,-15.5,4.0,1.4,0.4,-1.3,2.4,191.0,8.1,2
-8.03,-3.26,-11.87,-4.1,118.27,103.47,-108.12,-2.01,-0.22,2.84,9.69,-1.69,205.87,12.35,4
4.8,-4.06,-8.62,11.47,44.3,93.96,-0.95,6.78,1.48,-0.12,-0.94,6.33,194.22,7.8,2
-2.8,-4.82,-19.58,7.61,112.38,93.16,-156.07,-7.51,-0.0,5.98,11.43,-0.64,330.88,14.78,4
-1.3,-1.4,9.18,2.4,51.3,100.0,-62.1,0.2,1.6,-1.1,-5.7,3.5,78.9,8.9,1
-4.17,-1.36,-8.68,-5.11,125.98,97.88,-115.07,-2.75,-0.57,3.28,9.49,-1.38,202.77,14.01,4
-1.97,-4.6,8.45,-3.97,109.19,101.09,-125.93,-3.63,-0.4,-1.08,-5.1,1.84,259.49,13.94,3
-4.71,-3.03,-18.49,3.19,120.61,97.88,-138.16,-6.33,0.34,4.6,13.08,-2.54,270.81,14.02,4
0.13,-0.71,-18.83,-4.39,77.85,103.83,-64.65,-3.58,0.6,1.84,7.65,-1.78,112.54,13.21,3
-3.3,3.4,-11.62,-7.7,84.2,88.7,-17.8,3.9,1.0,0.2,0.8,6.6,170.2,7.8,2
1.0,-1.7,-13.57,2.7,105.2,100.0,45.2,0.5,0.7,1.0,2.3,12.1,176.1,8.5,1
-0.1,-4.3,-15.53,-5.1,104.8,100.36,40.8,4.9,0.0,-0.1,-2.1,14.7,191.0,7.7,2
-2.53,-7.71,-19.09,3.93,115.32,87.32,-148.92,-8.45,-0.75,5.87,9.42,-0.59,310.63,14.94,4
0.8,-0.8,-23.17,-5.8,78.5,89.7,-92.2,7.7,2.5,0.8,1.8,-6.0,101.1,11.1,2
7.37,-4.61,-13.2,4.25,58.22,100.24,27.14,3.0,-0.01,1.0,3.61,5.42,239.75,6.09,2
-0.36,-0.75,-19.09,-2.02,81.11,103.28,-75.19,-5.11,1.27,1.77,7.96,-0.98,114.76,14.92,3
-8.4,-3.02,-3.73,-3.57,106.08,106.81,-100.17,-0.22,-0.14,2.38,8.36,-0.52,190.7,11.38,4
1.2,1.7,19.36,16.7,40.6,95.51,-46.8,8.7,2.3,-3.2,-13.3,0.2,54.2,12.0,1
-1.7,-8.6,7.91,5.6,41.6,92.0,-67.5,-6.5,0.9,3.3,-4.8,-5.4,96.8,16.9,1
-0.7,2.1,-4.08,1.4,54.7,93.4,-62.2,2.6,1.2,0.8,-0.2,5.0,75.2,14.0,1
-2.06,-7.28,-14.0,-3.33,124.78,84.97,-130.34,-7.31,-1.39,4.81,7.83,-0.97,246.45,15.12,4
-0.2,-0.3,-10.28,-9.9,95.8,96.24,-92.8,-5.1,0.8,5.7,14.0,-10.1,178.1,24.1,2
-2.89,-3.08,20.21,-5.84,118.02,104.1,-110.18,0.31,1.02,-2.1,-2.62,0.55,99.93,16.59,4
-2.45,-1.05,-13.0,1.54,122.34,96.31,-137.99,-4.9,-0.09,4.62,11.41,-1.23,263.58,14.84,4
-2.48,-11.38,-18.24,-1.92,120.81,80.08,-135.95,-9.53,-1.71,5.48,6.94,-0.84,272.22,15.04,4
7.0,-2.4,-8.35,10.3,61.7,114.1,20.1,5.3,0.3,0.4,1.4,8.2,247.2,4.8,1
-0.9,-0.8,-19.37,0.6,84.7,102.67,-86.8,-6.8,2.0,1.7,8.3,-0.1,117.2,16.8,3
-0.26,-1.44,-11.64,-4.6,115.64,99.62,-110.55,-4.3,0.46,2.02,5.86,-3.69,164.25,15.9,3
-1.7,2.7,-27.3,9.3,59.8,100.2,-3.1,7.6,0.5,0.2,0.4,1.7,148.8,8.2,2
0.8,-0.8,14.29,1.9,126.0,114.05,-109.9,2.8,1.5,-3.9,-10.9,2.0,161.9,10.9,2
2.8,0.1,23.24,3.9,78.0,104.96,-65.6,-3.9,0.3,-5.5,-17.7,1.5,97.8,13.5,3
0.9,-0.4,-5.01,2.4,104.9,101.22,54.5,-0.9,0.1,0.1,-3.6,23.8,194.8,8.3,1
0.0,-8.2,-2.16,8.1,40.0,100.0,-32.9,0.1,2.4,-0.6,-6.9,0.3,68.1,6.1,1
1.7,0.7,-18.42,-3.2,81.3,95.34,1.3,6.4,1.1,0.1,0.2,1.0,127.1,5.0,1
4.9,-2.0,18.08,5.3,74.1,110.35,-24.2,3.7,3.3,-2.2,-9.0,0.9,76.3,7.9,1
-2.68,-3.07,17.08,-6.93,126.89,102.98,-114.83,0.11,1.0,-2.37,-3.56,0.32,102.7,17.61,4
2.0,0.2,2.7,2.2,78.3,110.5,2.8,4.0,1.0,0.3,-0.5,3.6,121.8,5.7,1
-7.12,-3.09,15.81,-0.63,79.83,109.68,-87.76,0.66,0.35,1.7,7.61,0.69,148.08,9.75,4
2.21,-3.27,-8.53,0.76,86.62,95.97,-83.64,4.0,1.44,-2.61,-6.28,-0.2,114.34,14.59,2
2.3,-4.3,2.9,2.5,99.2,104.41,-85.5,-1.2,-0.1,-3.5,-11.1,-0.7,147.5,22.1,2
-8.32,-3.16,-11.14,-4.25,116.81,104.38,-106.61,-1.44,-0.25,2.75,9.28,-1.39,205.24,12.18,4
