PC_CA-avg_3y,REER-pch_3y,X_GS_share_M-pch_5y,FSL-pch,GD-pc_gdp,HPI-pch,NIIP-pc_gdp,ULC-pch_3y,ACT-pch_3y,LTU-pch_3y,YUR-pch_3y,PSCF-pc_gdp,PSD-pc_gdp,UR-avg_3y,label
0.8,-0.8,14.29,1.9,126.0,114.05,-109.9,2.8,1.5,-3.9,-10.9,2.0,161.9,10.9,2
0.8,0.1,-5.77,2.0,84.4,100.0,-78.4,-6.1,3.0,0.0,0.1,-1.5,111.9,16.9,3
-5.94,-3.15,34.04,2.11,55.34,112.36,-76.18,1.48,0.8,1.06,6.91,1.82,108.33,8.23,4
5.0,-1.0,21.39,0.4,22.3,109.55,51.8,4.0,-0.6,0.5,-6.8,27.4,322.9,6.1,1
0.17,-0.98,-16.23,-1.65,83.41,103.35,-26.54,2.42,0.24,1.19,4.05,0.02,125.67,9.64,3
-2.0,-6.2,-4.75,9.8,107.5,100.0,-154.5,-10.8,0.4,3.2,5.1,4.4,347.8,15.7,3
4.9,-2.0,18.08,5.3,74.1,110.35,-24.2,3.7,3.3,-2.2,-9.0,0.9,76.3,7.9,1
-3.67,0.29,15.77,1.01,37.4,102.13,-62.98,-4.32,0.07,0.78,1.86,-1.17,67.18,6.99,4
0.16,-1.93,-6.48,-6.9,132.73,98.13,-123.3,-2.58,-0.36,1.92,3.43,-5.31,189.38,15.3,3
0.0,5.3,-1.35,15.8,39.9,104.36,-42.9,15.0,3.1,-2.1,-7.4,4.3,56.5,9.2,1
2.1,-2.4,26.53,-6.2,43.1,92.23,-74.7,-20.6,-1.4,6.9,17.4,-2.4,115.2,17.7,1
-0.01,-4.05,-19.38,-0.44,56.61,112.04,-47.36,-0.51,-0.97,2.26,6.33,-2.67,112.17,8.96,3
-5.95,-1.08,3.08,-1.59,72.25,103.42,-81.43,-2.81,-0.14,1.61,4.76,-1.17,128.79,9.21,4
-3.84,0.07,13.51,1.48,37.5,101.89,-63.62,-2.73,0.29,0.8,1.77,-1.11,67.71,7.0,4
-5.15,-3.19,46.08,3.92,39.16,114.13,-68.54,2.03,1.1,0.63,6.45,2.56,82.07,7.22,4
-8.52,-3.01,-5.69,-3.86,108.72,106.52,-101.41,-0.31,-0.19,2.45,8.44,-0.64,194.97,11.55,4
-4.5,-10.8,-1.18,-1.7,86.2,108.73,-10.0,5.1,0.9,-1.1,-4.9,7.2,167.7,4.8,1
3.1,0.0,10.82,-7.7,72.9,123.65,-54.9,9.1,4.2,-2.0,-9.7,0.7,70.0,5.4,1
1.11,-0.33,-13.4,-5.42,75.57,103.16,-54.43,-2.3,0.55,1.23,4.27,-2.85,109.02,12.12,3
-1.86,-5.11,-15.91,0.41,90.21,106.36,-91.51,-4.55,1.1,6.07,13.35,-10.39,187.72,21.34,3
-0.6,-10.0,-6.24,5.2,42.2,96.3,-36.6,4.0,3.0,0.0,-2.2,1.7,71.5,6.7,1
-4.53,-4.61,-15.78,-6.6,154.31,104.41,-121.3,-6.63,-0.05,7.61,8.04,-2.2,158.78,20.75,4
0.1,-3.48,-17.5,-0.1,60.45,110.37,-51.65,-1.28,-0.42,1.94,5.47,-2.51,112.13,10.06,3
-6.59,-2.22,-9.33,-4.79,119.92,102.08,-109.33,-1.57,-0.43,2.92,9.02,-1.13,203.52,12.91,4
-7.56,-3.4,-14.74,-8.3,132.54,106.81,-111.67,-3.24,-0.3,5.54,13.41,-1.79,183.49,15.18,4
-4.47,-1.06,12.85,3.29,37.23,103.21,-65.79,2.46,1.06,0.8,2.22,-0.34,70.1,7.0,4
1.7,0.7,-18.42,-3.2,81.3,95.34,1.3,6.4,1.1,0.1,0.2,1.0,127.1,5.0,1
-2.8,6.0,-21.25,-3.6,83.2,88.09,-28.1,3.0,0.4,0.8,2.1,1.5,176.1,7.9,2
-7.6,-3.06,8.48,-1.73,89.67,108.6,-92.41,0.33,0.16,1.95,7.89,0.24,164.07,10.36,4
2.3,-7.2,-9.31,0.4,76.1,100.0,-67.9,1.1,4.9,-1.9,-10.9,-2.5,83.2,8.2,1
-5.6,-5.0,17.63,10.4,70.2,95.13,6.3,11.1,2.7,0.4,1.6,6.8,168.5,6.7,1
-4.5,-4.4,-26.64,-17.7,177.4,109.06,-130.4,-10.0,-0.3,12.8,25.3,-4.0,132.3,23.3,4
-2.0,-0.6,-8.1,-5.4,131.4,94.13,-120.2,-3.8,-0.7,3.6,9.9,-1.6,202.1,15.0,4
2.3,-6.4,37.84,9.6,76.7,100.0,-198.4,-18.6,1.0,-3.9,-10.6,-2.3,305.1,11.9,2
-4.8,1.4,1.39,10.7,53.7,101.1,-65.3,5.3,1.8,1.6,5.9,4.8,73.4,9.8,1
7.6,-2.3,-2.96,6.7,61.9,104.39,61.4,-0.3,0.3,0.0,-2.4,3.9,259.3,6.8,2
-8.65,-2.95,-9.88,-4.52,114.76,105.65,-104.45,-0.57,-0.31,2.62,8.63,-0.92,204.15,11.97,4
-3.92,-3.51,-22.32,-14.83,166.68,105.58,-128.02,-8.56,-0.39,10.66,21.71,-3.44,148.56,21.37,4
-2.9,-7.4,7.99,-0.2,103.4,101.8,-134.3,-9.4,-0.2,-0.3,-9.8,12.2,329.5,14.7,3
0.3,-0.9,-0.15,1.1,17.1,97.38,-73.5,15.3,1.7,2.7,6.5,2.6,130.6,12.2,2
-4.9,0.2,1.09,11.7,86.8,105.51,0.3,3.7,0.9,-1.4,-7.7,8.8,166.4,5.4,1
1.2,1.7,19.36,16.7,40.6,95.51,-46.8,8.7,2.3,-3.2,-13.3,0.2,54.2,12.0,1
3.6,-5.5,-4.56,6.9,40.7,112.4,4.5,3.9,1.0,-0.2,-5.1,13.3,197.9,7.0,2
6.18,-2.14,-13.29,-5.96,79.37,94.61,32.01,5.99,0.88,-0.9,-1.84,2.12,105.0,5.72,2
-8.66,-2.96,-9.08,-4.15,111.47,105.84,-102.72,-0.22,-0.22,2.53,8.37,-0.85,199.21,11.71,4
-2.1,-6.2,-25.74,7.2,126.5,118.48,-23.0,2.0,1.2,2.2,10.0,-0.9,124.2,9.2,2
-1.7,-6.7,27.02,-0.7,39.8,89.47,-54.3,-4.2,2.2,3.3,-2.9,0.3,61.1,15.5,1
8.3,-1.7,-8.55,-0.9,39.8,100.0,33.4,2.2,-0.1,-0.4,-3.6,2.9,211.4,6.9,1
1.5,-4.7,9.44,9.3,29.3,106.59,-47.9,8.6,0.3,-2.9,-11.2,3.0,104.5,9.4,3
-3.3,-6.4,18.62,-1.7,93.9,103.14,-127.3,-4.1,-0.4,-3.2,-11.3,6.7,304.0,13.0,3
-5.05,-1.68,-8.92,-5.0,123.76,99.42,-112.97,-2.32,-0.52,3.15,9.32,-1.29,203.04,13.61,4
-2.04,-5.26,-17.14,0.56,87.21,106.83,-89.51,-4.89,1.18,6.55,14.77,-11.01,188.32,21.85,3
0.5,1.7,8.2,6.2,38.6,113.36,-56.2,15.2,2.4,-1.3,-2.6,2.4,76.9,9.4,1
0.23,-2.07,-5.61,-6.27,132.54,98.35,-122.78,-2.25,-0.32,1.64,2.31,-4.91,188.2,15.19,3
-0.8,-4.0,-1.01,11.7,16.7,97.0,-77.7,12.2,-0.1,3.8,13.0,2.6,128.3,11.3,2
-1.3,-1.4,9.18,2.4,51.3,100.0,-62.1,0.2,1.6,-1.1,-5.7,3.5,78.9,8.9,1
-4.31,-0.77,13.02,2.84,37.29,102.88,-65.25,1.16,0.87,0.8,2.11,-0.53,69.5,7.0,4
5.5,-2.5,-13.78,1.6,46.1,92.83,27.8,3.6,-1.4,1.3,6.8,4.4,221.0,7.3,2
-0.9,-0.8,-19.37,0.6,84.7,102.67,-86.8,-6.8,2.0,1.7,8.3,-0.1,117.2,16.8,3
0.7,-3.1,0.87,-1.6,131.2,100.0,-118.9,0.2,0.0,-0.5,-6.0,-1.9,179.5,14.4,3
0.54,-0.85,-16.87,-4.39,79.06,103.94,-30.68,1.66,-0.16,1.45,4.97,-1.19,119.68,9.46,3
-2.3,-1.0,4.68,0.7,50.4,97.43,-69.1,2.9,2.2,0.2,-1.9,4.6,78.1,9.8,1
-6.62,-2.23,-9.34,-4.79,119.84,102.13,-109.25,-1.56,-0.43,2.92,9.02,-1.12,203.53,12.89,4
0.9,-0.4,-5.01,2.4,104.9,101.22,54.5,-0.9,0.1,0.1,-3.6,23.8,194.8,8.3,1
0.01,-0.72,-18.89,-3.84,78.6,103.7,-67.1,-3.94,0.76,1.82,7.72,-1.59,113.05,13.61,3
0.25,-0.7,-18.76,-4.98,77.03,103.97,-62.01,-3.2,0.43,1.86,7.57,-1.98,111.98,12.78,3
-3.23,-6.39,17.31,-1.05,94.67,102.96,-128.83,-4.48,-0.35,-2.84,-10.38,6.57,306.46,13.15,3
-1.2,-2.6,-4.91,-4.0,60.9,101.0,0.1,-3.5,1.3,0.2,-0.4,7.4,145.3,8.9,1
-1.5,-3.0,-0.36,-13.0,176.2,96.77,-140.7,-1.0,0.9,-3.9,-8.8,-1.0,118.1,23.3,4
0.6,-2.8,5.59,7.9,27.1,98.77,-72.2,17.6,3.1,0.6,-1.2,2.3,125.6,12.2,3
1.9,-3.8,-22.85,-1.3,77.3,85.73,-82.2,7.5,2.8,-0.6,0.2,-0.9,94.6,10.7,2
1.3,-0.6,-18.21,-10.1,70.0,105.16,-39.3,0.1,-1.0,2.0,6.9,-3.7,107.2,9.1,3
-1.0,-5.6,-13.98,5.3,175.9,100.0,-135.4,-9.7,0.3,3.7,-5.5,-3.0,128.0,26.3,4
5.8,3.2,-12.21,1.8,37.3,78.22,-8.3,4.1,0.6,0.7,2.6,7.0,189.1,8.2,2
-5.57,-1.86,-9.06,-4.93,122.47,100.31,-111.75,-2.07,-0.49,3.07,9.22,-1.23,203.2,13.37,4
-2.7,-3.2,-19.21,5.1,119.7,124.69,-18.2,4.9,-0.8,1.3,8.0,3.1,121.8,8.2,2
5.1,-3.7,-9.63,12.6,45.2,89.38,-2.3,7.5,1.6,-0.1,0.1,4.6,193.3,8.0,2
6.6,0.1,-3.82,10.9,18.7,86.73,28.9,8.8,1.1,-0.2,-0.9,21.4,284.3,4.8,1
0.9,-4.3,13.16,9.5,26.0,100.0,-61.8,14.5,2.2,-1.2,-6.5,-3.5,109.3,11.2,3
-0.3,-3.5,27.95,6.5,50.6,104.11,-61.2,4.1,1.7,-2.3,-9.1,2.9,76.5,6.2,1
6.9,-2.5,-17.81,1.8,44.0,91.0,37.2,1.5,-1.3,0.3,-0.7,-3.0,216.1,7.7,1
0.8,-0.8,-23.17,-5.8,78.5,89.7,-92.2,7.7,2.5,0.8,1.8,-6.0,101.1,11.1,2
-0.2,-0.3,-10.28,-9.9,95.8,96.24,-92.8,-5.1,0.8,5.7,14.0,-10.1,178.1,24.1,2
5.9,-4.9,-9.35,3.1,79.8,90.51,23.3,5.6,1.4,-1.1,-1.9,2.0,102.4,6.8,1
0.4,-3.6,6.93,10.9,9.8,76.91,-50.7,0.1,0.8,1.8,-6.5,7.6,117.2,13.0,1
-7.21,-3.6,-12.1,-5.28,129.27,105.34,-110.51,-2.78,-0.21,4.47,8.39,-1.38,187.28,15.2,4
-4.99,-1.99,12.31,4.78,37.0,104.3,-67.58,6.75,1.69,0.8,2.6,0.29,72.08,7.0,4
0.23,-3.47,-2.21,-1.23,123.68,101.17,-113.88,-0.67,0.2,0.71,-2.45,-3.46,181.01,15.67,3
-5.6,-1.87,-9.06,-4.92,122.39,100.37,-111.67,-2.05,-0.49,3.07,9.21,-1.23,203.21,13.36,4
0.76,-4.33,8.56,8.12,29.73,101.8,-59.39,12.55,1.71,-0.7,-4.67,-3.41,109.69,10.78,3
-4.86,-3.1,48.91,4.4,34.1,114.32,-66.01,2.01,1.17,0.51,6.17,2.68,73.51,6.9,4
-5.12,-4.39,-14.97,-6.31,148.79,104.61,-118.92,-5.78,-0.09,6.92,8.12,-2.02,165.06,19.52,4
9.5,0.7,-11.35,8.0,67.8,96.72,48.0,3.7,0.9,1.3,2.7,4.3,267.2,6.8,2
8.6,-6.0,-12.82,6.0,66.2,105.12,26.7,2.6,0.9,0.8,1.5,6.1,252.1,5.3,2
2.0,1.3,-9.15,-0.1,84.9,100.0,2.2,6.4,0.4,0.5,1.2,2.1,124.0,5.6,1
-4.48,-1.99,38.12,3.29,35.17,110.35,-65.02,-0.05,0.81,0.6,4.77,1.43,71.45,6.93,4
0.1,-1.8,-7.32,-7.5,132.9,97.92,-123.8,-2.9,-0.4,2.2,4.5,-5.7,190.5,15.4,3
-2.6,-0.5,7.39,4.3,39.8,98.86,-45.2,3.4,0.8,0.5,8.2,2.1,68.3,6.9,1
-3.05,-7.02,12.05,-0.77,99.77,102.31,-131.62,-7.37,-0.28,-1.41,-10.37,10.1,319.75,14.05,3
-1.7,2.7,-27.3,9.3,59.8,100.2,-3.1,7.6,0.5,0.2,0.4,1.7,148.8,8.2,2
-0.1,-4.5,-20.85,-0.7,53.6,113.34,-44.0,0.1,-1.4,2.5,7.0,-2.8,112.2,8.1,3
-4.9,-3.2,49.92,4.5,34.0,114.69,-66.1,2.2,1.2,0.5,6.3,2.8,73.7,6.9,4
2.3,-4.3,2.9,2.5,99.2,104.41,-85.5,-1.2,-0.1,-3.5,-11.1,-0.7,147.5,22.1,2
-0.7,-4.4,-15.44,6.9,87.8,108.42,-8.7,5.4,0.3,1.1,3.6,6.4,135.3,9.2,2
-0.3,-3.6,-14.64,19.5,104.4,90.26,-164.7,-3.7,0.6,-2.2,-6.2,2.6,278.4,13.7,2
0.5,-2.82,-19.72,-4.74,60.65,109.82,-41.98,0.1,-1.23,2.29,6.96,-3.19,110.05,8.53,3
4.1,-9.2,-7.55,9.1,42.3,107.27,0.1,2.8,1.0,-0.1,-4.7,8.1,192.0,7.4,2
-2.29,-1.04,-10.25,-6.83,136.75,95.86,-121.39,-4.52,-0.65,4.67,11.69,-1.88,193.99,15.96,4
-0.35,-3.35,-18.57,1.57,68.47,109.18,-33.77,1.65,-0.43,1.78,5.06,-0.64,122.75,8.82,3
-1.7,-8.6,7.91,5.6,41.6,92.0,-67.5,-6.5,0.9,3.3,-4.8,-5.4,96.8,16.9,1
-0.7,2.1,-4.08,1.4,54.7,93.4,-62.2,2.6,1.2,0.8,-0.2,5.0,75.2,14.0,1
8.2,-0.9,-6.74,4.0,64.6,100.0,48.9,-0.4,0.6,1.1,-0.4,0.0,262.8,7.2,2
-1.4,0.4,-15.78,3.9,62.6,100.14,5.2,0.4,0.7,0.6,0.2,1.5,148.0,9.0,1
0.5,-1.8,5.22,-0.3,131.5,106.06,-110.3,-0.5,0.7,-3.1,-9.9,-2.1,169.3,12.6,3
6.1,-2.4,-5.55,15.1,22.0,88.53,58.4,5.9,0.7,0.4,1.5,25.9,303.7,4.8,1
6.5,-7.8,-17.73,2.5,44.9,88.3,36.1,-0.2,-1.6,1.5,2.3,7.9,224.0,7.8,2
-4.3,3.4,-2.78,0.6,43.5,99.72,-63.9,5.4,-0.1,2.6,14.4,2.9,69.5,13.4,1
0.36,-0.85,13.94,2.03,54.07,100.33,-46.61,4.67,1.41,-0.4,-2.35,-1.74,69.25,7.65,2
-3.86,-4.86,-16.7,-6.93,160.59,104.17,-124.01,-7.59,-0.01,8.4,7.96,-2.4,151.64,22.14,4
-0.39,-2.58,-9.58,-5.7,122.56,99.93,-116.06,-3.37,-0.05,3.2,6.87,-6.92,190.06,16.86,3
2.3,0.9,-2.83,-2.8,82.9,107.03,4.1,5.4,0.7,0.6,1.5,3.4,123.5,5.8,1
2.7,-5.2,-2.11,19.5,75.5,113.15,-59.6,5.4,5.4,-2.5,-13.7,-3.1,76.6,6.5,1
0.4,-7.1,58.59,1.5,73.9,107.14,-171.7,-17.7,0.9,-3.8,-9.9,-15.7,284.4,10.1,2
-2.9,-3.2,-10.3,1.1,51.8,93.78,-60.6,-0.3,1.0,2.9,6.4,1.9,71.1,14.1,1
0.3,-2.23,-4.59,-5.53,132.33,98.61,-122.17,-1.87,-0.27,1.3,1.0,-4.43,186.83,15.07,3
1.11,-3.88,7.78,8.7,28.35,103.21,-58.4,12.49,1.51,-1.39,-6.88,2.7,113.61,10.61,3
-2.2,-1.0,20.12,1.2,39.2,98.2,-57.3,6.7,1.6,-0.1,0.1,-2.3,62.1,6.9,2
-4.18,-0.53,13.16,2.45,37.35,102.6,-64.78,0.06,0.7,0.8,2.01,-0.7,68.99,7.0,4
-4.22,-1.26,31.0,2.56,35.88,107.73,-64.37,-1.41,0.57,0.66,3.84,0.6,70.09,6.95,4
1.22,-4.51,11.21,9.39,27.73,103.46,-54.5,11.4,1.2,-2.09,-8.97,-0.09,106.78,10.25,3
2.0,0.2,2.7,2.2,78.3,110.5,2.8,4.0,1.0,0.3,-0.5,3.6,121.8,5.7,1
-4.62,-1.32,12.69,3.72,37.16,103.52,-66.3,3.69,1.24,0.8,2.33,-0.16,70.67,7.0,4
-0.1,-4.3,-15.53,-5.1,104.8,100.36,40.8,4.9,0.0,-0.1,-2.1,14.7,191.0,7.7,2
0.84,-3.99,11.58,9.17,26.23,99.74,-63.97,15.15,2.39,-0.83,-5.4,-2.29,112.69,11.41,3
8.3,-1.7,-2.87,5.1,37.2,104.7,38.2,2.1,1.9,-0.4,-2.6,2.8,209.5,6.4,1
2.0,3.0,2.18,14.3,9.3,105.85,-32.5,12.4,3.6,-1.4,-2.9,4.8,107.6,6.3,1
1.9,-0.8,24.41,-0.2,6.1,74.62,-54.0,-2.2,0.5,5.4,10.4,-0.8,118.9,14.2,1
-0.5,1.7,26.02,2.0,37.2,92.55,-53.6,-7.8,3.0,6.7,19.3,-1.8,68.8,15.7,1
-1.1,-4.0,-9.78,-10.4,178.5,98.35,-137.6,-3.3,0.7,-1.5,-11.0,-2.1,125.1,25.0,4
0.23,-3.7,-8.39,3.35,41.12,106.48,-57.29,8.34,0.72,1.6,3.14,-0.4,118.51,10.03,3
-4.74,-2.75,45.52,4.05,34.44,113.07,-65.7,1.36,1.05,0.54,5.73,2.29,72.86,6.91,4
-2.8,-7.8,-25.92,10.4,80.1,89.4,-11.6,5.8,-0.3,1.3,6.3,1.6,176.6,7.8,2
-8.8,-3.0,-9.92,-4.5,114.4,105.9,-104.1,-0.5,-0.3,2.6,8.6,-0.9,204.2,11.9,4
-0.45,-0.56,-15.77,0.97,84.62,101.96,-84.58,-6.61,2.26,1.25,6.13,-0.47,115.8,16.83,3
-7.15,-3.08,15.46,-0.68,80.31,109.63,-87.99,0.64,0.34,1.71,7.62,0.67,148.86,9.78,4
2.9,-2.8,9.08,3.6,57.8,100.0,37.4,-1.4,4.9,-0.6,-2.2,8.8,134.8,5.7,1
0.2,-6.3,71.33,4.3,67.8,117.65,-167.2,-15.4,0.9,-3.6,-9.0,0.2,250.5,8.4,2
-0.69,-3.4,-5.15,0.11,110.88,106.48,-100.54,-2.55,0.93,1.37,1.55,-6.25,178.06,16.89,3
-1.9,-5.6,-19.39,-7.9,178.9,103.49,-131.9,-10.4,0.1,10.7,7.7,-3.0,130.8,26.2,4
1.13,-4.45,11.76,9.42,27.24,102.48,-56.57,12.28,1.48,-1.84,-8.27,-1.05,107.49,10.52,3
-0.55,-1.22,-14.97,3.74,91.95,102.2,-18.4,3.89,1.03,0.68,2.23,2.38,137.44,9.98,3
-3.4,-4.3,-0.26,7.4,55.7,96.29,-68.9,3.1,1.7,1.4,3.6,3.3,75.4,10.0,1
4.6,-0.6,3.7,3.4,78.7,103.87,-28.9,1.3,1.1,-0.9,-6.4,-0.8,81.1,8.9,2
1.83,-0.76,10.39,2.5,62.62,101.56,-40.46,3.5,1.3,-0.57,-3.75,-1.41,73.36,8.09,2
-2.29,-6.59,-0.61,6.55,106.17,100.59,-147.93,-10.34,0.2,2.06,0.25,6.94,341.85,15.37,3
-3.6,0.5,13.76,0.8,37.6,101.39,-62.8,-4.7,0.0,0.8,1.6,-1.4,66.8,7.0,4
-3.63,0.45,13.73,0.88,37.59,101.45,-62.9,-4.47,0.03,0.8,1.62,-1.37,66.91,7.0,4
0.45,-0.21,-7.69,2.79,86.7,100.4,-64.62,-3.8,2.63,0.11,0.43,-0.47,118.4,15.41,3
-5.08,-2.02,11.85,4.61,38.56,104.34,-68.33,6.65,1.66,0.84,2.72,0.28,74.76,7.1,4
-0.8,-7.8,-18.3,1.4,90.6,106.3,-12.8,4.1,0.5,0.8,0.8,4.2,138.3,9.4,2
0.64,-0.82,-17.05,-5.15,77.85,104.1,-31.82,1.46,-0.27,1.53,5.23,-1.52,118.02,9.42,3
-7.11,-3.09,16.01,-0.6,79.55,109.71,-87.63,0.67,0.35,1.69,7.6,0.7,147.64,9.73,4
-0.25,-2.36,-8.96,-6.19,125.38,99.38,-118.17,-3.24,-0.14,2.93,6.23,-6.59,190.18,16.46,3
-0.5,-3.0,2.4,4.6,98.4,103.03,-16.6,1.5,0.5,-0.3,-1.9,6.8,145.5,10.0,2
6.6,-1.8,-12.99,-6.4,78.7,93.91,34.7,6.1,0.9,-1.0,-2.0,2.0,103.0,5.5,2
-5.0,-2.0,12.3,4.8,37.0,104.31,-67.6,6.8,1.7,0.8,2.6,0.3,72.1,7.0,4
-2.2,-2.0,5.15,17.4,51.3,111.76,-68.3,8.1,1.8,-4.2,-10.8,9.6,94.5,9.8,1
1.27,-5.29,16.99,13.53,87.7,96.13,-185.01,-12.68,0.84,-3.22,-8.85,-0.35,294.49,12.62,2
1.25,-4.53,10.98,9.38,27.93,103.86,-53.66,11.04,1.09,-2.2,-9.25,0.31,106.49,10.15,3
-7.1,-3.55,-16.52,-9.71,139.28,107.15,-114.49,-4.25,-0.3,6.63,15.19,-2.12,175.81,16.4,4
7.9,-2.1,1.07,4.8,35.5,108.16,40.8,2.4,0.7,-0.4,-1.8,0.1,201.7,6.0,1
-0.1,3.1,9.93,10.3,10.2,82.54,-49.7,11.2,1.2,-3.8,-14.2,4.8,115.2,10.3,1
-4.8,10.7,2.71,-8.6,86.9,100.0,-22.7,3.2,0.8,-1.1,-6.6,2.8,161.7,6.3,1
-5.27,-3.18,44.3,3.65,41.55,113.86,-69.67,1.95,1.06,0.7,6.52,2.45,85.96,7.37,4
-1.4,2.1,-23.06,1.4,63.0,100.0,4.8,3.2,0.6,0.7,3.4,6.8,151.5,8.8,2
-4.8,-1.59,-8.85,-5.03,124.4,98.98,-113.57,-2.44,-0.54,3.19,9.36,-1.31,202.96,13.72,4
-7.79,-2.74,-4.04,-2.04,93.9,105.48,-94.43,1.43,0.23,2.12,7.01,-0.58,169.22,10.6,4
-3.7,-1.2,-8.55,-5.18,127.15,97.07,-116.18,-2.98,-0.6,3.35,9.58,-1.43,202.62,14.23,4
2.0,1.9,-15.75,-0.8,84.0,96.68,3.4,7.9,0.8,0.3,1.4,0.9,124.8,5.3,1
-0.9,-1.1,-5.63,-1.2,46.5,123.73,-39.8,7.7,-1.5,1.7,5.3,0.5,112.9,7.1,2
0.71,-0.36,-7.27,1.73,81.34,101.32,-74.98,-5.48,2.56,0.25,0.79,-1.63,111.93,16.03,3
5.6,10.3,-19.51,5.6,37.7,78.8,-15.5,4.0,1.4,0.4,-1.3,2.4,191.0,8.1,2
-1.0,2.7,20.49,4.1,37.8,100.0,-54.6,0.6,1.3,0.0,-0.9,0.2,58.0,6.9,1
-0.4,-0.2,-12.95,1.2,105.5,100.51,43.2,7.4,-0.2,-0.1,1.3,7.9,163.0,7.7,2
-0.3,4.8,20.52,13.0,10.6,93.21,-46.7,14.8,0.5,-3.8,-7.4,5.6,115.4,8.7,1
-2.1,-5.3,-17.51,0.6,86.3,106.97,-88.9,-5.0,1.2,6.7,15.2,-11.2,188.5,22.0,3
2.0,-4.7,-21.72,0.4,81.9,92.57,-3.2,3.8,0.8,0.0,-1.3,1.2,128.2,4.8,1
2.6,-2.6,9.87,3.4,98.6,109.14,-85.5,-0.5,-0.3,-5.2,-14.6,0.7,139.7,19.6,2
1.2,5.3,8.56,23.0,34.7,116.33,-25.0,5.9,2.4,-1.7,-8.0,4.2,67.3,4.0,1
-0.86,-2.37,-3.61,4.44,33.46,112.03,-56.38,9.67,-0.89,2.62,8.67,1.42,119.64,8.94,2
-0.8,-1.3,-14.53,5.6,94.9,101.8,-15.6,4.4,1.3,0.5,1.6,3.2,141.5,10.1,3
-7.58,-2.68,-2.76,-1.5,89.46,105.39,-92.34,1.85,0.34,2.02,6.67,-0.51,161.64,10.32,4
