PC_CA-avg_3y,REER-pch_3y,X_GS_share_M-pch_5y,FSL-pch,GD-pc_gdp,HPI-pch,NIIP-pc_gdp,ULC-pch_3y,ACT-pch_3y,LTU-pch_3y,YUR-pch_3y,PSCF-pc_gdp,PSD-pc_gdp,UR-avg_3y,label
0.7,-3.7,2.44,16.3,36.8,106.67,-26.9,2.7,2.1,-1.3,-8.4,4.3,68.7,5.1,1
-5.7,-2.18,8.23,3.1,51.18,104.6,-74.29,5.46,1.33,1.13,3.7,0.08,96.3,7.9,4
-2.1,-5.3,-17.51,0.6,86.3,106.97,-88.9,-5.0,1.2,6.7,15.2,-11.2,188.5,22.0,3
0.1,-1.8,-7.32,-7.5,132.9,97.92,-123.8,-2.9,-0.4,2.2,4.5,-5.7,190.5,15.4,3
-4.35,-1.63,34.59,2.93,35.53,109.05,-64.7,-0.72,0.69,0.63,4.31,1.02,70.78,6.94,4
-6.58,-3.77,-15.58,-3.35,125.6,98.85,-115.76,-4.87,-0.07,3.29,11.74,-3.2,209.03,13.2,4
-0.8,-1.3,-14.53,5.6,94.9,101.8,-15.6,4.4,1.3,0.5,1.6,3.2,141.5,10.1,3
0.41,-3.32,-1.01,-1.38,126.62,100.71,-115.84,-0.33,0.12,0.23,-3.84,-2.85,180.42,15.18,3
2.0,0.2,2.7,2.2,78.3,110.5,2.8,4.0,1.0,0.3,-0.5,3.6,121.8,5.7,1
1.03,-4.39,12.34,9.46,26.73,101.46,-58.72,13.19,1.78,-1.58,-7.54,-2.06,108.24,10.8,3
0.5,1.7,8.2,6.2,38.6,113.36,-56.2,15.2,2.4,-1.3,-2.6,2.4,76.9,9.4,1
0.33,-1.13,-13.63,3.12,104.31,100.53,37.29,4.45,0.9,0.84,4.37,-0.82,158.42,8.34,2
-5.96,-3.98,-17.14,-3.03,128.69,96.91,-118.97,-6.08,-0.01,3.48,12.61,-3.84,210.36,13.56,4
0.49,-1.8,5.05,-0.4,131.52,105.95,-110.48,-0.53,0.69,-3.03,-9.7,-2.15,169.59,12.64,3
2.6,-2.6,9.87,3.4,98.6,109.14,-85.5,-0.5,-0.3,-5.2,-14.6,0.7,139.7,19.6,2
2.3,-7.2,-9.31,0.4,76.1,100.0,-67.9,1.1,4.9,-1.9,-10.9,-2.5,83.2,8.2,1
0.0,-8.2,-2.16,8.1,40.0,100.0,-32.9,0.1,2.4,-0.6,-6.9,0.3,68.1,6.1,1
1.81,-3.54,12.77,8.0,41.06,106.2,-52.17,5.58,0.3,-3.53,-12.77,2.64,102.88,10.39,3
-0.4,-0.2,-12.95,1.2,105.5,100.51,43.2,7.4,-0.2,-0.1,1.3,7.9,163.0,7.7,2
7.7,-1.2,-15.87,7.3,44.3,93.87,43.3,2.3,-1.2,-0.1,-2.1,-0.3,214.0,7.4,1
-7.03,-3.58,-16.81,-9.94,140.34,107.2,-114.93,-4.41,-0.3,6.8,15.48,-2.18,174.59,16.59,4
0.74,-3.99,-12.79,1.09,83.04,107.7,-30.72,0.54,-0.34,1.15,1.51,-1.3,110.96,9.38,3
6.6,-1.8,-12.99,-6.4,78.7,93.91,34.7,6.1,0.9,-1.0,-2.0,2.0,103.0,5.5,2
-1.99,-5.21,-16.79,0.51,88.06,106.7,-90.08,-4.8,1.15,6.42,14.37,-10.84,188.15,21.7,3
0.9,-4.3,13.16,9.5,26.0,100.0,-61.8,14.5,2.2,-1.2,-6.5,-3.5,109.3,11.2,3
2.02,-3.11,18.14,6.38,27.15,113.26,-43.0,12.99,1.97,-3.05,-9.49,3.79,100.21,7.65,2
-5.3,-4.17,-11.74,-0.1,142.03,103.25,-118.16,-4.63,-0.03,3.09,2.27,-1.84,169.97,18.37,4
-4.96,-2.49,27.78,4.68,35.77,108.58,-66.98,4.91,1.49,0.68,4.12,1.33,72.76,6.96,4
2.53,0.82,-11.57,-0.28,74.76,102.73,-38.63,1.35,0.26,1.7,4.63,-3.85,100.36,9.19,2
2.2,-3.1,1.19,4.2,134.1,97.93,-7.7,1.3,1.5,-1.2,-8.0,1.3,108.8,11.6,3
6.5,-7.8,-17.73,2.5,44.9,88.3,36.1,-0.2,-1.6,1.5,2.3,7.9,224.0,7.8,2
-0.8,-7.8,-18.3,1.4,90.6,106.3,-12.8,4.1,0.5,0.8,0.8,4.2,138.3,9.4,2
0.65,-3.04,6.79,8.15,26.93,98.97,-70.55,17.11,2.96,0.31,-2.04,1.38,123.01,12.04,3
-3.4,-4.3,-0.26,7.4,55.7,96.29,-68.9,3.1,1.7,1.4,3.6,3.3,75.4,10.0,1
-5.0,-2.0,12.3,4.8,37.0,104.31,-67.6,6.8,1.7,0.8,2.6,0.3,72.1,7.0,4
-6.44,-3.12,26.29,0.95,65.75,111.22,-81.11,1.13,0.61,1.33,7.21,1.34,125.23,8.87,4
1.78,-2.26,17.82,6.91,50.06,102.29,-63.56,5.99,1.32,-3.19,-11.68,-1.19,103.98,12.26,3
-0.7,2.1,-4.08,1.4,54.7,93.4,-62.2,2.6,1.2,0.8,-0.2,5.0,75.2,14.0,1
-2.8,-7.8,-25.92,10.4,80.1,89.4,-11.6,5.8,-0.3,1.3,6.3,1.6,176.6,7.8,2
2.1,-2.4,26.53,-6.2,43.1,92.23,-74.7,-20.6,-1.4,6.9,17.4,-2.4,115.2,17.7,1
-0.83,-1.14,-16.1,3.98,91.59,102.08,-38.68,0.77,1.53,0.89,3.77,2.13,133.62,12.27,3
0.6,-2.8,5.59,7.9,27.1,98.77,-72.2,17.6,3.1,0.6,-1.2,2.3,125.6,12.2,3
8.2,-0.9,-6.74,4.0,64.6,100.0,48.9,-0.4,0.6,1.1,-0.4,0.0,262.8,7.2,2
5.1,-3.7,-9.63,12.6,45.2,89.38,-2.3,7.5,1.6,-0.1,0.1,4.6,193.3,8.0,2
-4.0,-0.21,13.35,1.93,37.43,102.22,-64.16,-1.44,0.48,0.8,1.88,-0.92,68.3,7.0,4
-0.8,-2.2,-14.22,0.5,93.4,103.54,-16.6,4.6,0.9,0.5,1.6,2.1,137.4,9.8,2
-1.2,-2.6,-4.91,-4.0,60.9,101.0,0.1,-3.5,1.3,0.2,-0.4,7.4,145.3,8.9,1
-8.8,-3.0,-9.92,-4.5,114.4,105.9,-104.1,-0.5,-0.3,2.6,8.6,-0.9,204.2,11.9,4
0.42,-6.74,56.08,1.52,76.85,107.53,-168.2,-16.54,0.93,-3.81,-9.96,-14.7,277.45,10.15,2
1.45,-3.56,-5.97,2.61,107.93,102.94,-19.5,0.91,0.56,0.0,-3.12,-0.03,109.91,10.46,3
3.6,-5.5,-4.56,6.9,40.7,112.4,4.5,3.9,1.0,-0.2,-5.1,13.3,197.9,7.0,2
0.28,-6.51,46.33,4.51,79.01,104.31,-170.53,-15.36,0.85,-3.53,-9.28,-12.64,283.4,10.7,2
-3.53,-4.76,-12.66,2.12,155.94,101.91,-125.24,-6.71,0.11,3.34,-0.92,-2.32,152.73,21.63,4
0.5,-0.6,-13.33,2.5,107.0,99.24,44.8,4.3,1.0,0.8,4.5,-2.0,162.2,8.2,2
0.43,-3.22,-0.87,5.8,33.58,102.33,-65.31,13.32,2.0,1.06,0.8,1.05,122.32,11.2,3
-1.5,-3.0,-0.36,-13.0,176.2,96.77,-140.7,-1.0,0.9,-3.9,-8.8,-1.0,118.1,23.3,4
7.0,-2.4,-8.35,10.3,61.7,114.1,20.1,5.3,0.3,0.4,1.4,8.2,247.2,4.8,1
-1.48,-4.31,-14.63,-1.69,99.48,104.41,-98.77,-4.41,0.75,5.43,12.17,-9.64,189.07,20.13,3
5.1,-1.5,33.28,5.2,20.1,105.69,54.6,1.2,0.1,0.4,2.2,-9.6,309.0,6.3,1
0.9,-0.4,-5.01,2.4,104.9,101.22,54.5,-0.9,0.1,0.1,-3.6,23.8,194.8,8.3,1
2.41,0.0,18.73,3.55,78.71,104.72,-67.85,-4.21,0.48,-4.74,-14.95,1.33,99.85,13.85,3
0.5,-1.8,5.22,-0.3,131.5,106.06,-110.3,-0.5,0.7,-3.1,-9.9,-2.1,169.3,12.6,3
-8.46,-3.12,-10.78,-4.33,116.1,104.83,-105.87,-1.16,-0.27,2.7,9.08,-1.25,204.93,12.1,4
7.6,-2.3,-2.96,6.7,61.9,104.39,61.4,-0.3,0.3,0.0,-2.4,3.9,259.3,6.8,2
0.65,-2.9,5.78,7.97,27.21,99.16,-70.97,17.15,2.96,0.42,-1.7,2.34,124.54,12.06,3
0.4,-3.6,6.93,10.9,9.8,76.91,-50.7,0.1,0.8,1.8,-6.5,7.6,117.2,13.0,1
9.5,0.7,-11.35,8.0,67.8,96.72,48.0,3.7,0.9,1.3,2.7,4.3,267.2,6.8,2
-5.11,-4.23,-22.59,-11.33,156.42,103.71,-125.59,-8.35,-0.17,8.77,19.84,-3.96,166.19,19.1,4
-2.2,-2.0,5.15,17.4,51.3,111.76,-68.3,8.1,1.8,-4.2,-10.8,9.6,94.5,9.8,1
-0.5,1.7,26.02,2.0,37.2,92.55,-53.6,-7.8,3.0,6.7,19.3,-1.8,68.8,15.7,1
1.68,-0.17,10.36,2.9,80.03,104.27,-72.01,-4.78,0.81,-3.32,-9.84,1.02,103.67,14.5,3
7.9,-2.1,1.07,4.8,35.5,108.16,40.8,2.4,0.7,-0.4,-1.8,0.1,201.7,6.0,1
0.43,-0.48,-4.05,1.79,82.29,103.49,-79.18,-5.76,1.39,-0.89,-1.05,0.48,110.23,15.61,3
-1.2,-0.6,11.9,-1.2,38.7,89.75,-50.6,6.1,2.2,-2.3,-13.8,-0.3,56.7,13.5,1
2.08,-3.03,0.59,4.25,132.59,98.08,-8.0,1.42,1.49,-1.13,-7.63,1.37,110.06,11.54,3
2.3,-3.3,20.41,7.1,25.3,112.26,-43.3,13.5,2.3,-3.5,-10.9,4.1,99.0,7.7,2
-3.1,-1.7,-20.1,11.6,109.2,99.48,-163.8,-6.5,0.8,6.1,13.6,-0.7,352.8,14.6,4
5.0,-1.0,21.39,0.4,22.3,109.55,51.8,4.0,-0.6,0.5,-6.8,27.4,322.9,6.1,1
1.2,5.3,8.56,23.0,34.7,116.33,-25.0,5.9,2.4,-1.7,-8.0,4.2,67.3,4.0,1
-0.59,-3.25,-6.47,-1.8,124.53,98.61,-133.91,-5.5,-0.14,2.53,4.7,-2.37,242.31,15.5,3
-4.21,-1.23,30.64,2.53,35.92,107.6,-64.34,-1.48,0.56,0.66,3.79,0.56,70.02,6.95,4
0.3,-1.2,4.06,10.4,51.9,100.0,-63.9,2.7,1.5,-1.8,-7.5,5.1,80.6,13.0,1
-0.55,-2.42,-20.02,0.03,71.11,107.33,-68.1,-3.78,0.51,2.05,7.73,-1.28,115.01,13.0,3
-4.71,-3.02,-18.49,3.21,120.57,97.89,-138.24,-6.33,0.34,4.61,13.08,-2.54,271.07,14.03,4
-1.7,-8.6,7.91,5.6,41.6,92.0,-67.5,-6.5,0.9,3.3,-4.8,-5.4,96.8,16.9,1
-3.3,-6.4,18.62,-1.7,93.9,103.14,-127.3,-4.1,-0.4,-3.2,-11.3,6.7,304.0,13.0,3
2.8,0.1,23.24,3.9,78.0,104.96,-65.6,-3.9,0.3,-5.5,-17.7,1.5,97.8,13.5,3
-3.2,1.9,11.12,4.3,15.2,102.33,-82.8,17.9,-1.9,3.4,13.1,3.5,129.1,9.5,2
-0.82,-1.19,-15.61,4.49,92.63,101.99,-31.43,1.91,1.46,0.77,3.09,2.47,136.1,11.59,3
-6.82,-2.55,-13.46,1.1,112.59,103.67,-124.87,-2.59,0.08,3.82,10.34,-0.83,255.9,12.84,4
0.4,-7.1,58.59,1.5,73.9,107.14,-171.7,-17.7,0.9,-3.8,-9.9,-15.7,284.4,10.1,2
2.9,-2.8,9.08,3.6,57.8,100.0,37.4,-1.4,4.9,-0.6,-2.2,8.8,134.8,5.7,1
-6.47,-2.47,-14.08,2.09,112.27,103.27,-128.52,-2.95,0.15,4.03,10.65,-0.82,265.0,13.0,4
2.4,-1.8,-12.5,1.5,82.4,88.31,-1.9,5.8,0.7,0.2,0.4,3.0,129.4,4.9,1
-4.93,-3.2,-18.27,2.06,122.13,97.67,-134.73,-6.3,0.28,4.4,13.01,-2.79,259.85,13.95,4
-6.68,-1.57,-0.26,-2.34,83.07,104.06,-87.25,-2.21,-0.18,1.87,5.74,-1.1,148.15,9.9,4
-8.6,-2.87,-9.02,-4.3,111.5,105.73,-102.54,-0.66,-0.29,2.53,8.34,-0.92,199.0,11.71,4
2.25,-4.21,2.62,2.23,99.13,104.24,-85.66,-1.28,-0.08,-3.3,-10.56,-0.9,148.15,22.14,2
1.0,-1.7,-13.57,2.7,105.2,100.0,45.2,0.5,0.7,1.0,2.3,12.1,176.1,8.5,1
0.3,-0.9,-0.15,1.1,17.1,97.38,-73.5,15.3,1.7,2.7,6.5,2.6,130.6,12.2,2
-0.18,-2.71,-0.71,-0.07,119.71,106.3,-104.72,-1.67,0.83,-0.54,-3.36,-4.47,174.31,15.05,3
-3.87,-1.88,-18.72,9.42,109.9,100.35,-155.71,-5.69,0.65,5.63,12.92,-0.73,332.67,14.23,4
-1.0,2.6,3.79,13.9,39.3,109.86,-37.9,16.3,2.2,-2.1,-6.0,4.5,56.1,8.0,1
-0.1,-4.5,-20.85,-0.7,53.6,113.34,-44.0,0.1,-1.4,2.5,7.0,-2.8,112.2,8.1,3
7.0,-0.4,-9.53,4.6,75.7,95.98,40.8,7.4,0.4,-0.6,-0.8,-0.3,98.4,5.2,2
2.0,1.3,-9.15,-0.1,84.9,100.0,2.2,6.4,0.4,0.5,1.2,2.1,124.0,5.6,1
-0.3,-3.6,-14.64,19.5,104.4,90.26,-164.7,-3.7,0.6,-2.2,-6.2,2.6,278.4,13.7,2
2.0,1.9,-15.75,-0.8,84.0,96.68,3.4,7.9,0.8,0.3,1.4,0.9,124.8,5.3,1
-4.99,-2.16,17.26,4.76,36.6,105.68,-67.4,6.19,1.63,0.76,3.09,0.63,72.31,6.99,4
-2.0,-6.2,-4.75,9.8,107.5,100.0,-154.5,-10.8,0.4,3.2,5.1,4.4,347.8,15.7,3
-0.8,-1.2,-0.62,0.0,68.4,94.14,26.9,9.8,5.9,-0.3,-0.5,2.3,153.0,6.2,1
-1.4,0.4,-15.78,3.9,62.6,100.14,5.2,0.4,0.7,0.6,0.2,1.5,148.0,9.0,1
-0.3,-3.5,27.95,6.5,50.6,104.11,-61.2,4.1,1.7,-2.3,-9.1,2.9,76.5,6.2,1
4.1,-9.2,-7.55,9.1,42.3,107.27,0.1,2.8,1.0,-0.1,-4.7,8.1,192.0,7.4,2
6.4,-9.0,-16.75,3.2,81.1,92.39,28.7,2.5,0.9,-1.1,-3.1,1.4,101.9,6.1,1
-5.59,-4.1,-17.09,-2.47,132.01,96.92,-120.33,-6.42,0.02,3.51,11.53,-3.84,205.21,14.41,4
1.9,-0.8,24.41,-0.2,6.1,74.62,-54.0,-2.2,0.5,5.4,10.4,-0.8,118.9,14.2,1
-4.97,-2.41,25.1,4.7,35.98,107.84,-67.09,5.23,1.53,0.7,3.86,1.15,72.64,6.97,4
-0.35,-1.57,-12.18,5.39,100.77,101.22,-14.42,3.94,1.33,0.25,0.16,2.92,136.61,10.32,3
-1.7,-6.7,27.02,-0.7,39.8,89.47,-54.3,-4.2,2.2,3.3,-2.9,0.3,61.1,15.5,1
-5.9,-4.0,-17.3,-3.0,129.0,96.71,-119.3,-6.2,0.0,3.5,12.7,-3.9,210.5,13.6,4
-1.0,-5.6,-13.98,5.3,175.9,100.0,-135.4,-9.7,0.3,3.7,-5.5,-3.0,128.0,26.3,4
5.9,-4.9,-9.35,3.1,79.8,90.51,23.3,5.6,1.4,-1.1,-1.9,2.0,102.4,6.8,1
-1.8,0.2,-32.46,-11.6,56.2,101.77,3.0,9.3,0.7,-0.3,-1.5,2.8,147.0,7.9,2
-0.2,-0.3,-10.28,-9.9,95.8,96.24,-92.8,-5.1,0.8,5.7,14.0,-10.1,178.1,24.1,2
-4.3,3.4,-2.78,0.6,43.5,99.72,-63.9,5.4,-0.1,2.6,14.4,2.9,69.5,13.4,1
6.1,-2.4,-5.55,15.1,22.0,88.53,58.4,5.9,0.7,0.4,1.5,25.9,303.7,4.8,1
2.71,-0.68,-16.54,-0.55,79.17,93.76,-54.89,2.89,1.43,0.83,2.88,-3.27,96.66,10.01,2
-4.6,-4.42,-16.42,-0.8,141.45,97.58,-123.57,-7.13,0.08,3.55,7.87,-3.66,188.61,16.97,4
-3.7,-2.86,-22.92,-1.04,138.62,103.61,-149.39,-8.01,0.33,8.99,18.65,-2.12,257.67,18.35,4
-2.8,6.0,-21.25,-3.6,83.2,88.09,-28.1,3.0,0.4,0.8,2.1,1.5,176.1,7.9,2
0.0,5.3,-1.35,15.8,39.9,104.36,-42.9,15.0,3.1,-2.1,-7.4,4.3,56.5,9.2,1
-4.9,-3.2,49.92,4.5,34.0,114.69,-66.1,2.2,1.2,0.5,6.3,2.8,73.7,6.9,4
1.82,-1.82,-4.4,-0.57,89.92,100.74,-88.39,3.04,0.91,-2.61,-7.52,-2.19,123.03,15.93,2
0.37,-1.8,1.13,-2.65,131.96,103.4,-114.71,-1.28,0.34,-1.37,-5.2,-3.27,176.22,13.51,3
-4.18,-0.53,13.16,2.45,37.35,102.6,-64.78,0.06,0.7,0.8,2.01,-0.7,68.99,7.0,4
-2.04,-5.2,-17.22,0.37,87.61,106.72,-89.88,-4.94,1.16,6.57,14.9,-11.05,188.56,21.81,3
-1.7,2.7,-27.3,9.3,59.8,100.2,-3.1,7.6,0.5,0.2,0.4,1.7,148.8,8.2,2
-5.61,-3.76,-17.59,-1.49,126.95,97.0,-123.9,-6.23,0.08,3.77,12.79,-3.57,225.22,13.7,4
3.1,0.0,10.82,-7.7,72.9,123.65,-54.9,9.1,4.2,-2.0,-9.7,0.7,70.0,5.4,1
6.75,-1.26,-11.66,-2.18,77.55,94.7,37.04,6.6,0.71,-0.85,-1.54,1.12,101.24,5.38,2
-2.6,-0.5,7.39,4.3,39.8,98.86,-45.2,3.4,0.8,0.5,8.2,2.1,68.3,6.9,1
-1.1,-4.0,-9.78,-10.4,178.5,98.35,-137.6,-3.3,0.7,-1.5,-11.0,-2.1,125.1,25.0,4
3.2,1.2,-12.73,-0.1,80.3,98.61,-38.4,0.1,0.6,1.7,4.5,-4.7,97.9,9.6,2
5.4,0.5,16.34,37.8,22.7,94.97,59.3,7.1,2.9,0.2,5.9,28.7,324.9,5.7,1
-4.5,-10.8,-1.18,-1.7,86.2,108.73,-10.0,5.1,0.9,-1.1,-4.9,7.2,167.7,4.8,1
-0.05,-1.56,-13.94,0.39,90.94,102.61,-20.69,3.75,0.84,0.73,2.14,0.82,129.98,9.76,2
-2.51,-5.11,-15.0,2.75,161.48,98.99,-130.45,-8.62,0.21,3.64,0.1,-3.28,153.37,22.39,4
0.8,-0.8,14.29,1.9,126.0,114.05,-109.9,2.8,1.5,-3.9,-10.9,2.0,161.9,10.9,2
-0.5,-3.0,2.4,4.6,98.4,103.03,-16.6,1.5,0.5,-0.3,-1.9,6.8,145.5,10.0,2
1.05,-0.33,3.06,2.34,81.17,103.88,-75.64,-5.27,1.11,-2.09,-5.39,0.74,106.99,15.06,3
-3.98,-0.18,13.37,1.88,37.44,102.18,-64.1,-1.59,0.46,0.8,1.87,-0.94,68.23,7.0,4
-0.8,-4.0,-1.01,11.7,16.7,97.0,-77.7,12.2,-0.1,3.8,13.0,2.6,128.3,11.3,2
1.9,-3.8,-22.85,-1.3,77.3,85.73,-82.2,7.5,2.8,-0.6,0.2,-0.9,94.6,10.7,2
-0.81,-1.23,-15.18,4.92,93.52,101.92,-25.23,2.89,1.39,0.66,2.51,2.75,138.21,11.01,3
0.7,-3.1,0.87,-1.6,131.2,100.0,-118.9,0.2,0.0,-0.5,-6.0,-1.9,179.5,14.4,3
-0.53,-3.18,-3.76,0.06,113.64,106.42,-101.84,-2.28,0.9,0.77,0.02,-5.7,176.89,16.31,3
0.68,-4.34,5.7,7.26,32.06,102.93,-57.89,11.34,1.41,-0.39,-3.54,-3.35,109.94,10.52,3
-0.6,4.8,10.22,4.7,40.2,107.31,-59.0,16.7,2.3,-1.7,-5.9,2.3,80.5,10.1,1
-0.9,-0.8,-19.37,0.6,84.7,102.67,-86.8,-6.8,2.0,1.7,8.3,-0.1,117.2,16.8,3
7.74,-6.73,-14.82,4.57,57.53,98.27,30.53,1.46,-0.12,1.09,1.83,6.83,240.66,6.32,2
-2.29,-6.59,-0.61,6.55,106.17,100.59,-147.93,-10.34,0.2,2.06,0.25,6.94,341.85,15.37,3
-1.4,2.1,-23.06,1.4,63.0,100.0,4.8,3.2,0.6,0.7,3.4,6.8,151.5,8.8,2
-5.44,-4.15,-16.99,-2.22,133.41,97.02,-120.81,-6.53,0.03,3.52,10.99,-3.82,202.75,14.79,4
0.64,-4.59,-6.87,3.91,42.39,110.23,-45.8,4.02,-0.62,0.01,-1.4,-0.12,108.65,8.7,3
-3.95,-0.12,13.4,1.8,37.45,102.12,-63.99,-1.84,0.42,0.8,1.85,-0.98,68.12,7.0,4
-3.6,0.5,13.76,0.8,37.6,101.39,-62.8,-4.7,0.0,0.8,1.6,-1.4,66.8,7.0,4
0.8,-3.95,-12.21,1.22,85.17,107.3,-29.76,0.57,-0.26,1.05,1.12,-1.19,110.87,9.47,3
-6.1,-2.29,5.87,2.11,59.4,104.77,-78.16,4.69,1.12,1.32,4.34,-0.05,110.33,8.42,4
1.0,-4.36,12.56,9.47,26.53,101.06,-59.56,13.55,1.89,-1.47,-7.26,-2.45,108.53,10.91,3
-2.7,-3.2,-19.21,5.1,119.7,124.69,-18.2,4.9,-0.8,1.3,8.0,3.1,121.8,8.2,2
-0.6,-10.0,-6.24,5.2,42.2,96.3,-36.6,4.0,3.0,0.0,-2.2,1.7,71.5,6.7,1
8.6,-6.0,-12.82,6.0,66.2,105.12,26.7,2.6,0.9,0.8,1.5,6.1,252.1,5.3,2
-5.6,-5.0,17.63,10.4,70.2,95.13,6.3,11.1,2.7,0.4,1.6,6.8,168.5,6.7,1
0.14,-0.44,-13.18,1.98,106.4,99.74,44.16,5.53,0.52,0.44,3.23,1.93,162.52,8.0,2
-3.07,-6.98,12.43,-0.83,99.43,102.36,-131.37,-7.18,-0.28,-1.51,-10.43,9.9,318.84,13.99,3
-6.35,-2.44,-14.3,2.42,112.16,103.14,-129.77,-3.08,0.17,4.11,10.75,-0.81,268.1,13.06,4
0.8,-0.8,-23.17,-5.8,78.5,89.7,-92.2,7.7,2.5,0.8,1.8,-6.0,101.1,11.1,2
-0.7,-4.4,-15.44,6.9,87.8,108.42,-8.7,5.4,0.3,1.1,3.6,6.4,135.3,9.2,2
-3.3,3.4,-11.62,-7.7,84.2,88.7,-17.8,3.9,1.0,0.2,0.8,6.6,170.2,7.8,2
-3.34,-4.84,-15.56,1.34,153.54,98.43,-127.72,-8.03,0.16,3.6,3.18,-3.43,167.33,20.25,4
-0.9,-1.1,-5.63,-1.2,46.5,123.73,-39.8,7.7,-1.5,1.7,5.3,0.5,112.9,7.1,2
-4.6,-2.35,41.58,3.65,34.83,111.62,-65.34,0.61,0.92,0.57,5.22,1.83,72.11,6.92,4
-4.56,-2.22,40.34,3.52,34.95,111.17,-65.23,0.37,0.88,0.58,5.06,1.69,71.87,6.93,4
-4.1,-0.91,27.54,2.21,36.23,106.46,-64.06,-2.07,0.46,0.69,3.39,0.2,69.43,6.96,4
7.4,-1.5,-3.18,2.6,72.1,100.0,46.6,5.9,0.4,-0.4,-0.8,2.9,97.8,4.9,2
1.7,0.7,-18.42,-3.2,81.3,95.34,1.3,6.4,1.1,0.1,0.2,1.0,127.1,5.0,1
-0.81,-0.92,-17.87,1.04,81.23,102.44,-85.92,-5.33,2.07,1.63,7.73,0.04,117.71,16.52,3
1.5,-4.7,9.44,9.3,29.3,106.59,-47.9,8.6,0.3,-2.9,-11.2,3.0,104.5,9.4,3
-3.2,-1.7,5.89,5.7,39.4,98.21,-66.7,8.0,1.0,-3.1,-13.0,-0.6,91.0,14.4,1
-2.9,-7.4,7.99,-0.2,103.4,101.8,-134.3,-9.4,-0.2,-0.3,-9.8,12.2,329.5,14.7,3
-4.5,-4.4,-26.64,-17.7,177.4,109.06,-130.4,-10.0,-0.3,12.8,25.3,-4.0,132.3,23.3,4
6.6,0.1,-3.82,10.9,18.7,86.73,28.9,8.8,1.1,-0.2,-0.9,21.4,284.3,4.8,1
2.3,-4.3,2.9,2.5,99.2,104.41,-85.5,-1.2,-0.1,-3.5,-11.1,-0.7,147.5,22.1,2
-1.0,2.7,20.49,4.1,37.8,100.0,-54.6,0.6,1.3,0.0,-0.9,0.2,58.0,6.9,1
-0.3,4.8,20.52,13.0,10.6,93.21,-46.7,14.8,0.5,-3.8,-7.4,5.6,115.4,8.7,1
-3.52,-2.51,-22.05,2.86,129.54,102.34,-153.84,-7.54,0.47,8.1,17.09,-1.68,287.03,17.2,4
0.36,-0.58,3.54,-3.26,112.78,106.26,-102.42,-0.66,1.19,0.3,-0.0,-3.29,168.99,16.68,2
-2.3,-1.0,4.68,0.7,50.4,97.43,-69.1,2.9,2.2,0.2,-1.9,4.6,78.1,9.8,1
-5.08,-2.02,11.85,4.61,38.56,104.34,-68.33,6.65,1.66,0.84,2.72,0.28,74.76,7.1,4
