PC_CA-avg_3y,REER-pch_3y,X_GS_share_M-pch_5y,FSL-pch,GD-pc_gdp,HPI-pch,NIIP-pc_gdp,ULC-pch_3y,ACT-pch_3y,LTU-pch_3y,YUR-pch_3y,PSCF-pc_gdp,PSD-pc_gdp,UR-avg_3y,label
0.3,-0.9,-0.15,1.1,17.1,97.38,-73.5,15.3,1.7,2.7,6.5,2.6,130.6,12.2,2
2.78,0.1,22.95,3.89,78.06,104.9,-65.75,-3.94,0.33,-5.48,-17.71,1.46,97.93,13.54,3
-3.03,-10.2,-18.09,-2.09,122.12,82.74,-133.29,-9.0,-1.44,5.16,7.86,-1.33,262.37,14.81,4
-4.8,1.4,1.39,10.7,53.7,101.1,-65.3,5.3,1.8,1.6,5.9,4.8,73.4,9.8,1
-0.9,-1.1,-5.63,-1.2,46.5,123.73,-39.8,7.7,-1.5,1.7,5.3,0.5,112.9,7.1,2
-1.8,0.2,-32.46,-11.6,56.2,101.77,3.0,9.3,0.7,-0.3,-1.5,2.8,147.0,7.9,2
0.45,-1.68,-11.61,0.96,72.48,105.16,-65.09,-3.7,1.3,0.97,2.77,-2.0,112.02,13.49,3
0.3,-1.2,4.06,10.4,51.9,100.0,-63.9,2.7,1.5,-1.8,-7.5,5.1,80.6,13.0,1
1.2,5.3,8.56,23.0,34.7,116.33,-25.0,5.9,2.4,-1.7,-8.0,4.2,67.3,4.0,1
-8.33,-3.65,-10.52,-4.31,114.79,103.94,-106.48,-1.16,-0.41,2.82,8.44,-0.87,209.5,12.13,4
-2.19,-1.86,4.25,-8.5,130.97,98.28,-115.28,-2.21,0.61,-2.37,-5.41,-1.13,101.36,17.98,4
-3.33,-10.51,-16.8,-2.29,118.89,83.3,-131.63,-8.18,-1.61,5.13,6.72,-0.57,265.38,14.6,4
0.67,-3.13,7.27,8.25,26.86,99.04,-69.89,16.91,2.9,0.2,-2.38,1.01,121.98,11.98,3
-0.8,-7.8,-18.3,1.4,90.6,106.3,-12.8,4.1,0.5,0.8,0.8,4.2,138.3,9.4,2
-6.25,-1.28,1.69,-1.9,76.74,103.69,-83.85,-2.56,-0.15,1.72,5.17,-1.15,136.82,9.5,4
-6.57,-6.06,-12.72,-3.6,116.23,96.7,-115.31,-3.63,-0.83,3.63,7.84,-0.77,229.11,13.0,4
1.5,-2.4,-9.7,1.4,135.3,100.0,-19.3,2.0,0.5,1.3,5.0,-1.4,115.1,12.2,3
2.0,1.3,-9.15,-0.1,84.9,100.0,2.2,6.4,0.4,0.5,1.2,2.1,124.0,5.6,1
-0.39,-3.12,0.06,4.28,101.7,100.73,-13.63,1.73,0.68,0.31,0.23,5.72,140.86,10.49,3
-2.7,-3.2,-19.21,5.1,119.7,124.69,-18.2,4.9,-0.8,1.3,8.0,3.1,121.8,8.2,2
6.6,0.1,-3.82,10.9,18.7,86.73,28.9,8.8,1.1,-0.2,-0.9,21.4,284.3,4.8,1
1.5,-4.7,9.44,9.3,29.3,106.59,-47.9,8.6,0.3,-2.9,-11.2,3.0,104.5,9.4,3
-4.82,-6.33,-17.6,-2.66,126.42,91.47,-124.55,-7.25,-0.54,4.12,10.88,-2.94,229.96,14.05,4
-0.8,-1.3,-14.53,5.6,94.9,101.8,-15.6,4.4,1.3,0.5,1.6,3.2,141.5,10.1,3
-0.01,-1.78,-10.37,5.23,105.27,100.78,-13.51,3.58,1.35,0.05,-0.94,2.7,132.85,10.5,3
-6.83,-3.68,-14.92,-3.48,124.3,99.67,-114.4,-4.36,-0.1,3.21,11.38,-2.93,208.47,13.05,4
-0.71,-3.51,-6.32,-0.79,123.05,98.73,-135.71,-5.96,-0.09,2.59,4.73,-1.78,251.52,15.52,3
0.5,-1.8,5.22,-0.3,131.5,106.06,-110.3,-0.5,0.7,-3.1,-9.9,-2.1,169.3,12.6,3
2.3,0.9,-2.83,-2.8,82.9,107.03,4.1,5.4,0.7,0.6,1.5,3.4,123.5,5.8,1
-1.4,2.1,-23.06,1.4,63.0,100.0,4.8,3.2,0.6,0.7,3.4,6.8,151.5,8.8,2
-5.0,-1.66,-8.9,-5.0,123.89,99.33,-113.09,-2.34,-0.52,3.16,9.33,-1.29,203.03,13.63,4
1.44,-4.66,9.82,9.32,28.96,105.92,-49.32,9.2,0.49,-2.73,-10.72,2.34,104.99,9.58,3
-4.9,0.2,1.09,11.7,86.8,105.51,0.3,3.7,0.9,-1.4,-7.7,8.8,166.4,5.4,1
0.62,-1.07,1.0,0.58,113.4,103.73,-98.04,-2.65,1.58,-1.91,-6.06,-1.87,147.24,14.25,3
8.6,-6.0,-12.82,6.0,66.2,105.12,26.7,2.6,0.9,0.8,1.5,6.1,252.1,5.3,2
-0.4,-0.2,-12.95,1.2,105.5,100.51,43.2,7.4,-0.2,-0.1,1.3,7.9,163.0,7.7,2
-0.7,-3.49,-6.34,-0.87,123.17,98.72,-135.56,-5.93,-0.09,2.58,4.73,-1.83,250.76,15.51,3
-0.6,4.8,10.22,4.7,40.2,107.31,-59.0,16.7,2.3,-1.7,-5.9,2.3,80.5,10.1,1
3.1,0.0,10.82,-7.7,72.9,123.65,-54.9,9.1,4.2,-2.0,-9.7,0.7,70.0,5.4,1
2.3,-4.3,2.9,2.5,99.2,104.41,-85.5,-1.2,-0.1,-3.5,-11.1,-0.7,147.5,22.1,2
-8.79,-3.0,-9.95,-4.49,114.47,105.86,-104.17,-0.53,-0.3,2.6,8.62,-0.91,204.23,11.91,4
-1.5,-3.0,-0.36,-13.0,176.2,96.77,-140.7,-1.0,0.9,-3.9,-8.8,-1.0,118.1,23.3,4
-1.0,2.7,20.49,4.1,37.8,100.0,-54.6,0.6,1.3,0.0,-0.9,0.2,58.0,6.9,1
-3.3,-6.4,18.62,-1.7,93.9,103.14,-127.3,-4.1,-0.4,-3.2,-11.3,6.7,304.0,13.0,3
6.1,-2.4,-5.55,15.1,22.0,88.53,58.4,5.9,0.7,0.4,1.5,25.9,303.7,4.8,1
3.6,-5.5,-4.56,6.9,40.7,112.4,4.5,3.9,1.0,-0.2,-5.1,13.3,197.9,7.0,2
-6.12,-3.14,31.18,1.68,59.18,111.94,-78.0,1.35,0.73,1.16,7.02,1.64,114.57,8.47,4
2.7,-5.2,-2.11,19.5,75.5,113.15,-59.6,5.4,5.4,-2.5,-13.7,-3.1,76.6,6.5,1
-4.13,-1.02,28.64,2.32,36.12,106.86,-64.16,-1.86,0.49,0.68,3.53,0.33,69.64,6.96,4
-4.5,-3.18,44.08,2.47,50.52,112.61,-74.77,1.83,1.17,-0.01,4.55,2.36,78.86,8.81,4
7.7,-1.2,-15.87,7.3,44.3,93.87,43.3,2.3,-1.2,-0.1,-2.1,-0.3,214.0,7.4,1
0.07,-4.08,-14.26,1.44,46.99,109.71,-51.03,4.46,-0.28,2.03,4.96,-1.53,115.54,9.12,3
2.0,0.2,2.7,2.2,78.3,110.5,2.8,4.0,1.0,0.3,-0.5,3.6,121.8,5.7,1
-3.57,0.45,13.57,0.61,39.48,101.33,-63.86,-4.65,0.01,0.74,1.46,-1.39,67.5,7.22,4
8.3,-1.7,-2.87,5.1,37.2,104.7,38.2,2.1,1.9,-0.4,-2.6,2.8,209.5,6.4,1
2.6,-2.6,9.87,3.4,98.6,109.14,-85.5,-0.5,-0.3,-5.2,-14.6,0.7,139.7,19.6,2
4.6,-0.6,3.7,3.4,78.7,103.87,-28.9,1.3,1.1,-0.9,-6.4,-0.8,81.1,8.9,2
-4.41,-1.8,36.28,3.1,35.36,109.67,-64.86,-0.4,0.75,0.61,4.53,1.22,71.1,6.94,4
2.0,-4.7,-21.72,0.4,81.9,92.57,-3.2,3.8,0.8,0.0,-1.3,1.2,128.2,4.8,1
-2.0,2.5,13.52,13.2,36.7,100.0,-64.1,17.2,1.3,-3.3,-12.2,-0.5,80.4,10.9,1
0.8,0.1,-5.77,2.0,84.4,100.0,-78.4,-6.1,3.0,0.0,0.1,-1.5,111.9,16.9,3
8.4,-1.8,1.52,-0.1,56.9,110.72,59.4,-0.1,0.7,-1.0,-3.8,3.7,249.1,5.9,2
-3.25,-10.63,-16.9,-2.26,118.96,82.96,-132.04,-8.29,-1.63,5.17,6.69,-0.57,266.29,14.64,4
-8.17,-2.57,-7.04,-3.85,105.05,105.35,-99.07,-1.01,-0.26,2.38,7.75,-0.96,187.46,11.3,4
2.3,-7.2,-9.31,0.4,76.1,100.0,-67.9,1.1,4.9,-1.9,-10.9,-2.5,83.2,8.2,1
-5.9,-4.0,-17.3,-3.0,129.0,96.71,-119.3,-6.2,0.0,3.5,12.7,-3.9,210.5,13.6,4
0.55,-0.57,-6.32,-1.34,101.46,99.27,-94.37,-4.97,1.8,0.77,1.65,-2.98,139.55,16.37,3
-1.0,2.6,3.79,13.9,39.3,109.86,-37.9,16.3,2.2,-2.1,-6.0,4.5,56.1,8.0,1
0.6,-2.8,5.59,7.9,27.1,98.77,-72.2,17.6,3.1,0.6,-1.2,2.3,125.6,12.2,3
-0.5,1.7,26.02,2.0,37.2,92.55,-53.6,-7.8,3.0,6.7,19.3,-1.8,68.8,15.7,1
2.34,0.05,16.89,3.72,79.38,103.6,-68.74,-4.68,1.04,-4.99,-17.88,0.72,100.71,14.47,3
-1.62,-3.01,1.38,-12.39,171.28,97.39,-138.12,-0.89,0.91,-3.75,-8.28,-0.87,116.56,22.73,4
6.5,-7.8,-17.73,2.5,44.9,88.3,36.1,-0.2,-1.6,1.5,2.3,7.9,224.0,7.8,2
1.0,-1.7,-13.57,2.7,105.2,100.0,45.2,0.5,0.7,1.0,2.3,12.1,176.1,8.5,1
7.9,-2.1,1.07,4.8,35.5,108.16,40.8,2.4,0.7,-0.4,-1.8,0.1,201.7,6.0,1
0.0,-8.2,-2.16,8.1,40.0,100.0,-32.9,0.1,2.4,-0.6,-6.9,0.3,68.1,6.1,1
-4.9,-3.2,49.92,4.5,34.0,114.69,-66.1,2.2,1.2,0.5,6.3,2.8,73.7,6.9,4
-2.6,-6.29,6.06,4.48,101.21,101.45,-141.92,-7.7,0.03,0.24,-2.49,5.46,327.54,14.45,3
2.9,-2.8,9.08,3.6,57.8,100.0,37.4,-1.4,4.9,-0.6,-2.2,8.8,134.8,5.7,1
1.9,-3.8,-22.85,-1.3,77.3,85.73,-82.2,7.5,2.8,-0.6,0.2,-0.9,94.6,10.7,2
-1.2,-3.8,-10.57,1.9,119.9,78.16,-133.4,-0.7,0.2,1.1,-1.4,-1.4,267.5,14.9,2
-1.9,-5.6,-19.39,-7.9,178.9,103.49,-131.9,-10.4,0.1,10.7,7.7,-3.0,130.8,26.2,4
-4.02,-0.7,25.5,2.0,36.43,105.71,-63.87,-2.46,0.39,0.7,3.13,-0.04,69.04,6.97,4
-2.07,-8.84,-15.38,-2.84,123.23,82.83,-132.71,-8.13,-1.55,5.09,7.34,-0.82,256.82,15.14,4
1.07,0.07,-1.61,2.41,83.47,100.55,-76.76,-5.96,2.7,-1.2,-4.86,-1.15,109.77,16.55,3
-1.7,-6.7,27.02,-0.7,39.8,89.47,-54.3,-4.2,2.2,3.3,-2.9,0.3,61.1,15.5,1
2.2,-3.1,1.19,4.2,134.1,97.93,-7.7,1.3,1.5,-1.2,-8.0,1.3,108.8,11.6,3
-4.01,-0.67,25.23,1.97,36.46,105.61,-63.85,-2.51,0.38,0.7,3.09,-0.07,68.99,6.97,4
-4.36,-1.68,35.03,2.98,35.48,109.21,-64.74,-0.64,0.71,0.62,4.36,1.07,70.86,6.94,4
-0.7,-4.4,-15.44,6.9,87.8,108.42,-8.7,5.4,0.3,1.1,3.6,6.4,135.3,9.2,2
0.36,-1.1,-6.75,-4.0,115.04,98.69,-107.08,-4.08,0.85,1.39,2.88,-4.15,161.56,15.95,3
-1.7,-8.6,7.91,5.6,41.6,92.0,-67.5,-6.5,0.9,3.3,-4.8,-5.4,96.8,16.9,1
2.0,3.0,2.18,14.3,9.3,105.85,-32.5,12.4,3.6,-1.4,-2.9,4.8,107.6,6.3,1
-0.72,-2.09,-8.03,5.19,96.19,101.39,-14.52,3.28,1.05,0.38,0.81,4.57,142.41,10.18,3
0.9,-4.3,13.16,9.5,26.0,100.0,-61.8,14.5,2.2,-1.2,-6.5,-3.5,109.3,11.2,3
-0.6,-10.0,-6.24,5.2,42.2,96.3,-36.6,4.0,3.0,0.0,-2.2,1.7,71.5,6.7,1
7.0,-0.4,-9.53,4.6,75.7,95.98,40.8,7.4,0.4,-0.6,-0.8,-0.3,98.4,5.2,2
2.8,0.1,23.24,3.9,78.0,104.96,-65.6,-3.9,0.3,-5.5,-17.7,1.5,97.8,13.5,3
-2.3,-1.0,4.68,0.7,50.4,97.43,-69.1,2.9,2.2,0.2,-1.9,4.6,78.1,9.8,1
-1.7,2.7,-27.3,9.3,59.8,100.2,-3.1,7.6,0.5,0.2,0.4,1.7,148.8,8.2,2
1.44,-2.42,-9.37,1.5,134.17,100.02,-19.11,1.99,0.51,1.27,4.84,-1.16,115.96,12.14,3
7.0,-2.4,-8.35,10.3,61.7,114.1,20.1,5.3,0.3,0.4,1.4,8.2,247.2,4.8,1
-6.98,-3.09,18.01,-0.3,76.87,110.0,-86.36,0.76,0.4,1.62,7.53,0.83,143.28,9.57,4
0.23,-1.8,-3.09,-5.07,132.43,100.67,-119.25,-2.09,-0.03,0.41,-0.36,-4.49,183.35,14.46,3
1.9,-0.8,24.41,-0.2,6.1,74.62,-54.0,-2.2,0.5,5.4,10.4,-0.8,118.9,14.2,1
0.2,-6.3,71.33,4.3,67.8,117.65,-167.2,-15.4,0.9,-3.6,-9.0,0.2,250.5,8.4,2
-2.9,-3.2,-10.3,1.1,51.8,93.78,-60.6,-0.3,1.0,2.9,6.4,1.9,71.1,14.1,1
0.8,-0.8,14.29,1.9,126.0,114.05,-109.9,2.8,1.5,-3.9,-10.9,2.0,161.9,10.9,2
-4.5,-10.8,-1.18,-1.7,86.2,108.73,-10.0,5.1,0.9,-1.1,-4.9,7.2,167.7,4.8,1
2.0,1.9,-15.75,-0.8,84.0,96.68,3.4,7.9,0.8,0.3,1.4,0.9,124.8,5.3,1
2.3,-3.3,20.41,7.1,25.3,112.26,-43.3,13.5,2.3,-3.5,-10.9,4.1,99.0,7.7,2
0.4,-3.6,6.93,10.9,9.8,76.91,-50.7,0.1,0.8,1.8,-6.5,7.6,117.2,13.0,1
-4.04,-0.76,26.07,2.06,36.37,105.92,-63.92,-2.35,0.41,0.7,3.2,0.03,69.15,6.97,4
-5.96,-6.9,-13.49,-3.36,116.73,94.17,-118.39,-4.49,-0.98,3.91,7.62,-0.73,235.96,13.3,4
-3.6,0.5,13.76,0.8,37.6,101.39,-62.8,-4.7,0.0,0.8,1.6,-1.4,66.8,7.0,4
2.3,-6.4,37.84,9.6,76.7,100.0,-198.4,-18.6,1.0,-3.9,-10.6,-2.3,305.1,11.9,2
-0.1,-4.5,-20.85,-0.7,53.6,113.34,-44.0,0.1,-1.4,2.5,7.0,-2.8,112.2,8.1,3
-0.6,-3.2,1.14,4.6,98.0,100.81,-13.0,1.7,0.7,0.2,-0.3,6.5,143.7,10.3,3
0.62,-4.59,-7.22,3.8,42.67,110.3,-45.75,3.92,-0.64,0.07,-1.19,-0.19,108.74,8.68,3
5.9,-4.9,-9.35,3.1,79.8,90.51,23.3,5.6,1.4,-1.1,-1.9,2.0,102.4,6.8,1
1.89,-2.79,-3.59,2.97,134.63,98.84,-12.79,1.61,1.06,-0.1,-2.3,0.12,111.56,11.86,3
-8.66,-2.95,-9.88,-4.52,114.75,105.66,-104.43,-0.57,-0.31,2.62,8.63,-0.91,204.16,11.96,4
-3.3,3.4,-11.62,-7.7,84.2,88.7,-17.8,3.9,1.0,0.2,0.8,6.6,170.2,7.8,2
5.8,3.2,-12.21,1.8,37.3,78.22,-8.3,4.1,0.6,0.7,2.6,7.0,189.1,8.2,2
-0.3,-3.5,27.95,6.5,50.6,104.11,-61.2,4.1,1.7,-2.3,-9.1,2.9,76.5,6.2,1
-5.61,-7.39,-13.93,-3.21,117.02,92.71,-120.17,-4.98,-1.06,4.08,7.5,-0.71,239.91,13.47,4
6.6,-1.8,-12.99,-6.4,78.7,93.91,34.7,6.1,0.9,-1.0,-2.0,2.0,103.0,5.5,2
-4.5,-4.4,-26.64,-17.7,177.4,109.06,-130.4,-10.0,-0.3,12.8,25.3,-4.0,132.3,23.3,4
1.28,0.05,1.51,2.72,82.78,100.96,-75.53,-5.86,2.47,-2.1,-8.59,-0.88,108.17,16.28,3
5.4,0.5,16.34,37.8,22.7,94.97,59.3,7.1,2.9,0.2,5.9,28.7,324.9,5.7,1
-2.0,-0.6,-8.1,-5.4,131.4,94.13,-120.2,-3.8,-0.7,3.6,9.9,-1.6,202.1,15.0,4
-1.3,-2.6,23.22,7.0,37.3,105.21,-49.0,9.5,0.7,-0.2,-3.1,0.6,53.7,6.5,1
-2.0,-6.2,-4.75,9.8,107.5,100.0,-154.5,-10.8,0.4,3.2,5.1,4.4,347.8,15.7,3
0.5,1.7,8.2,6.2,38.6,113.36,-56.2,15.2,2.4,-1.3,-2.6,2.4,76.9,9.4,1
1.52,-0.3,6.72,1.7,89.51,101.34,-80.83,-5.16,1.52,-3.32,-14.4,-1.1,118.26,15.57,3
-4.46,-1.95,37.72,3.25,35.21,110.2,-64.99,-0.13,0.8,0.6,4.71,1.38,71.37,6.93,4
1.8,0.0,9.47,3.5,81.0,102.01,-72.4,-5.6,1.9,-4.4,-18.1,-0.2,104.1,15.6,3
1.7,0.7,-18.42,-3.2,81.3,95.34,1.3,6.4,1.1,0.1,0.2,1.0,127.1,5.0,1
0.31,-2.85,-3.54,3.22,114.1,100.46,-15.72,1.83,0.61,0.67,1.99,3.09,131.36,11.12,3
-2.09,-11.11,-17.38,-2.14,120.98,79.72,-136.15,-9.33,-1.79,5.5,6.64,-0.6,271.87,15.18,4
5.0,-1.0,21.39,0.4,22.3,109.55,51.8,4.0,-0.6,0.5,-6.8,27.4,322.9,6.1,1
-0.2,-0.3,-10.28,-9.9,95.8,96.24,-92.8,-5.1,0.8,5.7,14.0,-10.1,178.1,24.1,2
1.51,-2.41,-9.5,1.45,135.28,99.96,-19.08,1.99,0.52,1.25,4.76,-1.35,114.98,12.19,3
3.2,1.2,-12.73,-0.1,80.3,98.61,-38.4,0.1,0.6,1.7,4.5,-4.7,97.9,9.6,2
1.17,-4.66,3.11,7.21,34.38,108.0,-47.09,6.82,-0.06,-1.77,-7.4,1.79,106.11,9.13,3
-1.09,-3.72,10.82,-0.89,115.78,104.84,-117.41,-2.0,0.24,-3.14,-10.49,1.58,225.6,12.77,3
8.3,-1.7,-8.55,-0.9,39.8,100.0,33.4,2.2,-0.1,-0.4,-3.6,2.9,211.4,6.9,1
-1.4,0.4,-15.78,3.9,62.6,100.14,5.2,0.4,0.7,0.6,0.2,1.5,148.0,9.0,1
4.9,-0.34,-9.1,3.88,38.68,92.14,-3.09,4.02,0.76,0.33,-0.54,9.57,192.68,7.71,2
-0.1,-4.3,-15.53,-5.1,104.8,100.36,40.8,4.9,0.0,-0.1,-2.1,14.7,191.0,7.7,2
-8.65,-2.9,-9.26,-4.35,112.25,105.77,-102.94,-0.62,-0.29,2.55,8.4,-0.91,200.35,11.76,4
1.24,0.1,0.6,2.42,83.0,101.09,-75.59,-5.62,2.41,-1.21,-3.81,-0.84,108.81,16.15,3
-4.23,-9.27,-15.66,-2.66,118.15,87.04,-127.06,-6.91,-1.39,4.71,7.03,-0.63,255.24,14.15,4
-2.8,-7.8,-25.92,10.4,80.1,89.4,-11.6,5.8,-0.3,1.3,6.3,1.6,176.6,7.8,2
0.6,-3.16,1.16,4.43,113.52,99.57,-10.72,1.53,1.04,-0.4,-3.61,4.27,128.7,10.86,3
-2.08,-0.67,-8.28,-5.35,131.35,94.18,-120.18,-3.85,-0.69,3.6,9.96,-1.65,202.27,14.97,4
-4.61,-2.38,41.9,3.68,34.8,111.74,-65.37,0.67,0.93,0.57,5.26,1.87,72.17,6.92,4
-5.6,-5.0,17.63,10.4,70.2,95.13,6.3,11.1,2.7,0.4,1.6,6.8,168.5,6.7,1
-3.4,-4.3,-0.26,7.4,55.7,96.29,-68.9,3.1,1.7,1.4,3.6,3.3,75.4,10.0,1
-1.0,-5.6,-13.98,5.3,175.9,100.0,-135.4,-9.7,0.3,3.7,-5.5,-3.0,128.0,26.3,4
-0.3,-3.6,-14.64,19.5,104.4,90.26,-164.7,-3.7,0.6,-2.2,-6.2,2.6,278.4,13.7,2
0.37,-1.97,4.71,2.1,38.08,119.17,-41.19,10.0,0.01,-0.37,-1.14,1.93,107.38,7.34,2
-4.83,-3.01,48.1,4.31,34.18,114.02,-65.93,1.85,1.14,0.52,6.06,2.59,73.35,6.91,4
-4.58,-2.28,40.89,3.58,34.9,111.37,-65.28,0.48,0.9,0.57,5.13,1.75,71.98,6.92,4
0.0,5.3,-1.35,15.8,39.9,104.36,-42.9,15.0,3.1,-2.1,-7.4,4.3,56.5,9.2,1
0.8,-0.8,-23.17,-5.8,78.5,89.7,-92.2,7.7,2.5,0.8,1.8,-6.0,101.1,11.1,2
0.1,-1.8,-7.32,-7.5,132.9,97.92,-123.8,-2.9,-0.4,2.2,4.5,-5.7,190.5,15.4,3
-2.98,-10.99,-17.23,-2.16,119.18,81.88,-133.36,-8.66,-1.69,5.29,6.6,-0.55,269.23,14.77,4
5.1,-1.5,33.28,5.2,20.1,105.69,54.6,1.2,0.1,0.4,2.2,-9.6,309.0,6.3,1
-7.05,-3.6,-14.38,-3.59,123.22,100.35,-113.28,-3.94,-0.12,3.14,11.08,-2.71,208.0,12.93,4
-2.29,-3.05,11.35,-8.92,143.07,100.94,-123.32,-0.25,0.97,-2.87,-5.28,-0.11,107.76,19.48,4
-3.2,1.9,11.12,4.3,15.2,102.33,-82.8,17.9,-1.9,3.4,13.1,3.5,129.1,9.5,2
-2.1,-12.2,-18.34,-1.8,119.9,78.23,-137.8,-9.9,-1.9,5.7,6.3,-0.5,279.1,15.2,4
0.35,-3.41,-3.88,4.82,36.59,103.99,-62.1,11.33,1.49,1.28,1.74,0.47,120.8,10.73,3
1.9,-3.2,-3.29,-2.0,99.3,100.0,-88.9,-1.1,0.0,0.4,-4.6,-2.7,155.8,24.2,2
7.4,-1.5,-3.18,2.6,72.1,100.0,46.6,5.9,0.4,-0.4,-0.8,2.9,97.8,4.9,2
-8.8,-3.0,-9.92,-4.5,114.4,105.9,-104.1,-0.5,-0.3,2.6,8.6,-0.9,204.2,11.9,4
0.5,-0.6,-13.33,2.5,107.0,99.24,44.8,4.3,1.0,0.8,4.5,-2.0,162.2,8.2,2
0.7,-3.7,2.44,16.3,36.8,106.67,-26.9,2.7,2.1,-1.3,-8.4,4.3,68.7,5.1,1
-2.1,-6.2,-25.74,7.2,126.5,118.48,-23.0,2.0,1.2,2.2,10.0,-0.9,124.2,9.2,2
-0.8,-1.2,-0.62,0.0,68.4,94.14,26.9,9.8,5.9,-0.3,-0.5,2.3,153.0,6.2,1
-0.1,3.1,9.93,10.3,10.2,82.54,-49.7,11.2,1.2,-3.8,-14.2,4.8,115.2,10.3,1
0.59,-1.23,1.95,0.38,117.49,104.26,-100.81,-2.17,1.38,-2.18,-6.92,-1.92,152.22,13.88,3
5.5,-2.5,-13.78,1.6,46.1,92.83,27.8,3.6,-1.4,1.3,6.8,4.4,221.0,7.3,2
-4.25,-7.55,-17.75,-2.48,125.06,88.7,-127.32,-7.8,-0.82,4.45,9.93,-2.43,240.22,14.29,4
