PC_CA-avg_3y,REER-pch_3y,X_GS_share_M-pch_5y,FSL-pch,GD-pc_gdp,HPI-pch,NIIP-pc_gdp,ULC-pch_3y,ACT-pch_3y,LTU-pch_3y,YUR-pch_3y,PSCF-pc_gdp,PSD-pc_gdp,UR-avg_3y,label
-1.7,2.7,-27.3,9.3,59.8,100.2,-3.1,7.6,0.5,0.2,0.4,1.7,148.8,8.2,2
-6.81,-3.69,-14.99,-3.47,124.43,99.59,-114.54,-4.41,-0.09,3.22,11.42,-2.96,208.53,13.07,4
2.6,-2.6,9.87,3.4,98.6,109.14,-85.5,-0.5,-0.3,-5.2,-14.6,0.7,139.7,19.6,2
-1.9,-5.6,-19.39,-7.9,178.9,103.49,-131.9,-10.4,0.1,10.7,7.7,-3.0,130.8,26.2,4
-2.1,-12.2,-18.34,-1.8,119.9,78.23,-137.8,-9.9,-1.9,5.7,6.3,-0.5,279.1,15.2,4
7.9,-2.1,1.07,4.8,35.5,108.16,40.8,2.4,0.7,-0.4,-1.8,0.1,201.7,6.0,1
0.5,-0.6,-13.33,2.5,107.0,99.24,44.8,4.3,1.0,0.8,4.5,-2.0,162.2,8.2,2
-0.31,-3.09,-0.38,4.15,103.24,100.7,-13.88,1.74,0.67,0.35,0.44,5.39,139.69,10.57,3
-4.89,-4.47,-15.29,-6.43,150.95,104.53,-119.85,-6.11,-0.07,7.19,8.09,-2.09,162.61,20.0,4
-0.5,1.7,26.02,2.0,37.2,92.55,-53.6,-7.8,3.0,6.7,19.3,-1.8,68.8,15.7,1
6.6,0.1,-3.82,10.9,18.7,86.73,28.9,8.8,1.1,-0.2,-0.9,21.4,284.3,4.8,1
0.69,-2.01,-11.4,2.88,121.09,100.63,-18.0,2.84,0.78,1.02,3.8,0.22,124.39,11.46,3
-7.6,-3.41,-12.98,-3.88,120.45,102.09,-110.4,-2.86,-0.18,2.97,10.3,-2.14,206.81,12.6,4
-4.13,-2.25,9.15,0.37,71.63,102.43,-85.78,4.86,1.5,-0.37,-0.24,-0.02,83.54,11.05,4
6.1,-2.4,-5.55,15.1,22.0,88.53,58.4,5.9,0.7,0.4,1.5,25.9,303.7,4.8,1
7.4,-1.5,-3.18,2.6,72.1,100.0,46.6,5.9,0.4,-0.4,-0.8,2.9,97.8,4.9,2
-4.19,-0.56,13.14,2.5,37.35,102.63,-64.83,0.17,0.72,0.8,2.02,-0.68,69.05,7.0,4
-8.12,-3.23,-11.64,-4.15,117.8,103.76,-107.64,-1.83,-0.23,2.81,9.56,-1.6,205.67,12.3,4
-3.2,-5.08,-18.71,-6.31,162.7,101.29,-127.81,-9.04,0.07,8.36,9.32,-3.29,156.67,22.11,4
0.4,-3.6,6.93,10.9,9.8,76.91,-50.7,0.1,0.8,1.8,-6.5,7.6,117.2,13.0,1
0.74,-3.5,9.12,8.65,26.59,99.34,-67.35,16.15,2.68,-0.24,-3.67,-0.4,118.0,11.73,3
-3.08,-1.95,-20.06,11.28,109.45,98.98,-163.19,-6.58,0.74,6.09,13.43,-0.7,351.07,14.61,4
-7.25,-2.59,-0.86,-0.71,82.82,105.25,-89.21,2.48,0.52,1.87,6.15,-0.41,150.31,9.9,4
-2.0,2.5,13.52,13.2,36.7,100.0,-64.1,17.2,1.3,-3.3,-12.2,-0.5,80.4,10.9,1
2.39,0.06,17.53,3.73,79.24,103.74,-68.42,-4.6,0.96,-5.04,-17.87,0.8,100.41,14.37,3
-4.22,-2.22,9.48,0.83,68.05,102.63,-83.91,5.06,1.52,-0.25,0.06,0.01,82.36,10.64,4
-3.0,-2.57,5.06,-5.39,116.66,100.0,-109.43,2.34,1.24,-1.89,-3.92,-0.44,98.42,16.33,4
1.0,-1.7,-13.57,2.7,105.2,100.0,45.2,0.5,0.7,1.0,2.3,12.1,176.1,8.5,1
6.6,-1.8,-12.99,-6.4,78.7,93.91,34.7,6.1,0.9,-1.0,-2.0,2.0,103.0,5.5,2
-2.2,-11.19,-18.51,-0.51,118.87,80.27,-140.3,-9.57,-1.64,5.74,7.0,-0.52,286.18,15.14,4
-0.8,-2.2,-14.22,0.5,93.4,103.54,-16.6,4.6,0.9,0.5,1.6,2.1,137.4,9.8,2
-1.8,0.2,-32.46,-11.6,56.2,101.77,3.0,9.3,0.7,-0.3,-1.5,2.8,147.0,7.9,2
-0.73,-1.94,-9.24,5.26,95.95,101.47,-14.72,3.49,1.1,0.4,0.96,4.31,142.24,10.17,3
-1.1,-4.0,-9.78,-10.4,178.5,98.35,-137.6,-3.3,0.7,-1.5,-11.0,-2.1,125.1,25.0,4
-2.9,-3.2,-10.3,1.1,51.8,93.78,-60.6,-0.3,1.0,2.9,6.4,1.9,71.1,14.1,1
-4.65,-1.37,12.67,3.8,37.15,103.58,-66.4,3.92,1.27,0.8,2.35,-0.13,70.77,7.0,4
2.3,-7.2,-9.31,0.4,76.1,100.0,-67.9,1.1,4.9,-1.9,-10.9,-2.5,83.2,8.2,1
-2.81,-4.74,-19.59,7.72,112.3,93.33,-156.28,-7.48,0.02,5.98,11.49,-0.64,331.47,14.77,4
2.3,0.9,-2.83,-2.8,82.9,107.03,4.1,5.4,0.7,0.6,1.5,3.4,123.5,5.8,1
-2.1,-6.2,-25.74,7.2,126.5,118.48,-23.0,2.0,1.2,2.2,10.0,-0.9,124.2,9.2,2
-4.02,-4.8,-16.48,-6.85,159.06,104.23,-123.35,-7.36,-0.02,8.21,7.98,-2.35,153.37,21.8,4
-1.82,-5.39,2.49,-2.82,114.01,100.41,-130.53,-7.06,-0.27,0.6,-4.66,5.76,279.53,14.95,3
-0.8,-1.3,-14.53,5.6,94.9,101.8,-15.6,4.4,1.3,0.5,1.6,3.2,141.5,10.1,3
0.45,-2.05,-7.96,5.01,111.28,100.18,-12.3,3.1,1.38,-0.21,-2.41,2.41,127.83,10.73,3
0.58,-0.67,-18.59,-6.58,74.84,104.34,-54.94,-2.17,-0.01,1.9,7.36,-2.51,110.49,11.64,3
0.4,-7.1,58.59,1.5,73.9,107.14,-171.7,-17.7,0.9,-3.8,-9.9,-15.7,284.4,10.1,2
5.9,-4.9,-9.35,3.1,79.8,90.51,23.3,5.6,1.4,-1.1,-1.9,2.0,102.4,6.8,1
-4.5,-10.8,-1.18,-1.7,86.2,108.73,-10.0,5.1,0.9,-1.1,-4.9,7.2,167.7,4.8,1
1.08,-0.62,-18.33,-9.01,71.5,104.91,-44.15,-0.6,-0.69,1.97,7.04,-3.33,108.22,9.89,3
-5.1,-0.51,6.94,-0.73,59.72,102.69,-74.69,-3.49,-0.09,1.32,3.62,-1.26,106.37,8.41,4
2.7,-5.2,-2.11,19.5,75.5,113.15,-59.6,5.4,5.4,-2.5,-13.7,-3.1,76.6,6.5,1
2.8,0.1,23.24,3.9,78.0,104.96,-65.6,-3.9,0.3,-5.5,-17.7,1.5,97.8,13.5,3
-1.4,0.4,-15.78,3.9,62.6,100.14,5.2,0.4,0.7,0.6,0.2,1.5,148.0,9.0,1
-3.1,-1.7,-20.1,11.6,109.2,99.48,-163.8,-6.5,0.8,6.1,13.6,-0.7,352.8,14.6,4
7.6,-2.3,-2.96,6.7,61.9,104.39,61.4,-0.3,0.3,0.0,-2.4,3.9,259.3,6.8,2
1.9,-3.2,-3.29,-2.0,99.3,100.0,-88.9,-1.1,0.0,0.4,-4.6,-2.7,155.8,24.2,2
3.24,-5.63,-5.77,7.1,42.93,111.1,3.59,4.01,0.93,-0.11,-4.45,12.64,196.69,7.05,2
2.3,-4.3,2.9,2.5,99.2,104.41,-85.5,-1.2,-0.1,-3.5,-11.1,-0.7,147.5,22.1,2
-4.14,-1.94,-18.24,8.65,110.15,100.66,-152.86,-5.4,0.6,5.46,12.68,-0.74,325.58,14.11,4
-0.9,-0.8,-19.37,0.6,84.7,102.67,-86.8,-6.8,2.0,1.7,8.3,-0.1,117.2,16.8,3
-0.6,4.8,10.22,4.7,40.2,107.31,-59.0,16.7,2.3,-1.7,-5.9,2.3,80.5,10.1,1
-6.15,-6.64,-13.25,-3.43,116.57,94.97,-117.42,-4.21,-0.93,3.82,7.69,-0.74,233.8,13.2,4
2.1,-2.4,26.53,-6.2,43.1,92.23,-74.7,-20.6,-1.4,6.9,17.4,-2.4,115.2,17.7,1
2.0,3.0,2.18,14.3,9.3,105.85,-32.5,12.4,3.6,-1.4,-2.9,4.8,107.6,6.3,1
8.4,-1.8,1.52,-0.1,56.9,110.72,59.4,-0.1,0.7,-1.0,-3.8,3.7,249.1,5.9,2
1.51,-2.41,-9.5,1.45,135.28,99.96,-19.08,1.99,0.52,1.25,4.76,-1.35,114.98,12.19,3
1.84,-3.11,1.18,4.25,129.41,98.3,-8.39,1.35,1.4,-1.02,-7.0,1.98,113.33,11.43,3
0.8,0.1,-5.77,2.0,84.4,100.0,-78.4,-6.1,3.0,0.0,0.1,-1.5,111.9,16.9,3
7.7,-1.2,-15.87,7.3,44.3,93.87,43.3,2.3,-1.2,-0.1,-2.1,-0.3,214.0,7.4,1
0.22,-1.8,-3.53,-5.32,132.48,100.38,-119.72,-2.17,-0.07,0.6,0.15,-4.61,184.09,14.55,3
6.4,-9.0,-16.75,3.2,81.1,92.39,28.7,2.5,0.9,-1.1,-3.1,1.4,101.9,6.1,1
0.31,-2.12,5.38,-0.29,129.92,105.82,-111.65,-1.0,0.65,-2.94,-9.89,-1.3,178.31,12.72,3
-3.2,-1.7,5.89,5.7,39.4,98.21,-66.7,8.0,1.0,-3.1,-13.0,-0.6,91.0,14.4,1
2.2,-3.1,1.19,4.2,134.1,97.93,-7.7,1.3,1.5,-1.2,-8.0,1.3,108.8,11.6,3
0.6,-2.8,5.59,7.9,27.1,98.77,-72.2,17.6,3.1,0.6,-1.2,2.3,125.6,12.2,3
0.9,-4.3,13.16,9.5,26.0,100.0,-61.8,14.5,2.2,-1.2,-6.5,-3.5,109.3,11.2,3
8.2,-0.9,-6.74,4.0,64.6,100.0,48.9,-0.4,0.6,1.1,-0.4,0.0,262.8,7.2,2
-7.32,-2.01,-3.2,-3.0,92.59,104.62,-92.37,-1.69,-0.21,2.09,6.61,-1.04,165.19,10.51,4
-0.8,-7.8,-18.3,1.4,90.6,106.3,-12.8,4.1,0.5,0.8,0.8,4.2,138.3,9.4,2
-5.0,-2.0,12.3,4.8,37.0,104.31,-67.6,6.8,1.7,0.8,2.6,0.3,72.1,7.0,4
8.6,-6.0,-12.82,6.0,66.2,105.12,26.7,2.6,0.9,0.8,1.5,6.1,252.1,5.3,2
0.8,-0.8,14.29,1.9,126.0,114.05,-109.9,2.8,1.5,-3.9,-10.9,2.0,161.9,10.9,2
-1.5,-3.0,-0.36,-13.0,176.2,96.77,-140.7,-1.0,0.9,-3.9,-8.8,-1.0,118.1,23.3,4
1.3,-0.6,-18.21,-10.1,70.0,105.16,-39.3,0.1,-1.0,2.0,6.9,-3.7,107.2,9.1,3
-2.9,-7.4,7.99,-0.2,103.4,101.8,-134.3,-9.4,-0.2,-0.3,-9.8,12.2,329.5,14.7,3
1.9,-0.8,24.41,-0.2,6.1,74.62,-54.0,-2.2,0.5,5.4,10.4,-0.8,118.9,14.2,1
-0.4,-0.2,-12.95,1.2,105.5,100.51,43.2,7.4,-0.2,-0.1,1.3,7.9,163.0,7.7,2
0.0,5.3,-1.35,15.8,39.9,104.36,-42.9,15.0,3.1,-2.1,-7.4,4.3,56.5,9.2,1
-6.82,-1.67,-0.89,-2.48,85.12,104.18,-88.36,-2.1,-0.19,1.91,5.93,-1.09,151.82,10.03,4
-3.97,-0.16,13.37,1.86,37.44,102.16,-64.07,-1.65,0.45,0.8,1.86,-0.95,68.2,7.0,4
-6.67,-5.93,-12.6,-3.64,116.15,97.1,-114.82,-3.49,-0.81,3.59,7.87,-0.77,228.02,12.95,4
-0.8,-3.95,6.28,-0.26,120.74,104.43,-119.49,-3.91,0.36,-2.03,-9.86,3.38,230.67,13.4,3
1.13,0.07,-0.82,2.49,83.29,100.65,-76.45,-5.94,2.64,-1.43,-5.82,-1.08,109.36,16.48,3
-2.94,-3.4,-19.81,9.43,110.93,96.04,-159.59,-7.05,0.36,6.04,12.42,-0.67,340.86,14.7,4
-7.61,-3.41,-12.96,-3.88,120.41,102.12,-110.36,-2.85,-0.18,2.97,10.29,-2.13,206.79,12.6,4
-1.0,2.6,3.79,13.9,39.3,109.86,-37.9,16.3,2.2,-2.1,-6.0,4.5,56.1,8.0,1
0.8,-0.8,-23.17,-5.8,78.5,89.7,-92.2,7.7,2.5,0.8,1.8,-6.0,101.1,11.1,2
0.7,-3.7,2.44,16.3,36.8,106.67,-26.9,2.7,2.1,-1.3,-8.4,4.3,68.7,5.1,1
-6.04,-1.15,2.63,-1.69,73.71,103.51,-82.22,-2.73,-0.14,1.65,4.89,-1.16,131.4,9.3,4
-1.4,2.1,-23.06,1.4,63.0,100.0,4.8,3.2,0.6,0.7,3.4,6.8,151.5,8.8,2
-1.2,-2.6,-4.91,-4.0,60.9,101.0,0.1,-3.5,1.3,0.2,-0.4,7.4,145.3,8.9,1
-1.54,-2.9,-10.66,0.35,90.65,102.39,-101.91,-7.63,1.3,1.06,2.54,3.81,184.75,16.13,3
6.9,-2.5,-17.81,1.8,44.0,91.0,37.2,1.5,-1.3,0.3,-0.7,-3.0,216.1,7.7,1
5.1,-1.5,33.28,5.2,20.1,105.69,54.6,1.2,0.1,0.4,2.2,-9.6,309.0,6.3,1
-3.2,1.9,11.12,4.3,15.2,102.33,-82.8,17.9,-1.9,3.4,13.1,3.5,129.1,9.5,2
-0.9,-1.1,-5.63,-1.2,46.5,123.73,-39.8,7.7,-1.5,1.7,5.3,0.5,112.9,7.1,2
2.3,-6.4,37.84,9.6,76.7,100.0,-198.4,-18.6,1.0,-3.9,-10.6,-2.3,305.1,11.9,2
-2.7,-3.2,-19.21,5.1,119.7,124.69,-18.2,4.9,-0.8,1.3,8.0,3.1,121.8,8.2,2
1.2,-0.45,-15.61,-7.57,73.01,104.08,-47.47,-1.2,-0.16,1.58,5.48,-3.24,108.18,10.73,3
-0.6,-10.0,-6.24,5.2,42.2,96.3,-36.6,4.0,3.0,0.0,-2.2,1.7,71.5,6.7,1
-4.34,-7.38,-17.73,-2.51,125.25,89.1,-126.92,-7.72,-0.78,4.41,10.06,-2.5,238.75,14.26,4
1.82,-2.72,-4.66,2.7,134.74,99.04,-13.93,1.68,0.96,0.14,-1.01,-0.15,112.19,11.92,3
-8.8,-3.0,-9.92,-4.5,114.4,105.9,-104.1,-0.5,-0.3,2.6,8.6,-0.9,204.2,11.9,4
6.5,-7.8,-17.73,2.5,44.9,88.3,36.1,-0.2,-1.6,1.5,2.3,7.9,224.0,7.8,2
1.7,0.7,-18.42,-3.2,81.3,95.34,1.3,6.4,1.1,0.1,0.2,1.0,127.1,5.0,1
9.5,0.7,-11.35,8.0,67.8,96.72,48.0,3.7,0.9,1.3,2.7,4.3,267.2,6.8,2
-4.8,1.4,1.39,10.7,53.7,101.1,-65.3,5.3,1.8,1.6,5.9,4.8,73.4,9.8,1
0.0,-8.2,-2.16,8.1,40.0,100.0,-32.9,0.1,2.4,-0.6,-6.9,0.3,68.1,6.1,1
2.0,1.9,-15.75,-0.8,84.0,96.68,3.4,7.9,0.8,0.3,1.4,0.9,124.8,5.3,1
1.8,0.0,9.47,3.5,81.0,102.01,-72.4,-5.6,1.9,-4.4,-18.1,-0.2,104.1,15.6,3
7.68,-4.06,-5.73,0.88,52.38,102.28,50.63,-0.14,-0.17,-0.06,-1.5,5.28,239.65,6.62,2
-4.14,-0.46,13.2,2.33,37.37,102.51,-64.64,-0.29,0.65,0.8,1.98,-0.75,68.83,7.0,4
0.05,-1.71,-12.75,4.05,109.78,101.14,-16.96,3.52,1.01,0.79,2.85,1.51,131.78,10.87,3
-2.2,-1.0,20.12,1.2,39.2,98.2,-57.3,6.7,1.6,-0.1,0.1,-2.3,62.1,6.9,2
7.0,-2.4,-8.35,10.3,61.7,114.1,20.1,5.3,0.3,0.4,1.4,8.2,247.2,4.8,1
0.5,-1.8,5.22,-0.3,131.5,106.06,-110.3,-0.5,0.7,-3.1,-9.9,-2.1,169.3,12.6,3
-2.8,6.0,-21.25,-3.6,83.2,88.09,-28.1,3.0,0.4,0.8,2.1,1.5,176.1,7.9,2
1.91,-3.19,13.79,7.6,44.66,106.08,-53.48,4.66,0.3,-3.72,-13.25,2.53,102.39,10.69,3
0.96,-0.71,-17.61,-7.53,74.08,104.61,-35.42,0.8,-0.62,1.75,6.03,-2.57,112.82,9.26,3
0.65,-2.09,2.81,6.46,41.11,99.07,-73.72,11.81,3.08,0.45,-0.88,1.37,122.25,13.35,3
-4.97,-3.24,-18.23,1.86,122.41,97.63,-134.1,-6.3,0.27,4.36,13.0,-2.84,257.83,13.93,4
-3.88,-8.36,-17.85,-2.36,124.16,86.89,-129.13,-8.17,-1.01,4.67,9.3,-2.09,246.95,14.45,4
-0.2,-0.3,-10.28,-9.9,95.8,96.24,-92.8,-5.1,0.8,5.7,14.0,-10.1,178.1,24.1,2
-3.85,-1.87,-18.76,9.48,109.89,100.33,-155.93,-5.71,0.66,5.64,12.94,-0.73,333.21,14.24,4
-0.1,3.1,9.93,10.3,10.2,82.54,-49.7,11.2,1.2,-3.8,-14.2,4.8,115.2,10.3,1
1.07,-2.46,10.43,3.92,33.43,116.66,-41.96,11.28,0.84,-1.51,-4.69,2.72,104.33,7.47,2
-3.6,0.5,13.76,0.8,37.6,101.39,-62.8,-4.7,0.0,0.8,1.6,-1.4,66.8,7.0,4
1.2,1.7,19.36,16.7,40.6,95.51,-46.8,8.7,2.3,-3.2,-13.3,0.2,54.2,12.0,1
3.2,1.2,-12.73,-0.1,80.3,98.61,-38.4,0.1,0.6,1.7,4.5,-4.7,97.9,9.6,2
-0.8,-1.2,-0.62,0.0,68.4,94.14,26.9,9.8,5.9,-0.3,-0.5,2.3,153.0,6.2,1
-0.3,-3.5,27.95,6.5,50.6,104.11,-61.2,4.1,1.7,-2.3,-9.1,2.9,76.5,6.2,1
-0.39,-0.65,-13.95,1.14,84.01,102.55,-84.1,-6.57,1.98,0.55,3.34,-0.12,114.74,16.57,3
-3.08,-1.94,-20.06,11.29,109.45,98.99,-163.2,-6.58,0.74,6.09,13.43,-0.7,351.09,14.61,4
8.3,-1.7,-8.55,-0.9,39.8,100.0,33.4,2.2,-0.1,-0.4,-3.6,2.9,211.4,6.9,1
1.2,5.3,8.56,23.0,34.7,116.33,-25.0,5.9,2.4,-1.7,-8.0,4.2,67.3,4.0,1
2.46,-1.17,19.59,5.33,65.12,105.39,-60.92,-0.59,0.3,-4.81,-15.98,1.9,99.57,12.42,3
-5.11,-3.35,-18.09,1.14,123.38,97.5,-131.92,-6.29,0.23,4.24,12.96,-2.99,250.87,13.88,4
-0.6,-3.2,1.14,4.6,98.0,100.81,-13.0,1.7,0.7,0.2,-0.3,6.5,143.7,10.3,3
2.0,0.2,2.7,2.2,78.3,110.5,2.8,4.0,1.0,0.3,-0.5,3.6,121.8,5.7,1
0.31,-2.85,-3.54,3.22,114.1,100.46,-15.72,1.83,0.61,0.67,1.99,3.09,131.36,11.12,3
-4.8,10.7,2.71,-8.6,86.9,100.0,-22.7,3.2,0.8,-1.1,-6.6,2.8,161.7,6.3,1
-2.47,-11.4,-18.24,-1.92,120.78,80.02,-136.0,-9.54,-1.72,5.49,6.92,-0.83,272.44,15.04,4
-0.68,-1.02,-16.73,-1.18,95.28,101.63,-94.92,-5.94,1.47,1.81,7.47,-1.33,133.29,16.49,3
-0.7,-4.4,-15.44,6.9,87.8,108.42,-8.7,5.4,0.3,1.1,3.6,6.4,135.3,9.2,2
0.3,-1.2,4.06,10.4,51.9,100.0,-63.9,2.7,1.5,-1.8,-7.5,5.1,80.6,13.0,1
2.22,0.39,-16.98,-2.42,79.57,94.98,-60.3,3.19,1.37,1.33,3.4,-5.23,99.2,10.21,2
0.7,-3.29,8.05,8.42,26.74,99.17,-68.82,16.59,2.81,0.01,-2.92,0.41,120.3,11.87,3
-3.4,-4.3,-0.26,7.4,55.7,96.29,-68.9,3.1,1.7,1.4,3.6,3.3,75.4,10.0,1
-8.36,-3.17,-10.53,-4.72,118.54,105.75,-105.88,-1.14,-0.27,3.12,8.54,-1.03,199.49,12.82,4
0.28,-1.8,-1.53,-4.18,132.25,101.68,-117.57,-1.79,0.11,-0.25,-2.15,-4.04,180.72,14.11,3
-6.44,-2.46,-14.13,2.16,112.25,103.25,-128.79,-2.98,0.15,4.05,10.67,-0.82,265.64,13.02,4
-0.8,-4.0,-1.01,11.7,16.7,97.0,-77.7,12.2,-0.1,3.8,13.0,2.6,128.3,11.3,2
1.67,-4.08,11.22,8.6,35.58,106.38,-50.18,6.99,0.3,-3.24,-12.04,2.81,103.64,9.93,3
-6.97,-3.69,-12.43,-5.4,131.52,105.26,-111.48,-3.13,-0.19,4.75,8.36,-1.46,184.72,15.7,4
1.22,-0.49,-16.2,-8.15,72.32,104.33,-45.61,-0.9,-0.35,1.68,5.8,-3.35,107.96,10.36,3
-0.3,4.8,20.52,13.0,10.6,93.21,-46.7,14.8,0.5,-3.8,-7.4,5.6,115.4,8.7,1
2.3,-3.3,20.41,7.1,25.3,112.26,-43.3,13.5,2.3,-3.5,-10.9,4.1,99.0,7.7,2
-4.5,-4.4,-26.64,-17.7,177.4,109.06,-130.4,-10.0,-0.3,12.8,25.3,-4.0,132.3,23.3,4
-1.7,-6.7,27.02,-0.7,39.8,89.47,-54.3,-4.2,2.2,3.3,-2.9,0.3,61.1,15.5,1
0.51,-2.39,20.29,4.76,30.82,106.67,-48.86,10.8,2.02,-2.15,-6.53,1.56,84.34,7.38,2
-0.14,-0.73,-18.97,-3.11,79.6,103.53,-70.32,-4.41,0.96,1.8,7.81,-1.35,113.73,14.13,3
-2.6,-1.16,7.05,-5.75,103.42,99.2,-99.79,-2.94,0.43,-1.43,-3.34,-1.21,91.16,14.74,4
-0.1,-4.3,-15.53,-5.1,104.8,100.36,40.8,4.9,0.0,-0.1,-2.1,14.7,191.0,7.7,2
-5.9,-4.0,-17.3,-3.0,129.0,96.71,-119.3,-6.2,0.0,3.5,12.7,-3.9,210.5,13.6,4
3.1,0.0,10.82,-7.7,72.9,123.65,-54.9,9.1,4.2,-2.0,-9.7,0.7,70.0,5.4,1
-5.29,-7.81,-14.33,-3.09,117.28,91.42,-121.73,-5.42,-1.14,4.22,7.4,-0.69,243.39,13.63,4
0.5,1.7,8.2,6.2,38.6,113.36,-56.2,15.2,2.4,-1.3,-2.6,2.4,76.9,9.4,1
-6.62,-3.75,-15.46,-3.37,125.35,99.01,-115.5,-4.78,-0.07,3.28,11.68,-3.15,208.93,13.18,4
-8.66,-2.96,-9.08,-4.15,111.47,105.84,-102.72,-0.22,-0.22,2.53,8.37,-0.85,199.21,11.71,4
-2.23,-11.92,-18.3,-1.84,120.21,78.87,-137.16,-9.77,-1.83,5.62,6.52,-0.62,276.73,15.14,4
2.0,1.3,-9.15,-0.1,84.9,100.0,2.2,6.4,0.4,0.5,1.2,2.1,124.0,5.6,1
3.6,-5.5,-4.56,6.9,40.7,112.4,4.5,3.9,1.0,-0.2,-5.1,13.3,197.9,7.0,2
0.42,-1.74,3.74,-0.25,128.68,105.86,-108.88,-0.88,0.78,-2.81,-8.8,-1.98,166.16,12.85,3
-0.3,-3.6,-14.64,19.5,104.4,90.26,-164.7,-3.7,0.6,-2.2,-6.2,2.6,278.4,13.7,2
-4.3,3.4,-2.78,0.6,43.5,99.72,-63.9,5.4,-0.1,2.6,14.4,2.9,69.5,13.4,1
1.5,-4.7,9.44,9.3,29.3,106.59,-47.9,8.6,0.3,-2.9,-11.2,3.0,104.5,9.4,3
1.5,-2.4,-9.7,1.4,135.3,100.0,-19.3,2.0,0.5,1.3,5.0,-1.4,115.1,12.2,3
0.1,-1.8,-7.32,-7.5,132.9,97.92,-123.8,-2.9,-0.4,2.2,4.5,-5.7,190.5,15.4,3
-2.8,-7.8,-25.92,10.4,80.1,89.4,-11.6,5.8,-0.3,1.3,6.3,1.6,176.6,7.8,2
-2.3,-1.0,4.68,0.7,50.4,97.43,-69.1,2.9,2.2,0.2,-1.9,4.6,78.1,9.8,1
-0.5,-3.0,2.4,4.6,98.4,103.03,-16.6,1.5,0.5,-0.3,-1.9,6.8,145.5,10.0,2
1.49,-1.25,-13.92,2.96,83.58,102.9,-25.4,2.42,0.47,1.44,4.11,0.16,114.27,9.42,2
-0.7,2.1,-4.08,1.4,54.7,93.4,-62.2,2.6,1.2,0.8,-0.2,5.0,75.2,14.0,1
-3.08,-1.91,-20.06,11.33,109.42,99.05,-163.28,-6.57,0.75,6.09,13.45,-0.7,351.32,14.61,4
