PC_CA-avg_3y,REER-pch_3y,X_GS_share_M-pch_5y,FSL-pch,GD-pc_gdp,HPI-pch,NIIP-pc_gdp,ULC-pch_3y,ACT-pch_3y,LTU-pch_3y,YUR-pch_3y,PSCF-pc_gdp,PSD-pc_gdp,UR-avg_3y,label
-2.9,-7.4,7.99,-0.2,103.4,101.8,-134.3,-9.4,-0.2,-0.3,-9.8,12.2,329.5,14.7,3
5.1,-3.7,-9.63,12.6,45.2,89.38,-2.3,7.5,1.6,-0.1,0.1,4.6,193.3,8.0,2
-1.7,-8.6,7.91,5.6,41.6,92.0,-67.5,-6.5,0.9,3.3,-4.8,-5.4,96.8,16.9,1
6.4,-9.0,-16.75,3.2,81.1,92.39,28.7,2.5,0.9,-1.1,-3.1,1.4,101.9,6.1,1
-4.94,-2.76,36.01,4.61,35.11,110.85,-66.65,3.9,1.38,0.61,4.93,1.88,73.11,6.94,4
1.09,-1.18,-18.61,-8.69,67.55,106.38,-40.0,0.1,-1.06,2.07,6.91,-3.57,107.95,8.95,3
-4.09,0.17,11.54,0.3,44.81,101.81,-66.68,-4.31,-0.03,0.97,2.26,-1.35,79.71,7.46,4
0.65,-1.99,-11.48,2.95,120.42,100.66,-17.94,2.88,0.79,1.01,3.75,0.29,124.82,11.43,3
7.0,-2.4,-8.35,10.3,61.7,114.1,20.1,5.3,0.3,0.4,1.4,8.2,247.2,4.8,1
-3.3,3.4,-11.62,-7.7,84.2,88.7,-17.8,3.9,1.0,0.2,0.8,6.6,170.2,7.8,2
-0.6,4.8,10.22,4.7,40.2,107.31,-59.0,16.7,2.3,-1.7,-5.9,2.3,80.5,10.1,1
-1.5,-3.0,-0.36,-13.0,176.2,96.77,-140.7,-1.0,0.9,-3.9,-8.8,-1.0,118.1,23.3,4
0.78,0.0,-6.09,1.94,83.74,100.29,-77.66,-5.97,2.91,0.05,0.25,-1.53,111.91,16.71,3
-1.59,-5.41,-14.38,4.31,170.29,99.61,-133.48,-9.28,0.26,3.68,-3.32,-3.11,137.86,24.78,4
-5.54,-3.17,40.05,3.02,47.26,113.24,-72.37,1.75,0.95,0.85,6.68,2.19,95.22,7.72,4
-5.57,-3.73,-17.63,-1.27,126.66,97.04,-124.56,-6.24,0.09,3.81,12.81,-3.52,227.33,13.72,4
0.01,-1.69,-12.83,4.12,109.11,101.17,-16.9,3.56,1.02,0.78,2.8,1.58,132.21,10.84,3
1.0,-1.7,-13.57,2.7,105.2,100.0,45.2,0.5,0.7,1.0,2.3,12.1,176.1,8.5,1
2.3,-7.2,-9.31,0.4,76.1,100.0,-67.9,1.1,4.9,-1.9,-10.9,-2.5,83.2,8.2,1
0.15,-1.87,-9.57,5.16,107.26,100.58,-13.11,3.42,1.36,-0.04,-1.43,2.6,131.19,10.57,3
3.6,-5.5,-4.56,6.9,40.7,112.4,4.5,3.9,1.0,-0.2,-5.1,13.3,197.9,7.0,2
-7.12,-3.09,15.83,-0.63,79.8,109.68,-87.75,0.66,0.35,1.7,7.61,0.69,148.04,9.75,4
1.11,-0.33,-13.4,-5.42,75.57,103.17,-54.41,-2.3,0.55,1.23,4.27,-2.85,109.02,12.11,3
4.1,-9.2,-7.55,9.1,42.3,107.27,0.1,2.8,1.0,-0.1,-4.7,8.1,192.0,7.4,2
1.3,-0.6,-18.21,-10.1,70.0,105.16,-39.3,0.1,-1.0,2.0,6.9,-3.7,107.2,9.1,3
-2.6,-0.5,7.39,4.3,39.8,98.86,-45.2,3.4,0.8,0.5,8.2,2.1,68.3,6.9,1
-1.8,0.2,-32.46,-11.6,56.2,101.77,3.0,9.3,0.7,-0.3,-1.5,2.8,147.0,7.9,2
-4.01,-0.68,25.28,1.98,36.45,105.63,-63.85,-2.5,0.38,0.7,3.1,-0.06,69.0,6.97,4
-6.34,-3.8,-19.49,-12.05,150.45,107.71,-119.15,-5.94,-0.3,8.44,18.16,-2.67,163.06,18.42,4
6.1,-2.4,-5.55,15.1,22.0,88.53,58.4,5.9,0.7,0.4,1.5,25.9,303.7,4.8,1
-0.1,-4.5,-20.85,-0.7,53.6,113.34,-44.0,0.1,-1.4,2.5,7.0,-2.8,112.2,8.1,3
-0.85,-0.77,-18.99,0.64,84.69,102.6,-86.56,-6.78,2.03,1.65,8.07,-0.14,117.05,16.8,3
-1.7,2.7,-27.3,9.3,59.8,100.2,-3.1,7.6,0.5,0.2,0.4,1.7,148.8,8.2,2
-4.9,0.2,1.09,11.7,86.8,105.51,0.3,3.7,0.9,-1.4,-7.7,8.8,166.4,5.4,1
2.3,-6.4,37.84,9.6,76.7,100.0,-198.4,-18.6,1.0,-3.9,-10.6,-2.3,305.1,11.9,2
4.6,-0.6,3.7,3.4,78.7,103.87,-28.9,1.3,1.1,-0.9,-6.4,-0.8,81.1,8.9,2
-7.5,-3.45,-13.22,-3.83,120.93,101.79,-110.9,-3.05,-0.17,3.0,10.43,-2.24,207.02,12.66,4
2.9,-2.8,9.08,3.6,57.8,100.0,37.4,-1.4,4.9,-0.6,-2.2,8.8,134.8,5.7,1
-7.9,-3.31,-12.22,-4.03,118.95,103.04,-108.83,-2.27,-0.21,2.88,9.88,-1.83,206.16,12.43,4
6.6,-1.8,-12.99,-6.4,78.7,93.91,34.7,6.1,0.9,-1.0,-2.0,2.0,103.0,5.5,2
1.57,-1.36,-12.34,-5.78,89.38,102.97,-29.75,0.46,-0.24,1.03,2.39,-2.19,107.68,9.86,3
0.91,-2.33,-5.57,4.8,117.25,99.59,-11.1,2.63,1.41,-0.47,-3.87,2.12,122.85,10.96,3
0.3,-1.2,4.06,10.4,51.9,100.0,-63.9,2.7,1.5,-1.8,-7.5,5.1,80.6,13.0,1
-1.4,0.4,-15.78,3.9,62.6,100.14,5.2,0.4,0.7,0.6,0.2,1.5,148.0,9.0,1
-1.3,-2.6,23.22,7.0,37.3,105.21,-49.0,9.5,0.7,-0.2,-3.1,0.6,53.7,6.5,1
-0.94,-4.39,-9.89,-0.31,104.92,104.08,-101.34,-2.84,0.7,3.71,6.41,-7.34,184.77,18.85,3
0.72,-2.03,-11.33,2.82,121.67,100.61,-18.05,2.81,0.77,1.03,3.85,0.15,124.01,11.49,3
-3.3,-6.4,18.62,-1.7,93.9,103.14,-127.3,-4.1,-0.4,-3.2,-11.3,6.7,304.0,13.0,3
-2.13,-1.01,18.66,1.06,39.61,99.65,-56.31,6.76,1.42,0.0,0.39,-2.14,64.98,6.91,2
0.9,-0.4,-5.01,2.4,104.9,101.22,54.5,-0.9,0.1,0.1,-3.6,23.8,194.8,8.3,1
-8.55,-2.94,-10.37,-3.79,114.17,105.62,-106.72,-0.76,-0.25,2.75,8.82,-0.89,210.73,12.02,4
-2.0,-6.2,-4.75,9.8,107.5,100.0,-154.5,-10.8,0.4,3.2,5.1,4.4,347.8,15.7,3
-1.0,2.6,3.79,13.9,39.3,109.86,-37.9,16.3,2.2,-2.1,-6.0,4.5,56.1,8.0,1
2.0,3.0,2.18,14.3,9.3,105.85,-32.5,12.4,3.6,-1.4,-2.9,4.8,107.6,6.3,1
-2.3,-1.0,4.68,0.7,50.4,97.43,-69.1,2.9,2.2,0.2,-1.9,4.6,78.1,9.8,1
1.95,-2.85,-2.73,3.19,134.53,98.67,-11.87,1.55,1.14,-0.3,-3.33,0.33,111.06,11.82,3
0.23,-1.8,-3.34,-5.22,132.46,100.5,-119.52,-2.14,-0.05,0.52,-0.07,-4.56,183.78,14.51,3
-0.7,-4.4,-15.44,6.9,87.8,108.42,-8.7,5.4,0.3,1.1,3.6,6.4,135.3,9.2,2
1.5,-2.4,-9.7,1.4,135.3,100.0,-19.3,2.0,0.5,1.3,5.0,-1.4,115.1,12.2,3
2.48,0.1,18.63,3.6,79.02,104.17,-67.63,-4.25,0.73,-4.63,-14.87,1.02,100.04,14.04,3
-3.34,-4.82,-12.76,2.35,157.42,101.77,-125.99,-6.94,0.12,3.37,-1.26,-2.37,150.9,21.97,4
8.6,-6.0,-12.82,6.0,66.2,105.12,26.7,2.6,0.9,0.8,1.5,6.1,252.1,5.3,2
-5.23,-4.19,-21.79,-10.07,152.28,102.65,-124.64,-8.03,-0.14,7.97,18.76,-3.95,172.89,18.26,4
-1.0,-5.6,-13.98,5.3,175.9,100.0,-135.4,-9.7,0.3,3.7,-5.5,-3.0,128.0,26.3,4
-1.0,2.7,20.49,4.1,37.8,100.0,-54.6,0.6,1.3,0.0,-0.9,0.2,58.0,6.9,1
-6.04,-3.95,-16.95,-3.07,128.31,97.14,-118.58,-5.93,-0.01,3.46,12.51,-3.76,210.2,13.52,4
0.99,-1.47,-18.8,-8.01,66.35,106.98,-40.34,0.1,-1.09,2.11,6.92,-3.5,108.31,8.88,3
-2.2,-1.0,20.12,1.2,39.2,98.2,-57.3,6.7,1.6,-0.1,0.1,-2.3,62.1,6.9,2
-0.1,-4.3,-15.53,-5.1,104.8,100.36,40.8,4.9,0.0,-0.1,-2.1,14.7,191.0,7.7,2
-0.2,-0.3,-10.28,-9.9,95.8,96.24,-92.8,-5.1,0.8,5.7,14.0,-10.1,178.1,24.1,2
-7.23,-2.64,-12.72,-0.08,112.97,104.14,-120.5,-2.15,0.0,3.56,9.97,-0.85,245.03,12.64,4
2.29,0.1,15.89,3.42,79.62,103.7,-68.84,-4.46,0.98,-4.11,-13.19,0.74,101.37,14.36,3
-4.5,-1.11,12.82,3.38,37.21,103.28,-65.9,2.73,1.1,0.8,2.25,-0.3,70.22,7.0,4
0.0,5.3,-1.35,15.8,39.9,104.36,-42.9,15.0,3.1,-2.1,-7.4,4.3,56.5,9.2,1
-0.5,1.7,26.02,2.0,37.2,92.55,-53.6,-7.8,3.0,6.7,19.3,-1.8,68.8,15.7,1
0.1,-1.8,-7.32,-7.5,132.9,97.92,-123.8,-2.9,-0.4,2.2,4.5,-5.7,190.5,15.4,3
-1.57,-4.06,5.4,-4.66,113.78,100.48,-125.52,-3.49,-0.4,-0.45,-3.25,0.38,246.16,14.22,3
-4.9,-3.2,49.92,4.5,34.0,114.69,-66.1,2.2,1.2,0.5,6.3,2.8,73.7,6.9,4
-4.99,-2.12,16.17,4.77,36.69,105.38,-67.45,6.33,1.65,0.77,2.98,0.56,72.26,6.99,4
-4.91,-3.05,45.35,4.54,34.36,113.43,-66.28,2.76,1.26,0.54,5.85,2.5,73.51,6.91,4
7.9,-2.1,1.07,4.8,35.5,108.16,40.8,2.4,0.7,-0.4,-1.8,0.1,201.7,6.0,1
8.3,-1.7,-8.55,-0.9,39.8,100.0,33.4,2.2,-0.1,-0.4,-3.6,2.9,211.4,6.9,1
0.7,-3.7,2.44,16.3,36.8,106.67,-26.9,2.7,2.1,-1.3,-8.4,4.3,68.7,5.1,1
-4.5,-4.4,-26.64,-17.7,177.4,109.06,-130.4,-10.0,-0.3,12.8,25.3,-4.0,132.3,23.3,4
7.6,-2.3,-2.96,6.7,61.9,104.39,61.4,-0.3,0.3,0.0,-2.4,3.9,259.3,6.8,2
4.9,-2.0,18.08,5.3,74.1,110.35,-24.2,3.7,3.3,-2.2,-9.0,0.9,76.3,7.9,1
-2.7,-3.2,-19.21,5.1,119.7,124.69,-18.2,4.9,-0.8,1.3,8.0,3.1,121.8,8.2,2
0.8,0.1,-5.77,2.0,84.4,100.0,-78.4,-6.1,3.0,0.0,0.1,-1.5,111.9,16.9,3
2.1,-2.4,26.53,-6.2,43.1,92.23,-74.7,-20.6,-1.4,6.9,17.4,-2.4,115.2,17.7,1
-4.8,-3.09,-18.4,2.75,121.21,97.8,-136.82,-6.32,0.31,4.52,13.05,-2.64,266.51,13.99,4
-6.35,-3.85,-16.17,-3.23,126.76,98.12,-116.97,-5.32,-0.05,3.36,12.07,-3.44,209.53,13.34,4
0.21,-1.78,-12.41,3.76,112.62,101.01,-17.22,3.35,0.95,0.85,3.09,1.18,129.92,11.02,3
-0.64,-4.15,-7.92,-0.55,109.73,103.33,-104.56,-2.29,0.57,2.94,4.14,-6.35,183.8,18.03,3
0.0,-8.2,-2.16,8.1,40.0,100.0,-32.9,0.1,2.4,-0.6,-6.9,0.3,68.1,6.1,1
-5.0,-2.0,12.3,4.8,37.0,104.31,-67.6,6.8,1.7,0.8,2.6,0.3,72.1,7.0,4
1.14,-0.37,-14.15,-6.15,74.7,103.48,-52.06,-1.92,0.31,1.35,4.68,-2.98,108.73,11.65,3
-4.29,-2.67,-18.91,5.41,117.59,98.31,-144.94,-6.37,0.46,5.0,13.22,-2.06,292.49,14.18,4
7.4,-1.5,-3.18,2.6,72.1,100.0,46.6,5.9,0.4,-0.4,-0.8,2.9,97.8,4.9,2
-2.8,-7.8,-25.92,10.4,80.1,89.4,-11.6,5.8,-0.3,1.3,6.3,1.6,176.6,7.8,2
-1.4,2.1,-23.06,1.4,63.0,100.0,4.8,3.2,0.6,0.7,3.4,6.8,151.5,8.8,2
-3.28,-6.44,18.18,-1.64,94.29,103.08,-127.59,-4.32,-0.39,-3.08,-11.24,6.93,305.05,13.07,3
-4.8,10.7,2.71,-8.6,86.9,100.0,-22.7,3.2,0.8,-1.1,-6.6,2.8,161.7,6.3,1
-0.8,-4.0,-1.01,11.7,16.7,97.0,-77.7,12.2,-0.1,3.8,13.0,2.6,128.3,11.3,2
0.89,-2.31,-5.68,4.81,116.97,99.62,-11.15,2.65,1.41,-0.46,-3.8,2.13,123.09,10.94,3
8.2,-0.9,-6.74,4.0,64.6,100.0,48.9,-0.4,0.6,1.1,-0.4,0.0,262.8,7.2,2
6.5,-7.8,-17.73,2.5,44.9,88.3,36.1,-0.2,-1.6,1.5,2.3,7.9,224.0,7.8,2
0.7,-3.1,0.87,-1.6,131.2,100.0,-118.9,0.2,0.0,-0.5,-6.0,-1.9,179.5,14.4,3
-8.8,-3.0,-9.92,-4.5,114.4,105.9,-104.1,-0.5,-0.3,2.6,8.6,-0.9,204.2,11.9,4
2.8,0.1,23.24,3.9,78.0,104.96,-65.6,-3.9,0.3,-5.5,-17.7,1.5,97.8,13.5,3
0.4,-7.1,58.59,1.5,73.9,107.14,-171.7,-17.7,0.9,-3.8,-9.9,-15.7,284.4,10.1,2
-6.59,-1.52,0.12,-2.25,81.83,103.99,-86.59,-2.28,-0.17,1.84,5.63,-1.11,145.94,9.82,4
1.7,0.7,-18.42,-3.2,81.3,95.34,1.3,6.4,1.1,0.1,0.2,1.0,127.1,5.0,1
-4.07,-3.57,-24.63,-8.69,156.43,106.11,-140.67,-8.92,0.04,10.74,21.7,-2.99,200.1,20.63,4
-1.36,-4.72,-12.65,0.02,98.18,105.13,-96.84,-3.62,0.88,4.8,9.59,-8.74,186.12,19.99,3
5.5,-2.5,-13.78,1.6,46.1,92.83,27.8,3.6,-1.4,1.3,6.8,4.4,221.0,7.3,2
-2.1,-6.2,-25.74,7.2,126.5,118.48,-23.0,2.0,1.2,2.2,10.0,-0.9,124.2,9.2,2
1.9,-0.8,24.41,-0.2,6.1,74.62,-54.0,-2.2,0.5,5.4,10.4,-0.8,118.9,14.2,1
0.5,-0.6,-13.33,2.5,107.0,99.24,44.8,4.3,1.0,0.8,4.5,-2.0,162.2,8.2,2
-1.7,-6.7,27.02,-0.7,39.8,89.47,-54.3,-4.2,2.2,3.3,-2.9,0.3,61.1,15.5,1
-4.5,-10.8,-1.18,-1.7,86.2,108.73,-10.0,5.1,0.9,-1.1,-4.9,7.2,167.7,4.8,1
0.5,1.7,8.2,6.2,38.6,113.36,-56.2,15.2,2.4,-1.3,-2.6,2.4,76.9,9.4,1
-0.9,-0.8,-19.37,0.6,84.7,102.67,-86.8,-6.8,2.0,1.7,8.3,-0.1,117.2,16.8,3
-0.51,-1.87,20.23,3.42,33.97,103.49,-52.03,9.26,1.86,-1.38,-4.04,0.11,75.99,7.2,2
-4.94,-2.66,33.06,4.63,35.34,110.04,-66.77,4.26,1.42,0.63,4.64,1.68,72.98,6.94,4
-0.74,-1.54,-19.67,0.34,78.45,104.81,-78.2,-5.41,1.32,1.86,8.04,-0.64,116.2,15.05,3
-1.3,-1.4,9.18,2.4,51.3,100.0,-62.1,0.2,1.6,-1.1,-5.7,3.5,78.9,8.9,1
-3.1,-1.7,-20.1,11.6,109.2,99.48,-163.8,-6.5,0.8,6.1,13.6,-0.7,352.8,14.6,4
-1.1,-4.0,-9.78,-10.4,178.5,98.35,-137.6,-3.3,0.7,-1.5,-11.0,-2.1,125.1,25.0,4
5.0,-1.0,21.39,0.4,22.3,109.55,51.8,4.0,-0.6,0.5,-6.8,27.4,322.9,6.1,1
0.35,-0.69,-18.71,-5.48,76.35,104.08,-59.82,-2.88,0.3,1.87,7.5,-2.14,111.52,12.43,3
-8.74,-3.02,-10.07,-4.47,114.7,105.71,-104.41,-0.62,-0.29,2.62,8.68,-0.96,204.33,11.93,4
-7.07,-1.84,-2.04,-2.74,88.86,104.4,-90.36,-1.9,-0.2,2.0,6.27,-1.07,158.5,10.27,4
0.48,-1.8,4.59,-0.66,131.57,105.65,-110.98,-0.62,0.64,-2.83,-9.17,-2.28,170.37,12.74,3
-0.9,-1.1,-5.63,-1.2,46.5,123.73,-39.8,7.7,-1.5,1.7,5.3,0.5,112.9,7.1,2
-4.29,0.04,10.64,0.1,47.72,101.98,-68.24,-4.15,-0.04,1.04,2.52,-1.33,84.91,7.65,4
-0.8,-1.2,-0.62,0.0,68.4,94.14,26.9,9.8,5.9,-0.3,-0.5,2.3,153.0,6.2,1
0.45,-0.09,-8.6,1.71,84.46,100.56,-80.15,-6.25,2.79,0.35,1.81,-1.21,113.0,16.88,3
5.8,3.2,-12.21,1.8,37.3,78.22,-8.3,4.1,0.6,0.7,2.6,7.0,189.1,8.2,2
-2.9,-7.6,12.18,8.6,67.7,95.5,19.6,8.6,4.5,0.1,-0.7,0.1,162.4,6.5,2
-0.3,4.8,20.52,13.0,10.6,93.21,-46.7,14.8,0.5,-3.8,-7.4,5.6,115.4,8.7,1
7.0,-0.4,-9.53,4.6,75.7,95.98,40.8,7.4,0.4,-0.6,-0.8,-0.3,98.4,5.2,2
2.0,1.3,-9.15,-0.1,84.9,100.0,2.2,6.4,0.4,0.5,1.2,2.1,124.0,5.6,1
-0.48,-2.76,-20.15,-0.09,68.25,108.31,-64.16,-3.15,0.2,2.12,7.61,-1.53,114.56,12.2,3
-5.4,-4.14,-20.66,-8.28,146.4,101.15,-123.29,-7.57,-0.11,6.84,17.23,-3.94,182.39,17.09,4
-3.6,0.5,13.76,0.8,37.6,101.39,-62.8,-4.7,0.0,0.8,1.6,-1.4,66.8,7.0,4
5.9,-4.9,-9.35,3.1,79.8,90.51,23.3,5.6,1.4,-1.1,-1.9,2.0,102.4,6.8,1
-0.4,-2.59,-9.62,-5.67,122.38,99.96,-115.92,-3.37,-0.04,3.22,6.92,-6.94,190.05,16.89,3
-4.96,-2.54,29.12,4.67,35.66,108.95,-66.93,4.74,1.48,0.67,4.25,1.42,72.82,6.96,4
1.9,-3.2,-3.29,-2.0,99.3,100.0,-88.9,-1.1,0.0,0.4,-4.6,-2.7,155.8,24.2,2
1.2,5.3,8.56,23.0,34.7,116.33,-25.0,5.9,2.4,-1.7,-8.0,4.2,67.3,4.0,1
0.59,-2.36,3.34,-0.86,131.37,103.44,-114.01,-0.2,0.4,-1.98,-8.22,-2.01,173.7,13.38,3
-2.0,2.5,13.52,13.2,36.7,100.0,-64.1,17.2,1.3,-3.3,-12.2,-0.5,80.4,10.9,1
2.05,0.1,12.3,3.18,80.41,103.09,-70.43,-4.73,1.32,-3.43,-10.99,0.37,103.12,14.78,3
-0.49,-3.03,-6.6,-2.67,125.8,98.5,-132.38,-5.11,-0.18,2.48,4.67,-2.88,234.44,15.48,3
0.8,-0.8,14.29,1.9,126.0,114.05,-109.9,2.8,1.5,-3.9,-10.9,2.0,161.9,10.9,2
-2.2,-2.0,5.15,17.4,51.3,111.76,-68.3,8.1,1.8,-4.2,-10.8,9.6,94.5,9.8,1
-2.01,-1.85,-8.71,4.33,64.91,98.17,10.83,5.4,2.19,0.46,1.73,4.07,155.94,7.86,2
0.41,-1.8,2.44,-1.9,131.81,104.26,-113.29,-1.03,0.46,-1.93,-6.71,-2.9,174.0,13.22,3
0.4,-3.6,6.93,10.9,9.8,76.91,-50.7,0.1,0.8,1.8,-6.5,7.6,117.2,13.0,1
-1.4,-5.47,-14.25,4.62,172.07,99.73,-134.08,-9.41,0.28,3.68,-4.01,-3.07,134.75,25.26,4
0.55,-2.7,-19.63,-5.04,61.17,109.57,-41.83,0.1,-1.22,2.27,6.95,-3.22,109.89,8.56,3
-5.13,-2.03,11.55,4.49,39.6,104.36,-68.83,6.55,1.63,0.86,2.8,0.26,76.54,7.16,4
0.8,-0.8,-23.17,-5.8,78.5,89.7,-92.2,7.7,2.5,0.8,1.8,-6.0,101.1,11.1,2
0.29,-1.95,-8.81,5.09,109.16,100.39,-12.73,3.27,1.37,-0.12,-1.89,2.51,129.61,10.65,3
-8.15,-3.22,-11.57,-4.17,117.66,103.85,-107.49,-1.77,-0.23,2.8,9.51,-1.57,205.61,12.28,4
1.87,0.1,9.71,3.01,80.98,102.65,-71.57,-4.93,1.56,-2.94,-9.4,0.1,104.37,15.09,3
5.6,10.3,-19.51,5.6,37.7,78.8,-15.5,4.0,1.4,0.4,-1.3,2.4,191.0,8.1,2
6.9,-2.5,-17.81,1.8,44.0,91.0,37.2,1.5,-1.3,0.3,-0.7,-3.0,216.1,7.7,1
-0.8,-1.3,-14.53,5.6,94.9,101.8,-15.6,4.4,1.3,0.5,1.6,3.2,141.5,10.1,3
2.2,-3.1,1.19,4.2,134.1,97.93,-7.7,1.3,1.5,-1.2,-8.0,1.3,108.8,11.6,3
1.07,-3.58,11.9,8.93,21.88,106.2,-56.96,12.98,1.35,-0.6,-1.41,3.5,110.64,9.13,2
2.31,0.1,16.15,3.44,79.56,103.75,-68.73,-4.44,0.96,-4.16,-13.35,0.77,101.25,14.33,3
-3.21,-1.72,-19.9,11.29,109.3,99.6,-162.65,-6.38,0.78,6.03,13.5,-0.7,349.95,14.55,4
2.7,-5.2,-2.11,19.5,75.5,113.15,-59.6,5.4,5.4,-2.5,-13.7,-3.1,76.6,6.5,1
2.3,-3.3,20.41,7.1,25.3,112.26,-43.3,13.5,2.3,-3.5,-10.9,4.1,99.0,7.7,2
2.3,-4.3,2.9,2.5,99.2,104.41,-85.5,-1.2,-0.1,-3.5,-11.1,-0.7,147.5,22.1,2
-4.9,-1.82,12.4,4.52,37.04,104.1,-67.26,5.99,1.58,0.8,2.53,0.18,71.73,7.0,4
0.5,-1.8,5.22,-0.3,131.5,106.06,-110.3,-0.5,0.7,-3.1,-9.9,-2.1,169.3,12.6,3
-5.96,-2.35,-15.0,3.53,111.81,102.7,-133.87,-3.49,0.25,4.35,11.09,-0.8,278.3,13.25,4
-7.64,-3.06,7.81,-1.83,90.58,108.5,-92.84,0.3,0.14,1.98,7.92,0.2,165.54,10.42,4
-4.9,-3.18,-18.3,2.2,121.95,97.7,-135.14,-6.31,0.28,4.43,13.02,-2.76,261.16,13.96,4
-2.1,-5.3,-17.51,0.6,86.3,106.97,-88.9,-5.0,1.2,6.7,15.2,-11.2,188.5,22.0,3
1.9,-3.8,-22.85,-1.3,77.3,85.73,-82.2,7.5,2.8,-0.6,0.2,-0.9,94.6,10.7,2
0.11,-1.8,-6.94,-7.28,132.86,98.17,-123.39,-2.83,-0.37,2.04,4.07,-5.59,189.86,15.32,3
5.1,-1.5,33.28,5.2,20.1,105.69,54.6,1.2,0.1,0.4,2.2,-9.6,309.0,6.3,1
-1.2,-2.6,-4.91,-4.0,60.9,101.0,0.1,-3.5,1.3,0.2,-0.4,7.4,145.3,8.9,1
-5.6,-5.0,17.63,10.4,70.2,95.13,6.3,11.1,2.7,0.4,1.6,6.8,168.5,6.7,1
3.2,1.2,-12.73,-0.1,80.3,98.61,-38.4,0.1,0.6,1.7,4.5,-4.7,97.9,9.6,2
2.0,0.2,2.7,2.2,78.3,110.5,2.8,4.0,1.0,0.3,-0.5,3.6,121.8,5.7,1
-5.9,-4.0,-17.3,-3.0,129.0,96.71,-119.3,-6.2,0.0,3.5,12.7,-3.9,210.5,13.6,4
-1.2,-0.6,11.9,-1.2,38.7,89.75,-50.6,6.1,2.2,-2.3,-13.8,-0.3,56.7,13.5,1
6.6,0.1,-3.82,10.9,18.7,86.73,28.9,8.8,1.1,-0.2,-0.9,21.4,284.3,4.8,1
-4.87,-1.77,12.43,4.43,37.06,104.04,-67.16,5.74,1.54,0.8,2.51,0.14,71.61,7.0,4
-1.58,-3.87,-17.09,6.11,101.76,115.54,-12.86,5.18,-0.18,1.19,5.53,4.96,129.39,8.76,2
-4.8,1.4,1.39,10.7,53.7,101.1,-65.3,5.3,1.8,1.6,5.9,4.8,73.4,9.8,1
-5.47,-3.17,41.16,3.18,45.77,113.4,-71.66,1.8,0.98,0.81,6.64,2.26,92.81,7.63,4
