PC_CA-avg_3y,REER-pch_3y,X_GS_share_M-pch_5y,FSL-pch,GD-pc_gdp,HPI-pch,NIIP-pc_gdp,ULC-pch_3y,ACT-pch_3y,LTU-pch_3y,YUR-pch_3y,PSCF-pc_gdp,PSD-pc_gdp,UR-avg_3y,label
0.8,0.1,-5.77,2.0,84.4,100.0,-78.4,-6.1,3.0,0.0,0.1,-1.5,111.9,16.9,3
-4.46,-2.74,-13.9,-3.89,129.89,95.76,-119.63,-5.31,-0.26,3.54,11.66,-3.05,207.39,14.12,4
-0.3,-3.6,-14.64,19.5,104.4,90.26,-164.7,-3.7,0.6,-2.2,-6.2,2.6,278.4,13.7,2
9.5,0.7,-11.35,8.0,67.8,96.72,48.0,3.7,0.9,1.3,2.7,4.3,267.2,6.8,2
-2.25,-10.59,-18.61,0.26,118.26,81.49,-141.79,-9.38,-1.49,5.76,7.42,-0.53,290.42,15.11,4
-2.21,-5.46,-20.25,-9.06,178.72,104.15,-131.72,-10.35,0.05,10.95,9.78,-3.12,130.98,25.86,4
-4.5,-10.8,-1.18,-1.7,86.2,108.73,-10.0,5.1,0.9,-1.1,-4.9,7.2,167.7,4.8,1
1.68,-2.58,-6.94,2.11,135.0,99.48,-16.36,1.82,0.75,0.67,1.71,-0.72,113.5,12.05,3
-2.1,-5.3,-17.51,0.6,86.3,106.97,-88.9,-5.0,1.2,6.7,15.2,-11.2,188.5,22.0,3
-0.15,-3.18,1.15,4.54,103.85,100.34,-12.14,1.64,0.83,-0.03,-1.55,5.66,138.04,10.51,3
-0.5,-3.0,2.4,4.6,98.4,103.03,-16.6,1.5,0.5,-0.3,-1.9,6.8,145.5,10.0,2
0.88,-3.42,9.39,8.01,37.63,100.0,-65.1,10.4,2.36,-0.96,-5.19,-3.1,109.82,12.33,3
-2.2,-0.8,-10.33,-2.23,127.27,95.13,-128.32,-4.3,-0.42,4.07,10.59,-1.43,230.16,14.93,4
0.75,-3.56,9.45,8.72,26.54,99.4,-66.9,16.02,2.64,-0.32,-3.9,-0.66,117.29,11.69,3
-1.4,0.4,-15.78,3.9,62.6,100.14,5.2,0.4,0.7,0.6,0.2,1.5,148.0,9.0,1
5.6,10.3,-19.51,5.6,37.7,78.8,-15.5,4.0,1.4,0.4,-1.3,2.4,191.0,8.1,2
6.4,-9.0,-16.75,3.2,81.1,92.39,28.7,2.5,0.9,-1.1,-3.1,1.4,101.9,6.1,1
-0.0,-4.01,-19.25,-0.41,56.86,111.93,-47.64,-0.56,-0.93,2.24,6.27,-2.66,112.17,9.03,3
0.0,-8.2,-2.16,8.1,40.0,100.0,-32.9,0.1,2.4,-0.6,-6.9,0.3,68.1,6.1,1
-1.4,2.1,-23.06,1.4,63.0,100.0,4.8,3.2,0.6,0.7,3.4,6.8,151.5,8.8,2
-2.7,-5.23,-21.62,-10.91,178.44,105.2,-131.44,-10.28,-0.02,11.35,13.11,-3.31,131.26,25.31,4
1.96,-2.86,-2.59,3.23,134.52,98.65,-11.72,1.54,1.15,-0.33,-3.49,0.36,110.99,11.81,3
-2.9,-7.4,7.99,-0.2,103.4,101.8,-134.3,-9.4,-0.2,-0.3,-9.8,12.2,329.5,14.7,3
-2.9,-11.1,-17.33,-2.12,119.24,81.54,-133.77,-8.78,-1.71,5.33,6.57,-0.55,270.15,14.81,4
1.5,-2.4,-9.7,1.4,135.3,100.0,-19.3,2.0,0.5,1.3,5.0,-1.4,115.1,12.2,3
-1.07,-4.49,-10.74,-0.21,102.83,104.4,-99.95,-3.09,0.76,4.05,7.39,-7.78,185.19,19.2,3
-2.8,-4.82,-19.58,7.61,112.38,93.16,-156.07,-7.51,-0.0,5.98,11.43,-0.64,330.88,14.78,4
-1.81,-5.0,-15.0,-9.08,178.28,101.94,-133.93,-8.23,0.28,7.33,3.9,-2.54,127.87,25.53,4
-0.29,-3.87,-5.6,-0.83,115.4,102.45,-108.35,-1.63,0.42,2.03,1.46,-5.17,182.67,17.07,3
0.8,-0.8,14.29,1.9,126.0,114.05,-109.9,2.8,1.5,-3.9,-10.9,2.0,161.9,10.9,2
-5.6,-5.0,17.63,10.4,70.2,95.13,6.3,11.1,2.7,0.4,1.6,6.8,168.5,6.7,1
2.3,-6.4,37.84,9.6,76.7,100.0,-198.4,-18.6,1.0,-3.9,-10.6,-2.3,305.1,11.9,2
1.38,-2.34,-9.94,1.61,133.26,100.09,-19.11,2.12,0.54,1.26,4.83,-1.17,116.43,12.09,3
1.9,-3.2,-3.29,-2.0,99.3,100.0,-88.9,-1.1,0.0,0.4,-4.6,-2.7,155.8,24.2,2
-3.2,1.9,11.12,4.3,15.2,102.33,-82.8,17.9,-1.9,3.4,13.1,3.5,129.1,9.5,2
-2.03,-2.12,3.18,-9.54,141.43,97.93,-121.16,-1.93,0.67,-2.72,-6.19,-1.1,105.23,19.21,4
0.58,-1.01,-9.41,1.35,76.97,103.22,-70.1,-4.6,1.94,0.6,1.77,-1.81,111.97,14.78,3
-0.2,-0.3,-10.28,-9.9,95.8,96.24,-92.8,-5.1,0.8,5.7,14.0,-10.1,178.1,24.1,2
-1.2,-2.6,-4.91,-4.0,60.9,101.0,0.1,-3.5,1.3,0.2,-0.4,7.4,145.3,8.9,1
2.1,-2.4,26.53,-6.2,43.1,92.23,-74.7,-20.6,-1.4,6.9,17.4,-2.4,115.2,17.7,1
0.88,-4.62,-2.27,5.44,38.69,109.2,-46.39,5.31,-0.36,-0.81,-4.17,0.76,107.48,8.9,3
-2.8,-7.8,-25.92,10.4,80.1,89.4,-11.6,5.8,-0.3,1.3,6.3,1.6,176.6,7.8,2
-0.1,-4.3,-15.53,-5.1,104.8,100.36,40.8,4.9,0.0,-0.1,-2.1,14.7,191.0,7.7,2
-1.7,-6.7,27.02,-0.7,39.8,89.47,-54.3,-4.2,2.2,3.3,-2.9,0.3,61.1,15.5,1
-1.57,-3.48,-3.85,-12.07,176.69,98.0,-139.09,-2.72,0.75,-1.23,-5.78,-1.37,120.43,23.83,4
2.9,-2.8,9.08,3.6,57.8,100.0,37.4,-1.4,4.9,-0.6,-2.2,8.8,134.8,5.7,1
-8.8,-3.0,-9.92,-4.5,114.4,105.9,-104.1,-0.5,-0.3,2.6,8.6,-0.9,204.2,11.9,4
-0.1,3.1,9.93,10.3,10.2,82.54,-49.7,11.2,1.2,-3.8,-14.2,4.8,115.2,10.3,1
0.26,-2.15,-5.09,-5.89,132.44,98.49,-122.46,-2.05,-0.29,1.46,1.64,-4.66,187.5,15.13,3
0.63,-2.62,2.46,-1.12,131.31,102.22,-115.75,-0.06,0.26,-1.45,-7.43,-1.97,175.77,13.74,3
8.2,-0.9,-6.74,4.0,64.6,100.0,48.9,-0.4,0.6,1.1,-0.4,0.0,262.8,7.2,2
0.71,-1.27,-0.39,4.79,57.26,99.42,-75.46,5.12,3.05,0.28,-0.52,0.3,118.39,14.67,3
-3.29,-4.96,-23.26,-13.13,178.1,106.46,-131.1,-10.19,-0.11,11.82,17.08,-3.53,131.6,24.65,4
-3.3,3.4,-11.62,-7.7,84.2,88.7,-17.8,3.9,1.0,0.2,0.8,6.6,170.2,7.8,2
0.99,-2.16,-10.77,2.33,126.35,100.4,-18.48,2.53,0.68,1.12,4.25,-0.38,120.95,11.73,3
-1.2,-0.6,11.9,-1.2,38.7,89.75,-50.6,6.1,2.2,-2.3,-13.8,-0.3,56.7,13.5,1
-2.9,-3.2,-10.3,1.1,51.8,93.78,-60.6,-0.3,1.0,2.9,6.4,1.9,71.1,14.1,1
-2.56,-0.8,-8.25,-5.33,130.01,95.09,-118.88,-3.53,-0.67,3.52,9.79,-1.54,202.27,14.75,4
-0.8,-2.2,-14.22,0.5,93.4,103.54,-16.6,4.6,0.9,0.5,1.6,2.1,137.4,9.8,2
3.2,1.2,-12.73,-0.1,80.3,98.61,-38.4,0.1,0.6,1.7,4.5,-4.7,97.9,9.6,2
-2.62,-5.77,-1.92,-0.39,89.58,105.32,-105.47,-4.61,0.51,2.43,3.76,-3.47,238.35,18.12,3
0.2,-6.3,71.33,4.3,67.8,117.65,-167.2,-15.4,0.9,-3.6,-9.0,0.2,250.5,8.4,2
-2.76,-3.59,-11.36,-14.97,176.7,101.92,-136.39,-4.77,0.4,3.09,5.48,-2.26,124.05,23.3,4
2.7,-5.2,-2.11,19.5,75.5,113.15,-59.6,5.4,5.4,-2.5,-13.7,-3.1,76.6,6.5,1
-0.01,-4.29,-17.63,0.35,50.37,111.57,-47.43,2.23,-0.85,2.27,6.0,-2.18,113.83,8.6,3
-0.6,4.8,10.22,4.7,40.2,107.31,-59.0,16.7,2.3,-1.7,-5.9,2.3,80.5,10.1,1
2.0,1.9,-15.75,-0.8,84.0,96.68,3.4,7.9,0.8,0.3,1.4,0.9,124.8,5.3,1
-4.19,-0.56,13.14,2.5,37.35,102.63,-64.84,0.18,0.72,0.8,2.02,-0.68,69.05,7.0,4
3.1,0.0,10.82,-7.7,72.9,123.65,-54.9,9.1,4.2,-2.0,-9.7,0.7,70.0,5.4,1
-4.3,3.4,-2.78,0.6,43.5,99.72,-63.9,5.4,-0.1,2.6,14.4,2.9,69.5,13.4,1
-0.94,-3.74,-2.01,-4.97,122.67,99.27,-127.44,-5.15,-0.33,1.33,-0.46,0.51,238.71,15.16,3
-2.9,-7.6,12.18,8.6,67.7,95.5,19.6,8.6,4.5,0.1,-0.7,0.1,162.4,6.5,2
-2.94,-7.3,9.05,-0.35,102.46,101.93,-133.61,-8.87,-0.22,-0.59,-9.95,11.65,326.97,14.53,3
-2.1,-12.2,-18.34,-1.8,119.9,78.23,-137.8,-9.9,-1.9,5.7,6.3,-0.5,279.1,15.2,4
1.16,-2.53,-7.95,1.92,129.28,100.13,-18.28,1.95,0.53,1.12,4.15,-0.13,119.71,11.89,3
-1.7,-8.6,7.91,5.6,41.6,92.0,-67.5,-6.5,0.9,3.3,-4.8,-5.4,96.8,16.9,1
-1.0,2.6,3.79,13.9,39.3,109.86,-37.9,16.3,2.2,-2.1,-6.0,4.5,56.1,8.0,1
-0.3,-3.5,27.95,6.5,50.6,104.11,-61.2,4.1,1.7,-2.3,-9.1,2.9,76.5,6.2,1
-2.7,-3.2,-19.21,5.1,119.7,124.69,-18.2,4.9,-0.8,1.3,8.0,3.1,121.8,8.2,2
0.42,-3.16,1.16,4.45,111.13,99.76,-11.07,1.55,0.99,-0.31,-3.1,4.61,131.01,10.77,3
-4.0,-0.22,13.34,1.95,37.43,102.23,-64.18,-1.39,0.49,0.8,1.89,-0.91,68.33,7.0,4
8.6,-6.0,-12.82,6.0,66.2,105.12,26.7,2.6,0.9,0.8,1.5,6.1,252.1,5.3,2
0.01,-1.97,-6.86,-7.28,132.01,98.04,-124.12,-3.1,-0.39,2.12,4.07,-5.16,194.7,15.38,3
-2.09,-11.07,-17.34,-2.15,121.02,79.78,-136.09,-9.31,-1.78,5.5,6.65,-0.61,271.61,15.18,4
-0.6,-10.0,-6.24,5.2,42.2,96.3,-36.6,4.0,3.0,0.0,-2.2,1.7,71.5,6.7,1
0.9,-4.3,13.16,9.5,26.0,100.0,-61.8,14.5,2.2,-1.2,-6.5,-3.5,109.3,11.2,3
-1.8,0.2,-32.46,-11.6,56.2,101.77,3.0,9.3,0.7,-0.3,-1.5,2.8,147.0,7.9,2
7.6,-2.3,-2.96,6.7,61.9,104.39,61.4,-0.3,0.3,0.0,-2.4,3.9,259.3,6.8,2
1.23,-4.52,11.11,9.39,27.82,103.62,-54.15,11.25,1.15,-2.14,-9.09,0.08,106.66,10.21,3
-3.09,-10.07,-18.07,-2.11,122.27,83.04,-132.98,-8.94,-1.41,5.13,7.97,-1.39,261.24,14.78,4
0.5,1.7,8.2,6.2,38.6,113.36,-56.2,15.2,2.4,-1.3,-2.6,2.4,76.9,9.4,1
-2.0,2.5,13.52,13.2,36.7,100.0,-64.1,17.2,1.3,-3.3,-12.2,-0.5,80.4,10.9,1
-2.09,-10.56,-16.89,-2.31,121.52,80.48,-135.31,-9.04,-1.73,5.4,6.81,-0.66,268.22,15.17,4
-2.2,-2.0,5.15,17.4,51.3,111.76,-68.3,8.1,1.8,-4.2,-10.8,9.6,94.5,9.8,1
-3.08,-1.87,-20.07,11.39,109.37,99.14,-163.39,-6.55,0.76,6.09,13.48,-0.7,351.62,14.61,4
-2.4,-9.04,-18.87,2.23,116.68,84.62,-145.61,-8.88,-1.09,5.82,8.49,-0.56,301.25,15.02,4
-5.77,-3.89,-17.43,-2.31,128.06,96.84,-121.4,-6.21,0.04,3.62,12.74,-3.75,217.22,13.65,4
0.33,-2.29,-13.62,0.59,68.37,106.94,-60.5,-2.87,0.71,1.3,3.69,-2.18,112.06,12.32,3
2.0,1.3,-9.15,-0.1,84.9,100.0,2.2,6.4,0.4,0.5,1.2,2.1,124.0,5.6,1
4.1,-9.2,-7.55,9.1,42.3,107.27,0.1,2.8,1.0,-0.1,-4.7,8.1,192.0,7.4,2
-3.4,-1.82,-11.41,-4.54,130.54,95.06,-119.88,-4.66,-0.45,3.56,10.91,-2.43,205.12,14.5,4
-4.13,0.14,11.32,0.25,45.5,101.85,-67.05,-4.27,-0.03,0.99,2.32,-1.35,80.93,7.5,4
-4.9,0.2,1.09,11.7,86.8,105.51,0.3,3.7,0.9,-1.4,-7.7,8.8,166.4,5.4,1
0.1,-1.8,-7.32,-7.5,132.9,97.92,-123.8,-2.9,-0.4,2.2,4.5,-5.7,190.5,15.4,3
-3.4,-4.3,-0.26,7.4,55.7,96.29,-68.9,3.1,1.7,1.4,3.6,3.3,75.4,10.0,1
0.6,-2.8,5.59,7.9,27.1,98.77,-72.2,17.6,3.1,0.6,-1.2,2.3,125.6,12.2,3
0.7,-3.7,2.44,16.3,36.8,106.67,-26.9,2.7,2.1,-1.3,-8.4,4.3,68.7,5.1,1
0.8,-0.8,-23.17,-5.8,78.5,89.7,-92.2,7.7,2.5,0.8,1.8,-6.0,101.1,11.1,2
-1.62,-3.75,-5.87,-11.52,176.98,98.71,-138.15,-3.72,0.67,0.33,-4.02,-1.58,121.78,24.14,4
2.3,-7.2,-9.31,0.4,76.1,100.0,-67.9,1.1,4.9,-1.9,-10.9,-2.5,83.2,8.2,1
-4.5,-4.4,-26.64,-17.7,177.4,109.06,-130.4,-10.0,-0.3,12.8,25.3,-4.0,132.3,23.3,4
2.6,-2.6,9.87,3.4,98.6,109.14,-85.5,-0.5,-0.3,-5.2,-14.6,0.7,139.7,19.6,2
-0.6,-3.2,1.14,4.6,98.0,100.81,-13.0,1.7,0.7,0.2,-0.3,6.5,143.7,10.3,3
2.4,-1.8,-12.5,1.5,82.4,88.31,-1.9,5.8,0.7,0.2,0.4,3.0,129.4,4.9,1
8.3,-1.7,-8.55,-0.9,39.8,100.0,33.4,2.2,-0.1,-0.4,-3.6,2.9,211.4,6.9,1
-7.35,-4.99,-11.75,-3.91,115.59,99.9,-111.41,-2.54,-0.65,3.27,8.1,-0.81,220.44,12.62,4
6.5,-7.8,-17.73,2.5,44.9,88.3,36.1,-0.2,-1.6,1.5,2.3,7.9,224.0,7.8,2
-1.94,-3.63,-14.93,-6.91,160.14,99.79,-127.28,-7.79,-0.22,7.9,8.57,-2.45,158.95,21.78,4
0.96,-4.34,12.8,9.48,26.32,100.64,-60.45,13.93,2.01,-1.37,-6.96,-2.87,108.83,11.02,3
2.3,-4.3,2.9,2.5,99.2,104.41,-85.5,-1.2,-0.1,-3.5,-11.1,-0.7,147.5,22.1,2
1.2,1.7,19.36,16.7,40.6,95.51,-46.8,8.7,2.3,-3.2,-13.3,0.2,54.2,12.0,1
-1.9,-5.6,-19.39,-7.9,178.9,103.49,-131.9,-10.4,0.1,10.7,7.7,-3.0,130.8,26.2,4
2.2,-3.1,1.19,4.2,134.1,97.93,-7.7,1.3,1.5,-1.2,-8.0,1.3,108.8,11.6,3
-0.5,1.7,26.02,2.0,37.2,92.55,-53.6,-7.8,3.0,6.7,19.3,-1.8,68.8,15.7,1
7.0,-0.4,-9.53,4.6,75.7,95.98,40.8,7.4,0.4,-0.6,-0.8,-0.3,98.4,5.2,2
0.3,-0.9,-0.15,1.1,17.1,97.38,-73.5,15.3,1.7,2.7,6.5,2.6,130.6,12.2,2
-2.0,-0.6,-8.1,-5.4,131.4,94.13,-120.2,-3.8,-0.7,3.6,9.9,-1.6,202.1,15.0,4
0.14,-5.78,31.02,8.28,85.38,100.79,-169.06,-12.43,0.79,-3.2,-8.51,-8.81,282.14,11.46,2
-8.53,-2.93,-8.35,-3.84,108.93,105.79,-101.52,0.02,-0.16,2.47,8.18,-0.82,194.86,11.55,4
-4.14,-7.8,-17.78,-2.44,124.79,88.15,-127.87,-7.91,-0.88,4.52,9.74,-2.33,242.26,14.34,4
1.7,0.7,-18.42,-3.2,81.3,95.34,1.3,6.4,1.1,0.1,0.2,1.0,127.1,5.0,1
0.9,-0.4,-5.01,2.4,104.9,101.22,54.5,-0.9,0.1,0.1,-3.6,23.8,194.8,8.3,1
6.6,-1.8,-12.99,-6.4,78.7,93.91,34.7,6.1,0.9,-1.0,-2.0,2.0,103.0,5.5,2
-1.36,-4.12,-14.07,-2.13,102.02,103.92,-100.68,-4.29,0.66,5.18,11.59,-9.34,189.17,19.77,3
0.65,-2.91,5.8,7.98,27.22,99.21,-70.85,17.1,2.94,0.4,-1.76,2.34,124.42,12.04,3
-5.33,-3.5,-15.95,-3.35,129.35,96.33,-119.43,-5.85,-0.1,3.51,12.29,-3.56,209.27,13.81,4
-5.0,-1.66,-8.9,-5.0,123.89,99.33,-113.09,-2.34,-0.52,3.16,9.33,-1.29,203.03,13.63,4
-3.6,0.5,13.76,0.8,37.6,101.39,-62.8,-4.7,0.0,0.8,1.6,-1.4,66.8,7.0,4
-2.06,-7.0,-13.75,-3.41,125.05,85.35,-129.92,-7.17,-1.36,4.76,7.91,-0.99,244.61,15.11,4
-4.8,10.7,2.71,-8.6,86.9,100.0,-22.7,3.2,0.8,-1.1,-6.6,2.8,161.7,6.3,1
-0.95,-3.47,-12.19,-3.63,110.64,102.24,-107.13,-3.9,0.36,4.35,9.61,-8.33,189.54,18.55,3
5.9,-4.9,-9.35,3.1,79.8,90.51,23.3,5.6,1.4,-1.1,-1.9,2.0,102.4,6.8,1
0.3,-1.2,4.06,10.4,51.9,100.0,-63.9,2.7,1.5,-1.8,-7.5,5.1,80.6,13.0,1
-3.1,-1.7,-20.1,11.6,109.2,99.48,-163.8,-6.5,0.8,6.1,13.6,-0.7,352.8,14.6,4
-0.8,-1.3,-14.53,5.6,94.9,101.8,-15.6,4.4,1.3,0.5,1.6,3.2,141.5,10.1,3
-0.8,-7.8,-18.3,1.4,90.6,106.3,-12.8,4.1,0.5,0.8,0.8,4.2,138.3,9.4,2
0.07,-2.37,1.49,-0.15,124.09,106.21,-106.79,-1.24,0.78,-1.49,-5.79,-3.59,172.45,14.14,3
-4.67,-2.09,11.11,3.13,50.08,103.6,-74.47,6.07,1.62,0.36,1.53,0.18,76.42,8.53,4
5.5,-2.5,-13.78,1.6,46.1,92.83,27.8,3.6,-1.4,1.3,6.8,4.4,221.0,7.3,2
0.0,5.3,-1.35,15.8,39.9,104.36,-42.9,15.0,3.1,-2.1,-7.4,4.3,56.5,9.2,1
-3.28,-6.38,17.94,-1.66,93.76,103.21,-126.58,-4.12,-0.37,-3.01,-10.8,6.36,301.83,13.17,3
-2.47,-1.07,-13.23,1.87,121.9,96.42,-138.85,-4.95,-0.06,4.67,11.48,-1.22,266.56,14.83,4
5.4,0.5,16.34,37.8,22.7,94.97,59.3,7.1,2.9,0.2,5.9,28.7,324.9,5.7,1
2.3,0.9,-2.83,-2.8,82.9,107.03,4.1,5.4,0.7,0.6,1.5,3.4,123.5,5.8,1
-3.05,-7.02,12.05,-0.77,99.77,102.31,-131.62,-7.37,-0.28,-1.41,-10.37,10.1,319.75,14.05,3
0.5,-1.8,5.22,-0.3,131.5,106.06,-110.3,-0.5,0.7,-3.1,-9.9,-2.1,169.3,12.6,3
-8.66,-2.95,-9.88,-4.52,114.75,105.66,-104.43,-0.57,-0.31,2.62,8.63,-0.91,204.16,11.96,4
0.76,-4.61,-4.57,4.67,40.54,109.71,-46.1,4.67,-0.49,-0.4,-2.78,0.32,108.06,8.8,3
4.9,-2.0,18.08,5.3,74.1,110.35,-24.2,3.7,3.3,-2.2,-9.0,0.9,76.3,7.9,1
-5.0,-2.0,12.3,4.8,37.0,104.31,-67.6,6.8,1.7,0.8,2.6,0.3,72.1,7.0,4
1.11,-1.88,8.22,3.54,20.44,103.44,-61.2,14.57,1.94,0.18,-0.58,3.21,117.73,10.37,2
0.69,-3.08,0.76,-1.68,131.22,99.97,-118.97,0.16,-0.01,-0.46,-5.86,-1.95,179.65,14.41,3
7.4,-1.5,-3.18,2.6,72.1,100.0,46.6,5.9,0.4,-0.4,-0.8,2.9,97.8,4.9,2
-2.66,-2.67,3.85,-7.08,129.9,99.28,-116.39,1.59,1.17,-2.34,-5.01,-0.57,102.8,17.88,4
0.87,-2.89,7.08,7.09,44.75,100.0,-67.13,7.88,2.46,-0.81,-4.38,-2.86,110.13,13.03,3
-2.65,-6.39,-19.31,5.61,113.98,89.98,-152.17,-8.02,-0.41,5.92,10.34,-0.61,319.85,14.87,4
-3.3,-6.4,18.62,-1.7,93.9,103.14,-127.3,-4.1,-0.4,-3.2,-11.3,6.7,304.0,13.0,3
-0.71,-2.12,-7.79,5.17,96.23,101.37,-14.48,3.24,1.04,0.37,0.78,4.62,142.45,10.19,3
-1.79,-1.59,-4.9,-8.54,149.92,95.22,-128.68,-2.64,-0.04,0.5,2.17,-1.35,167.37,18.43,4
1.05,-4.4,12.25,9.45,26.81,101.61,-58.4,13.06,1.74,-1.62,-7.65,-1.91,108.13,10.76,3
-1.5,-3.0,-0.36,-13.0,176.2,96.77,-140.7,-1.0,0.9,-3.9,-8.8,-1.0,118.1,23.3,4
2.0,3.0,2.18,14.3,9.3,105.85,-32.5,12.4,3.6,-1.4,-2.9,4.8,107.6,6.3,1
-1.0,2.7,20.49,4.1,37.8,100.0,-54.6,0.6,1.3,0.0,-0.9,0.2,58.0,6.9,1
-1.3,-2.6,23.22,7.0,37.3,105.21,-49.0,9.5,0.7,-0.2,-3.1,0.6,53.7,6.5,1
-2.0,-1.75,-9.06,4.26,64.87,98.21,10.68,5.35,2.15,0.46,1.77,4.14,155.83,7.89,2
-0.07,-1.65,-13.0,4.27,107.71,101.23,-16.77,3.64,1.05,0.75,2.68,1.74,133.13,10.77,3
-2.08,-9.63,-16.07,-2.6,122.44,81.75,-133.91,-8.55,-1.63,5.24,7.1,-0.74,262.06,15.16,4
7.9,-2.1,1.07,4.8,35.5,108.16,40.8,2.4,0.7,-0.4,-1.8,0.1,201.7,6.0,1
0.7,-3.1,0.87,-1.6,131.2,100.0,-118.9,0.2,0.0,-0.5,-6.0,-1.9,179.5,14.4,3
-0.1,-4.5,-20.85,-0.7,53.6,113.34,-44.0,0.1,-1.4,2.5,7.0,-2.8,112.2,8.1,3
-3.89,-2.32,8.27,-0.87,81.34,101.91,-90.89,4.32,1.45,-0.7,-1.03,-0.11,86.75,12.19,4
2.3,-3.3,20.41,7.1,25.3,112.26,-43.3,13.5,2.3,-3.5,-10.9,4.1,99.0,7.7,2
-5.59,-0.84,4.68,-1.23,67.05,103.12,-78.64,-3.09,-0.12,1.49,4.28,-1.21,119.49,8.88,4
-2.85,-1.45,-17.42,7.81,114.15,98.29,-154.07,-5.9,0.47,5.54,12.77,-0.9,319.18,14.69,4
-8.17,-2.57,-7.04,-3.86,105.07,105.35,-99.08,-1.01,-0.26,2.38,7.75,-0.96,187.5,11.3,4
-5.9,-4.0,-17.3,-3.0,129.0,96.71,-119.3,-6.2,0.0,3.5,12.7,-3.9,210.5,13.6,4
1.9,-3.8,-22.85,-1.3,77.3,85.73,-82.2,7.5,2.8,-0.6,0.2,-0.9,94.6,10.7,2
0.28,-3.17,1.16,4.47,109.39,99.9,-11.33,1.57,0.95,-0.24,-2.73,4.86,132.69,10.71,3
1.2,5.3,8.56,23.0,34.7,116.33,-25.0,5.9,2.4,-1.7,-8.0,4.2,67.3,4.0,1
4.6,-0.6,3.7,3.4,78.7,103.87,-28.9,1.3,1.1,-0.9,-6.4,-0.8,81.1,8.9,2
-4.8,1.4,1.39,10.7,53.7,101.1,-65.3,5.3,1.8,1.6,5.9,4.8,73.4,9.8,1
1.5,-4.7,9.44,9.3,29.3,106.59,-47.9,8.6,0.3,-2.9,-11.2,3.0,104.5,9.4,3
8.4,-1.8,1.52,-0.1,56.9,110.72,59.4,-0.1,0.7,-1.0,-3.8,3.7,249.1,5.9,2
-0.3,4.8,20.52,13.0,10.6,93.21,-46.7,14.8,0.5,-3.8,-7.4,5.6,115.4,8.7,1
8.3,-1.7,-2.87,5.1,37.2,104.7,38.2,2.1,1.9,-0.4,-2.6,2.8,209.5,6.4,1
0.4,-7.1,58.59,1.5,73.9,107.14,-171.7,-17.7,0.9,-3.8,-9.9,-15.7,284.4,10.1,2
-2.42,-8.83,-18.9,2.5,116.47,85.05,-146.15,-8.81,-1.03,5.83,8.64,-0.56,302.76,15.01,4
-0.02,-2.0,-7.9,-7.04,130.26,98.43,-121.82,-3.02,-0.31,2.46,5.11,-6.01,190.39,15.77,3
7.7,-1.2,-15.87,7.3,44.3,93.87,43.3,2.3,-1.2,-0.1,-2.1,-0.3,214.0,7.4,1
-3.68,-2.06,-12.06,-4.37,130.37,95.24,-119.81,-4.83,-0.4,3.56,11.11,-2.59,205.72,14.4,4
