PC_CA-avg_3y,REER-pch_3y,X_GS_share_M-pch_5y,FSL-pch,GD-pc_gdp,HPI-pch,NIIP-pc_gdp,ULC-pch_3y,ACT-pch_3y,LTU-pch_3y,YUR-pch_3y,PSCF-pc_gdp,PSD-pc_gdp,UR-avg_3y,label
1.0,-1.7,-13.57,2.7,105.2,100.0,45.2,0.5,0.7,1.0,2.3,12.1,176.1,8.5,1
-0.2,-0.3,-10.28,-9.9,95.8,96.24,-92.8,-5.1,0.8,5.7,14.0,-10.1,178.1,24.1,2
-6.32,-3.81,-19.55,-12.1,150.68,107.72,-119.25,-5.97,-0.3,8.47,18.22,-2.69,162.79,18.47,4
0.8,-0.8,14.29,1.9,126.0,114.05,-109.9,2.8,1.5,-3.9,-10.9,2.0,161.9,10.9,2
0.05,-1.87,-7.54,-7.33,131.9,98.11,-123.05,-2.94,-0.37,2.3,4.73,-5.82,190.46,15.54,3
2.0,1.9,-15.75,-0.8,84.0,96.68,3.4,7.9,0.8,0.3,1.4,0.9,124.8,5.3,1
1.9,-3.8,-22.85,-1.3,77.3,85.73,-82.2,7.5,2.8,-0.6,0.2,-0.9,94.6,10.7,2
0.14,-3.54,-2.82,-1.16,122.18,101.4,-112.87,-0.84,0.24,0.95,-1.74,-3.77,181.31,15.93,3
0.87,-4.15,12.39,9.34,26.11,99.87,-62.86,14.82,2.29,-1.02,-5.96,-2.91,110.96,11.3,3
6.6,-1.8,-12.99,-6.4,78.7,93.91,34.7,6.1,0.9,-1.0,-2.0,2.0,103.0,5.5,2
0.1,-1.8,-7.32,-7.5,132.9,97.92,-123.8,-2.9,-0.4,2.2,4.5,-5.7,190.5,15.4,3
0.35,-1.99,-8.5,5.06,109.93,100.32,-12.57,3.21,1.38,-0.15,-2.08,2.47,128.96,10.68,3
-6.0,-3.14,33.0,1.95,56.74,112.2,-76.85,1.44,0.78,1.09,6.95,1.75,110.61,8.31,4
-8.01,-3.26,-12.98,-6.92,125.94,106.48,-108.92,-2.24,-0.3,4.47,11.66,-1.47,191.03,13.99,4
0.8,0.1,-5.77,2.0,84.4,100.0,-78.4,-6.1,3.0,0.0,0.1,-1.5,111.9,16.9,3
-3.0,-2.72,-19.93,10.3,110.24,97.42,-161.28,-6.83,0.54,6.06,12.89,-0.68,345.64,14.66,4
-0.9,-0.8,-19.37,0.6,84.7,102.67,-86.8,-6.8,2.0,1.7,8.3,-0.1,117.2,16.8,3
-4.8,10.7,2.71,-8.6,86.9,100.0,-22.7,3.2,0.8,-1.1,-6.6,2.8,161.7,6.3,1
0.45,-1.68,-11.61,0.96,72.48,105.16,-65.09,-3.7,1.3,0.97,2.77,-2.0,112.02,13.49,3
-2.6,-6.84,6.47,-0.92,106.33,101.41,-133.26,-8.75,-0.22,-0.05,-8.38,10.42,315.7,14.77,3
-0.9,-1.1,-5.63,-1.2,46.5,123.73,-39.8,7.7,-1.5,1.7,5.3,0.5,112.9,7.1,2
0.57,-2.25,3.71,-0.75,131.4,103.96,-113.28,-0.26,0.46,-2.2,-8.55,-2.03,172.84,13.22,3
0.99,-0.17,-10.54,-2.64,78.88,101.98,-63.42,-3.72,1.47,0.77,2.7,-2.34,110.1,13.91,3
-4.18,-0.53,13.16,2.45,37.35,102.59,-64.78,0.04,0.7,0.8,2.01,-0.7,68.98,7.0,4
-4.2,-0.58,13.13,2.52,37.34,102.65,-64.87,0.25,0.73,0.8,2.03,-0.67,69.08,7.0,4
-7.88,-2.79,-11.57,-1.89,113.56,104.86,-113.77,-1.47,-0.12,3.17,9.41,-0.87,228.28,12.34,4
0.5,1.7,8.2,6.2,38.6,113.36,-56.2,15.2,2.4,-1.3,-2.6,2.4,76.9,9.4,1
-5.6,-5.0,17.63,10.4,70.2,95.13,6.3,11.1,2.7,0.4,1.6,6.8,168.5,6.7,1
-5.25,-7.87,-14.38,-3.07,117.31,91.24,-121.96,-5.48,-1.15,4.24,7.38,-0.69,243.89,13.65,4
8.3,-1.7,-2.87,5.1,37.2,104.7,38.2,2.1,1.9,-0.4,-2.6,2.8,209.5,6.4,1
-0.8,-1.3,-14.53,5.6,94.9,101.8,-15.6,4.4,1.3,0.5,1.6,3.2,141.5,10.1,3
0.7,-3.7,2.44,16.3,36.8,106.67,-26.9,2.7,2.1,-1.3,-8.4,4.3,68.7,5.1,1
5.5,-2.5,-13.78,1.6,46.1,92.83,27.8,3.6,-1.4,1.3,6.8,4.4,221.0,7.3,2
1.3,-0.6,-18.21,-10.1,70.0,105.16,-39.3,0.1,-1.0,2.0,6.9,-3.7,107.2,9.1,3
2.3,-4.3,2.9,2.5,99.2,104.41,-85.5,-1.2,-0.1,-3.5,-11.1,-0.7,147.5,22.1,2
-2.0,-6.2,-4.75,9.8,107.5,100.0,-154.5,-10.8,0.4,3.2,5.1,4.4,347.8,15.7,3
-5.94,-1.07,3.12,-1.58,72.1,103.42,-81.35,-2.81,-0.13,1.61,4.74,-1.18,128.52,9.2,4
0.01,-1.97,-6.86,-7.28,132.01,98.04,-124.12,-3.1,-0.39,2.12,4.07,-5.16,194.7,15.38,3
-2.8,6.0,-21.25,-3.6,83.2,88.09,-28.1,3.0,0.4,0.8,2.1,1.5,176.1,7.9,2
5.6,10.3,-19.51,5.6,37.7,78.8,-15.5,4.0,1.4,0.4,-1.3,2.4,191.0,8.1,2
-2.2,-1.0,20.12,1.2,39.2,98.2,-57.3,6.7,1.6,-0.1,0.1,-2.3,62.1,6.9,2
-1.7,2.7,-27.3,9.3,59.8,100.2,-3.1,7.6,0.5,0.2,0.4,1.7,148.8,8.2,2
-5.0,-2.0,12.3,4.8,37.0,104.31,-67.6,6.8,1.7,0.8,2.6,0.3,72.1,7.0,4
4.63,-6.68,-9.9,6.28,43.73,101.83,10.53,3.1,0.1,0.43,-0.37,6.71,202.92,7.36,2
-7.87,-2.76,-4.5,-2.23,95.52,105.51,-95.2,1.28,0.19,2.16,7.14,-0.61,171.98,10.7,4
7.6,-2.3,-2.96,6.7,61.9,104.39,61.4,-0.3,0.3,0.0,-2.4,3.9,259.3,6.8,2
5.4,0.5,16.34,37.8,22.7,94.97,59.3,7.1,2.9,0.2,5.9,28.7,324.9,5.7,1
-4.8,1.4,1.39,10.7,53.7,101.1,-65.3,5.3,1.8,1.6,5.9,4.8,73.4,9.8,1
-6.25,-6.51,-13.13,-3.47,116.5,95.35,-116.95,-4.08,-0.91,3.78,7.72,-0.75,232.75,13.16,4
2.6,-2.6,9.87,3.4,98.6,109.14,-85.5,-0.5,-0.3,-5.2,-14.6,0.7,139.7,19.6,2
-4.55,-1.2,12.77,3.52,37.19,103.38,-66.06,3.12,1.16,0.8,2.28,-0.24,70.4,7.0,4
0.52,-1.91,4.84,-0.41,131.47,105.53,-111.05,-0.44,0.64,-2.87,-9.56,-2.08,170.19,12.76,3
0.5,-1.8,5.22,-0.3,131.5,106.06,-110.3,-0.5,0.7,-3.1,-9.9,-2.1,169.3,12.6,3
0.98,-3.53,6.61,5.41,35.19,101.08,-57.1,11.49,1.53,-0.53,-3.7,-3.54,108.86,10.76,3
2.3,-3.3,20.41,7.1,25.3,112.26,-43.3,13.5,2.3,-3.5,-10.9,4.1,99.0,7.7,2
-1.0,2.6,3.79,13.9,39.3,109.86,-37.9,16.3,2.2,-2.1,-6.0,4.5,56.1,8.0,1
-3.94,-0.46,23.19,1.76,36.66,104.86,-63.66,-2.9,0.31,0.72,2.83,-0.3,68.6,6.97,4
2.0,-4.7,-21.72,0.4,81.9,92.57,-3.2,3.8,0.8,0.0,-1.3,1.2,128.2,4.8,1
-2.0,2.5,13.52,13.2,36.7,100.0,-64.1,17.2,1.3,-3.3,-12.2,-0.5,80.4,10.9,1
-0.6,-3.2,1.14,4.6,98.0,100.81,-13.0,1.7,0.7,0.2,-0.3,6.5,143.7,10.3,3
-1.29,-5.38,-3.26,6.78,113.77,100.0,-145.08,-7.89,0.29,2.22,2.16,2.73,303.28,15.36,3
7.0,-0.4,-9.53,4.6,75.7,95.98,40.8,7.4,0.4,-0.6,-0.8,-0.3,98.4,5.2,2
-4.6,-1.28,12.72,3.65,37.17,103.47,-66.22,3.48,1.21,0.8,2.31,-0.19,70.57,7.0,4
2.2,-3.1,1.19,4.2,134.1,97.93,-7.7,1.3,1.5,-1.2,-8.0,1.3,108.8,11.6,3
-2.37,-6.7,0.53,5.65,105.8,100.75,-146.12,-10.22,0.15,1.75,-1.08,7.63,340.21,15.29,3
0.7,-3.15,1.16,4.41,114.7,99.48,-10.55,1.51,1.07,-0.45,-3.86,4.09,127.55,10.9,3
0.53,-2.75,-19.66,-4.93,60.98,109.66,-41.89,0.1,-1.22,2.28,6.96,-3.2,109.95,8.55,3
0.0,-8.2,-2.16,8.1,40.0,100.0,-32.9,0.1,2.4,-0.6,-6.9,0.3,68.1,6.1,1
7.4,-1.5,-3.18,2.6,72.1,100.0,46.6,5.9,0.4,-0.4,-0.8,2.9,97.8,4.9,2
-5.05,-3.19,47.58,4.15,37.15,114.35,-67.59,2.09,1.14,0.58,6.39,2.66,78.81,7.1,4
2.1,-2.4,26.53,-6.2,43.1,92.23,-74.7,-20.6,-1.4,6.9,17.4,-2.4,115.2,17.7,1
1.9,-0.8,24.41,-0.2,6.1,74.62,-54.0,-2.2,0.5,5.4,10.4,-0.8,118.9,14.2,1
-0.7,-4.4,-15.44,6.9,87.8,108.42,-8.7,5.4,0.3,1.1,3.6,6.4,135.3,9.2,2
2.0,0.2,2.7,2.2,78.3,110.5,2.8,4.0,1.0,0.3,-0.5,3.6,121.8,5.7,1
-2.01,-9.07,-18.84,-4.7,147.92,90.23,-135.0,-10.14,-0.95,8.07,6.96,-1.69,208.68,20.42,4
-2.3,-1.0,4.68,0.7,50.4,97.43,-69.1,2.9,2.2,0.2,-1.9,4.6,78.1,9.8,1
-1.3,-1.4,9.18,2.4,51.3,100.0,-62.1,0.2,1.6,-1.1,-5.7,3.5,78.9,8.9,1
-1.2,-0.6,11.9,-1.2,38.7,89.75,-50.6,6.1,2.2,-2.3,-13.8,-0.3,56.7,13.5,1
-2.1,-6.2,-25.74,7.2,126.5,118.48,-23.0,2.0,1.2,2.2,10.0,-0.9,124.2,9.2,2
0.75,-0.62,-2.94,3.47,70.11,99.69,-76.85,-0.19,3.02,0.15,-0.22,-0.55,115.32,15.73,3
4.6,-0.6,3.7,3.4,78.7,103.87,-28.9,1.3,1.1,-0.9,-6.4,-0.8,81.1,8.9,2
4.1,-9.2,-7.55,9.1,42.3,107.27,0.1,2.8,1.0,-0.1,-4.7,8.1,192.0,7.4,2
0.4,-7.1,58.59,1.5,73.9,107.14,-171.7,-17.7,0.9,-3.8,-9.9,-15.7,284.4,10.1,2
-0.6,-10.0,-6.24,5.2,42.2,96.3,-36.6,4.0,3.0,0.0,-2.2,1.7,71.5,6.7,1
2.4,-1.8,-12.5,1.5,82.4,88.31,-1.9,5.8,0.7,0.2,0.4,3.0,129.4,4.9,1
-2.33,-9.78,-18.75,1.29,117.43,83.13,-143.79,-9.12,-1.28,5.79,7.98,-0.55,296.09,15.06,4
-5.56,-2.15,9.05,3.44,48.33,104.54,-72.95,5.73,1.41,1.06,3.48,0.12,91.44,7.72,4
0.43,-1.8,3.16,-1.48,131.73,104.73,-112.51,-0.89,0.52,-2.23,-7.54,-2.69,172.78,13.06,3
-7.92,-4.21,-11.03,-4.14,115.12,102.25,-108.54,-1.74,-0.51,3.01,8.3,-0.85,214.07,12.33,4
-1.0,-5.6,-13.98,5.3,175.9,100.0,-135.4,-9.7,0.3,3.7,-5.5,-3.0,128.0,26.3,4
-5.2,-2.18,-16.35,5.66,111.12,101.85,-141.79,-4.29,0.39,4.81,11.76,-0.77,298.01,13.6,4
-2.63,-6.6,-19.28,5.34,114.19,89.56,-151.66,-8.09,-0.46,5.91,10.19,-0.61,318.4,14.88,4
-2.9,-7.4,7.99,-0.2,103.4,101.8,-134.3,-9.4,-0.2,-0.3,-9.8,12.2,329.5,14.7,3
-1.4,2.1,-23.06,1.4,63.0,100.0,4.8,3.2,0.6,0.7,3.4,6.8,151.5,8.8,2
0.7,-3.1,0.87,-1.6,131.2,100.0,-118.9,0.2,0.0,-0.5,-6.0,-1.9,179.5,14.4,3
0.9,-4.3,13.16,9.5,26.0,100.0,-61.8,14.5,2.2,-1.2,-6.5,-3.5,109.3,11.2,3
-2.9,-3.2,-10.3,1.1,51.8,93.78,-60.6,-0.3,1.0,2.9,6.4,1.9,71.1,14.1,1
0.99,-0.17,-10.6,-2.69,78.81,102.0,-63.23,-3.69,1.45,0.78,2.74,-2.35,110.08,13.87,3
-1.2,-3.8,-10.57,1.9,119.9,78.16,-133.4,-0.7,0.2,1.1,-1.4,-1.4,267.5,14.9,2
-1.3,-2.6,23.22,7.0,37.3,105.21,-49.0,9.5,0.7,-0.2,-3.1,0.6,53.7,6.5,1
-0.3,4.8,20.52,13.0,10.6,93.21,-46.7,14.8,0.5,-3.8,-7.4,5.6,115.4,8.7,1
0.0,5.3,-1.35,15.8,39.9,104.36,-42.9,15.0,3.1,-2.1,-7.4,4.3,56.5,9.2,1
0.2,-6.3,71.33,4.3,67.8,117.65,-167.2,-15.4,0.9,-3.6,-9.0,0.2,250.5,8.4,2
-1.9,-5.6,-19.39,-7.9,178.9,103.49,-131.9,-10.4,0.1,10.7,7.7,-3.0,130.8,26.2,4
-0.69,-2.37,-5.73,5.04,96.64,101.24,-14.14,2.88,0.96,0.33,0.53,5.05,142.74,10.21,3
-2.6,-0.5,7.39,4.3,39.8,98.86,-45.2,3.4,0.8,0.5,8.2,2.1,68.3,6.9,1
-8.69,-2.92,-9.41,-4.39,112.75,105.8,-103.21,-0.59,-0.29,2.56,8.45,-0.91,201.26,11.79,4
-0.9,-3.68,-7.02,0.18,107.16,106.55,-98.78,-2.92,0.97,2.18,3.62,-7.0,179.64,17.66,3
-2.1,-5.3,-17.51,0.6,86.3,106.97,-88.9,-5.0,1.2,6.7,15.2,-11.2,188.5,22.0,3
8.3,-1.7,-8.55,-0.9,39.8,100.0,33.4,2.2,-0.1,-0.4,-3.6,2.9,211.4,6.9,1
-4.9,-3.2,49.92,4.5,34.0,114.69,-66.1,2.2,1.2,0.5,6.3,2.8,73.7,6.9,4
-2.1,-12.2,-18.34,-1.8,119.9,78.23,-137.8,-9.9,-1.9,5.7,6.3,-0.5,279.1,15.2,4
0.6,-2.8,5.59,7.9,27.1,98.77,-72.2,17.6,3.1,0.6,-1.2,2.3,125.6,12.2,3
-3.4,-4.3,-0.26,7.4,55.7,96.29,-68.9,3.1,1.7,1.4,3.6,3.3,75.4,10.0,1
-1.5,-3.0,-0.36,-13.0,176.2,96.77,-140.7,-1.0,0.9,-3.9,-8.8,-1.0,118.1,23.3,4
-4.3,3.4,-2.78,0.6,43.5,99.72,-63.9,5.4,-0.1,2.6,14.4,2.9,69.5,13.4,1
-2.82,-4.68,-19.6,7.8,112.24,93.45,-156.42,-7.47,0.03,5.99,11.53,-0.64,331.87,14.77,4
-4.93,-2.84,38.78,4.59,34.89,111.62,-66.54,3.56,1.35,0.59,5.2,2.06,73.23,6.93,4
0.4,-3.6,6.93,10.9,9.8,76.91,-50.7,0.1,0.8,1.8,-6.5,7.6,117.2,13.0,1
8.2,-0.9,-6.74,4.0,64.6,100.0,48.9,-0.4,0.6,1.1,-0.4,0.0,262.8,7.2,2
9.5,0.7,-11.35,8.0,67.8,96.72,48.0,3.7,0.9,1.3,2.7,4.3,267.2,6.8,2
-0.1,3.1,9.93,10.3,10.2,82.54,-49.7,11.2,1.2,-3.8,-14.2,4.8,115.2,10.3,1
-3.76,0.21,13.59,1.26,37.53,101.73,-63.36,-3.36,0.2,0.8,1.72,-1.2,67.42,7.0,4
-0.69,-2.38,-5.63,5.03,96.66,101.24,-14.12,2.87,0.96,0.33,0.52,5.07,142.75,10.21,3
-0.1,-4.3,-15.53,-5.1,104.8,100.36,40.8,4.9,0.0,-0.1,-2.1,14.7,191.0,7.7,2
-4.75,-2.76,45.63,4.06,34.43,113.11,-65.71,1.38,1.06,0.54,5.74,2.3,72.88,6.91,4
-4.8,-4.3,-25.46,-16.77,172.95,108.84,-128.54,-9.33,-0.3,12.08,24.12,-3.78,137.38,22.49,4
0.3,-1.2,4.06,10.4,51.9,100.0,-63.9,2.7,1.5,-1.8,-7.5,5.1,80.6,13.0,1
-3.86,-4.86,-16.7,-6.94,160.6,104.17,-124.01,-7.59,-0.01,8.4,7.96,-2.4,151.62,22.14,4
1.7,0.7,-18.42,-3.2,81.3,95.34,1.3,6.4,1.1,0.1,0.2,1.0,127.1,5.0,1
-7.43,-3.45,-15.25,-8.71,134.47,106.91,-112.48,-3.53,-0.3,5.85,13.92,-1.89,181.29,15.53,4
-2.7,-3.2,-19.21,5.1,119.7,124.69,-18.2,4.9,-0.8,1.3,8.0,3.1,121.8,8.2,2
-0.64,-2.8,-2.12,4.81,97.35,101.02,-13.54,2.26,0.82,0.26,0.1,5.81,143.24,10.26,3
0.8,-0.8,-23.17,-5.8,78.5,89.7,-92.2,7.7,2.5,0.8,1.8,-6.0,101.1,11.1,2
0.5,-0.6,-13.33,2.5,107.0,99.24,44.8,4.3,1.0,0.8,4.5,-2.0,162.2,8.2,2
-0.8,-2.2,-14.22,0.5,93.4,103.54,-16.6,4.6,0.9,0.5,1.6,2.1,137.4,9.8,2
-3.1,-1.7,-20.1,11.6,109.2,99.48,-163.8,-6.5,0.8,6.1,13.6,-0.7,352.8,14.6,4
2.3,0.9,-2.83,-2.8,82.9,107.03,4.1,5.4,0.7,0.6,1.5,3.4,123.5,5.8,1
-0.69,-2.3,-6.24,5.07,96.54,101.28,-14.22,2.97,0.98,0.34,0.6,4.95,142.66,10.21,3
-3.65,-1.82,-19.12,10.05,109.7,100.1,-158.06,-5.92,0.69,5.76,13.12,-0.72,338.52,14.34,4
2.9,-2.8,9.08,3.6,57.8,100.0,37.4,-1.4,4.9,-0.6,-2.2,8.8,134.8,5.7,1
-1.7,-6.7,27.02,-0.7,39.8,89.47,-54.3,-4.2,2.2,3.3,-2.9,0.3,61.1,15.5,1
-0.45,-2.9,-20.21,-0.14,67.02,108.74,-62.47,-2.88,0.07,2.15,7.56,-1.63,114.36,11.85,3
-2.39,-9.18,-18.85,2.06,116.82,84.35,-145.29,-8.92,-1.12,5.82,8.4,-0.56,300.32,15.03,4
3.2,1.2,-12.73,-0.1,80.3,98.61,-38.4,0.1,0.6,1.7,4.5,-4.7,97.9,9.6,2
-3.2,1.9,11.12,4.3,15.2,102.33,-82.8,17.9,-1.9,3.4,13.1,3.5,129.1,9.5,2
-0.87,-0.78,-19.11,0.63,84.69,102.62,-86.64,-6.79,2.02,1.67,8.15,-0.13,117.1,16.8,3
-0.7,2.1,-4.08,1.4,54.7,93.4,-62.2,2.6,1.2,0.8,-0.2,5.0,75.2,14.0,1
-4.22,-1.96,-18.1,8.44,110.22,100.74,-152.06,-5.32,0.58,5.41,12.62,-0.74,323.59,14.07,4
1.68,-1.64,-10.1,-4.12,96.79,102.14,-26.09,0.6,0.04,0.66,0.67,-1.61,107.87,10.14,3
6.1,-2.4,-5.55,15.1,22.0,88.53,58.4,5.9,0.7,0.4,1.5,25.9,303.7,4.8,1
7.7,-1.2,-15.87,7.3,44.3,93.87,43.3,2.3,-1.2,-0.1,-2.1,-0.3,214.0,7.4,1
-0.25,-5.76,30.43,1.66,92.63,95.34,-156.11,-10.78,0.61,-1.8,-6.44,-9.88,277.52,12.05,2
-7.78,-2.77,-11.74,-1.62,113.47,104.75,-114.79,-1.57,-0.1,3.23,9.5,-0.86,230.8,12.38,4
7.9,-2.1,1.07,4.8,35.5,108.16,40.8,2.4,0.7,-0.4,-1.8,0.1,201.7,6.0,1
-4.74,-2.76,45.57,4.06,34.43,113.09,-65.7,1.37,1.06,0.54,5.74,2.3,72.87,6.91,4
-0.38,-2.57,-9.56,-5.72,122.67,99.91,-116.14,-3.36,-0.05,3.19,6.85,-6.91,190.06,16.85,3
-7.56,-3.41,-14.76,-8.32,132.63,106.81,-111.71,-3.25,-0.3,5.55,13.43,-1.8,183.39,15.2,4
-4.9,0.2,1.09,11.7,86.8,105.51,0.3,3.7,0.9,-1.4,-7.7,8.8,166.4,5.4,1
1.0,-3.14,1.17,4.37,118.58,99.17,-9.98,1.47,1.16,-0.6,-4.69,3.53,123.8,11.04,3
-8.4,-3.13,-11.49,-5.74,120.32,106.2,-106.57,-1.39,-0.3,3.56,10.17,-1.19,197.45,12.97,4
0.01,-0.32,-12.11,1.35,84.54,101.25,-82.32,-6.43,2.53,0.79,3.92,-0.85,114.37,16.85,3
5.0,-1.0,21.39,0.4,22.3,109.55,51.8,4.0,-0.6,0.5,-6.8,27.4,322.9,6.1,1
2.7,-5.2,-2.11,19.5,75.5,113.15,-59.6,5.4,5.4,-2.5,-13.7,-3.1,76.6,6.5,1
-8.8,-3.0,-9.92,-4.5,114.4,105.9,-104.1,-0.5,-0.3,2.6,8.6,-0.9,204.2,11.9,4
2.3,-7.2,-9.31,0.4,76.1,100.0,-67.9,1.1,4.9,-1.9,-10.9,-2.5,83.2,8.2,1
0.37,-1.97,4.71,2.1,38.08,119.17,-41.19,10.0,0.01,-0.37,-1.14,1.93,107.38,7.34,2
0.58,-1.02,-9.46,1.34,76.87,103.26,-69.99,-4.58,1.92,0.61,1.79,-1.82,111.97,14.75,3
-4.75,-8.57,-15.02,-2.87,117.73,89.16,-124.49,-6.19,-1.27,4.48,7.21,-0.66,249.52,13.9,4
6.9,-2.5,-17.81,1.8,44.0,91.0,37.2,1.5,-1.3,0.3,-0.7,-3.0,216.1,7.7,1
2.0,1.3,-9.15,-0.1,84.9,100.0,2.2,6.4,0.4,0.5,1.2,2.1,124.0,5.6,1
6.4,-9.0,-16.75,3.2,81.1,92.39,28.7,2.5,0.9,-1.1,-3.1,1.4,101.9,6.1,1
-5.93,-3.93,-21.08,-13.31,156.45,108.01,-121.65,-6.84,-0.3,9.41,19.75,-2.97,156.21,19.51,4
-1.0,2.7,20.49,4.1,37.8,100.0,-54.6,0.6,1.3,0.0,-0.9,0.2,58.0,6.9,1
-4.67,-1.42,12.64,3.87,37.14,103.63,-66.48,4.12,1.3,0.8,2.37,-0.1,70.87,7.0,4
-4.96,-2.52,28.6,4.67,35.7,108.81,-66.95,4.81,1.48,0.67,4.2,1.38,72.79,6.96,4
-2.76,-5.27,-19.5,7.04,112.84,92.25,-154.95,-7.66,-0.12,5.96,11.12,-0.63,327.72,14.8,4
-0.5,1.7,26.02,2.0,37.2,92.55,-53.6,-7.8,3.0,6.7,19.3,-1.8,68.8,15.7,1
-0.8,-7.8,-18.3,1.4,90.6,106.3,-12.8,4.1,0.5,0.8,0.8,4.2,138.3,9.4,2
0.67,-1.76,1.52,5.79,47.62,99.21,-74.42,9.11,3.06,0.39,-0.73,0.94,120.69,13.88,3
-0.3,-3.5,27.95,6.5,50.6,104.11,-61.2,4.1,1.7,-2.3,-9.1,2.9,76.5,6.2,1
4.9,-2.0,18.08,5.3,74.1,110.35,-24.2,3.7,3.3,-2.2,-9.0,0.9,76.3,7.9,1
5.8,3.2,-12.21,1.8,37.3,78.22,-8.3,4.1,0.6,0.7,2.6,7.0,189.1,8.2,2
5.1,-3.7,-9.63,12.6,45.2,89.38,-2.3,7.5,1.6,-0.1,0.1,4.6,193.3,8.0,2
0.3,-0.9,-0.15,1.1,17.1,97.38,-73.5,15.3,1.7,2.7,6.5,2.6,130.6,12.2,2
-3.3,3.4,-11.62,-7.7,84.2,88.7,-17.8,3.9,1.0,0.2,0.8,6.6,170.2,7.8,2
-3.6,0.5,13.76,0.8,37.6,101.39,-62.8,-4.7,0.0,0.8,1.6,-1.4,66.8,7.0,4
-4.5,-4.4,-26.64,-17.7,177.4,109.06,-130.4,-10.0,-0.3,12.8,25.3,-4.0,132.3,23.3,4
-1.63,-1.04,8.85,0.15,42.39,109.37,-49.64,7.14,0.24,0.69,2.38,-1.07,84.33,6.99,2
-0.1,-4.5,-20.85,-0.7,53.6,113.34,-44.0,0.1,-1.4,2.5,7.0,-2.8,112.2,8.1,3
-4.01,-0.24,13.33,1.99,37.42,102.26,-64.22,-1.29,0.5,0.8,1.9,-0.9,68.37,7.0,4
