PC_CA-avg_3y,REER-pch_3y,X_GS_share_M-pch_5y,FSL-pch,GD-pc_gdp,HPI-pch,NIIP-pc_gdp,ULC-pch_3y,ACT-pch_3y,LTU-pch_3y,YUR-pch_3y,PSCF-pc_gdp,PSD-pc_gdp,UR-avg_3y,label
-2.8,-7.8,-25.92,10.4,80.1,89.4,-11.6,5.8,-0.3,1.3,6.3,1.6,176.6,7.8,2
1.5,-4.7,9.44,9.3,29.3,106.59,-47.9,8.6,0.3,-2.9,-11.2,3.0,104.5,9.4,3
-8.18,-2.58,-7.09,-3.87,105.22,105.36,-99.16,-1.0,-0.26,2.38,7.76,-0.96,187.78,11.31,4
-0.1,3.1,9.93,10.3,10.2,82.54,-49.7,11.2,1.2,-3.8,-14.2,4.8,115.2,10.3,1
1.47,-2.15,-10.89,-0.21,126.14,100.72,-22.11,1.73,0.29,1.4,5.27,-1.72,113.99,11.76,3
1.0,-1.7,-13.57,2.7,105.2,100.0,45.2,0.5,0.7,1.0,2.3,12.1,176.1,8.5,1
1.2,5.3,8.56,23.0,34.7,116.33,-25.0,5.9,2.4,-1.7,-8.0,4.2,67.3,4.0,1
0.89,-0.22,-6.28,1.92,91.01,100.0,-70.72,-5.05,2.68,0.17,0.74,-1.49,112.32,16.29,3
0.49,-4.57,-9.77,2.96,44.71,110.87,-45.43,3.21,-0.78,0.53,0.34,-0.68,109.38,8.58,3
-1.9,-5.6,-19.39,-7.9,178.9,103.49,-131.9,-10.4,0.1,10.7,7.7,-3.0,130.8,26.2,4
-1.8,0.2,-32.46,-11.6,56.2,101.77,3.0,9.3,0.7,-0.3,-1.5,2.8,147.0,7.9,2
6.12,-1.69,-14.09,-6.69,77.42,94.36,32.9,6.28,0.89,-0.96,-1.97,2.05,105.5,5.64,2
-4.92,-1.86,12.38,4.58,37.03,104.15,-67.33,6.16,1.61,0.8,2.54,0.21,71.8,7.0,4
-8.03,-3.26,-11.87,-4.1,118.27,103.47,-108.12,-2.01,-0.22,2.84,9.69,-1.69,205.87,12.35,4
3.1,0.0,10.82,-7.7,72.9,123.65,-54.9,9.1,4.2,-2.0,-9.7,0.7,70.0,5.4,1
-0.57,-0.62,-16.7,0.88,84.64,102.15,-85.15,-6.66,2.2,1.37,6.69,-0.38,116.16,16.82,3
-2.9,-7.6,12.18,8.6,67.7,95.5,19.6,8.6,4.5,0.1,-0.7,0.1,162.4,6.5,2
-0.7,-4.4,-15.44,6.9,87.8,108.42,-8.7,5.4,0.3,1.1,3.6,6.4,135.3,9.2,2
0.53,-2.75,-19.66,-4.93,60.98,109.66,-41.89,0.1,-1.22,2.28,6.96,-3.2,109.95,8.55,3
0.88,-4.62,-2.28,5.43,38.7,109.2,-46.39,5.31,-0.36,-0.81,-4.16,0.76,107.48,8.9,3
5.1,-1.5,33.28,5.2,20.1,105.69,54.6,1.2,0.1,0.4,2.2,-9.6,309.0,6.3,1
0.46,-4.57,-10.33,2.77,45.16,111.0,-45.35,3.05,-0.81,0.63,0.68,-0.79,109.53,8.55,3
-2.5,-6.28,4.32,5.34,102.22,101.22,-143.95,-8.2,0.09,0.72,-1.26,5.29,330.81,14.65,3
-5.25,-3.46,-17.95,0.4,124.39,97.36,-129.67,-6.27,0.19,4.11,12.91,-3.15,243.65,13.83,4
-4.99,-4.44,-15.16,-6.38,150.06,104.57,-119.47,-5.97,-0.08,7.08,8.1,-2.06,163.62,19.81,4
-1.89,-5.6,-19.32,-7.72,178.86,103.44,-131.95,-10.39,0.1,10.6,7.52,-3.0,130.76,26.2,4
1.2,1.7,19.36,16.7,40.6,95.51,-46.8,8.7,2.3,-3.2,-13.3,0.2,54.2,12.0,1
-0.4,-0.2,-12.95,1.2,105.5,100.51,43.2,7.4,-0.2,-0.1,1.3,7.9,163.0,7.7,2
-6.44,-3.12,26.29,0.95,65.75,111.22,-81.11,1.13,0.61,1.33,7.21,1.34,125.23,8.87,4
4.1,-9.2,-7.55,9.1,42.3,107.27,0.1,2.8,1.0,-0.1,-4.7,8.1,192.0,7.4,2
2.9,-2.8,9.08,3.6,57.8,100.0,37.4,-1.4,4.9,-0.6,-2.2,8.8,134.8,5.7,1
-1.0,-5.6,-13.98,5.3,175.9,100.0,-135.4,-9.7,0.3,3.7,-5.5,-3.0,128.0,26.3,4
2.2,-3.1,1.19,4.2,134.1,97.93,-7.7,1.3,1.5,-1.2,-8.0,1.3,108.8,11.6,3
2.3,-3.3,20.41,7.1,25.3,112.26,-43.3,13.5,2.3,-3.5,-10.9,4.1,99.0,7.7,2
-1.4,0.4,-15.78,3.9,62.6,100.14,5.2,0.4,0.7,0.6,0.2,1.5,148.0,9.0,1
6.5,-7.8,-17.73,2.5,44.9,88.3,36.1,-0.2,-1.6,1.5,2.3,7.9,224.0,7.8,2
-3.65,-8.85,-17.92,-2.29,123.61,85.77,-130.25,-8.39,-1.12,4.8,8.91,-1.89,251.11,14.55,4
1.93,-3.1,14.04,7.5,45.53,106.05,-53.8,4.43,0.3,-3.77,-13.37,2.5,102.27,10.77,3
-2.1,-6.2,-25.74,7.2,126.5,118.48,-23.0,2.0,1.2,2.2,10.0,-0.9,124.2,9.2,2
0.0,-8.2,-2.16,8.1,40.0,100.0,-32.9,0.1,2.4,-0.6,-6.9,0.3,68.1,6.1,1
-0.9,-1.1,-5.63,-1.2,46.5,123.73,-39.8,7.7,-1.5,1.7,5.3,0.5,112.9,7.1,2
-0.8,-4.0,-1.01,11.7,16.7,97.0,-77.7,12.2,-0.1,3.8,13.0,2.6,128.3,11.3,2
0.7,-3.7,2.44,16.3,36.8,106.67,-26.9,2.7,2.1,-1.3,-8.4,4.3,68.7,5.1,1
-1.13,-0.06,14.62,5.35,19.0,106.07,-67.93,16.24,-0.32,0.8,4.07,3.73,117.77,8.82,2
-4.9,-4.4,-17.82,-4.22,141.41,98.4,-122.43,-7.24,0.02,5.29,11.46,-3.68,190.67,16.73,4
-0.9,-0.8,-19.37,0.6,84.7,102.67,-86.8,-6.8,2.0,1.7,8.3,-0.1,117.2,16.8,3
2.3,-4.3,2.9,2.5,99.2,104.41,-85.5,-1.2,-0.1,-3.5,-11.1,-0.7,147.5,22.1,2
6.6,0.1,-3.82,10.9,18.7,86.73,28.9,8.8,1.1,-0.2,-0.9,21.4,284.3,4.8,1
-1.74,-4.53,-11.56,-10.0,177.79,100.72,-135.52,-6.53,0.43,4.69,0.91,-2.18,125.57,25.01,4
-4.9,0.2,1.09,11.7,86.8,105.51,0.3,3.7,0.9,-1.4,-7.7,8.8,166.4,5.4,1
-3.6,-4.92,-18.5,-5.82,157.75,100.62,-126.56,-8.62,0.06,7.65,9.82,-3.38,164.58,20.86,4
0.77,0.08,-6.04,1.97,84.41,100.05,-78.57,-6.11,2.98,0.03,0.27,-1.47,112.01,16.9,3
7.7,-1.2,-15.87,7.3,44.3,93.87,43.3,2.3,-1.2,-0.1,-2.1,-0.3,214.0,7.4,1
0.64,-2.88,5.75,7.96,27.19,99.09,-71.2,17.23,2.99,0.46,-1.61,2.33,124.73,12.09,3
-1.5,-3.0,-0.36,-13.0,176.2,96.77,-140.7,-1.0,0.9,-3.9,-8.8,-1.0,118.1,23.3,4
-2.6,-0.5,7.39,4.3,39.8,98.86,-45.2,3.4,0.8,0.5,8.2,2.1,68.3,6.9,1
-3.77,0.2,13.58,1.29,37.53,101.75,-63.38,-3.3,0.21,0.8,1.72,-1.19,67.45,7.0,4
2.0,1.3,-9.15,-0.1,84.9,100.0,2.2,6.4,0.4,0.5,1.2,2.1,124.0,5.6,1
-8.8,-3.0,-9.92,-4.5,114.4,105.9,-104.1,-0.5,-0.3,2.6,8.6,-0.9,204.2,11.9,4
-4.9,-3.2,49.92,4.5,34.0,114.69,-66.1,2.2,1.2,0.5,6.3,2.8,73.7,6.9,4
-0.87,-3.64,-6.75,0.17,107.71,106.54,-99.04,-2.87,0.96,2.06,3.31,-6.89,179.41,17.55,3
-2.1,-12.2,-18.34,-1.8,119.9,78.23,-137.8,-9.9,-1.9,5.7,6.3,-0.5,279.1,15.2,4
-1.07,-5.22,-11.99,2.62,175.94,99.53,-136.18,-8.43,0.39,2.59,-5.98,-2.71,126.55,25.86,4
5.5,-2.5,-13.78,1.6,46.1,92.83,27.8,3.6,-1.4,1.3,6.8,4.4,221.0,7.3,2
-1.82,-4.93,-15.1,0.5,91.09,106.87,-91.17,-4.52,1.15,5.66,12.54,-10.24,186.47,21.0,3
0.02,-3.63,-3.57,-1.07,120.36,101.68,-111.66,-1.06,0.29,1.24,-0.88,-4.14,181.67,16.23,3
-3.05,-7.01,12.1,-0.78,99.73,102.32,-131.59,-7.35,-0.28,-1.42,-10.38,10.07,319.64,14.04,3
-1.3,-2.6,23.22,7.0,37.3,105.21,-49.0,9.5,0.7,-0.2,-3.1,0.6,53.7,6.5,1
6.4,-9.0,-16.75,3.2,81.1,92.39,28.7,2.5,0.9,-1.1,-3.1,1.4,101.9,6.1,1
-6.94,-2.51,0.98,0.06,76.44,105.12,-86.2,3.08,0.68,1.72,5.66,-0.31,139.42,9.5,4
-0.1,-4.3,-15.53,-5.1,104.8,100.36,40.8,4.9,0.0,-0.1,-2.1,14.7,191.0,7.7,2
6.6,-1.8,-12.99,-6.4,78.7,93.91,34.7,6.1,0.9,-1.0,-2.0,2.0,103.0,5.5,2
-2.2,-2.0,5.15,17.4,51.3,111.76,-68.3,8.1,1.8,-4.2,-10.8,9.6,94.5,9.8,1
0.3,-1.2,4.06,10.4,51.9,100.0,-63.9,2.7,1.5,-1.8,-7.5,5.1,80.6,13.0,1
-4.6,-2.35,41.58,3.65,34.83,111.62,-65.34,0.61,0.92,0.57,5.22,1.83,72.11,6.92,4
-0.5,1.7,26.02,2.0,37.2,92.55,-53.6,-7.8,3.0,6.7,19.3,-1.8,68.8,15.7,1
5.6,10.3,-19.51,5.6,37.7,78.8,-15.5,4.0,1.4,0.4,-1.3,2.4,191.0,8.1,2
2.3,-6.4,37.84,9.6,76.7,100.0,-198.4,-18.6,1.0,-3.9,-10.6,-2.3,305.1,11.9,2
-2.7,-3.2,-19.21,5.1,119.7,124.69,-18.2,4.9,-0.8,1.3,8.0,3.1,121.8,8.2,2
2.53,-0.91,20.34,5.04,67.75,105.3,-61.88,-1.27,0.3,-4.95,-16.33,1.82,99.21,12.64,3
-0.2,-0.3,-10.28,-9.9,95.8,96.24,-92.8,-5.1,0.8,5.7,14.0,-10.1,178.1,24.1,2
0.8,-0.8,14.29,1.9,126.0,114.05,-109.9,2.8,1.5,-3.9,-10.9,2.0,161.9,10.9,2
2.0,0.2,2.7,2.2,78.3,110.5,2.8,4.0,1.0,0.3,-0.5,3.6,121.8,5.7,1
8.6,-6.0,-12.82,6.0,66.2,105.12,26.7,2.6,0.9,0.8,1.5,6.1,252.1,5.3,2
-1.2,-3.8,-10.57,1.9,119.9,78.16,-133.4,-0.7,0.2,1.1,-1.4,-1.4,267.5,14.9,2
-2.85,-4.32,-19.66,8.25,111.87,94.17,-157.31,-7.35,0.13,6.0,11.78,-0.65,334.39,14.75,4
-7.65,-3.4,-12.86,-3.9,120.21,102.24,-110.15,-2.77,-0.18,2.96,10.23,-2.09,206.71,12.58,4
0.97,0.1,-3.24,2.17,83.84,100.43,-77.28,-5.91,2.76,-0.48,-1.45,-1.24,110.67,16.6,3
-5.63,-4.58,-17.37,-2.92,128.36,95.4,-120.61,-6.46,-0.13,3.66,12.25,-3.66,215.35,13.71,4
1.9,-3.2,-3.29,-2.0,99.3,100.0,-88.9,-1.1,0.0,0.4,-4.6,-2.7,155.8,24.2,2
0.52,-2.85,-1.36,-1.36,126.07,100.29,-115.36,-0.57,0.22,-0.26,-4.42,-1.7,172.62,14.66,3
-2.42,-8.79,-18.91,2.55,116.43,85.13,-146.24,-8.8,-1.02,5.83,8.67,-0.56,303.02,15.01,4
-0.5,-3.0,2.4,4.6,98.4,103.03,-16.6,1.5,0.5,-0.3,-1.9,6.8,145.5,10.0,2
2.4,-1.8,-12.5,1.5,82.4,88.31,-1.9,5.8,0.7,0.2,0.4,3.0,129.4,4.9,1
-1.7,-6.7,27.02,-0.7,39.8,89.47,-54.3,-4.2,2.2,3.3,-2.9,0.3,61.1,15.5,1
-3.2,-1.7,5.89,5.7,39.4,98.21,-66.7,8.0,1.0,-3.1,-13.0,-0.6,91.0,14.4,1
-2.9,-7.4,7.99,-0.2,103.4,101.8,-134.3,-9.4,-0.2,-0.3,-9.8,12.2,329.5,14.7,3
0.59,-0.66,-18.59,-6.63,74.76,104.35,-54.7,-2.14,-0.03,1.9,7.35,-2.53,110.44,11.6,3
2.7,-5.2,-2.11,19.5,75.5,113.15,-59.6,5.4,5.4,-2.5,-13.7,-3.1,76.6,6.5,1
2.3,-7.2,-9.31,0.4,76.1,100.0,-67.9,1.1,4.9,-1.9,-10.9,-2.5,83.2,8.2,1
-3.4,-4.3,-0.26,7.4,55.7,96.29,-68.9,3.1,1.7,1.4,3.6,3.3,75.4,10.0,1
3.2,1.2,-12.73,-0.1,80.3,98.61,-38.4,0.1,0.6,1.7,4.5,-4.7,97.9,9.6,2
0.4,-3.6,6.93,10.9,9.8,76.91,-50.7,0.1,0.8,1.8,-6.5,7.6,117.2,13.0,1
1.5,-2.4,-9.7,1.4,135.3,100.0,-19.3,2.0,0.5,1.3,5.0,-1.4,115.1,12.2,3
1.55,-4.52,9.97,9.09,31.17,106.53,-48.58,8.12,0.3,-3.0,-11.45,2.94,104.24,9.56,3
-5.0,-2.0,12.3,4.8,37.0,104.31,-67.6,6.8,1.7,0.8,2.6,0.3,72.1,7.0,4
-7.56,-3.43,-13.08,-3.86,120.65,101.97,-110.6,-2.94,-0.17,2.98,10.35,-2.18,206.89,12.63,4
0.59,-2.4,3.21,-0.9,131.36,103.26,-114.27,-0.18,0.38,-1.9,-8.1,-2.01,174.01,13.43,3
-2.1,-5.3,-17.51,0.6,86.3,106.97,-88.9,-5.0,1.2,6.7,15.2,-11.2,188.5,22.0,3
-4.5,-10.8,-1.18,-1.7,86.2,108.73,-10.0,5.1,0.9,-1.1,-4.9,7.2,167.7,4.8,1
5.4,0.5,16.34,37.8,22.7,94.97,59.3,7.1,2.9,0.2,5.9,28.7,324.9,5.7,1
0.7,-3.1,0.87,-1.6,131.2,100.0,-118.9,0.2,0.0,-0.5,-6.0,-1.9,179.5,14.4,3
0.9,-0.4,-5.01,2.4,104.9,101.22,54.5,-0.9,0.1,0.1,-3.6,23.8,194.8,8.3,1
8.2,-0.9,-6.74,4.0,64.6,100.0,48.9,-0.4,0.6,1.1,-0.4,0.0,262.8,7.2,2
4.6,-0.6,3.7,3.4,78.7,103.87,-28.9,1.3,1.1,-0.9,-6.4,-0.8,81.1,8.9,2
1.7,0.7,-18.42,-3.2,81.3,95.34,1.3,6.4,1.1,0.1,0.2,1.0,127.1,5.0,1
-4.1,-0.91,27.54,2.21,36.23,106.46,-64.06,-2.07,0.46,0.69,3.39,0.2,69.43,6.96,4
-4.1,-0.4,13.24,2.24,37.38,102.44,-64.53,-0.57,0.61,0.8,1.96,-0.79,68.71,7.0,4
-2.3,-1.0,4.68,0.7,50.4,97.43,-69.1,2.9,2.2,0.2,-1.9,4.6,78.1,9.8,1
-0.8,-2.2,-14.22,0.5,93.4,103.54,-16.6,4.6,0.9,0.5,1.6,2.1,137.4,9.8,2
8.3,-1.7,-2.87,5.1,37.2,104.7,38.2,2.1,1.9,-0.4,-2.6,2.8,209.5,6.4,1
-1.2,-2.6,-4.91,-4.0,60.9,101.0,0.1,-3.5,1.3,0.2,-0.4,7.4,145.3,8.9,1
-2.12,-11.97,-18.38,-1.51,119.67,78.69,-138.36,-9.83,-1.84,5.71,6.46,-0.5,280.68,15.19,4
0.79,-0.12,-4.92,2.44,80.14,99.91,-77.94,-4.34,3.01,0.04,0.0,-1.22,112.92,16.55,3
0.8,0.1,-5.77,2.0,84.4,100.0,-78.4,-6.1,3.0,0.0,0.1,-1.5,111.9,16.9,3
-6.1,-1.18,2.37,-1.75,74.53,103.56,-82.66,-2.68,-0.14,1.67,4.97,-1.16,132.87,9.36,4
-5.61,-7.39,-13.93,-3.21,117.02,92.71,-120.17,-4.98,-1.06,4.08,7.5,-0.71,239.91,13.47,4
0.5,-1.8,5.22,-0.3,131.5,106.06,-110.3,-0.5,0.7,-3.1,-9.9,-2.1,169.3,12.6,3
-2.42,-8.86,-18.9,2.47,116.49,85.0,-146.08,-8.82,-1.04,5.83,8.63,-0.56,302.58,15.01,4
-0.3,-3.5,27.95,6.5,50.6,104.11,-61.2,4.1,1.7,-2.3,-9.1,2.9,76.5,6.2,1
-2.73,-11.34,-17.55,-2.05,119.38,80.83,-134.63,-9.02,-1.75,5.41,6.52,-0.54,272.06,14.89,4
-4.8,10.7,2.71,-8.6,86.9,100.0,-22.7,3.2,0.8,-1.1,-6.6,2.8,161.7,6.3,1
0.33,-1.94,4.35,1.98,38.37,119.33,-41.14,9.92,-0.04,-0.29,-0.91,1.88,107.57,7.33,2
-3.3,3.4,-11.62,-7.7,84.2,88.7,-17.8,3.9,1.0,0.2,0.8,6.6,170.2,7.8,2
1.3,-0.6,-18.21,-10.1,70.0,105.16,-39.3,0.1,-1.0,2.0,6.9,-3.7,107.2,9.1,3
0.5,-0.6,-13.33,2.5,107.0,99.24,44.8,4.3,1.0,0.8,4.5,-2.0,162.2,8.2,2
-0.1,-4.5,-20.85,-0.7,53.6,113.34,-44.0,0.1,-1.4,2.5,7.0,-2.8,112.2,8.1,3
0.8,-0.8,-23.17,-5.8,78.5,89.7,-92.2,7.7,2.5,0.8,1.8,-6.0,101.1,11.1,2
0.71,-1.15,-0.86,4.55,59.65,99.47,-75.72,4.14,3.04,0.26,-0.46,0.14,117.82,14.87,3
-1.65,-3.98,-7.54,-11.08,177.22,99.3,-137.38,-4.55,0.6,1.61,-2.58,-1.75,122.89,24.39,4
-3.2,1.9,11.12,4.3,15.2,102.33,-82.8,17.9,-1.9,3.4,13.1,3.5,129.1,9.5,2
0.4,-7.1,58.59,1.5,73.9,107.14,-171.7,-17.7,0.9,-3.8,-9.9,-15.7,284.4,10.1,2
0.09,-3.8,-0.4,0.97,125.85,100.0,-126.94,-2.28,0.09,0.34,-3.49,-0.48,217.5,14.69,3
-4.28,-1.44,32.75,2.74,35.71,108.37,-64.53,-1.08,0.63,0.64,4.07,0.81,70.42,6.95,4
9.5,0.7,-11.35,8.0,67.8,96.72,48.0,3.7,0.9,1.3,2.7,4.3,267.2,6.8,2
-2.0,2.5,13.52,13.2,36.7,100.0,-64.1,17.2,1.3,-3.3,-12.2,-0.5,80.4,10.9,1
1.11,-1.13,-18.57,-8.83,67.78,106.27,-39.94,0.1,-1.05,2.07,6.91,-3.58,107.88,8.96,3
-2.9,-3.2,-10.3,1.1,51.8,93.78,-60.6,-0.3,1.0,2.9,6.4,1.9,71.1,14.1,1
0.67,-2.89,1.56,-1.39,131.25,100.96,-117.53,0.09,0.11,-0.91,-6.62,-1.93,177.88,14.11,3
-1.46,-2.88,-18.51,0.6,85.44,104.66,-87.77,-5.97,1.63,4.01,11.49,-5.24,150.19,19.21,3
2.0,-4.7,-21.72,0.4,81.9,92.57,-3.2,3.8,0.8,0.0,-1.3,1.2,128.2,4.8,1
-2.8,6.0,-21.25,-3.6,83.2,88.09,-28.1,3.0,0.4,0.8,2.1,1.5,176.1,7.9,2
2.22,0.39,-16.98,-2.42,79.57,94.98,-60.3,3.19,1.37,1.33,3.4,-5.23,99.2,10.21,2
-0.6,-0.77,-19.21,-0.88,82.67,103.01,-80.24,-5.85,1.59,1.74,8.11,-0.6,115.82,15.74,3
-3.6,0.5,13.76,0.8,37.6,101.39,-62.8,-4.7,0.0,0.8,1.6,-1.4,66.8,7.0,4
-4.95,-2.54,29.27,4.66,35.65,108.99,-66.92,4.72,1.47,0.66,4.27,1.43,72.82,6.95,4
-1.53,-4.53,-12.52,0.4,96.22,106.77,-93.6,-4.01,1.09,4.55,9.69,-9.2,184.29,19.94,3
-6.57,-6.06,-12.72,-3.6,116.23,96.7,-115.31,-3.63,-0.83,3.63,7.84,-0.77,229.11,13.0,4
-2.0,-6.2,-4.75,9.8,107.5,100.0,-154.5,-10.8,0.4,3.2,5.1,4.4,347.8,15.7,3
2.63,-0.52,21.46,4.6,71.72,105.17,-63.32,-2.29,0.3,-5.16,-16.86,1.69,98.66,12.97,3
-7.18,-1.91,-2.55,-2.85,90.49,104.5,-91.24,-1.81,-0.21,2.04,6.42,-1.06,161.42,10.37,4
1.74,-2.64,-5.92,2.37,134.88,99.28,-15.28,1.76,0.85,0.43,0.49,-0.46,112.91,11.99,3
7.0,-2.4,-8.35,10.3,61.7,114.1,20.1,5.3,0.3,0.4,1.4,8.2,247.2,4.8,1
-1.2,-0.6,11.9,-1.2,38.7,89.75,-50.6,6.1,2.2,-2.3,-13.8,-0.3,56.7,13.5,1
5.8,3.2,-12.21,1.8,37.3,78.22,-8.3,4.1,0.6,0.7,2.6,7.0,189.1,8.2,2
-3.1,-1.7,-20.1,11.6,109.2,99.48,-163.8,-6.5,0.8,6.1,13.6,-0.7,352.8,14.6,4
-2.0,-1.75,-9.06,4.26,64.87,98.21,10.68,5.35,2.15,0.46,1.77,4.14,155.83,7.89,2
2.02,-2.92,-1.57,3.49,134.4,98.45,-10.64,1.48,1.25,-0.57,-4.71,0.62,110.4,11.75,3
-1.89,-5.51,-18.73,-8.08,178.81,103.26,-132.2,-10.07,0.13,10.2,7.13,-2.93,130.36,26.1,4
3.6,-5.5,-4.56,6.9,40.7,112.4,4.5,3.9,1.0,-0.2,-5.1,13.3,197.9,7.0,2
-5.9,-4.0,-17.3,-3.0,129.0,96.71,-119.3,-6.2,0.0,3.5,12.7,-3.9,210.5,13.6,4
-0.6,4.8,10.22,4.7,40.2,107.31,-59.0,16.7,2.3,-1.7,-5.9,2.3,80.5,10.1,1
-5.96,-6.9,-13.49,-3.36,116.73,94.17,-118.39,-4.49,-0.98,3.91,7.62,-0.73,235.96,13.3,4
-1.7,-8.6,7.91,5.6,41.6,92.0,-67.5,-6.5,0.9,3.3,-4.8,-5.4,96.8,16.9,1
-2.98,-2.92,-19.9,10.04,110.44,97.01,-160.78,-6.9,0.49,6.05,12.75,-0.68,344.24,14.67,4
-3.79,-4.69,-15.87,0.57,149.18,98.13,-126.23,-7.71,0.13,3.59,4.87,-3.51,174.99,19.07,4
-5.45,-2.24,-15.91,4.97,111.34,102.12,-139.21,-4.03,0.35,4.66,11.54,-0.78,291.6,13.49,4
1.9,-0.8,24.41,-0.2,6.1,74.62,-54.0,-2.2,0.5,5.4,10.4,-0.8,118.9,14.2,1
-3.3,-6.4,18.62,-1.7,93.9,103.14,-127.3,-4.1,-0.4,-3.2,-11.3,6.7,304.0,13.0,3
1.93,-3.12,13.99,7.52,45.34,106.05,-53.73,4.48,0.3,-3.76,-13.34,2.51,102.29,10.75,3
-1.4,2.1,-23.06,1.4,63.0,100.0,4.8,3.2,0.6,0.7,3.4,6.8,151.5,8.8,2
2.8,0.1,23.24,3.9,78.0,104.96,-65.6,-3.9,0.3,-5.5,-17.7,1.5,97.8,13.5,3
-5.6,-5.0,17.63,10.4,70.2,95.13,6.3,11.1,2.7,0.4,1.6,6.8,168.5,6.7,1
2.0,1.9,-15.75,-0.8,84.0,96.68,3.4,7.9,0.8,0.3,1.4,0.9,124.8,5.3,1
-1.0,2.6,3.79,13.9,39.3,109.86,-37.9,16.3,2.2,-2.1,-6.0,4.5,56.1,8.0,1
0.6,-2.8,5.59,7.9,27.1,98.77,-72.2,17.6,3.1,0.6,-1.2,2.3,125.6,12.2,3
2.1,-2.4,26.53,-6.2,43.1,92.23,-74.7,-20.6,-1.4,6.9,17.4,-2.4,115.2,17.7,1
2.0,3.0,2.18,14.3,9.3,105.85,-32.5,12.4,3.6,-1.4,-2.9,4.8,107.6,6.3,1
-0.76,-2.27,-10.44,-3.26,109.35,86.07,-115.63,-2.63,0.46,3.11,5.34,-5.21,228.38,18.93,2
0.5,1.7,8.2,6.2,38.6,113.36,-56.2,15.2,2.4,-1.3,-2.6,2.4,76.9,9.4,1
-8.32,-3.16,-11.14,-4.25,116.81,104.38,-106.61,-1.44,-0.25,2.75,9.28,-1.39,205.24,12.18,4
