PC_CA-avg_3y,REER-pch_3y,X_GS_share_M-pch_5y,FSL-pch,GD-pc_gdp,HPI-pch,NIIP-pc_gdp,ULC-pch_3y,ACT-pch_3y,LTU-pch_3y,YUR-pch_3y,PSCF-pc_gdp,PSD-pc_gdp,UR-avg_3y,label
-0.8,-2.2,-14.22,0.5,93.4,103.54,-16.6,4.6,0.9,0.5,1.6,2.1,137.4,9.8,2
4.9,-2.0,18.08,5.3,74.1,110.35,-24.2,3.7,3.3,-2.2,-9.0,0.9,76.3,7.9,1
-4.28,-4.5,-26.04,-16.88,177.52,108.6,-130.52,-10.03,-0.27,12.63,23.83,-3.92,132.18,23.54,4
0.5,-0.6,-13.33,2.5,107.0,99.24,44.8,4.3,1.0,0.8,4.5,-2.0,162.2,8.2,2
-0.95,-3.48,-12.21,-3.62,110.55,102.26,-107.06,-3.91,0.37,4.36,9.63,-8.34,189.54,18.56,3
0.3,-0.9,-0.15,1.1,17.1,97.38,-73.5,15.3,1.7,2.7,6.5,2.6,130.6,12.2,2
-2.6,-0.5,7.39,4.3,39.8,98.86,-45.2,3.4,0.8,0.5,8.2,2.1,68.3,6.9,1
-3.78,-8.58,-17.88,-2.33,123.92,86.39,-129.63,-8.27,-1.06,4.73,9.13,-2.0,248.8,14.49,4
0.57,-3.16,1.16,4.43,113.1,99.61,-10.78,1.53,1.03,-0.39,-3.52,4.33,129.11,10.84,3
-0.3,4.8,20.52,13.0,10.6,93.21,-46.7,14.8,0.5,-3.8,-7.4,5.6,115.4,8.7,1
-2.1,-12.2,-18.34,-1.8,119.9,78.23,-137.8,-9.9,-1.9,5.7,6.3,-0.5,279.1,15.2,4
2.33,-1.62,18.3,5.83,60.56,105.54,-59.26,0.58,0.3,-4.57,-15.37,2.04,100.2,12.03,3
-3.08,-1.91,-20.06,11.33,109.42,99.05,-163.27,-6.57,0.74,6.09,13.45,-0.7,351.3,14.61,4
-4.46,-2.74,-13.9,-3.89,129.89,95.76,-119.63,-5.31,-0.26,3.54,11.66,-3.05,207.39,14.12,4
-4.25,-4.29,-24.49,-17.32,177.3,108.06,-131.24,-9.26,-0.2,11.43,22.51,-3.75,131.14,23.3,4
-2.78,-1.38,-16.63,6.68,115.62,97.93,-151.18,-5.72,0.37,5.38,12.53,-0.96,309.19,14.72,4
2.7,-5.2,-2.11,19.5,75.5,113.15,-59.6,5.4,5.4,-2.5,-13.7,-3.1,76.6,6.5,1
-1.2,-0.6,11.9,-1.2,38.7,89.75,-50.6,6.1,2.2,-2.3,-13.8,-0.3,56.7,13.5,1
1.45,-4.59,9.21,9.22,29.17,106.12,-49.36,9.14,0.47,-2.69,-10.6,2.96,105.77,9.57,3
1.46,0.03,4.33,2.99,82.15,101.33,-74.42,-5.77,2.27,-2.92,-11.96,-0.64,106.73,16.04,3
7.6,-2.3,-2.96,6.7,61.9,104.39,61.4,-0.3,0.3,0.0,-2.4,3.9,259.3,6.8,2
-2.33,-1.62,5.2,-7.57,121.65,98.59,-110.04,-2.46,0.55,-2.05,-4.71,-1.16,97.91,16.88,4
-0.73,-1.98,-8.9,5.24,96.01,101.44,-14.67,3.43,1.08,0.39,0.92,4.39,142.29,10.17,3
-4.13,-1.35,-8.67,-5.12,126.08,97.82,-115.16,-2.77,-0.57,3.29,9.49,-1.38,202.76,14.03,4
-6.25,-3.88,-16.4,-3.18,127.23,97.83,-117.45,-5.51,-0.04,3.39,12.2,-3.54,209.73,13.39,4
-2.01,-2.01,-9.35,-4.96,130.0,92.19,-122.34,-4.54,-0.85,3.86,9.46,-1.47,211.48,15.02,4
-0.8,-1.3,-14.53,5.6,94.9,101.8,-15.6,4.4,1.3,0.5,1.6,3.2,141.5,10.1,3
9.5,0.7,-11.35,8.0,67.8,96.72,48.0,3.7,0.9,1.3,2.7,4.3,267.2,6.8,2
-1.61,-2.48,-2.04,-11.35,166.49,96.2,-136.26,-1.61,0.55,-2.27,-4.75,-1.13,136.31,21.5,4
-4.8,10.7,2.71,-8.6,86.9,100.0,-22.7,3.2,0.8,-1.1,-6.6,2.8,161.7,6.3,1
2.6,-2.6,9.87,3.4,98.6,109.14,-85.5,-0.5,-0.3,-5.2,-14.6,0.7,139.7,19.6,2
5.4,0.5,16.34,37.8,22.7,94.97,59.3,7.1,2.9,0.2,5.9,28.7,324.9,5.7,1
-0.5,-3.0,2.4,4.6,98.4,103.03,-16.6,1.5,0.5,-0.3,-1.9,6.8,145.5,10.0,2
2.3,-3.3,20.41,7.1,25.3,112.26,-43.3,13.5,2.3,-3.5,-10.9,4.1,99.0,7.7,2
-2.1,-5.3,-17.51,0.6,86.3,106.97,-88.9,-5.0,1.2,6.7,15.2,-11.2,188.5,22.0,3
-2.0,2.5,13.52,13.2,36.7,100.0,-64.1,17.2,1.3,-3.3,-12.2,-0.5,80.4,10.9,1
-3.63,0.45,13.73,0.89,37.59,101.45,-62.9,-4.45,0.04,0.8,1.62,-1.36,66.91,7.0,4
-3.93,-0.08,13.42,1.73,37.46,102.07,-63.92,-2.02,0.4,0.8,1.83,-1.0,68.03,7.0,4
-1.4,2.1,-23.06,1.4,63.0,100.0,4.8,3.2,0.6,0.7,3.4,6.8,151.5,8.8,2
-3.2,1.9,11.12,4.3,15.2,102.33,-82.8,17.9,-1.9,3.4,13.1,3.5,129.1,9.5,2
7.4,-1.5,-3.18,2.6,72.1,100.0,46.6,5.9,0.4,-0.4,-0.8,2.9,97.8,4.9,2
-3.6,0.5,13.76,0.8,37.6,101.39,-62.8,-4.7,0.0,0.8,1.6,-1.4,66.8,7.0,4
1.3,-0.6,-18.21,-10.1,70.0,105.16,-39.3,0.1,-1.0,2.0,6.9,-3.7,107.2,9.1,3
-2.5,-7.69,11.06,8.63,66.26,96.17,18.49,8.27,4.3,0.09,-0.93,0.55,164.08,6.55,2
-3.31,-3.85,-16.23,-15.84,176.92,104.19,-134.48,-6.44,0.18,6.19,11.79,-2.81,126.68,23.3,4
-0.6,4.8,10.22,4.7,40.2,107.31,-59.0,16.7,2.3,-1.7,-5.9,2.3,80.5,10.1,1
-3.2,-1.7,5.89,5.7,39.4,98.21,-66.7,8.0,1.0,-3.1,-13.0,-0.6,91.0,14.4,1
-3.1,-1.7,-20.1,11.6,109.2,99.48,-163.8,-6.5,0.8,6.1,13.6,-0.7,352.8,14.6,4
3.2,1.2,-12.73,-0.1,80.3,98.61,-38.4,0.1,0.6,1.7,4.5,-4.7,97.9,9.6,2
2.0,1.3,-9.15,-0.1,84.9,100.0,2.2,6.4,0.4,0.5,1.2,2.1,124.0,5.6,1
-3.43,-2.45,6.61,-3.2,99.53,100.92,-100.44,3.3,1.34,-1.31,-2.52,-0.28,92.76,14.32,4
-0.87,-0.78,-19.1,0.63,84.69,102.62,-86.63,-6.79,2.02,1.67,8.13,-0.13,117.09,16.8,3
0.8,-0.8,-23.17,-5.8,78.5,89.7,-92.2,7.7,2.5,0.8,1.8,-6.0,101.1,11.1,2
1.04,-3.14,1.17,4.37,119.14,99.12,-9.9,1.47,1.17,-0.62,-4.81,3.45,123.26,11.06,3
-1.0,2.6,3.79,13.9,39.3,109.86,-37.9,16.3,2.2,-2.1,-6.0,4.5,56.1,8.0,1
-0.4,-0.2,-12.95,1.2,105.5,100.51,43.2,7.4,-0.2,-0.1,1.3,7.9,163.0,7.7,2
-2.12,-11.99,-18.38,-1.53,119.69,78.65,-138.32,-9.83,-1.85,5.71,6.45,-0.5,280.57,15.19,4
-2.2,-2.0,5.15,17.4,51.3,111.76,-68.3,8.1,1.8,-4.2,-10.8,9.6,94.5,9.8,1
2.0,-4.7,-21.72,0.4,81.9,92.57,-3.2,3.8,0.8,0.0,-1.3,1.2,128.2,4.8,1
-1.4,0.4,-15.78,3.9,62.6,100.14,5.2,0.4,0.7,0.6,0.2,1.5,148.0,9.0,1
1.09,-0.67,-17.83,-8.5,72.54,104.82,-36.88,0.54,-0.77,1.85,6.36,-3.0,110.7,9.2,3
-5.9,-4.0,-17.3,-3.0,129.0,96.71,-119.3,-6.2,0.0,3.5,12.7,-3.9,210.5,13.6,4
-2.62,-2.68,3.69,-7.3,131.66,99.18,-117.31,1.5,1.16,-2.4,-5.15,-0.58,103.38,18.08,4
-0.6,-10.0,-6.24,5.2,42.2,96.3,-36.6,4.0,3.0,0.0,-2.2,1.7,71.5,6.7,1
-2.79,-7.12,4.54,-0.09,101.09,102.5,-128.16,-8.81,-0.01,0.65,-6.42,9.04,310.43,15.69,3
0.35,-2.34,-3.92,-5.05,132.2,98.78,-121.77,-1.61,-0.23,1.08,0.15,-4.12,185.94,14.99,3
1.08,-4.42,12.04,9.44,27.0,101.99,-57.6,12.72,1.63,-1.71,-7.92,-1.53,107.85,10.66,3
-4.5,-10.8,-1.18,-1.7,86.2,108.73,-10.0,5.1,0.9,-1.1,-4.9,7.2,167.7,4.8,1
1.9,-0.8,24.41,-0.2,6.1,74.62,-54.0,-2.2,0.5,5.4,10.4,-0.8,118.9,14.2,1
1.8,0.0,9.47,3.5,81.0,102.01,-72.4,-5.6,1.9,-4.4,-18.1,-0.2,104.1,15.6,3
0.2,-6.3,71.33,4.3,67.8,117.65,-167.2,-15.4,0.9,-3.6,-9.0,0.2,250.5,8.4,2
4.6,-0.6,3.7,3.4,78.7,103.87,-28.9,1.3,1.1,-0.9,-6.4,-0.8,81.1,8.9,2
2.3,-6.4,37.84,9.6,76.7,100.0,-198.4,-18.6,1.0,-3.9,-10.6,-2.3,305.1,11.9,2
-0.3,-3.6,-14.64,19.5,104.4,90.26,-164.7,-3.7,0.6,-2.2,-6.2,2.6,278.4,13.7,2
-3.7,0.43,13.31,0.7,39.07,101.48,-63.59,-4.62,-0.01,0.83,1.73,-1.39,69.44,7.09,4
6.4,-9.0,-16.75,3.2,81.1,92.39,28.7,2.5,0.9,-1.1,-3.1,1.4,101.9,6.1,1
-2.7,-3.2,-19.21,5.1,119.7,124.69,-18.2,4.9,-0.8,1.3,8.0,3.1,121.8,8.2,2
2.0,0.2,2.7,2.2,78.3,110.5,2.8,4.0,1.0,0.3,-0.5,3.6,121.8,5.7,1
-2.2,-1.0,20.12,1.2,39.2,98.2,-57.3,6.7,1.6,-0.1,0.1,-2.3,62.1,6.9,2
0.5,1.7,8.2,6.2,38.6,113.36,-56.2,15.2,2.4,-1.3,-2.6,2.4,76.9,9.4,1
-8.8,-3.0,-9.92,-4.5,114.4,105.9,-104.1,-0.5,-0.3,2.6,8.6,-0.9,204.2,11.9,4
-4.5,-4.4,-26.64,-17.7,177.4,109.06,-130.4,-10.0,-0.3,12.8,25.3,-4.0,132.3,23.3,4
5.1,-3.7,-9.63,12.6,45.2,89.38,-2.3,7.5,1.6,-0.1,0.1,4.6,193.3,8.0,2
5.6,10.3,-19.51,5.6,37.7,78.8,-15.5,4.0,1.4,0.4,-1.3,2.4,191.0,8.1,2
2.3,0.9,-2.83,-2.8,82.9,107.03,4.1,5.4,0.7,0.6,1.5,3.4,123.5,5.8,1
-4.5,-1.11,12.82,3.38,37.21,103.27,-65.89,2.71,1.09,0.8,2.24,-0.31,70.21,7.0,4
-5.33,-3.5,-15.95,-3.35,129.35,96.33,-119.43,-5.85,-0.1,3.51,12.29,-3.56,209.27,13.81,4
-0.77,-4.26,-8.81,-0.44,107.57,103.67,-103.11,-2.54,0.63,3.29,5.16,-6.8,184.24,18.4,3
-6.19,-2.08,-9.22,-4.85,120.92,101.39,-110.27,-1.77,-0.45,2.98,9.1,-1.17,203.39,13.09,4
-2.72,-6.93,2.32,-0.02,99.6,102.95,-124.21,-8.42,0.11,1.26,-4.24,7.0,298.15,16.32,3
-2.31,-11.74,-18.28,-1.87,120.41,79.26,-136.77,-9.69,-1.79,5.58,6.66,-0.69,275.28,15.11,4
-4.94,-1.89,12.36,4.62,37.03,104.18,-67.39,6.29,1.63,0.8,2.56,0.23,71.87,7.0,4
6.9,-2.5,-17.81,1.8,44.0,91.0,37.2,1.5,-1.3,0.3,-0.7,-3.0,216.1,7.7,1
4.1,-9.2,-7.55,9.1,42.3,107.27,0.1,2.8,1.0,-0.1,-4.7,8.1,192.0,7.4,2
0.4,-3.6,6.93,10.9,9.8,76.91,-50.7,0.1,0.8,1.8,-6.5,7.6,117.2,13.0,1
-2.61,-6.85,-19.24,5.03,114.45,89.06,-151.05,-8.17,-0.52,5.9,10.02,-0.6,316.66,14.89,4
2.2,-3.1,1.19,4.2,134.1,97.93,-7.7,1.3,1.5,-1.2,-8.0,1.3,108.8,11.6,3
8.3,-1.7,-8.55,-0.9,39.8,100.0,33.4,2.2,-0.1,-0.4,-3.6,2.9,211.4,6.9,1
0.63,-0.82,-17.04,-5.1,77.92,104.09,-31.76,1.47,-0.27,1.52,5.21,-1.5,118.11,9.42,3
-2.1,-6.2,-25.74,7.2,126.5,118.48,-23.0,2.0,1.2,2.2,10.0,-0.9,124.2,9.2,2
0.4,-7.1,58.59,1.5,73.9,107.14,-171.7,-17.7,0.9,-3.8,-9.9,-15.7,284.4,10.1,2
0.1,-1.8,-7.32,-7.5,132.9,97.92,-123.8,-2.9,-0.4,2.2,4.5,-5.7,190.5,15.4,3
5.5,-2.5,-13.78,1.6,46.1,92.83,27.8,3.6,-1.4,1.3,6.8,4.4,221.0,7.3,2
-3.4,-4.3,-0.26,7.4,55.7,96.29,-68.9,3.1,1.7,1.4,3.6,3.3,75.4,10.0,1
6.6,0.1,-3.82,10.9,18.7,86.73,28.9,8.8,1.1,-0.2,-0.9,21.4,284.3,4.8,1
0.84,-0.64,-18.45,-7.87,73.07,104.64,-49.22,-1.34,-0.37,1.94,7.19,-2.95,109.29,10.71,3
6.5,-7.8,-17.73,2.5,44.9,88.3,36.1,-0.2,-1.6,1.5,2.3,7.9,224.0,7.8,2
-4.84,-1.71,12.47,4.34,37.07,103.97,-67.04,5.46,1.5,0.8,2.48,0.1,71.48,7.0,4
-1.05,-3.63,-12.64,-3.27,108.58,102.64,-105.59,-4.0,0.43,4.55,10.08,-8.57,189.46,18.84,3
-4.9,0.2,1.09,11.7,86.8,105.51,0.3,3.7,0.9,-1.4,-7.7,8.8,166.4,5.4,1
3.1,0.0,10.82,-7.7,72.9,123.65,-54.9,9.1,4.2,-2.0,-9.7,0.7,70.0,5.4,1
7.0,-0.4,-9.53,4.6,75.7,95.98,40.8,7.4,0.4,-0.6,-0.8,-0.3,98.4,5.2,2
-1.8,0.2,-32.46,-11.6,56.2,101.77,3.0,9.3,0.7,-0.3,-1.5,2.8,147.0,7.9,2
-0.3,-3.5,27.95,6.5,50.6,104.11,-61.2,4.1,1.7,-2.3,-9.1,2.9,76.5,6.2,1
0.6,-2.8,5.59,7.9,27.1,98.77,-72.2,17.6,3.1,0.6,-1.2,2.3,125.6,12.2,3
1.2,1.7,19.36,16.7,40.6,95.51,-46.8,8.7,2.3,-3.2,-13.3,0.2,54.2,12.0,1
6.1,-2.4,-5.55,15.1,22.0,88.53,58.4,5.9,0.7,0.4,1.5,25.9,303.7,4.8,1
2.04,-0.75,9.88,2.57,63.83,101.74,-39.59,3.33,1.29,-0.6,-3.95,-1.36,73.95,8.15,2
-3.71,-1.2,-8.56,-5.17,127.14,97.08,-116.16,-2.97,-0.6,3.35,9.57,-1.42,202.63,14.22,4
-1.14,-1.7,-19.0,0.6,85.02,103.53,-87.22,-6.44,1.84,2.7,9.67,-2.31,131.4,17.84,3
-1.5,-3.0,-0.36,-13.0,176.2,96.77,-140.7,-1.0,0.9,-3.9,-8.8,-1.0,118.1,23.3,4
-1.2,-3.8,-10.57,1.9,119.9,78.16,-133.4,-0.7,0.2,1.1,-1.4,-1.4,267.5,14.9,2
0.8,-0.8,14.29,1.9,126.0,114.05,-109.9,2.8,1.5,-3.9,-10.9,2.0,161.9,10.9,2
-2.0,-0.6,-8.1,-5.4,131.4,94.13,-120.2,-3.8,-0.7,3.6,9.9,-1.6,202.1,15.0,4
0.38,-0.91,-16.6,-3.21,80.92,103.69,-28.91,1.99,0.01,1.34,4.58,-0.67,122.24,9.54,3
1.16,-0.79,-16.77,-9.01,72.08,104.84,-37.34,0.22,-0.87,1.87,6.36,-2.94,109.92,9.19,3
-0.6,-3.2,1.14,4.6,98.0,100.81,-13.0,1.7,0.7,0.2,-0.3,6.5,143.7,10.3,3
-2.92,-3.62,-19.78,9.15,111.16,95.59,-159.04,-7.12,0.31,6.03,12.26,-0.66,339.3,14.71,4
-1.53,-3.2,-1.86,-12.6,176.41,97.3,-140.01,-1.74,0.84,-2.75,-7.5,-1.16,119.1,23.53,4
0.31,-3.4,-1.67,-1.3,125.0,100.96,-114.75,-0.52,0.17,0.49,-3.07,-3.19,180.74,15.45,3
-0.8,-1.2,-0.62,0.0,68.4,94.14,26.9,9.8,5.9,-0.3,-0.5,2.3,153.0,6.2,1
-3.42,-2.75,-18.61,-12.37,157.47,102.59,-125.98,-7.31,-0.47,8.81,18.63,-2.96,162.54,19.7,4
7.0,-2.4,-8.35,10.3,61.7,114.1,20.1,5.3,0.3,0.4,1.4,8.2,247.2,4.8,1
1.13,-4.45,11.73,9.42,27.27,102.53,-56.47,12.24,1.47,-1.85,-8.3,-1.01,107.46,10.51,3
7.7,-1.2,-15.87,7.3,44.3,93.87,43.3,2.3,-1.2,-0.1,-2.1,-0.3,214.0,7.4,1
-0.1,-4.3,-15.53,-5.1,104.8,100.36,40.8,4.9,0.0,-0.1,-2.1,14.7,191.0,7.7,2
-2.9,-7.4,7.99,-0.2,103.4,101.8,-134.3,-9.4,-0.2,-0.3,-9.8,12.2,329.5,14.7,3
1.5,-4.7,9.44,9.3,29.3,106.59,-47.9,8.6,0.3,-2.9,-11.2,3.0,104.5,9.4,3
0.0,-8.2,-2.16,8.1,40.0,100.0,-32.9,0.1,2.4,-0.6,-6.9,0.3,68.1,6.1,1
0.48,-1.72,-9.85,-3.75,82.09,103.28,-27.94,0.79,-0.27,1.22,3.79,0.71,122.97,9.62,3
-2.05,-6.97,-13.72,-3.42,125.09,85.4,-129.86,-7.15,-1.36,4.75,7.92,-1.0,244.36,15.11,4
6.6,-1.8,-12.99,-6.4,78.7,93.91,34.7,6.1,0.9,-1.0,-2.0,2.0,103.0,5.5,2
-4.3,3.4,-2.78,0.6,43.5,99.72,-63.9,5.4,-0.1,2.6,14.4,2.9,69.5,13.4,1
-2.64,-6.72,-0.28,0.06,97.86,103.48,-119.58,-7.97,0.25,1.97,-1.7,4.62,283.8,17.07,3
-2.31,-0.91,-11.5,-0.58,125.1,95.65,-132.57,-4.57,-0.27,4.31,10.95,-1.34,244.85,14.89,4
5.1,-1.5,33.28,5.2,20.1,105.69,54.6,1.2,0.1,0.4,2.2,-9.6,309.0,6.3,1
-1.3,-2.6,23.22,7.0,37.3,105.21,-49.0,9.5,0.7,-0.2,-3.1,0.6,53.7,6.5,1
-2.45,-6.56,5.7,-1.29,107.82,101.22,-132.73,-8.43,-0.23,0.07,-7.66,9.52,308.7,14.8,3
-5.0,-2.0,12.3,4.8,37.0,104.31,-67.6,6.8,1.7,0.8,2.6,0.3,72.1,7.0,4
0.58,-2.84,-0.74,-2.76,131.53,99.59,-119.86,-0.41,-0.08,0.03,-3.94,-2.65,181.66,14.6,3
-0.19,-0.42,-13.69,1.19,84.57,101.55,-83.29,-6.51,2.42,0.99,4.87,-0.69,114.98,16.84,3
8.3,-1.7,-2.87,5.1,37.2,104.7,38.2,2.1,1.9,-0.4,-2.6,2.8,209.5,6.4,1
2.3,-4.3,2.9,2.5,99.2,104.41,-85.5,-1.2,-0.1,-3.5,-11.1,-0.7,147.5,22.1,2
2.22,0.39,-16.98,-2.42,79.57,94.98,-60.3,3.19,1.37,1.33,3.4,-5.23,99.2,10.21,2
-5.79,-4.23,-17.33,-2.97,128.74,96.19,-119.82,-6.3,-0.05,3.56,12.52,-3.8,212.42,13.64,4
-1.7,-6.7,27.02,-0.7,39.8,89.47,-54.3,-4.2,2.2,3.3,-2.9,0.3,61.1,15.5,1
-1.94,-0.89,-7.17,-6.31,136.75,94.45,-122.65,-3.47,-0.51,2.7,7.66,-1.53,192.06,15.99,4
-1.29,-2.25,-18.77,0.6,85.21,104.05,-87.47,-6.22,1.74,3.31,10.52,-3.66,140.1,18.47,3
-2.45,-1.05,-13.06,1.63,122.22,96.34,-138.23,-4.92,-0.08,4.63,11.43,-1.23,264.41,14.83,4
-0.2,-0.3,-10.28,-9.9,95.8,96.24,-92.8,-5.1,0.8,5.7,14.0,-10.1,178.1,24.1,2
0.81,0.09,-5.91,1.86,84.23,100.06,-77.95,-6.03,2.95,0.02,0.18,-1.53,111.85,16.81,3
-1.95,-3.06,-13.64,-6.63,154.72,98.73,-125.95,-7.04,-0.31,7.09,8.82,-2.29,167.09,20.5,4
0.65,-3.04,6.79,8.15,26.93,98.97,-70.55,17.11,2.96,0.31,-2.04,1.38,123.01,12.04,3
0.3,-1.2,4.06,10.4,51.9,100.0,-63.9,2.7,1.5,-1.8,-7.5,5.1,80.6,13.0,1
-0.7,2.1,-4.08,1.4,54.7,93.4,-62.2,2.6,1.2,0.8,-0.2,5.0,75.2,14.0,1
1.7,0.7,-18.42,-3.2,81.3,95.34,1.3,6.4,1.1,0.1,0.2,1.0,127.1,5.0,1
2.0,3.0,2.18,14.3,9.3,105.85,-32.5,12.4,3.6,-1.4,-2.9,4.8,107.6,6.3,1
-0.41,-1.91,20.24,3.54,33.68,103.79,-51.74,9.4,1.88,-1.45,-4.27,0.24,76.76,7.22,2
0.62,-2.48,4.34,7.25,33.42,98.91,-72.88,14.98,3.09,0.53,-1.06,1.88,124.09,12.72,3
-5.8,-0.98,3.72,-1.45,70.15,103.3,-80.31,-2.92,-0.13,1.56,4.57,-1.19,125.04,9.08,4
5.9,-4.9,-9.35,3.1,79.8,90.51,23.3,5.6,1.4,-1.1,-1.9,2.0,102.4,6.8,1
-2.8,6.0,-21.25,-3.6,83.2,88.09,-28.1,3.0,0.4,0.8,2.1,1.5,176.1,7.9,2
-1.9,-5.6,-19.39,-7.9,178.9,103.49,-131.9,-10.4,0.1,10.7,7.7,-3.0,130.8,26.2,4
-2.97,-3.08,-19.87,9.83,110.61,96.68,-160.37,-6.95,0.44,6.05,12.64,-0.67,343.09,14.68,4
8.6,-6.0,-12.82,6.0,66.2,105.12,26.7,2.6,0.9,0.8,1.5,6.1,252.1,5.3,2
-3.7,-1.2,-8.55,-5.18,127.15,97.07,-116.18,-2.98,-0.6,3.35,9.58,-1.43,202.62,14.23,4
-2.61,-1.53,-12.62,-8.4,142.62,97.77,-122.69,-5.31,-0.6,5.84,13.66,-2.19,185.08,17.02,4
-5.77,-3.88,-16.98,-3.08,129.08,96.62,-119.33,-6.12,-0.02,3.5,12.6,-3.82,210.21,13.65,4
-2.3,-1.0,4.68,0.7,50.4,97.43,-69.1,2.9,2.2,0.2,-1.9,4.6,78.1,9.8,1
-1.3,-1.4,9.18,2.4,51.3,100.0,-62.1,0.2,1.6,-1.1,-5.7,3.5,78.9,8.9,1
1.82,-3.5,12.88,7.95,41.44,106.18,-52.31,5.48,0.3,-3.55,-12.82,2.63,102.83,10.42,3
-2.9,-7.6,12.18,8.6,67.7,95.5,19.6,8.6,4.5,0.1,-0.7,0.1,162.4,6.5,2
2.8,0.1,23.24,3.9,78.0,104.96,-65.6,-3.9,0.3,-5.5,-17.7,1.5,97.8,13.5,3
0.7,-3.7,2.44,16.3,36.8,106.67,-26.9,2.7,2.1,-1.3,-8.4,4.3,68.7,5.1,1
-0.9,-0.8,-19.37,0.6,84.7,102.67,-86.8,-6.8,2.0,1.7,8.3,-0.1,117.2,16.8,3
-2.9,-3.2,-10.3,1.1,51.8,93.78,-60.6,-0.3,1.0,2.9,6.4,1.9,71.1,14.1,1
0.9,-4.3,13.16,9.5,26.0,100.0,-61.8,14.5,2.2,-1.2,-6.5,-3.5,109.3,11.2,3
0.7,-3.1,0.87,-1.6,131.2,100.0,-118.9,0.2,0.0,-0.5,-6.0,-1.9,179.5,14.4,3
2.3,-7.2,-9.31,0.4,76.1,100.0,-67.9,1.1,4.9,-1.9,-10.9,-2.5,83.2,8.2,1
-2.19,4.29,-22.04,-1.41,74.36,93.3,-13.7,3.09,0.49,0.76,2.67,3.82,165.34,8.29,2
0.8,0.1,-5.77,2.0,84.4,100.0,-78.4,-6.1,3.0,0.0,0.1,-1.5,111.9,16.9,3
-3.68,-2.06,-12.06,-4.37,130.37,95.24,-119.81,-4.83,-0.4,3.56,11.11,-2.59,205.72,14.4,4
