PC_CA-avg_3y,REER-pch_3y,X_GS_share_M-pch_5y,FSL-pch,GD-pc_gdp,HPI-pch,NIIP-pc_gdp,ULC-pch_3y,ACT-pch_3y,LTU-pch_3y,YUR-pch_3y,PSCF-pc_gdp,PSD-pc_gdp,UR-avg_3y,label
-1.7,-8.6,7.91,5.6,41.6,92.0,-67.5,-6.5,0.9,3.3,-4.8,-5.4,96.8,16.9,1
-2.12,-12.16,-18.34,-1.81,119.94,78.32,-137.71,-9.88,-1.89,5.69,6.33,-0.52,278.78,15.19,4
-0.1,3.1,9.93,10.3,10.2,82.54,-49.7,11.2,1.2,-3.8,-14.2,4.8,115.2,10.3,1
2.3,-3.3,20.41,7.1,25.3,112.26,-43.3,13.5,2.3,-3.5,-10.9,4.1,99.0,7.7,2
-4.1,-4.72,-18.24,-5.2,151.41,99.76,-124.96,-8.09,0.04,6.73,10.45,-3.5,174.7,19.26,4
-2.87,-4.12,-19.69,8.51,111.67,94.58,-157.81,-7.28,0.18,6.01,11.92,-0.65,335.81,14.74,4
5.1,-1.5,33.28,5.2,20.1,105.69,54.6,1.2,0.1,0.4,2.2,-9.6,309.0,6.3,1
0.04,-1.93,-7.24,-6.98,132.13,97.98,-124.73,-3.14,-0.38,2.23,4.52,-5.4,195.25,15.41,3
2.9,-2.8,9.08,3.6,57.8,100.0,37.4,-1.4,4.9,-0.6,-2.2,8.8,134.8,5.7,1
-1.94,-3.43,-14.48,-6.81,158.25,99.42,-126.81,-7.53,-0.25,7.61,8.66,-2.39,161.8,21.33,4
-0.6,-10.0,-6.24,5.2,42.2,96.3,-36.6,4.0,3.0,0.0,-2.2,1.7,71.5,6.7,1
-1.05,-3.77,-11.25,4.85,117.31,80.19,-138.64,-1.2,0.27,0.55,-2.2,-0.73,269.32,14.7,2
-1.91,-5.21,-18.5,-7.7,175.15,102.75,-130.98,-9.88,0.04,10.14,7.87,-2.89,136.42,25.32,4
-0.66,-3.02,-10.86,-4.69,116.72,101.06,-111.68,-3.63,0.16,3.76,8.22,-7.61,189.81,17.69,3
-4.5,-4.4,-26.64,-17.7,177.4,109.06,-130.4,-10.0,-0.3,12.8,25.3,-4.0,132.3,23.3,4
-2.0,-0.6,-8.1,-5.4,131.4,94.13,-120.2,-3.8,-0.7,3.6,9.9,-1.6,202.1,15.0,4
-2.1,-12.2,-18.34,-1.8,119.9,78.23,-137.8,-9.9,-1.9,5.7,6.3,-0.5,279.1,15.2,4
1.09,-0.31,-13.01,-5.04,76.02,103.0,-55.64,-2.49,0.67,1.16,4.06,-2.78,109.16,12.36,3
0.3,-0.9,-0.15,1.1,17.1,97.38,-73.5,15.3,1.7,2.7,6.5,2.6,130.6,12.2,2
2.6,-2.6,9.87,3.4,98.6,109.14,-85.5,-0.5,-0.3,-5.2,-14.6,0.7,139.7,19.6,2
-0.8,-1.34,-14.21,5.58,94.96,101.78,-15.55,4.34,1.29,0.49,1.56,3.27,141.54,10.1,3
-0.95,-0.98,-19.29,0.6,84.77,102.85,-86.89,-6.73,1.97,1.91,8.58,-0.56,120.13,17.01,3
-1.2,-0.6,11.9,-1.2,38.7,89.75,-50.6,6.1,2.2,-2.3,-13.8,-0.3,56.7,13.5,1
0.64,-3.16,1.16,4.42,113.95,99.54,-10.66,1.52,1.05,-0.42,-3.7,4.2,128.28,10.87,3
4.9,-2.0,18.08,5.3,74.1,110.35,-24.2,3.7,3.3,-2.2,-9.0,0.9,76.3,7.9,1
-0.81,-3.33,-16.69,6.0,83.73,107.04,-6.49,5.04,0.35,1.03,3.57,6.47,137.96,9.13,2
-5.45,-3.6,-16.23,-3.28,129.28,96.41,-119.4,-5.92,-0.08,3.51,12.37,-3.63,209.52,13.76,4
-4.21,-2.61,-18.99,5.83,117.02,98.39,-146.23,-6.38,0.48,5.07,13.24,-1.96,296.61,14.21,4
7.0,-0.4,-9.53,4.6,75.7,95.98,40.8,7.4,0.4,-0.6,-0.8,-0.3,98.4,5.2,2
-2.9,-7.4,7.99,-0.2,103.4,101.8,-134.3,-9.4,-0.2,-0.3,-9.8,12.2,329.5,14.7,3
0.8,-0.8,-23.17,-5.8,78.5,89.7,-92.2,7.7,2.5,0.8,1.8,-6.0,101.1,11.1,2
-1.4,2.1,-23.06,1.4,63.0,100.0,4.8,3.2,0.6,0.7,3.4,6.8,151.5,8.8,2
2.0,1.3,-9.15,-0.1,84.9,100.0,2.2,6.4,0.4,0.5,1.2,2.1,124.0,5.6,1
-1.1,-4.0,-9.78,-10.4,178.5,98.35,-137.6,-3.3,0.7,-1.5,-11.0,-2.1,125.1,25.0,4
8.6,-6.0,-12.82,6.0,66.2,105.12,26.7,2.6,0.9,0.8,1.5,6.1,252.1,5.3,2
-2.38,-9.22,-18.84,2.0,116.86,84.26,-145.18,-8.93,-1.13,5.81,8.37,-0.56,300.03,15.03,4
0.44,-2.99,-19.83,-4.35,59.96,110.17,-42.18,0.1,-1.24,2.31,6.96,-3.15,110.26,8.49,3
-2.2,-2.0,5.15,17.4,51.3,111.76,-68.3,8.1,1.8,-4.2,-10.8,9.6,94.5,9.8,1
-0.05,-1.05,-15.85,-0.04,85.95,103.01,-24.12,2.85,0.47,1.04,3.51,0.72,129.17,9.74,3
-3.43,-3.11,28.23,-3.05,95.35,106.96,-98.28,0.82,1.07,-1.4,-0.21,1.16,92.85,13.98,4
2.16,-3.1,1.19,4.21,133.61,97.97,-7.77,1.31,1.49,-1.18,-7.9,1.37,109.27,11.58,3
0.2,-6.3,71.33,4.3,67.8,117.65,-167.2,-15.4,0.9,-3.6,-9.0,0.2,250.5,8.4,2
-1.9,-5.6,-19.39,-7.9,178.9,103.49,-131.9,-10.4,0.1,10.7,7.7,-3.0,130.8,26.2,4
1.15,-4.47,11.62,9.42,27.37,102.73,-56.04,12.05,1.41,-1.9,-8.45,-0.8,107.31,10.45,3
-0.7,-3.08,-11.04,-4.54,115.89,101.22,-111.06,-3.67,0.18,3.84,8.4,-7.71,189.77,17.81,3
6.1,-2.4,-5.55,15.1,22.0,88.53,58.4,5.9,0.7,0.4,1.5,25.9,303.7,4.8,1
-2.9,-7.6,12.18,8.6,67.7,95.5,19.6,8.6,4.5,0.1,-0.7,0.1,162.4,6.5,2
-2.6,-0.5,7.39,4.3,39.8,98.86,-45.2,3.4,0.8,0.5,8.2,2.1,68.3,6.9,1
-0.8,-2.2,-14.22,0.5,93.4,103.54,-16.6,4.6,0.9,0.5,1.6,2.1,137.4,9.8,2
-2.69,-6.04,-19.37,6.06,113.62,90.69,-153.05,-7.91,-0.32,5.93,10.58,-0.62,322.33,14.85,4
-0.4,-0.2,-12.95,1.2,105.5,100.51,43.2,7.4,-0.2,-0.1,1.3,7.9,163.0,7.7,2
-3.2,-4.25,22.07,4.85,95.85,108.29,-96.31,-2.99,0.81,1.89,1.16,0.27,97.37,15.36,4
2.2,-3.1,1.19,4.2,134.1,97.93,-7.7,1.3,1.5,-1.2,-8.0,1.3,108.8,11.6,3
-0.5,1.7,26.02,2.0,37.2,92.55,-53.6,-7.8,3.0,6.7,19.3,-1.8,68.8,15.7,1
2.31,0.1,16.15,3.44,79.56,103.75,-68.73,-4.44,0.96,-4.16,-13.35,0.77,101.25,14.33,3
5.4,0.5,16.34,37.8,22.7,94.97,59.3,7.1,2.9,0.2,5.9,28.7,324.9,5.7,1
0.0,-8.2,-2.16,8.1,40.0,100.0,-32.9,0.1,2.4,-0.6,-6.9,0.3,68.1,6.1,1
-0.6,-3.2,1.14,4.6,98.0,100.81,-13.0,1.7,0.7,0.2,-0.3,6.5,143.7,10.3,3
5.0,-1.0,21.39,0.4,22.3,109.55,51.8,4.0,-0.6,0.5,-6.8,27.4,322.9,6.1,1
-3.4,-4.3,-0.26,7.4,55.7,96.29,-68.9,3.1,1.7,1.4,3.6,3.3,75.4,10.0,1
0.38,-4.4,-4.59,4.18,40.4,106.96,-52.51,6.99,0.32,0.73,0.54,-3.13,110.81,9.58,3
-2.57,-7.3,-19.16,4.46,114.91,88.15,-149.94,-8.31,-0.64,5.89,9.71,-0.59,313.5,14.92,4
-4.29,-2.6,-13.51,-3.99,129.99,95.65,-119.67,-5.21,-0.29,3.54,11.55,-2.95,207.04,14.18,4
0.4,-3.6,6.93,10.9,9.8,76.91,-50.7,0.1,0.8,1.8,-6.5,7.6,117.2,13.0,1
0.21,-1.91,-9.22,5.13,108.13,100.49,-12.93,3.35,1.37,-0.07,-1.64,2.56,130.46,10.61,3
-0.66,-2.6,-3.85,4.92,97.01,101.12,-13.83,2.56,0.89,0.3,0.3,5.45,143.0,10.24,3
-0.6,4.8,10.22,4.7,40.2,107.31,-59.0,16.7,2.3,-1.7,-5.9,2.3,80.5,10.1,1
-1.95,-3.14,-13.85,-6.67,155.58,98.89,-126.15,-7.16,-0.29,7.21,8.78,-2.31,165.81,20.7,4
-2.3,-1.0,4.68,0.7,50.4,97.43,-69.1,2.9,2.2,0.2,-1.9,4.6,78.1,9.8,1
-0.8,-1.2,-0.62,0.0,68.4,94.14,26.9,9.8,5.9,-0.3,-0.5,2.3,153.0,6.2,1
-0.71,-2.13,-7.68,5.16,96.25,101.37,-14.46,3.22,1.04,0.37,0.77,4.64,142.46,10.19,3
-1.5,-3.0,-0.36,-13.0,176.2,96.77,-140.7,-1.0,0.9,-3.9,-8.8,-1.0,118.1,23.3,4
-2.2,-1.0,20.12,1.2,39.2,98.2,-57.3,6.7,1.6,-0.1,0.1,-2.3,62.1,6.9,2
6.41,-7.34,-17.39,2.42,45.0,88.69,35.38,0.13,-1.58,1.48,2.69,7.6,223.74,7.76,2
0.42,-4.57,-11.0,2.55,45.7,111.15,-45.27,2.86,-0.85,0.74,1.08,-0.91,109.7,8.52,3
-2.44,-8.63,-18.94,2.76,116.26,85.46,-146.65,-8.74,-0.98,5.84,8.78,-0.57,304.18,15.0,4
-1.0,2.6,3.79,13.9,39.3,109.86,-37.9,16.3,2.2,-2.1,-6.0,4.5,56.1,8.0,1
6.4,-9.0,-16.75,3.2,81.1,92.39,28.7,2.5,0.9,-1.1,-3.1,1.4,101.9,6.1,1
-2.0,-6.2,-4.75,9.8,107.5,100.0,-154.5,-10.8,0.4,3.2,5.1,4.4,347.8,15.7,3
-3.1,-1.7,-20.1,11.6,109.2,99.48,-163.8,-6.5,0.8,6.1,13.6,-0.7,352.8,14.6,4
1.9,-3.77,-21.74,-1.34,78.55,86.54,-82.58,7.01,2.64,-0.54,-0.07,-1.0,98.07,11.47,2
1.7,0.7,-18.42,-3.2,81.3,95.34,1.3,6.4,1.1,0.1,0.2,1.0,127.1,5.0,1
-2.3,-0.87,-2.1,-4.38,121.32,96.26,-114.6,-3.18,-0.5,3.28,9.53,-1.14,188.82,14.16,4
-4.9,-3.2,49.92,4.5,34.0,114.69,-66.1,2.2,1.2,0.5,6.3,2.8,73.7,6.9,4
7.0,-2.4,-8.35,10.3,61.7,114.1,20.1,5.3,0.3,0.4,1.4,8.2,247.2,4.8,1
-0.7,-4.4,-15.44,6.9,87.8,108.42,-8.7,5.4,0.3,1.1,3.6,6.4,135.3,9.2,2
2.1,-2.4,26.53,-6.2,43.1,92.23,-74.7,-20.6,-1.4,6.9,17.4,-2.4,115.2,17.7,1
-3.06,-2.1,-20.03,11.09,109.6,98.68,-162.82,-6.63,0.7,6.08,13.32,-0.69,350.01,14.62,4
-2.1,-1.05,20.13,1.33,38.9,98.5,-57.0,6.85,1.61,-0.17,-0.14,-2.16,62.89,6.92,2
-1.0,-5.6,-13.98,5.3,175.9,100.0,-135.4,-9.7,0.3,3.7,-5.5,-3.0,128.0,26.3,4
1.3,-0.6,-18.21,-10.1,70.0,105.16,-39.3,0.1,-1.0,2.0,6.9,-3.7,107.2,9.1,3
-2.58,-1.18,-14.4,3.53,119.74,96.94,-143.1,-5.22,0.09,4.91,11.84,-1.13,281.24,14.79,4
0.4,-7.1,58.59,1.5,73.9,107.14,-171.7,-17.7,0.9,-3.8,-9.9,-15.7,284.4,10.1,2
-2.35,-4.77,8.18,5.02,126.69,105.09,-111.37,-5.57,0.61,2.59,-1.41,-0.99,109.17,19.57,4
-1.99,-5.57,-19.35,-7.79,177.83,103.34,-131.63,-10.31,0.1,10.55,7.81,-3.02,132.51,25.93,4
-2.18,-12.04,-18.32,-1.82,120.08,78.6,-137.43,-9.83,-1.86,5.66,6.43,-0.57,277.72,15.17,4
-1.85,-0.99,17.28,1.19,36.1,98.08,-59.57,7.91,1.61,0.29,1.0,-1.61,71.71,7.64,2
-2.8,6.0,-21.25,-3.6,83.2,88.09,-28.1,3.0,0.4,0.8,2.1,1.5,176.1,7.9,2
3.1,0.0,10.82,-7.7,72.9,123.65,-54.9,9.1,4.2,-2.0,-9.7,0.7,70.0,5.4,1
2.29,-1.8,17.79,6.03,58.76,105.6,-58.61,1.04,0.3,-4.47,-15.13,2.09,100.45,11.88,3
-2.95,-3.09,21.04,-5.55,115.67,104.4,-108.94,0.36,1.03,-2.03,-2.37,0.62,99.2,16.32,4
8.2,-0.9,-6.74,4.0,64.6,100.0,48.9,-0.4,0.6,1.1,-0.4,0.0,262.8,7.2,2
3.6,-5.5,-4.56,6.9,40.7,112.4,4.5,3.9,1.0,-0.2,-5.1,13.3,197.9,7.0,2
-5.9,-4.0,-17.3,-3.0,129.0,96.71,-119.3,-6.2,0.0,3.5,12.7,-3.9,210.5,13.6,4
-1.0,2.7,20.49,4.1,37.8,100.0,-54.6,0.6,1.3,0.0,-0.9,0.2,58.0,6.9,1
-3.2,-1.7,5.89,5.7,39.4,98.21,-66.7,8.0,1.0,-3.1,-13.0,-0.6,91.0,14.4,1
6.5,-7.8,-17.73,2.5,44.9,88.3,36.1,-0.2,-1.6,1.5,2.3,7.9,224.0,7.8,2
-2.44,-6.85,7.07,-0.38,106.98,101.57,-132.31,-8.16,-0.17,-0.33,-9.31,10.38,310.16,14.66,3
-1.3,-2.6,23.22,7.0,37.3,105.21,-49.0,9.5,0.7,-0.2,-3.1,0.6,53.7,6.5,1
1.9,-3.2,-3.29,-2.0,99.3,100.0,-88.9,-1.1,0.0,0.4,-4.6,-2.7,155.8,24.2,2
1.9,-0.8,24.41,-0.2,6.1,74.62,-54.0,-2.2,0.5,5.4,10.4,-0.8,118.9,14.2,1
5.5,-2.5,-13.78,1.6,46.1,92.83,27.8,3.6,-1.4,1.3,6.8,4.4,221.0,7.3,2
-0.9,-0.8,-19.37,0.6,84.7,102.67,-86.8,-6.8,2.0,1.7,8.3,-0.1,117.2,16.8,3
0.3,-1.2,4.06,10.4,51.9,100.0,-63.9,2.7,1.5,-1.8,-7.5,5.1,80.6,13.0,1
0.54,-0.67,-18.61,-6.42,75.05,104.3,-55.62,-2.27,0.03,1.9,7.38,-2.46,110.64,11.75,3
-0.8,-1.3,-14.53,5.6,94.9,101.8,-15.6,4.4,1.3,0.5,1.6,3.2,141.5,10.1,3
-4.83,-3.12,-18.37,2.57,121.45,97.77,-136.26,-6.31,0.3,4.49,13.04,-2.68,264.74,13.98,4
0.44,-3.01,-19.84,-4.29,59.87,110.21,-42.2,0.1,-1.25,2.31,6.96,-3.14,110.29,8.48,3
-2.1,-6.2,-25.74,7.2,126.5,118.48,-23.0,2.0,1.2,2.2,10.0,-0.9,124.2,9.2,2
-3.2,1.9,11.12,4.3,15.2,102.33,-82.8,17.9,-1.9,3.4,13.1,3.5,129.1,9.5,2
2.8,0.1,23.24,3.9,78.0,104.96,-65.6,-3.9,0.3,-5.5,-17.7,1.5,97.8,13.5,3
8.4,-1.8,1.52,-0.1,56.9,110.72,59.4,-0.1,0.7,-1.0,-3.8,3.7,249.1,5.9,2
-4.8,1.4,1.39,10.7,53.7,101.1,-65.3,5.3,1.8,1.6,5.9,4.8,73.4,9.8,1
7.7,-1.2,-15.87,7.3,44.3,93.87,43.3,2.3,-1.2,-0.1,-2.1,-0.3,214.0,7.4,1
-1.7,-6.7,27.02,-0.7,39.8,89.47,-54.3,-4.2,2.2,3.3,-2.9,0.3,61.1,15.5,1
0.9,-4.3,13.16,9.5,26.0,100.0,-61.8,14.5,2.2,-1.2,-6.5,-3.5,109.3,11.2,3
1.92,-1.92,-2.57,-0.06,91.03,101.82,-88.02,2.59,0.75,-2.94,-8.43,-1.82,125.17,16.4,2
-1.91,-5.18,-18.45,-7.69,174.94,102.71,-130.93,-9.85,0.03,10.11,7.88,-2.88,136.74,25.27,4
-1.42,-5.34,-7.07,5.21,160.56,101.59,-127.91,-8.41,0.4,3.35,-4.22,-2.37,122.13,24.2,4
-3.3,3.4,-11.62,-7.7,84.2,88.7,-17.8,3.9,1.0,0.2,0.8,6.6,170.2,7.8,2
1.2,5.3,8.56,23.0,34.7,116.33,-25.0,5.9,2.4,-1.7,-8.0,4.2,67.3,4.0,1
-0.3,-3.6,-14.64,19.5,104.4,90.26,-164.7,-3.7,0.6,-2.2,-6.2,2.6,278.4,13.7,2
4.42,-4.2,-8.54,4.61,43.03,103.95,14.56,3.77,-0.04,0.45,0.04,9.46,207.88,7.13,2
-1.38,-4.16,-14.18,-2.04,101.51,104.02,-100.29,-4.31,0.68,5.23,11.71,-9.41,189.15,19.85,3
-4.68,-6.64,-17.64,-2.61,126.07,90.76,-125.26,-7.39,-0.61,4.21,10.64,-2.8,232.6,14.12,4
-0.87,-0.83,-19.03,0.37,86.05,102.54,-87.84,-6.69,1.93,1.71,8.19,-0.26,119.26,16.76,3
5.6,10.3,-19.51,5.6,37.7,78.8,-15.5,4.0,1.4,0.4,-1.3,2.4,191.0,8.1,2
-2.37,-9.36,-18.82,1.82,117.01,83.97,-144.82,-8.98,-1.17,5.81,8.27,-0.55,299.0,15.04,4
2.7,-5.2,-2.11,19.5,75.5,113.15,-59.6,5.4,5.4,-2.5,-13.7,-3.1,76.6,6.5,1
-1.04,0.17,4.17,2.33,16.37,99.28,-77.07,16.3,0.32,2.97,9.03,2.95,130.02,11.16,2
0.1,-1.8,-7.32,-7.5,132.9,97.92,-123.8,-2.9,-0.4,2.2,4.5,-5.7,190.5,15.4,3
0.0,5.3,-1.35,15.8,39.9,104.36,-42.9,15.0,3.1,-2.1,-7.4,4.3,56.5,9.2,1
-0.1,-4.5,-20.85,-0.7,53.6,113.34,-44.0,0.1,-1.4,2.5,7.0,-2.8,112.2,8.1,3
5.1,-3.7,-9.63,12.6,45.2,89.38,-2.3,7.5,1.6,-0.1,0.1,4.6,193.3,8.0,2
0.8,0.1,-5.77,2.0,84.4,100.0,-78.4,-6.1,3.0,0.0,0.1,-1.5,111.9,16.9,3
-0.66,-4.14,-12.09,6.47,89.79,107.41,-10.18,4.67,0.34,0.84,2.57,6.48,137.22,9.35,2
-2.09,-10.64,-16.96,-2.29,121.45,80.37,-135.43,-9.08,-1.74,5.42,6.79,-0.65,268.71,15.17,4
-0.5,-3.0,2.4,4.6,98.4,103.03,-16.6,1.5,0.5,-0.3,-1.9,6.8,145.5,10.0,2
7.9,-2.1,1.07,4.8,35.5,108.16,40.8,2.4,0.7,-0.4,-1.8,0.1,201.7,6.0,1
-0.03,-2.05,-8.36,-0.6,109.99,101.22,-104.26,-2.99,0.91,0.5,0.52,-1.08,151.08,15.49,3
-1.76,-5.13,-1.6,5.14,148.4,102.85,-121.97,-7.39,0.47,3.08,-3.21,-1.88,117.48,22.54,4
-1.2,-3.8,-10.57,1.9,119.9,78.16,-133.4,-0.7,0.2,1.1,-1.4,-1.4,267.5,14.9,2
-1.3,-1.4,9.18,2.4,51.3,100.0,-62.1,0.2,1.6,-1.1,-5.7,3.5,78.9,8.9,1
-0.21,-1.79,-10.64,-0.35,104.77,101.52,-100.65,-3.78,1.14,0.75,2.13,-0.88,144.09,15.76,3
8.3,-1.7,-8.55,-0.9,39.8,100.0,33.4,2.2,-0.1,-0.4,-3.6,2.9,211.4,6.9,1
2.77,-0.01,22.92,4.03,76.87,105.0,-65.19,-3.61,0.3,-5.44,-17.55,1.53,97.96,13.4,3
2.24,0.1,15.14,3.37,79.79,103.57,-69.18,-4.51,1.05,-3.96,-12.73,0.66,101.74,14.45,3
-0.8,-7.8,-18.3,1.4,90.6,106.3,-12.8,4.1,0.5,0.8,0.8,4.2,138.3,9.4,2
1.2,1.7,19.36,16.7,40.6,95.51,-46.8,8.7,2.3,-3.2,-13.3,0.2,54.2,12.0,1
-2.01,-1.85,-8.71,4.33,64.91,98.17,10.83,5.4,2.19,0.46,1.73,4.07,155.94,7.86,2
-0.6,-0.77,-19.21,-0.88,82.67,103.01,-80.24,-5.85,1.59,1.74,8.11,-0.6,115.82,15.74,3
-1.7,2.7,-27.3,9.3,59.8,100.2,-3.1,7.6,0.5,0.2,0.4,1.7,148.8,8.2,2
-2.91,-1.39,-10.24,-4.84,130.84,94.73,-119.99,-4.36,-0.54,3.58,10.55,-2.14,204.06,14.67,4
0.83,-3.6,-14.26,6.44,85.39,105.94,1.15,5.8,0.32,0.76,2.72,5.07,127.95,8.4,2
-3.25,-1.69,-11.04,-4.63,130.63,94.96,-119.91,-4.57,-0.48,3.57,10.8,-2.34,204.79,14.55,4
6.6,0.1,-3.82,10.9,18.7,86.73,28.9,8.8,1.1,-0.2,-0.9,21.4,284.3,4.8,1
-1.76,-6.04,5.74,-0.64,112.17,101.23,-129.44,-6.37,-0.14,-0.36,-8.6,7.75,282.19,14.61,3
-2.93,-3.5,-19.8,9.31,111.03,95.84,-159.35,-7.08,0.34,6.03,12.35,-0.67,340.19,14.7,4
2.29,0.1,15.89,3.42,79.62,103.7,-68.84,-4.46,0.98,-4.11,-13.19,0.74,101.37,14.36,3
0.7,-3.7,2.44,16.3,36.8,106.67,-26.9,2.7,2.1,-1.3,-8.4,4.3,68.7,5.1,1
-2.9,-3.2,-10.3,1.1,51.8,93.78,-60.6,-0.3,1.0,2.9,6.4,1.9,71.1,14.1,1
0.8,-0.8,14.29,1.9,126.0,114.05,-109.9,2.8,1.5,-3.9,-10.9,2.0,161.9,10.9,2
5.9,-4.9,-9.35,3.1,79.8,90.51,23.3,5.6,1.4,-1.1,-1.9,2.0,102.4,6.8,1
-1.09,0.21,4.33,2.37,16.35,99.35,-77.19,16.33,0.27,2.98,9.12,2.96,130.0,11.13,2
1.87,0.1,9.71,3.01,80.98,102.65,-71.57,-4.93,1.56,-2.94,-9.4,0.1,104.37,15.09,3
-3.83,-2.24,28.59,0.86,69.8,107.13,-85.99,-0.01,0.5,1.64,7.62,1.18,120.89,9.88,4
-2.1,-5.3,-17.51,0.6,86.3,106.97,-88.9,-5.0,1.2,6.7,15.2,-11.2,188.5,22.0,3
2.4,-1.8,-12.5,1.5,82.4,88.31,-1.9,5.8,0.7,0.2,0.4,3.0,129.4,4.9,1
-0.3,4.8,20.52,13.0,10.6,93.21,-46.7,14.8,0.5,-3.8,-7.4,5.6,115.4,8.7,1
-1.99,-1.02,-9.04,-5.61,135.35,94.91,-121.17,-4.35,-0.63,4.19,9.72,-1.72,196.17,15.93,4
-2.8,-7.8,-25.92,10.4,80.1,89.4,-11.6,5.8,-0.3,1.3,6.3,1.6,176.6,7.8,2
-4.42,-2.78,-18.78,4.74,118.51,98.18,-142.88,-6.36,0.42,4.88,13.18,-2.2,285.9,14.13,4
-2.35,-9.59,-18.78,1.53,117.24,83.52,-144.27,-9.05,-1.23,5.8,8.12,-0.55,297.43,15.05,4
-2.81,-4.72,-19.59,7.74,112.28,93.36,-156.31,-7.48,0.02,5.98,11.5,-0.64,331.58,14.77,4
-4.9,0.2,1.09,11.7,86.8,105.51,0.3,3.7,0.9,-1.4,-7.7,8.8,166.4,5.4,1
0.9,-0.4,-5.01,2.4,104.9,101.22,54.5,-0.9,0.1,0.1,-3.6,23.8,194.8,8.3,1
-0.63,-3.33,-6.43,-1.5,124.09,98.64,-134.45,-5.64,-0.12,2.55,4.71,-2.2,245.06,15.5,3
4.1,-9.2,-7.55,9.1,42.3,107.27,0.1,2.8,1.0,-0.1,-4.7,8.1,192.0,7.4,2
5.8,3.2,-12.21,1.8,37.3,78.22,-8.3,4.1,0.6,0.7,2.6,7.0,189.1,8.2,2
0.5,-0.6,-13.33,2.5,107.0,99.24,44.8,4.3,1.0,0.8,4.5,-2.0,162.2,8.2,2
1.9,-3.8,-22.85,-1.3,77.3,85.73,-82.2,7.5,2.8,-0.6,0.2,-0.9,94.6,10.7,2
-0.1,-4.3,-15.53,-5.1,104.8,100.36,40.8,4.9,0.0,-0.1,-2.1,14.7,191.0,7.7,2
0.7,-3.1,0.87,-1.6,131.2,100.0,-118.9,0.2,0.0,-0.5,-6.0,-1.9,179.5,14.4,3
1.5,-4.7,9.44,9.3,29.3,106.59,-47.9,8.6,0.3,-2.9,-11.2,3.0,104.5,9.4,3
2.3,-7.2,-9.31,0.4,76.1,100.0,-67.9,1.1,4.9,-1.9,-10.9,-2.5,83.2,8.2,1
-3.01,-1.5,12.08,-1.96,97.51,101.28,-101.38,-1.71,-0.04,2.52,8.65,-0.07,157.43,12.18,4
-0.59,-4.89,25.27,2.95,97.1,95.44,-148.19,-7.13,0.51,-0.96,-4.73,-0.7,260.06,12.06,2
0.5,1.7,8.2,6.2,38.6,113.36,-56.2,15.2,2.4,-1.3,-2.6,2.4,76.9,9.4,1
-4.89,-6.17,-17.58,-2.68,126.59,91.82,-124.2,-7.18,-0.5,4.08,11.01,-3.0,228.67,14.02,4
