,label,PC_CA-avg_3y,REER-pch_3y,X_GS_share_M-pch_5y,FSL-pch,GD-pc_gdp,HPI-pch,NIIP-pc_gdp,ULC-pch_3y,ACT-pch_3y,LTU-pch_3y,YUR-pch_3y,PSCF-pc_gdp,PSD-pc_gdp,UR-avg_3y
2011_AT,1,2.4,-1.8,-12.5,1.5,82.4,88.31,-1.9,5.8,0.7,0.2,0.4,3.0,129.4,4.9
2011_BE,2,0.4,-1.5,-7.75,5.4,103.5,100.12,51.4,5.1,-0.4,0.2,0.7,22.2,180.5,7.8
2011_BG,2,-3.2,1.9,11.12,4.3,15.2,102.33,-82.8,17.9,-1.9,3.4,13.1,3.5,129.1,9.5
2011_CZ,1,-2.6,-0.5,7.39,4.3,39.8,98.86,-45.2,3.4,0.8,0.5,8.2,2.1,68.3,6.9
2011_DE,1,5.9,-4.9,-9.35,3.1,79.8,90.51,23.3,5.6,1.4,-1.1,-1.9,2.0,102.4,6.8
2011_DK,2,5.5,-2.5,-13.78,1.6,46.1,92.83,27.8,3.6,-1.4,1.3,6.8,4.4,221.0,7.3
2011_EE,1,1.9,-0.8,24.41,-0.2,6.1,74.62,-54.0,-2.2,0.5,5.4,10.4,-0.8,118.9,14.2
2011_EL,4,-10.3,1.8,-17.17,-3.7,172.1,136.51,-88.8,6.8,0.6,5.1,22.8,-6.5,130.2,13.4
2011_FI,2,0.7,-2.8,-23.52,28.8,48.3,103.49,13.9,9.0,-1.1,0.5,3.6,5.3,144.6,8.1
2011_FR,2,-0.7,-4.4,-15.44,6.9,87.8,108.42,-8.7,5.4,0.3,1.1,3.6,6.4,135.3,9.2
2011_HU,2,0.1,-4.2,-4.32,6.2,80.8,99.07,-104.2,3.8,1.2,1.6,6.5,-4.4,113.6,10.7
2011_IE,4,-2.5,-9.6,-10.29,-2.3,111.1,91.62,-139.3,-13.7,-3.6,7.1,16.1,16.5,274.5,14.2
2011_IT,2,-2.7,-3.2,-19.21,5.1,119.7,124.69,-18.2,4.9,-0.8,1.3,8.0,3.1,121.8,8.2
2011_LT,1,-0.5,1.7,26.02,2.0,37.2,92.55,-53.6,-7.8,3.0,6.7,19.3,-1.8,68.8,15.7
2011_LU,1,6.6,0.1,-3.82,10.9,18.7,86.73,28.9,8.8,1.1,-0.2,-0.9,21.4,284.3,4.8
2011_LV,1,2.1,-2.4,26.53,-6.2,43.1,92.23,-74.7,-20.6,-1.4,6.9,17.4,-2.4,115.2,17.7
2011_MT,1,-5.6,-5.0,17.63,10.4,70.2,95.13,6.3,11.1,2.7,0.4,1.6,6.8,168.5,6.7
2011_NL,1,7.0,-2.4,-8.35,10.3,61.7,114.1,20.1,5.3,0.3,0.4,1.4,8.2,247.2,4.8
2011_PL,1,-4.8,-11.4,15.13,4.8,54.1,108.3,-62.4,4.2,1.9,1.2,8.6,6.6,73.9,9.2
2011_PT,4,-8.8,-3.0,-9.92,-4.5,114.4,105.9,-104.1,-0.5,-0.3,2.6,8.6,-0.9,204.2,11.9
2011_RO,4,-4.9,-3.2,49.92,4.5,34.0,114.69,-66.1,2.2,1.2,0.5,6.3,2.8,73.7,6.9
2011_SE,2,5.8,3.2,-12.21,1.8,37.3,78.22,-8.3,4.1,0.6,0.7,2.6,7.0,189.1,8.2
2011_SI,2,-0.9,-1.1,-5.63,-1.2,46.5,123.73,-39.8,7.7,-1.5,1.7,5.3,0.5,112.9,7.1
2011_SK,1,-4.3,3.4,-2.78,0.6,43.5,99.72,-63.9,5.4,-0.1,2.6,14.4,2.9,69.5,13.4
2011_UK,2,-2.8,-7.8,-25.92,10.4,80.1,89.4,-11.6,5.8,-0.3,1.3,6.3,1.6,176.6,7.8
2012_AT,1,2.0,-4.7,-21.72,0.4,81.9,92.57,-3.2,3.8,0.8,0.0,-1.3,1.2,128.2,4.8
2012_BE,2,-0.1,-4.3,-15.53,-5.1,104.8,100.36,40.8,4.9,0.0,-0.1,-2.1,14.7,191.0,7.7
2012_BG,2,-0.8,-4.0,-1.01,11.7,16.7,97.0,-77.7,12.2,-0.1,3.8,13.0,2.6,128.3,11.3
2012_CZ,1,-2.4,0.5,-4.48,5.2,44.5,95.33,-45.9,3.8,1.5,1.0,2.9,2.9,70.7,7.0
2012_DE,1,6.4,-9.0,-16.75,3.2,81.1,92.39,28.7,2.5,0.9,-1.1,-3.1,1.4,101.9,6.1
2012_DK,2,6.5,-7.8,-17.73,2.5,44.9,88.3,36.1,-0.2,-1.6,1.5,2.3,7.9,224.0,7.8
2012_EE,1,0.4,-3.6,6.93,10.9,9.8,76.91,-50.7,0.1,0.8,1.8,-6.5,7.6,117.2,13.0
2012_EL,4,-7.4,-5.0,-26.26,-2.1,159.6,120.03,-115.9,-2.3,0.1,10.6,29.6,-4.7,132.6,18.4
2012_ES,3,-2.1,-5.3,-17.51,0.6,86.3,106.97,-88.9,-5.0,1.2,6.7,15.2,-11.2,188.5,22.0
2012_FI,2,-0.7,-8.3,-32.36,-1.3,53.6,103.13,10.6,5.8,0.2,0.2,-2.5,7.1,147.7,8.0
2012_FR,2,-0.8,-7.8,-18.3,1.4,90.6,106.3,-12.8,4.1,0.5,0.8,0.8,4.2,138.3,9.4
2012_HU,2,0.8,-0.8,-23.17,-5.8,78.5,89.7,-92.2,7.7,2.5,0.8,1.8,-6.0,101.1,11.1
2012_IE,4,-2.1,-12.2,-18.34,-1.8,119.9,78.23,-137.8,-9.9,-1.9,5.7,6.3,-0.5,279.1,15.2
2012_IT,2,-2.1,-6.2,-25.74,7.2,126.5,118.48,-23.0,2.0,1.2,2.2,10.0,-0.9,124.2,9.2
2012_LT,1,-1.7,-6.7,27.02,-0.7,39.8,89.47,-54.3,-4.2,2.2,3.3,-2.9,0.3,61.1,15.5
2012_LU,1,6.1,-2.4,-5.55,15.1,22.0,88.53,58.4,5.9,0.7,0.4,1.5,25.9,303.7,4.8
2012_LV,1,-1.7,-8.6,7.91,5.6,41.6,92.0,-67.5,-6.5,0.9,3.3,-4.8,-5.4,96.8,16.9
2012_MT,2,-2.9,-7.6,12.18,8.6,67.7,95.5,19.6,8.6,4.5,0.1,-0.7,0.1,162.4,6.5
2012_NL,2,8.6,-6.0,-12.82,6.0,66.2,105.12,26.7,2.6,0.9,0.8,1.5,6.1,252.1,5.3
2012_PL,1,-4.8,1.4,1.39,10.7,53.7,101.1,-65.3,5.3,1.8,1.6,5.9,4.8,73.4,9.8
2012_PT,4,-5.9,-4.0,-17.3,-3.0,129.0,96.71,-119.3,-6.2,0.0,3.5,12.7,-3.9,210.5,13.6
2012_RO,4,-5.0,-2.0,12.3,4.8,37.0,104.31,-67.6,6.8,1.7,0.8,2.6,0.3,72.1,7.0
2012_SE,2,5.6,10.3,-19.51,5.6,37.7,78.8,-15.5,4.0,1.4,0.4,-1.3,2.4,191.0,8.1
2012_SI,3,-0.1,-4.5,-20.85,-0.7,53.6,113.34,-44.0,0.1,-1.4,2.5,7.0,-2.8,112.2,8.1
2012_SK,1,-2.9,-3.2,-10.3,1.1,51.8,93.78,-60.6,-0.3,1.0,2.9,6.4,1.9,71.1,14.1
2012_UK,2,-2.8,6.0,-21.25,-3.6,83.2,88.09,-28.1,3.0,0.4,0.8,2.1,1.5,176.1,7.9
2013_AT,1,1.7,0.7,-18.42,-3.2,81.3,95.34,1.3,6.4,1.1,0.1,0.2,1.0,127.1,5.0
2013_BE,2,-0.4,-0.2,-12.95,1.2,105.5,100.51,43.2,7.4,-0.2,-0.1,1.3,7.9,163.0,7.7
2013_BG,2,0.3,-0.9,-0.15,1.1,17.1,97.38,-73.5,15.3,1.7,2.7,6.5,2.6,130.6,12.2
2013_CY,4,-2.6,-0.8,-12.04,-3.4,104.0,100.57,-162.5,-0.7,0.0,4.8,22.3,-12.0,341.2,11.9
2013_CZ,1,-1.4,-3.1,-9.77,11.4,44.9,94.56,-41.4,4.2,2.7,0.0,0.6,4.4,73.7,6.9
2013_DE,2,6.6,-1.8,-12.99,-6.4,78.7,93.91,34.7,6.1,0.9,-1.0,-2.0,2.0,103.0,5.5
2013_DK,1,6.9,-2.5,-17.81,1.8,44.0,91.0,37.2,1.5,-1.3,0.3,-0.7,-3.0,216.1,7.7
2013_EE,1,-0.1,3.1,9.93,10.3,10.2,82.54,-49.7,11.2,1.2,-3.8,-14.2,4.8,115.2,10.3
2013_EL,4,-4.5,-4.4,-26.64,-17.7,177.4,109.06,-130.4,-10.0,-0.3,12.8,25.3,-4.0,132.3,23.3
2013_ES,2,-0.2,-0.3,-10.28,-9.9,95.8,96.24,-92.8,-5.1,0.8,5.7,14.0,-10.1,178.1,24.1
2013_FI,2,-1.8,0.2,-32.46,-11.6,56.2,101.77,3.0,9.3,0.7,-0.3,-1.5,2.8,147.0,7.9
2013_FR,2,-0.8,-2.2,-14.22,0.5,93.4,103.54,-16.6,4.6,0.9,0.5,1.6,2.1,137.4,9.8
2013_HR,3,-1.6,-3.9,-23.33,2.8,81.2,104.01,-89.5,-4.6,-1.4,4.4,17.6,-0.6,117.2,15.6
2013_HU,2,1.9,-3.8,-22.85,-1.3,77.3,85.73,-82.2,7.5,2.8,-0.6,0.2,-0.9,94.6,10.7
2013_IE,2,-1.2,-3.8,-10.57,1.9,119.9,78.16,-133.4,-0.7,0.2,1.1,-1.4,-1.4,267.5,14.9
2013_IT,3,-0.6,0.1,-20.41,-2.7,132.4,109.54,-23.3,2.9,1.4,2.9,12.1,-2.9,121.2,10.4
2013_LT,1,-1.2,-0.6,11.9,-1.2,38.7,89.75,-50.6,6.1,2.2,-2.3,-13.8,-0.3,56.7,13.5
2013_LU,1,5.7,0.8,8.2,10.3,23.7,91.44,58.9,7.6,1.7,0.5,1.1,27.8,313.3,5.3
2013_LV,1,-3.2,-1.7,5.89,5.7,39.4,98.21,-66.7,8.0,1.0,-3.1,-13.0,-0.6,91.0,14.4
2013_MT,1,-0.8,-1.2,-0.62,0.0,68.4,94.14,26.9,9.8,5.9,-0.3,-0.5,2.3,153.0,6.2
2013_NL,2,9.5,0.5,-11.34,-1.6,67.7,96.81,30.7,4.8,1.5,1.2,2.1,9.7,257.7,6.0
2013_PL,1,-3.4,-4.3,-0.26,7.4,55.7,96.29,-68.9,3.1,1.7,1.4,3.6,3.3,75.4,10.0
2013_PT,4,-2.0,-0.6,-8.1,-5.4,131.4,94.13,-120.2,-3.8,-0.7,3.6,9.9,-1.6,202.1,15.0
2013_RO,4,-3.6,0.5,13.76,0.8,37.6,101.39,-62.8,-4.7,0.0,0.8,1.6,-1.4,66.8,7.0
2013_SE,2,5.4,5.1,-17.19,9.7,40.5,82.35,-15.9,9.0,2.0,-0.2,-1.2,4.6,194.3,7.9
2013_SI,3,1.3,-0.6,-18.21,-10.1,70.0,105.16,-39.3,0.1,-1.0,2.0,6.9,-3.7,107.2,9.1
2013_SK,1,-0.7,2.1,-4.08,1.4,54.7,93.4,-62.2,2.6,1.2,0.8,-0.2,5.0,75.2,14.0
2013_UK,2,-3.3,3.4,-11.62,-7.7,84.2,88.7,-17.8,3.9,1.0,0.2,0.8,6.6,170.2,7.8
2014_AT,1,2.0,1.9,-15.75,-0.8,84.0,96.68,3.4,7.9,0.8,0.3,1.4,0.9,124.8,5.3
2014_BE,2,0.5,-0.6,-13.33,2.5,107.0,99.24,44.8,4.3,1.0,0.8,4.5,-2.0,162.2,8.2
2014_BG,3,0.6,-2.8,5.59,7.9,27.1,98.77,-72.2,17.6,3.1,0.6,-1.2,2.3,125.6,12.2
2014_CY,4,-3.1,-1.7,-20.1,11.6,109.2,99.48,-163.8,-6.5,0.8,6.1,13.6,-0.7,352.8,14.6
2014_CZ,1,-0.6,-10.0,-6.24,5.2,42.2,96.3,-36.6,4.0,3.0,0.0,-2.2,1.7,71.5,6.7
2014_DE,2,7.0,-0.4,-9.53,4.6,75.7,95.98,40.8,7.4,0.4,-0.6,-0.8,-0.3,98.4,5.2
2014_DK,1,7.7,-1.2,-15.87,7.3,44.3,93.87,43.3,2.3,-1.2,-0.1,-2.1,-0.3,214.0,7.4
2014_EE,1,-0.3,4.8,20.52,13.0,10.6,93.21,-46.7,14.8,0.5,-3.8,-7.4,5.6,115.4,8.7
2014_EL,4,-1.9,-5.6,-19.39,-7.9,178.9,103.49,-131.9,-10.4,0.1,10.7,7.7,-3.0,130.8,26.2
2014_ES,2,1.3,-1.0,-11.49,-0.6,100.7,96.44,-95.9,-3.6,0.3,4.0,7.0,-6.5,168.2,25.1
2014_FI,2,-1.7,2.7,-27.3,9.3,59.8,100.2,-3.1,7.6,0.5,0.2,0.4,1.7,148.8,8.2
2014_FR,3,-0.8,-1.3,-14.53,5.6,94.9,101.8,-15.6,4.4,1.3,0.5,1.6,3.2,141.5,10.1
2014_HR,3,-0.9,-0.8,-19.37,0.6,84.7,102.67,-86.8,-6.8,2.0,1.7,8.3,-0.1,117.2,16.8
2014_HU,2,2.1,-6.8,-16.82,8.7,76.8,88.34,-80.4,6.2,4.6,-1.5,-5.6,-0.2,90.7,9.6
2014_IE,2,-0.3,-3.6,-14.64,19.5,104.4,90.26,-164.7,-3.7,0.6,-2.2,-6.2,2.6,278.4,13.7
2014_IT,3,0.9,0.2,-15.53,0.5,135.4,104.21,-21.0,2.6,1.8,3.4,13.5,-0.3,118.9,11.8
2014_LT,1,1.2,1.7,19.36,16.7,40.6,95.51,-46.8,8.7,2.3,-3.2,-13.3,0.2,54.2,12.0
2014_LU,1,5.4,0.5,16.34,37.8,22.7,94.97,59.3,7.1,2.9,0.2,5.9,28.7,324.9,5.7
2014_LV,1,-2.9,0.4,11.98,11.4,40.9,102.46,-67.1,16.0,1.8,-4.2,-11.4,-4.4,82.2,12.6
2014_MT,1,1.8,0.1,-12.48,5.9,63.4,96.14,43.0,2.8,6.0,-0.3,-1.6,7.4,143.9,6.0
2014_NL,2,9.5,0.7,-11.35,8.0,67.8,96.72,48.0,3.7,0.9,1.3,2.7,4.3,267.2,6.8
2014_PL,1,-2.3,-1.0,4.68,0.7,50.4,97.43,-69.1,2.9,2.2,0.2,-1.9,4.6,78.1,9.8
2014_PT,3,0.1,-1.8,-7.32,-7.5,132.9,97.92,-123.8,-2.9,-0.4,2.2,4.5,-5.7,190.5,15.4
2014_RO,2,-2.2,-1.0,20.12,1.2,39.2,98.2,-57.3,6.7,1.6,-0.1,0.1,-2.3,62.1,6.9
2014_SE,2,5.1,-3.7,-9.63,12.6,45.2,89.38,-2.3,7.5,1.6,-0.1,0.1,4.6,193.3,8.0
2014_SI,2,3.2,1.2,-12.73,-0.1,80.3,98.61,-38.4,0.1,0.6,1.7,4.5,-4.7,97.9,9.6
2014_SK,1,1.3,1.2,1.88,9.4,53.5,94.82,-63.5,2.4,1.6,0.1,-4.0,5.0,79.0,13.8
2014_UK,2,-4.3,10.1,-9.19,4.8,86.2,94.38,-22.8,4.0,1.2,-0.5,-4.3,6.0,163.6,7.2
2015_AT,1,2.0,1.3,-9.15,-0.1,84.9,100.0,2.2,6.4,0.4,0.5,1.2,2.1,124.0,5.6
2015_BE,1,1.0,-1.7,-13.57,2.7,105.2,100.0,45.2,0.5,0.7,1.0,2.3,12.1,176.1,8.5
2015_BG,3,0.9,-4.3,13.16,9.5,26.0,100.0,-61.8,14.5,2.2,-1.2,-6.5,-3.5,109.3,11.2
2015_CY,3,-2.0,-6.2,-4.75,9.8,107.5,100.0,-154.5,-10.8,0.4,3.2,5.1,4.4,347.8,15.7
2015_CZ,1,0.0,-8.2,-2.16,8.1,40.0,100.0,-32.9,0.1,2.4,-0.6,-6.9,0.3,68.1,6.1
2015_DE,2,7.4,-1.5,-3.18,2.6,72.1,100.0,46.6,5.9,0.4,-0.4,-0.8,2.9,97.8,4.9
2015_DK,1,8.3,-1.7,-8.55,-0.9,39.8,100.0,33.4,2.2,-0.1,-0.4,-3.6,2.9,211.4,6.9
2015_EE,1,0.9,5.8,7.29,8.6,10.0,100.0,-39.9,15.3,1.9,-3.1,-7.8,2.7,112.8,7.4
2015_EL,4,-1.0,-5.6,-13.98,5.3,175.9,100.0,-135.4,-9.7,0.3,3.7,-5.5,-3.0,128.0,26.3
2015_ES,2,1.9,-3.2,-3.29,-2.0,99.3,100.0,-88.9,-1.1,0.0,0.4,-4.6,-2.7,155.8,24.2
2015_FI,2,-1.4,2.1,-23.06,1.4,63.0,100.0,4.8,3.2,0.6,0.7,3.4,6.8,151.5,8.8
2015_FR,3,-0.6,-2.9,-3.68,2.2,95.6,100.0,-12.9,2.3,1.0,0.5,0.3,4.6,142.8,10.3
2015_HR,3,0.8,0.1,-5.77,2.0,84.4,100.0,-78.4,-6.1,3.0,0.0,0.1,-1.5,111.9,16.9
2015_HU,1,2.3,-7.2,-9.31,0.4,76.1,100.0,-67.9,1.1,4.9,-1.9,-10.9,-2.5,83.2,8.2
2015_IE,2,2.3,-6.4,37.84,9.6,76.7,100.0,-198.4,-18.6,1.0,-3.9,-10.6,-2.3,305.1,11.9
2015_IT,3,1.5,-2.4,-9.7,1.4,135.3,100.0,-19.3,2.0,0.5,1.3,5.0,-1.4,115.1,12.2
2015_LT,1,0.9,4.2,6.46,7.3,42.7,100.0,-43.6,11.8,2.3,-2.7,-10.4,2.6,55.3,10.5
2015_LU,1,5.2,-0.7,29.8,17.5,22.0,100.0,50.0,2.4,1.5,0.3,-1.4,23.6,335.8,6.1
2015_LV,1,-2.0,2.5,13.52,13.2,36.7,100.0,-64.1,17.2,1.3,-3.3,-12.2,-0.5,80.4,10.9
2015_MT,1,2.9,-2.8,9.08,3.6,57.8,100.0,37.4,-1.4,4.9,-0.6,-2.2,8.8,134.8,5.7
2015_NL,2,8.2,-0.9,-6.74,4.0,64.6,100.0,48.9,-0.4,0.6,1.1,-0.4,0.0,262.8,7.2
2015_PL,1,-1.3,-1.4,9.18,2.4,51.3,100.0,-62.1,0.2,1.6,-1.1,-5.7,3.5,78.9,8.9
2015_PT,3,0.7,-3.1,0.87,-1.6,131.2,100.0,-118.9,0.2,0.0,-0.5,-6.0,-1.9,179.5,14.4
2015_RO,1,-1.0,2.7,20.49,4.1,37.8,100.0,-54.6,0.6,1.3,0.0,-0.9,0.2,58.0,6.9
2015_SE,2,4.6,-8.3,-9.32,1.8,43.9,100.0,-3.9,2.6,1.4,0.0,-3.3,7.5,191.5,7.8
2015_SI,2,4.1,0.3,-4.61,-3.8,82.6,100.0,-31.2,-0.1,1.4,0.4,-4.3,-5.0,87.4,9.6
2015_SK,1,0.3,-1.2,4.06,10.4,51.9,100.0,-63.9,2.7,1.5,-1.8,-7.5,5.1,80.6,13.0
2015_UK,1,-4.8,10.7,2.71,-8.6,86.9,100.0,-22.7,3.2,0.8,-1.1,-6.6,2.8,161.7,6.3
2016_AT,1,2.3,0.9,-2.83,-2.8,82.9,107.03,4.1,5.4,0.7,0.6,1.5,3.4,123.5,5.8
2016_BE,1,0.9,-0.4,-5.01,2.4,104.9,101.22,54.5,-0.9,0.1,0.1,-3.6,23.8,194.8,8.3
2016_BG,3,1.5,-4.7,9.44,9.3,29.3,106.59,-47.9,8.6,0.3,-2.9,-11.2,3.0,104.5,9.4
2016_CY,3,-2.9,-7.4,7.99,-0.2,103.4,101.8,-134.3,-9.4,-0.2,-0.3,-9.8,12.2,329.5,14.7
2016_CZ,1,0.7,-3.7,2.44,16.3,36.8,106.67,-26.9,2.7,2.1,-1.3,-8.4,4.3,68.7,5.1
2016_DE,2,8.1,-2.1,2.0,5.2,69.2,106.75,51.4,4.9,0.3,-0.6,-0.7,3.7,98.2,4.6
2016_DK,1,8.3,-1.7,-2.87,5.1,37.2,104.7,38.2,2.1,1.9,-0.4,-2.6,2.8,209.5,6.4
2016_EE,1,1.4,4.4,-0.34,6.7,10.2,104.02,-39.2,12.8,2.4,-1.7,-5.3,6.2,112.4,6.8
2016_EL,4,-1.1,-4.0,-9.78,-10.4,178.5,98.35,-137.6,-3.3,0.7,-1.5,-11.0,-2.1,125.1,25.0
2016_ES,2,2.3,-4.3,2.9,2.5,99.2,104.41,-85.5,-1.2,-0.1,-3.5,-11.1,-0.7,147.5,22.1
2016_FI,1,-1.4,0.4,-15.78,3.9,62.6,100.14,5.2,0.4,0.7,0.6,0.2,1.5,148.0,9.0
2016_FR,3,-0.6,-3.2,1.14,4.6,98.0,100.81,-13.0,1.7,0.7,0.2,-0.3,6.5,143.7,10.3
2016_HR,3,1.8,0.0,9.47,3.5,81.0,102.01,-72.4,-5.6,1.9,-4.4,-18.1,-0.2,104.1,15.6
2016_HU,1,2.7,-5.2,-2.11,19.5,75.5,113.15,-59.6,5.4,5.4,-2.5,-13.7,-3.1,76.6,6.5
2016_IE,2,0.4,-7.1,58.59,1.5,73.9,107.14,-171.7,-17.7,0.9,-3.8,-9.9,-15.7,284.4,10.1
2016_IT,3,2.0,-3.4,-4.02,3.3,134.8,100.2,-11.9,1.5,1.5,-0.2,-2.2,0.1,111.7,12.1
2016_LT,1,0.0,5.3,-1.35,15.8,39.9,104.36,-42.9,15.0,3.1,-2.1,-7.4,4.3,56.5,9.2
2016_LU,1,5.1,-1.5,33.28,5.2,20.1,105.69,54.6,1.2,0.1,0.4,2.2,-9.6,309.0,6.3
2016_LV,1,-0.6,4.8,10.22,4.7,40.2,107.31,-59.0,16.7,2.3,-1.7,-5.9,2.3,80.5,10.1
2016_MT,1,4.1,-2.9,22.52,3.9,55.5,104.82,35.4,-1.1,4.3,-0.9,-2.0,15.3,136.4,5.3
2016_NL,2,7.6,-2.3,-2.96,6.7,61.9,104.39,61.4,-0.3,0.3,0.0,-2.4,3.9,259.3,6.8
2016_PL,1,-1.0,-5.1,17.73,9.1,54.2,102.27,-61.6,2.5,1.8,-2.2,-9.6,5.1,81.6,7.6
2016_PT,3,0.5,-1.8,5.22,-0.3,131.5,106.06,-110.3,-0.5,0.7,-3.1,-9.9,-2.1,169.3,12.6
2016_RO,1,-1.3,-2.6,23.22,7.0,37.3,105.21,-49.0,9.5,0.7,-0.2,-3.1,0.6,53.7,6.5
2016_SE,2,4.1,-9.2,-7.55,9.1,42.3,107.27,0.1,2.8,1.0,-0.1,-4.7,8.1,192.0,7.4
2016_SI,2,4.6,-0.6,3.7,3.4,78.7,103.87,-28.9,1.3,1.1,-0.9,-6.4,-0.8,81.1,8.9
2016_SK,1,-1.2,-1.6,7.31,8.6,52.0,107.02,-66.8,4.1,2.0,-4.2,-11.5,9.2,88.6,11.5
2016_UK,1,-4.9,0.2,1.09,11.7,86.8,105.51,0.3,3.7,0.9,-1.4,-7.7,8.8,166.4,5.4
2017_AT,1,2.0,0.2,2.7,2.2,78.3,110.5,2.8,4.0,1.0,0.3,-0.5,3.6,121.8,5.7
2017_BE,1,1.1,0.9,1.08,0.6,101.8,102.87,56.7,0.8,0.3,-0.8,-3.9,0.1,185.0,7.8
2017_BG,2,2.3,-3.3,20.41,7.1,25.3,112.26,-43.3,13.5,2.3,-3.5,-10.9,4.1,99.0,7.7
2017_CY,3,-3.3,-6.4,18.62,-1.7,93.9,103.14,-127.3,-4.1,-0.4,-3.2,-11.3,6.7,304.0,13.0
2017_CZ,1,1.2,5.3,8.56,23.0,34.7,116.33,-25.0,5.9,2.4,-1.7,-8.0,4.2,67.3,4.0
2017_DE,2,8.4,-2.0,5.73,4.0,65.3,111.64,55.2,4.9,0.5,-0.6,-0.9,4.5,100.0,4.2
2017_DK,1,7.9,-2.1,1.07,4.8,35.5,108.16,40.8,2.4,0.7,-0.4,-1.8,0.1,201.7,6.0
2017_EE,1,2.0,3.0,2.18,14.3,9.3,105.85,-32.5,12.4,3.6,-1.4,-2.9,4.8,107.6,6.3
2017_EL,4,-1.5,-3.0,-0.36,-13.0,176.2,96.77,-140.7,-1.0,0.9,-3.9,-8.8,-1.0,118.1,23.3
2017_ES,2,2.6,-2.6,9.87,3.4,98.6,109.14,-85.5,-0.5,-0.3,-5.2,-14.6,0.7,139.7,19.6
2017_FI,1,-1.2,-2.6,-4.91,-4.0,60.9,101.0,0.1,-3.5,1.3,0.2,-0.4,7.4,145.3,8.9
2017_FR,2,-0.5,-3.0,2.4,4.6,98.4,103.03,-16.6,1.5,0.5,-0.3,-1.9,6.8,145.5,10.0
2017_HR,3,2.8,0.1,23.24,3.9,78.0,104.96,-65.6,-3.9,0.3,-5.5,-17.7,1.5,97.8,13.5
2017_HU,1,3.1,0.0,10.82,-7.7,72.9,123.65,-54.9,9.1,4.2,-2.0,-9.7,0.7,70.0,5.4
2017_IE,2,0.2,-6.3,71.33,4.3,67.8,117.65,-167.2,-15.4,0.9,-3.6,-9.0,0.2,250.5,8.4
2017_IT,3,2.2,-3.1,1.19,4.2,134.1,97.93,-7.7,1.3,1.5,-1.2,-8.0,1.3,108.8,11.6
2017_LT,1,-1.0,2.6,3.79,13.9,39.3,109.86,-37.9,16.3,2.2,-2.1,-6.0,4.5,56.1,8.0
2017_LU,1,5.0,-1.0,21.39,0.4,22.3,109.55,51.8,4.0,-0.6,0.5,-6.8,27.4,322.9,6.1
2017_LV,1,0.5,1.7,8.2,6.2,38.6,113.36,-56.2,15.2,2.4,-1.3,-2.6,2.4,76.9,9.4
2017_MT,1,6.0,-2.5,24.19,6.5,50.3,109.17,63.0,1.2,4.4,-1.1,-1.1,5.5,132.3,4.7
2017_NL,2,8.4,-1.8,1.52,-0.1,56.9,110.72,59.4,-0.1,0.7,-1.0,-3.8,3.7,249.1,5.9
2017_PL,1,-0.3,-3.5,27.95,6.5,50.6,104.11,-61.2,4.1,1.7,-2.3,-9.1,2.9,76.5,6.2
2017_PT,2,0.8,-0.8,14.29,1.9,126.0,114.05,-109.9,2.8,1.5,-3.9,-10.9,2.0,161.9,10.9
2017_RO,1,-2.2,-5.6,36.5,8.2,35.1,108.56,-47.7,15.4,1.6,-0.8,-5.7,1.7,50.9,5.9
2017_SE,2,3.6,-5.5,-4.56,6.9,40.7,112.4,4.5,3.9,1.0,-0.2,-5.1,13.3,197.9,7.0
2017_SI,1,4.9,-2.0,18.08,5.3,74.1,110.35,-24.2,3.7,3.3,-2.2,-9.0,0.9,76.3,7.9
2017_SK,1,-2.2,-2.0,5.15,17.4,51.3,111.76,-68.3,8.1,1.8,-4.2,-10.8,9.6,94.5,9.8
2017_UK,1,-4.5,-10.8,-1.18,-1.7,86.2,108.73,-10.0,5.1,0.9,-1.1,-4.9,7.2,167.7,4.8
