unit,bop_item,stk_flow,partner,geo,date,value
PCH_WRL_5Y,G,CRE,WRL_REST,AT,1999-01-01,
PCH_WRL_5Y,G,CRE,WRL_REST,AT,2000-01-01,-7.32
PCH_WRL_5Y,G,CRE,WRL_REST,AT,2001-01-01,3.08
PCH_WRL_5Y,G,CRE,WRL_REST,AT,2002-01-01,8.53
PCH_WRL_5Y,G,CRE,WRL_REST,AT,2003-01-01,1.65
PCH_WRL_5Y,G,CRE,WRL_REST,AT,2004-01-01,4.68
PCH_WRL_5Y,G,CRE,WRL_REST,AT,2005-01-01,12.52
PCH_WRL_5Y,G,CRE,WRL_REST,AT,2006-01-01,1.24
PCH_WRL_5Y,G,CRE,WRL_REST,AT,2007-01-01,2.72
PCH_WRL_5Y,G,CRE,WRL_REST,AT,2008-01-01,-3.75
PCH_WRL_5Y,G,CRE,WRL_REST,AT,2009-01-01,-6.93
PCH_WRL_5Y,G,CRE,WRL_REST,AT,2010-01-01,-11.87
PCH_WRL_5Y,G,CRE,WRL_REST,AT,2011-01-01,-11.85
PCH_WRL_5Y,G,CRE,WRL_REST,AT,2012-01-01,-22.98
PCH_WRL_5Y,G,CRE,WRL_REST,AT,2013-01-01,-19.47
PCH_WRL_5Y,G,CRE,WRL_REST,AT,2014-01-01,-16.5
PCH_WRL_5Y,G,CRE,WRL_REST,AT,2015-01-01,-9.17
PCH_WRL_5Y,G,CRE,WRL_REST,AT,2016-01-01,-2.6
PCH_WRL_5Y,G,CRE,WRL_REST,AT,2017-01-01,3.13
PCH_WRL_5Y,G,CRE,WRL_REST,AT,2018-01-01,5.77
PCH_WRL_5Y,G,CRE,WRL_REST,BE,1999-01-01,
PCH_WRL_5Y,G,CRE,WRL_REST,BE,2000-01-01,
PCH_WRL_5Y,G,CRE,WRL_REST,BE,2001-01-01,
PCH_WRL_5Y,G,CRE,WRL_REST,BE,2002-01-01,
PCH_WRL_5Y,G,CRE,WRL_REST,BE,2003-01-01,
PCH_WRL_5Y,G,CRE,WRL_REST,BE,2004-01-01,
PCH_WRL_5Y,G,CRE,WRL_REST,BE,2005-01-01,-5.7
PCH_WRL_5Y,G,CRE,WRL_REST,BE,2006-01-01,-13.39
PCH_WRL_5Y,G,CRE,WRL_REST,BE,2007-01-01,-5.89
PCH_WRL_5Y,G,CRE,WRL_REST,BE,2008-01-01,-13.43
PCH_WRL_5Y,G,CRE,WRL_REST,BE,2009-01-01,-14.01
PCH_WRL_5Y,G,CRE,WRL_REST,BE,2010-01-01,-17.34
PCH_WRL_5Y,G,CRE,WRL_REST,BE,2011-01-01,-12.45
PCH_WRL_5Y,G,CRE,WRL_REST,BE,2012-01-01,-21.47
PCH_WRL_5Y,G,CRE,WRL_REST,BE,2013-01-01,-15.89
PCH_WRL_5Y,G,CRE,WRL_REST,BE,2014-01-01,-15.5
PCH_WRL_5Y,G,CRE,WRL_REST,BE,2015-01-01,-15.08
PCH_WRL_5Y,G,CRE,WRL_REST,BE,2016-01-01,-5.32
PCH_WRL_5Y,G,CRE,WRL_REST,BE,2017-01-01,2.91
PCH_WRL_5Y,G,CRE,WRL_REST,BE,2018-01-01,0.78
PCH_WRL_5Y,G,CRE,WRL_REST,BG,1999-01-01,
PCH_WRL_5Y,G,CRE,WRL_REST,BG,2000-01-01,
PCH_WRL_5Y,G,CRE,WRL_REST,BG,2001-01-01,
PCH_WRL_5Y,G,CRE,WRL_REST,BG,2002-01-01,
PCH_WRL_5Y,G,CRE,WRL_REST,BG,2003-01-01,31.53
PCH_WRL_5Y,G,CRE,WRL_REST,BG,2004-01-01,56.04
PCH_WRL_5Y,G,CRE,WRL_REST,BG,2005-01-01,48.98
PCH_WRL_5Y,G,CRE,WRL_REST,BG,2006-01-01,49.62
PCH_WRL_5Y,G,CRE,WRL_REST,BG,2007-01-01,36.82
PCH_WRL_5Y,G,CRE,WRL_REST,BG,2008-01-01,29.4
PCH_WRL_5Y,G,CRE,WRL_REST,BG,2009-01-01,10.83
PCH_WRL_5Y,G,CRE,WRL_REST,BG,2010-01-01,11.05
PCH_WRL_5Y,G,CRE,WRL_REST,BG,2011-01-01,17.75
PCH_WRL_5Y,G,CRE,WRL_REST,BG,2012-01-01,13.25
PCH_WRL_5Y,G,CRE,WRL_REST,BG,2013-01-01,15.66
PCH_WRL_5Y,G,CRE,WRL_REST,BG,2014-01-01,23.18
PCH_WRL_5Y,G,CRE,WRL_REST,BG,2015-01-01,18.96
PCH_WRL_5Y,G,CRE,WRL_REST,BG,2016-01-01,9.78
PCH_WRL_5Y,G,CRE,WRL_REST,BG,2017-01-01,25.21
PCH_WRL_5Y,G,CRE,WRL_REST,BG,2018-01-01,12.84
PCH_WRL_5Y,G,CRE,WRL_REST,CY,1999-01-01,
PCH_WRL_5Y,G,CRE,WRL_REST,CY,2000-01-01,
PCH_WRL_5Y,G,CRE,WRL_REST,CY,2001-01-01,
PCH_WRL_5Y,G,CRE,WRL_REST,CY,2002-01-01,
PCH_WRL_5Y,G,CRE,WRL_REST,CY,2003-01-01,
PCH_WRL_5Y,G,CRE,WRL_REST,CY,2004-01-01,
PCH_WRL_5Y,G,CRE,WRL_REST,CY,2005-01-01,
PCH_WRL_5Y,G,CRE,WRL_REST,CY,2006-01-01,
PCH_WRL_5Y,G,CRE,WRL_REST,CY,2007-01-01,
PCH_WRL_5Y,G,CRE,WRL_REST,CY,2008-01-01,
PCH_WRL_5Y,G,CRE,WRL_REST,CY,2009-01-01,
PCH_WRL_5Y,G,CRE,WRL_REST,CY,2010-01-01,
PCH_WRL_5Y,G,CRE,WRL_REST,CY,2011-01-01,
PCH_WRL_5Y,G,CRE,WRL_REST,CY,2012-01-01,
PCH_WRL_5Y,G,CRE,WRL_REST,CY,2013-01-01,-9.51
PCH_WRL_5Y,G,CRE,WRL_REST,CY,2014-01-01,-31.53
PCH_WRL_5Y,G,CRE,WRL_REST,CY,2015-01-01,-17.51
PCH_WRL_5Y,G,CRE,WRL_REST,CY,2016-01-01,-22.25
PCH_WRL_5Y,G,CRE,WRL_REST,CY,2017-01-01,-17.85
PCH_WRL_5Y,G,CRE,WRL_REST,CY,2018-01-01,14.81
PCH_WRL_5Y,G,CRE,WRL_REST,CZ,1999-01-01,9.7
PCH_WRL_5Y,G,CRE,WRL_REST,CZ,2000-01-01,-0.23
PCH_WRL_5Y,G,CRE,WRL_REST,CZ,2001-01-01,20.86
PCH_WRL_5Y,G,CRE,WRL_REST,CZ,2002-01-01,41.99
PCH_WRL_5Y,G,CRE,WRL_REST,CZ,2003-01-01,36.58
PCH_WRL_5Y,G,CRE,WRL_REST,CZ,2004-01-01,93.75
PCH_WRL_5Y,G,CRE,WRL_REST,CZ,2005-01-01,123.54
PCH_WRL_5Y,G,CRE,WRL_REST,CZ,2006-01-01,90.98
PCH_WRL_5Y,G,CRE,WRL_REST,CZ,2007-01-01,85.56
PCH_WRL_5Y,G,CRE,WRL_REST,CZ,2008-01-01,70.33
PCH_WRL_5Y,G,CRE,WRL_REST,CZ,2009-01-01,33.44
PCH_WRL_5Y,G,CRE,WRL_REST,CZ,2010-01-01,11.74
PCH_WRL_5Y,G,CRE,WRL_REST,CZ,2011-01-01,7.85
PCH_WRL_5Y,G,CRE,WRL_REST,CZ,2012-01-01,-5.37
PCH_WRL_5Y,G,CRE,WRL_REST,CZ,2013-01-01,-8.17
PCH_WRL_5Y,G,CRE,WRL_REST,CZ,2014-01-01,-4.56
PCH_WRL_5Y,G,CRE,WRL_REST,CZ,2015-01-01,2.47
PCH_WRL_5Y,G,CRE,WRL_REST,CZ,2016-01-01,7.87
PCH_WRL_5Y,G,CRE,WRL_REST,CZ,2017-01-01,13.23
PCH_WRL_5Y,G,CRE,WRL_REST,CZ,2018-01-01,14.6
PCH_WRL_5Y,G,CRE,WRL_REST,DE,1999-01-01,-4.0
PCH_WRL_5Y,G,CRE,WRL_REST,DE,2000-01-01,-12.28
PCH_WRL_5Y,G,CRE,WRL_REST,DE,2001-01-01,-2.95
PCH_WRL_5Y,G,CRE,WRL_REST,DE,2002-01-01,3.26
PCH_WRL_5Y,G,CRE,WRL_REST,DE,2003-01-01,-0.46
PCH_WRL_5Y,G,CRE,WRL_REST,DE,2004-01-01,4.09
PCH_WRL_5Y,G,CRE,WRL_REST,DE,2005-01-01,8.9
PCH_WRL_5Y,G,CRE,WRL_REST,DE,2006-01-01,0.27
PCH_WRL_5Y,G,CRE,WRL_REST,DE,2007-01-01,2.89
PCH_WRL_5Y,G,CRE,WRL_REST,DE,2008-01-01,-5.17
PCH_WRL_5Y,G,CRE,WRL_REST,DE,2009-01-01,-6.74
PCH_WRL_5Y,G,CRE,WRL_REST,DE,2010-01-01,-8.24
PCH_WRL_5Y,G,CRE,WRL_REST,DE,2011-01-01,-9.35
PCH_WRL_5Y,G,CRE,WRL_REST,DE,2012-01-01,-18.51
PCH_WRL_5Y,G,CRE,WRL_REST,DE,2013-01-01,-13.82
PCH_WRL_5Y,G,CRE,WRL_REST,DE,2014-01-01,-10.09
PCH_WRL_5Y,G,CRE,WRL_REST,DE,2015-01-01,-1.84
PCH_WRL_5Y,G,CRE,WRL_REST,DE,2016-01-01,3.91
PCH_WRL_5Y,G,CRE,WRL_REST,DE,2017-01-01,7.42
PCH_WRL_5Y,G,CRE,WRL_REST,DE,2018-01-01,4.12
PCH_WRL_5Y,G,CRE,WRL_REST,DK,1999-01-01,
PCH_WRL_5Y,G,CRE,WRL_REST,DK,2000-01-01,
PCH_WRL_5Y,G,CRE,WRL_REST,DK,2001-01-01,
PCH_WRL_5Y,G,CRE,WRL_REST,DK,2002-01-01,
PCH_WRL_5Y,G,CRE,WRL_REST,DK,2003-01-01,
PCH_WRL_5Y,G,CRE,WRL_REST,DK,2004-01-01,
PCH_WRL_5Y,G,CRE,WRL_REST,DK,2005-01-01,
PCH_WRL_5Y,G,CRE,WRL_REST,DK,2006-01-01,
PCH_WRL_5Y,G,CRE,WRL_REST,DK,2007-01-01,
PCH_WRL_5Y,G,CRE,WRL_REST,DK,2008-01-01,
PCH_WRL_5Y,G,CRE,WRL_REST,DK,2009-01-01,
PCH_WRL_5Y,G,CRE,WRL_REST,DK,2010-01-01,-13.74
PCH_WRL_5Y,G,CRE,WRL_REST,DK,2011-01-01,-12.56
PCH_WRL_5Y,G,CRE,WRL_REST,DK,2012-01-01,-17.43
PCH_WRL_5Y,G,CRE,WRL_REST,DK,2013-01-01,-16.35
PCH_WRL_5Y,G,CRE,WRL_REST,DK,2014-01-01,-17.26
PCH_WRL_5Y,G,CRE,WRL_REST,DK,2015-01-01,-6.02
PCH_WRL_5Y,G,CRE,WRL_REST,DK,2016-01-01,0.19
PCH_WRL_5Y,G,CRE,WRL_REST,DK,2017-01-01,4.83
PCH_WRL_5Y,G,CRE,WRL_REST,DK,2018-01-01,-0.69
PCH_WRL_5Y,G,CRE,WRL_REST,EE,1999-01-01,52.18
PCH_WRL_5Y,G,CRE,WRL_REST,EE,2000-01-01,-4.08
PCH_WRL_5Y,G,CRE,WRL_REST,EE,2001-01-01,6.46
PCH_WRL_5Y,G,CRE,WRL_REST,EE,2002-01-01,-6.42
PCH_WRL_5Y,G,CRE,WRL_REST,EE,2003-01-01,-7.56
PCH_WRL_5Y,G,CRE,WRL_REST,EE,2004-01-01,14.06
PCH_WRL_5Y,G,CRE,WRL_REST,EE,2005-01-01,85.3
PCH_WRL_5Y,G,CRE,WRL_REST,EE,2006-01-01,69.75
PCH_WRL_5Y,G,CRE,WRL_REST,EE,2007-01-01,82.09
PCH_WRL_5Y,G,CRE,WRL_REST,EE,2008-01-01,52.18
PCH_WRL_5Y,G,CRE,WRL_REST,EE,2009-01-01,24.92
PCH_WRL_5Y,G,CRE,WRL_REST,EE,2010-01-01,19.96
PCH_WRL_5Y,G,CRE,WRL_REST,EE,2011-01-01,39.0
PCH_WRL_5Y,G,CRE,WRL_REST,EE,2012-01-01,11.04
PCH_WRL_5Y,G,CRE,WRL_REST,EE,2013-01-01,16.93
PCH_WRL_5Y,G,CRE,WRL_REST,EE,2014-01-01,30.22
PCH_WRL_5Y,G,CRE,WRL_REST,EE,2015-01-01,10.03
PCH_WRL_5Y,G,CRE,WRL_REST,EE,2016-01-01,-1.48
PCH_WRL_5Y,G,CRE,WRL_REST,EE,2017-01-01,2.28
PCH_WRL_5Y,G,CRE,WRL_REST,EE,2018-01-01,0.08
PCH_WRL_5Y,G,CRE,WRL_REST,EL,1999-01-01,
PCH_WRL_5Y,G,CRE,WRL_REST,EL,2000-01-01,
PCH_WRL_5Y,G,CRE,WRL_REST,EL,2001-01-01,
PCH_WRL_5Y,G,CRE,WRL_REST,EL,2002-01-01,
PCH_WRL_5Y,G,CRE,WRL_REST,EL,2003-01-01,
PCH_WRL_5Y,G,CRE,WRL_REST,EL,2004-01-01,
PCH_WRL_5Y,G,CRE,WRL_REST,EL,2005-01-01,
PCH_WRL_5Y,G,CRE,WRL_REST,EL,2006-01-01,
PCH_WRL_5Y,G,CRE,WRL_REST,EL,2007-01-01,25.25
PCH_WRL_5Y,G,CRE,WRL_REST,EL,2008-01-01,15.85
PCH_WRL_5Y,G,CRE,WRL_REST,EL,2009-01-01,8.53
PCH_WRL_5Y,G,CRE,WRL_REST,EL,2010-01-01,-1.05
PCH_WRL_5Y,G,CRE,WRL_REST,EL,2011-01-01,-3.45
PCH_WRL_5Y,G,CRE,WRL_REST,EL,2012-01-01,-9.48
PCH_WRL_5Y,G,CRE,WRL_REST,EL,2013-01-01,-8.84
PCH_WRL_5Y,G,CRE,WRL_REST,EL,2014-01-01,-7.71
PCH_WRL_5Y,G,CRE,WRL_REST,EL,2015-01-01,-5.55
PCH_WRL_5Y,G,CRE,WRL_REST,EL,2016-01-01,-3.17
PCH_WRL_5Y,G,CRE,WRL_REST,EL,2017-01-01,-3.01
PCH_WRL_5Y,G,CRE,WRL_REST,EL,2018-01-01,6.68
PCH_WRL_5Y,G,CRE,WRL_REST,ES,1999-01-01,21.92
PCH_WRL_5Y,G,CRE,WRL_REST,ES,2000-01-01,2.73
PCH_WRL_5Y,G,CRE,WRL_REST,ES,2001-01-01,3.92
PCH_WRL_5Y,G,CRE,WRL_REST,ES,2002-01-01,3.88
PCH_WRL_5Y,G,CRE,WRL_REST,ES,2003-01-01,2.11
PCH_WRL_5Y,G,CRE,WRL_REST,ES,2004-01-01,1.37
PCH_WRL_5Y,G,CRE,WRL_REST,ES,2005-01-01,1.64
PCH_WRL_5Y,G,CRE,WRL_REST,ES,2006-01-01,-8.51
PCH_WRL_5Y,G,CRE,WRL_REST,ES,2007-01-01,-3.96
PCH_WRL_5Y,G,CRE,WRL_REST,ES,2008-01-01,-14.37
PCH_WRL_5Y,G,CRE,WRL_REST,ES,2009-01-01,-8.78
PCH_WRL_5Y,G,CRE,WRL_REST,ES,2010-01-01,-9.15
PCH_WRL_5Y,G,CRE,WRL_REST,ES,2011-01-01,-4.6
PCH_WRL_5Y,G,CRE,WRL_REST,ES,2012-01-01,-16.22
PCH_WRL_5Y,G,CRE,WRL_REST,ES,2013-01-01,-5.98
PCH_WRL_5Y,G,CRE,WRL_REST,ES,2014-01-01,-8.1
PCH_WRL_5Y,G,CRE,WRL_REST,ES,2015-01-01,1.38
PCH_WRL_5Y,G,CRE,WRL_REST,ES,2016-01-01,7.53
PCH_WRL_5Y,G,CRE,WRL_REST,ES,2017-01-01,13.34
PCH_WRL_5Y,G,CRE,WRL_REST,ES,2018-01-01,5.08
PCH_WRL_5Y,G,CRE,WRL_REST,FI,1999-01-01,
PCH_WRL_5Y,G,CRE,WRL_REST,FI,2000-01-01,-5.03
PCH_WRL_5Y,G,CRE,WRL_REST,FI,2001-01-01,-5.57
PCH_WRL_5Y,G,CRE,WRL_REST,FI,2002-01-01,-4.33
PCH_WRL_5Y,G,CRE,WRL_REST,FI,2003-01-01,-10.66
PCH_WRL_5Y,G,CRE,WRL_REST,FI,2004-01-01,-8.69
PCH_WRL_5Y,G,CRE,WRL_REST,FI,2005-01-01,-13.02
PCH_WRL_5Y,G,CRE,WRL_REST,FI,2006-01-01,-1.7
PCH_WRL_5Y,G,CRE,WRL_REST,FI,2007-01-01,4.39
PCH_WRL_5Y,G,CRE,WRL_REST,FI,2008-01-01,-3.54
PCH_WRL_5Y,G,CRE,WRL_REST,FI,2009-01-01,-11.42
PCH_WRL_5Y,G,CRE,WRL_REST,FI,2010-01-01,-18.62
PCH_WRL_5Y,G,CRE,WRL_REST,FI,2011-01-01,-32.18
PCH_WRL_5Y,G,CRE,WRL_REST,FI,2012-01-01,-41.41
PCH_WRL_5Y,G,CRE,WRL_REST,FI,2013-01-01,-37.31
PCH_WRL_5Y,G,CRE,WRL_REST,FI,2014-01-01,-31.6
PCH_WRL_5Y,G,CRE,WRL_REST,FI,2015-01-01,-27.78
PCH_WRL_5Y,G,CRE,WRL_REST,FI,2016-01-01,-19.55
PCH_WRL_5Y,G,CRE,WRL_REST,FI,2017-01-01,-8.63
PCH_WRL_5Y,G,CRE,WRL_REST,FI,2018-01-01,-6.44
PCH_WRL_5Y,G,CRE,WRL_REST,FR,1999-01-01,
PCH_WRL_5Y,G,CRE,WRL_REST,FR,2000-01-01,
PCH_WRL_5Y,G,CRE,WRL_REST,FR,2001-01-01,
PCH_WRL_5Y,G,CRE,WRL_REST,FR,2002-01-01,
PCH_WRL_5Y,G,CRE,WRL_REST,FR,2003-01-01,
PCH_WRL_5Y,G,CRE,WRL_REST,FR,2004-01-01,-12.44
PCH_WRL_5Y,G,CRE,WRL_REST,FR,2005-01-01,-8.14
PCH_WRL_5Y,G,CRE,WRL_REST,FR,2006-01-01,-15.23
PCH_WRL_5Y,G,CRE,WRL_REST,FR,2007-01-01,-16.67
PCH_WRL_5Y,G,CRE,WRL_REST,FR,2008-01-01,-20.19
PCH_WRL_5Y,G,CRE,WRL_REST,FR,2009-01-01,-16.2
PCH_WRL_5Y,G,CRE,WRL_REST,FR,2010-01-01,-19.6
PCH_WRL_5Y,G,CRE,WRL_REST,FR,2011-01-01,-18.88
PCH_WRL_5Y,G,CRE,WRL_REST,FR,2012-01-01,-22.35
PCH_WRL_5Y,G,CRE,WRL_REST,FR,2013-01-01,-18.24
PCH_WRL_5Y,G,CRE,WRL_REST,FR,2014-01-01,-19.04
PCH_WRL_5Y,G,CRE,WRL_REST,FR,2015-01-01,-5.44
PCH_WRL_5Y,G,CRE,WRL_REST,FR,2016-01-01,1.11
PCH_WRL_5Y,G,CRE,WRL_REST,FR,2017-01-01,3.71
PCH_WRL_5Y,G,CRE,WRL_REST,FR,2018-01-01,1.91
PCH_WRL_5Y,G,CRE,WRL_REST,HR,1999-01-01,
PCH_WRL_5Y,G,CRE,WRL_REST,HR,2000-01-01,
PCH_WRL_5Y,G,CRE,WRL_REST,HR,2001-01-01,
PCH_WRL_5Y,G,CRE,WRL_REST,HR,2002-01-01,
PCH_WRL_5Y,G,CRE,WRL_REST,HR,2003-01-01,
PCH_WRL_5Y,G,CRE,WRL_REST,HR,2004-01-01,
PCH_WRL_5Y,G,CRE,WRL_REST,HR,2005-01-01,46.38
PCH_WRL_5Y,G,CRE,WRL_REST,HR,2006-01-01,36.61
PCH_WRL_5Y,G,CRE,WRL_REST,HR,2007-01-01,23.94
PCH_WRL_5Y,G,CRE,WRL_REST,HR,2008-01-01,13.84
PCH_WRL_5Y,G,CRE,WRL_REST,HR,2009-01-01,2.79
PCH_WRL_5Y,G,CRE,WRL_REST,HR,2010-01-01,-1.49
PCH_WRL_5Y,G,CRE,WRL_REST,HR,2011-01-01,-9.12
PCH_WRL_5Y,G,CRE,WRL_REST,HR,2012-01-01,-20.0
PCH_WRL_5Y,G,CRE,WRL_REST,HR,2013-01-01,-14.61
PCH_WRL_5Y,G,CRE,WRL_REST,HR,2014-01-01,-10.55
PCH_WRL_5Y,G,CRE,WRL_REST,HR,2015-01-01,-2.51
PCH_WRL_5Y,G,CRE,WRL_REST,HR,2016-01-01,8.99
PCH_WRL_5Y,G,CRE,WRL_REST,HR,2017-01-01,23.44
PCH_WRL_5Y,G,CRE,WRL_REST,HR,2018-01-01,18.51
PCH_WRL_5Y,G,CRE,WRL_REST,HU,1999-01-01,
PCH_WRL_5Y,G,CRE,WRL_REST,HU,2000-01-01,74.56
PCH_WRL_5Y,G,CRE,WRL_REST,HU,2001-01-01,95.77
PCH_WRL_5Y,G,CRE,WRL_REST,HU,2002-01-01,77.95
PCH_WRL_5Y,G,CRE,WRL_REST,HU,2003-01-01,52.33
PCH_WRL_5Y,G,CRE,WRL_REST,HU,2004-01-01,59.31
PCH_WRL_5Y,G,CRE,WRL_REST,HU,2005-01-01,50.34
PCH_WRL_5Y,G,CRE,WRL_REST,HU,2006-01-01,35.81
PCH_WRL_5Y,G,CRE,WRL_REST,HU,2007-01-01,38.43
PCH_WRL_5Y,G,CRE,WRL_REST,HU,2008-01-01,30.58
PCH_WRL_5Y,G,CRE,WRL_REST,HU,2009-01-01,12.55
PCH_WRL_5Y,G,CRE,WRL_REST,HU,2010-01-01,1.27
PCH_WRL_5Y,G,CRE,WRL_REST,HU,2011-01-01,-6.21
PCH_WRL_5Y,G,CRE,WRL_REST,HU,2012-01-01,-26.0
PCH_WRL_5Y,G,CRE,WRL_REST,HU,2013-01-01,-25.23
PCH_WRL_5Y,G,CRE,WRL_REST,HU,2014-01-01,-18.73
PCH_WRL_5Y,G,CRE,WRL_REST,HU,2015-01-01,-8.56
PCH_WRL_5Y,G,CRE,WRL_REST,HU,2016-01-01,-0.76
PCH_WRL_5Y,G,CRE,WRL_REST,HU,2017-01-01,11.84
PCH_WRL_5Y,G,CRE,WRL_REST,HU,2018-01-01,8.85
PCH_WRL_5Y,G,CRE,WRL_REST,IE,1999-01-01,
PCH_WRL_5Y,G,CRE,WRL_REST,IE,2000-01-01,
PCH_WRL_5Y,G,CRE,WRL_REST,IE,2001-01-01,
PCH_WRL_5Y,G,CRE,WRL_REST,IE,2002-01-01,
PCH_WRL_5Y,G,CRE,WRL_REST,IE,2003-01-01,
PCH_WRL_5Y,G,CRE,WRL_REST,IE,2004-01-01,
PCH_WRL_5Y,G,CRE,WRL_REST,IE,2005-01-01,
PCH_WRL_5Y,G,CRE,WRL_REST,IE,2006-01-01,
PCH_WRL_5Y,G,CRE,WRL_REST,IE,2007-01-01,-25.33
PCH_WRL_5Y,G,CRE,WRL_REST,IE,2008-01-01,-25.19
PCH_WRL_5Y,G,CRE,WRL_REST,IE,2009-01-01,-4.58
PCH_WRL_5Y,G,CRE,WRL_REST,IE,2010-01-01,-14.81
PCH_WRL_5Y,G,CRE,WRL_REST,IE,2011-01-01,-20.02
PCH_WRL_5Y,G,CRE,WRL_REST,IE,2012-01-01,-27.88
PCH_WRL_5Y,G,CRE,WRL_REST,IE,2013-01-01,-21.66
PCH_WRL_5Y,G,CRE,WRL_REST,IE,2014-01-01,-26.41
PCH_WRL_5Y,G,CRE,WRL_REST,IE,2015-01-01,49.37
PCH_WRL_5Y,G,CRE,WRL_REST,IE,2016-01-01,73.98
PCH_WRL_5Y,G,CRE,WRL_REST,IE,2017-01-01,77.51
PCH_WRL_5Y,G,CRE,WRL_REST,IE,2018-01-01,89.07
PCH_WRL_5Y,G,CRE,WRL_REST,IT,1999-01-01,
PCH_WRL_5Y,G,CRE,WRL_REST,IT,2000-01-01,-26.23
PCH_WRL_5Y,G,CRE,WRL_REST,IT,2001-01-01,-16.75
PCH_WRL_5Y,G,CRE,WRL_REST,IT,2002-01-01,-8.32
PCH_WRL_5Y,G,CRE,WRL_REST,IT,2003-01-01,-11.25
PCH_WRL_5Y,G,CRE,WRL_REST,IT,2004-01-01,-6.09
PCH_WRL_5Y,G,CRE,WRL_REST,IT,2005-01-01,-4.37
PCH_WRL_5Y,G,CRE,WRL_REST,IT,2006-01-01,-13.11
PCH_WRL_5Y,G,CRE,WRL_REST,IT,2007-01-01,-7.85
PCH_WRL_5Y,G,CRE,WRL_REST,IT,2008-01-01,-13.71
PCH_WRL_5Y,G,CRE,WRL_REST,IT,2009-01-01,-14.96
PCH_WRL_5Y,G,CRE,WRL_REST,IT,2010-01-01,-16.97
PCH_WRL_5Y,G,CRE,WRL_REST,IT,2011-01-01,-16.83
PCH_WRL_5Y,G,CRE,WRL_REST,IT,2012-01-01,-25.48
PCH_WRL_5Y,G,CRE,WRL_REST,IT,2013-01-01,-20.31
PCH_WRL_5Y,G,CRE,WRL_REST,IT,2014-01-01,-14.87
PCH_WRL_5Y,G,CRE,WRL_REST,IT,2015-01-01,-5.42
PCH_WRL_5Y,G,CRE,WRL_REST,IT,2016-01-01,1.09
PCH_WRL_5Y,G,CRE,WRL_REST,IT,2017-01-01,6.05
PCH_WRL_5Y,G,CRE,WRL_REST,IT,2018-01-01,3.22
PCH_WRL_5Y,G,CRE,WRL_REST,LT,1999-01-01,
PCH_WRL_5Y,G,CRE,WRL_REST,LT,2000-01-01,
PCH_WRL_5Y,G,CRE,WRL_REST,LT,2001-01-01,
PCH_WRL_5Y,G,CRE,WRL_REST,LT,2002-01-01,
PCH_WRL_5Y,G,CRE,WRL_REST,LT,2003-01-01,
PCH_WRL_5Y,G,CRE,WRL_REST,LT,2004-01-01,
PCH_WRL_5Y,G,CRE,WRL_REST,LT,2005-01-01,
PCH_WRL_5Y,G,CRE,WRL_REST,LT,2006-01-01,
PCH_WRL_5Y,G,CRE,WRL_REST,LT,2007-01-01,
PCH_WRL_5Y,G,CRE,WRL_REST,LT,2008-01-01,
PCH_WRL_5Y,G,CRE,WRL_REST,LT,2009-01-01,43.39
PCH_WRL_5Y,G,CRE,WRL_REST,LT,2010-01-01,22.75
PCH_WRL_5Y,G,CRE,WRL_REST,LT,2011-01-01,33.11
PCH_WRL_5Y,G,CRE,WRL_REST,LT,2012-01-01,31.1
PCH_WRL_5Y,G,CRE,WRL_REST,LT,2013-01-01,10.82
PCH_WRL_5Y,G,CRE,WRL_REST,LT,2014-01-01,16.27
PCH_WRL_5Y,G,CRE,WRL_REST,LT,2015-01-01,3.23
PCH_WRL_5Y,G,CRE,WRL_REST,LT,2016-01-01,-6.39
PCH_WRL_5Y,G,CRE,WRL_REST,LT,2017-01-01,-2.79
PCH_WRL_5Y,G,CRE,WRL_REST,LT,2018-01-01,-4.25
PCH_WRL_5Y,G,CRE,WRL_REST,LU,1999-01-01,
PCH_WRL_5Y,G,CRE,WRL_REST,LU,2000-01-01,-15.21
PCH_WRL_5Y,G,CRE,WRL_REST,LU,2001-01-01,2.35
PCH_WRL_5Y,G,CRE,WRL_REST,LU,2002-01-01,5.57
PCH_WRL_5Y,G,CRE,WRL_REST,LU,2003-01-01,-5.19
PCH_WRL_5Y,G,CRE,WRL_REST,LU,2004-01-01,0.26
PCH_WRL_5Y,G,CRE,WRL_REST,LU,2005-01-01,3.35
PCH_WRL_5Y,G,CRE,WRL_REST,LU,2006-01-01,-4.91
PCH_WRL_5Y,G,CRE,WRL_REST,LU,2007-01-01,-5.25
PCH_WRL_5Y,G,CRE,WRL_REST,LU,2008-01-01,-0.78
PCH_WRL_5Y,G,CRE,WRL_REST,LU,2009-01-01,-4.46
PCH_WRL_5Y,G,CRE,WRL_REST,LU,2010-01-01,-4.62
PCH_WRL_5Y,G,CRE,WRL_REST,LU,2011-01-01,-5.8
PCH_WRL_5Y,G,CRE,WRL_REST,LU,2012-01-01,-1.29
PCH_WRL_5Y,G,CRE,WRL_REST,LU,2013-01-01,-1.62
PCH_WRL_5Y,G,CRE,WRL_REST,LU,2014-01-01,2.63
PCH_WRL_5Y,G,CRE,WRL_REST,LU,2015-01-01,-4.05
PCH_WRL_5Y,G,CRE,WRL_REST,LU,2016-01-01,-5.02
PCH_WRL_5Y,G,CRE,WRL_REST,LU,2017-01-01,-9.79
PCH_WRL_5Y,G,CRE,WRL_REST,LU,2018-01-01,-15.59
PCH_WRL_5Y,G,CRE,WRL_REST,LV,1999-01-01,
PCH_WRL_5Y,G,CRE,WRL_REST,LV,2000-01-01,
PCH_WRL_5Y,G,CRE,WRL_REST,LV,2001-01-01,
PCH_WRL_5Y,G,CRE,WRL_REST,LV,2002-01-01,
PCH_WRL_5Y,G,CRE,WRL_REST,LV,2003-01-01,
PCH_WRL_5Y,G,CRE,WRL_REST,LV,2004-01-01,
PCH_WRL_5Y,G,CRE,WRL_REST,LV,2005-01-01,123.59
PCH_WRL_5Y,G,CRE,WRL_REST,LV,2006-01-01,94.49
PCH_WRL_5Y,G,CRE,WRL_REST,LV,2007-01-01,112.04
PCH_WRL_5Y,G,CRE,WRL_REST,LV,2008-01-01,96.47
PCH_WRL_5Y,G,CRE,WRL_REST,LV,2009-01-01,54.6
PCH_WRL_5Y,G,CRE,WRL_REST,LV,2010-01-01,27.55
PCH_WRL_5Y,G,CRE,WRL_REST,LV,2011-01-01,37.94
PCH_WRL_5Y,G,CRE,WRL_REST,LV,2012-01-01,20.46
PCH_WRL_5Y,G,CRE,WRL_REST,LV,2013-01-01,21.52
PCH_WRL_5Y,G,CRE,WRL_REST,LV,2014-01-01,29.47
PCH_WRL_5Y,G,CRE,WRL_REST,LV,2015-01-01,21.2
PCH_WRL_5Y,G,CRE,WRL_REST,LV,2016-01-01,15.07
PCH_WRL_5Y,G,CRE,WRL_REST,LV,2017-01-01,10.72
PCH_WRL_5Y,G,CRE,WRL_REST,LV,2018-01-01,10.87
PCH_WRL_5Y,G,CRE,WRL_REST,MT,1999-01-01,
PCH_WRL_5Y,G,CRE,WRL_REST,MT,2000-01-01,
PCH_WRL_5Y,G,CRE,WRL_REST,MT,2001-01-01,
PCH_WRL_5Y,G,CRE,WRL_REST,MT,2002-01-01,
PCH_WRL_5Y,G,CRE,WRL_REST,MT,2003-01-01,
PCH_WRL_5Y,G,CRE,WRL_REST,MT,2004-01-01,
PCH_WRL_5Y,G,CRE,WRL_REST,MT,2005-01-01,
PCH_WRL_5Y,G,CRE,WRL_REST,MT,2006-01-01,
PCH_WRL_5Y,G,CRE,WRL_REST,MT,2007-01-01,
PCH_WRL_5Y,G,CRE,WRL_REST,MT,2008-01-01,
PCH_WRL_5Y,G,CRE,WRL_REST,MT,2009-01-01,-24.06
PCH_WRL_5Y,G,CRE,WRL_REST,MT,2010-01-01,-8.57
PCH_WRL_5Y,G,CRE,WRL_REST,MT,2011-01-01,-22.62
PCH_WRL_5Y,G,CRE,WRL_REST,MT,2012-01-01,-16.01
PCH_WRL_5Y,G,CRE,WRL_REST,MT,2013-01-01,-12.79
PCH_WRL_5Y,G,CRE,WRL_REST,MT,2014-01-01,-21.03
PCH_WRL_5Y,G,CRE,WRL_REST,MT,2015-01-01,-18.01
PCH_WRL_5Y,G,CRE,WRL_REST,MT,2016-01-01,-17.74
PCH_WRL_5Y,G,CRE,WRL_REST,MT,2017-01-01,-14.05
PCH_WRL_5Y,G,CRE,WRL_REST,MT,2018-01-01,-4.33
PCH_WRL_5Y,G,CRE,WRL_REST,NL,1999-01-01,
PCH_WRL_5Y,G,CRE,WRL_REST,NL,2000-01-01,
PCH_WRL_5Y,G,CRE,WRL_REST,NL,2001-01-01,
PCH_WRL_5Y,G,CRE,WRL_REST,NL,2002-01-01,
PCH_WRL_5Y,G,CRE,WRL_REST,NL,2003-01-01,
PCH_WRL_5Y,G,CRE,WRL_REST,NL,2004-01-01,
PCH_WRL_5Y,G,CRE,WRL_REST,NL,2005-01-01,
PCH_WRL_5Y,G,CRE,WRL_REST,NL,2006-01-01,
PCH_WRL_5Y,G,CRE,WRL_REST,NL,2007-01-01,
PCH_WRL_5Y,G,CRE,WRL_REST,NL,2008-01-01,
PCH_WRL_5Y,G,CRE,WRL_REST,NL,2009-01-01,-4.23
PCH_WRL_5Y,G,CRE,WRL_REST,NL,2010-01-01,-7.85
PCH_WRL_5Y,G,CRE,WRL_REST,NL,2011-01-01,-8.9
PCH_WRL_5Y,G,CRE,WRL_REST,NL,2012-01-01,-13.73
PCH_WRL_5Y,G,CRE,WRL_REST,NL,2013-01-01,-11.37
PCH_WRL_5Y,G,CRE,WRL_REST,NL,2014-01-01,-11.67
PCH_WRL_5Y,G,CRE,WRL_REST,NL,2015-01-01,-10.6
PCH_WRL_5Y,G,CRE,WRL_REST,NL,2016-01-01,-4.38
PCH_WRL_5Y,G,CRE,WRL_REST,NL,2017-01-01,-0.99
PCH_WRL_5Y,G,CRE,WRL_REST,NL,2018-01-01,-1.74
PCH_WRL_5Y,G,CRE,WRL_REST,PL,1999-01-01,
PCH_WRL_5Y,G,CRE,WRL_REST,PL,2000-01-01,
PCH_WRL_5Y,G,CRE,WRL_REST,PL,2001-01-01,
PCH_WRL_5Y,G,CRE,WRL_REST,PL,2002-01-01,
PCH_WRL_5Y,G,CRE,WRL_REST,PL,2003-01-01,
PCH_WRL_5Y,G,CRE,WRL_REST,PL,2004-01-01,
PCH_WRL_5Y,G,CRE,WRL_REST,PL,2005-01-01,
PCH_WRL_5Y,G,CRE,WRL_REST,PL,2006-01-01,
PCH_WRL_5Y,G,CRE,WRL_REST,PL,2007-01-01,
PCH_WRL_5Y,G,CRE,WRL_REST,PL,2008-01-01,
PCH_WRL_5Y,G,CRE,WRL_REST,PL,2009-01-01,35.24
PCH_WRL_5Y,G,CRE,WRL_REST,PL,2010-01-01,23.93
PCH_WRL_5Y,G,CRE,WRL_REST,PL,2011-01-01,14.33
PCH_WRL_5Y,G,CRE,WRL_REST,PL,2012-01-01,1.51
PCH_WRL_5Y,G,CRE,WRL_REST,PL,2013-01-01,0.83
PCH_WRL_5Y,G,CRE,WRL_REST,PL,2014-01-01,3.99
PCH_WRL_5Y,G,CRE,WRL_REST,PL,2015-01-01,12.25
PCH_WRL_5Y,G,CRE,WRL_REST,PL,2016-01-01,21.37
PCH_WRL_5Y,G,CRE,WRL_REST,PL,2017-01-01,30.9
PCH_WRL_5Y,G,CRE,WRL_REST,PL,2018-01-01,25.54
PCH_WRL_5Y,G,CRE,WRL_REST,PT,1999-01-01,
PCH_WRL_5Y,G,CRE,WRL_REST,PT,2000-01-01,
PCH_WRL_5Y,G,CRE,WRL_REST,PT,2001-01-01,-9.67
PCH_WRL_5Y,G,CRE,WRL_REST,PT,2002-01-01,-1.17
PCH_WRL_5Y,G,CRE,WRL_REST,PT,2003-01-01,-1.49
PCH_WRL_5Y,G,CRE,WRL_REST,PT,2004-01-01,-3.32
PCH_WRL_5Y,G,CRE,WRL_REST,PT,2005-01-01,-2.2
PCH_WRL_5Y,G,CRE,WRL_REST,PT,2006-01-01,-4.97
PCH_WRL_5Y,G,CRE,WRL_REST,PT,2007-01-01,-7.29
PCH_WRL_5Y,G,CRE,WRL_REST,PT,2008-01-01,-18.41
PCH_WRL_5Y,G,CRE,WRL_REST,PT,2009-01-01,-14.53
PCH_WRL_5Y,G,CRE,WRL_REST,PT,2010-01-01,-11.85
PCH_WRL_5Y,G,CRE,WRL_REST,PT,2011-01-01,-12.35
PCH_WRL_5Y,G,CRE,WRL_REST,PT,2012-01-01,-17.62
PCH_WRL_5Y,G,CRE,WRL_REST,PT,2013-01-01,-7.97
PCH_WRL_5Y,G,CRE,WRL_REST,PT,2014-01-01,-5.88
PCH_WRL_5Y,G,CRE,WRL_REST,PT,2015-01-01,2.02
PCH_WRL_5Y,G,CRE,WRL_REST,PT,2016-01-01,5.19
PCH_WRL_5Y,G,CRE,WRL_REST,PT,2017-01-01,9.97
PCH_WRL_5Y,G,CRE,WRL_REST,PT,2018-01-01,5.78
PCH_WRL_5Y,G,CRE,WRL_REST,RO,1999-01-01,
PCH_WRL_5Y,G,CRE,WRL_REST,RO,2000-01-01,
PCH_WRL_5Y,G,CRE,WRL_REST,RO,2001-01-01,
PCH_WRL_5Y,G,CRE,WRL_REST,RO,2002-01-01,
PCH_WRL_5Y,G,CRE,WRL_REST,RO,2003-01-01,
PCH_WRL_5Y,G,CRE,WRL_REST,RO,2004-01-01,-5.17
PCH_WRL_5Y,G,CRE,WRL_REST,RO,2005-01-01,94.27
PCH_WRL_5Y,G,CRE,WRL_REST,RO,2006-01-01,97.92
PCH_WRL_5Y,G,CRE,WRL_REST,RO,2007-01-01,131.22
PCH_WRL_5Y,G,CRE,WRL_REST,RO,2008-01-01,142.26
PCH_WRL_5Y,G,CRE,WRL_REST,RO,2009-01-01,122.92
PCH_WRL_5Y,G,CRE,WRL_REST,RO,2010-01-01,108.58
PCH_WRL_5Y,G,CRE,WRL_REST,RO,2011-01-01,108.02
PCH_WRL_5Y,G,CRE,WRL_REST,RO,2012-01-01,28.52
PCH_WRL_5Y,G,CRE,WRL_REST,RO,2013-01-01,23.7
PCH_WRL_5Y,G,CRE,WRL_REST,RO,2014-01-01,21.59
PCH_WRL_5Y,G,CRE,WRL_REST,RO,2015-01-01,15.58
PCH_WRL_5Y,G,CRE,WRL_REST,RO,2016-01-01,17.84
PCH_WRL_5Y,G,CRE,WRL_REST,RO,2017-01-01,31.1
PCH_WRL_5Y,G,CRE,WRL_REST,RO,2018-01-01,21.58
PCH_WRL_5Y,G,CRE,WRL_REST,SE,1999-01-01,7.01
PCH_WRL_5Y,G,CRE,WRL_REST,SE,2000-01-01,-11.23
PCH_WRL_5Y,G,CRE,WRL_REST,SE,2001-01-01,-17.07
PCH_WRL_5Y,G,CRE,WRL_REST,SE,2002-01-01,-13.7
PCH_WRL_5Y,G,CRE,WRL_REST,SE,2003-01-01,-12.9
PCH_WRL_5Y,G,CRE,WRL_REST,SE,2004-01-01,-9.74
PCH_WRL_5Y,G,CRE,WRL_REST,SE,2005-01-01,-8.72
PCH_WRL_5Y,G,CRE,WRL_REST,SE,2006-01-01,-3.31
PCH_WRL_5Y,G,CRE,WRL_REST,SE,2007-01-01,-0.7
PCH_WRL_5Y,G,CRE,WRL_REST,SE,2008-01-01,-10.7
PCH_WRL_5Y,G,CRE,WRL_REST,SE,2009-01-01,-19.62
PCH_WRL_5Y,G,CRE,WRL_REST,SE,2010-01-01,-14.83
PCH_WRL_5Y,G,CRE,WRL_REST,SE,2011-01-01,-15.36
PCH_WRL_5Y,G,CRE,WRL_REST,SE,2012-01-01,-23.3
PCH_WRL_5Y,G,CRE,WRL_REST,SE,2013-01-01,-23.26
PCH_WRL_5Y,G,CRE,WRL_REST,SE,2014-01-01,-14.49
PCH_WRL_5Y,G,CRE,WRL_REST,SE,2015-01-01,-15.72
PCH_WRL_5Y,G,CRE,WRL_REST,SE,2016-01-01,-11.98
PCH_WRL_5Y,G,CRE,WRL_REST,SE,2017-01-01,-6.71
PCH_WRL_5Y,G,CRE,WRL_REST,SE,2018-01-01,-3.17
PCH_WRL_5Y,G,CRE,WRL_REST,SI,1999-01-01,-0.55
PCH_WRL_5Y,G,CRE,WRL_REST,SI,2000-01-01,-11.94
PCH_WRL_5Y,G,CRE,WRL_REST,SI,2001-01-01,1.24
PCH_WRL_5Y,G,CRE,WRL_REST,SI,2002-01-01,13.57
PCH_WRL_5Y,G,CRE,WRL_REST,SI,2003-01-01,8.13
PCH_WRL_5Y,G,CRE,WRL_REST,SI,2004-01-01,20.78
PCH_WRL_5Y,G,CRE,WRL_REST,SI,2005-01-01,31.81
PCH_WRL_5Y,G,CRE,WRL_REST,SI,2006-01-01,23.76
PCH_WRL_5Y,G,CRE,WRL_REST,SI,2007-01-01,26.89
PCH_WRL_5Y,G,CRE,WRL_REST,SI,2008-01-01,15.62
PCH_WRL_5Y,G,CRE,WRL_REST,SI,2009-01-01,10.13
PCH_WRL_5Y,G,CRE,WRL_REST,SI,2010-01-01,-1.93
PCH_WRL_5Y,G,CRE,WRL_REST,SI,2011-01-01,-6.84
PCH_WRL_5Y,G,CRE,WRL_REST,SI,2012-01-01,-23.07
PCH_WRL_5Y,G,CRE,WRL_REST,SI,2013-01-01,-17.36
PCH_WRL_5Y,G,CRE,WRL_REST,SI,2014-01-01,-11.81
PCH_WRL_5Y,G,CRE,WRL_REST,SI,2015-01-01,-0.66
PCH_WRL_5Y,G,CRE,WRL_REST,SI,2016-01-01,7.59
PCH_WRL_5Y,G,CRE,WRL_REST,SI,2017-01-01,22.46
PCH_WRL_5Y,G,CRE,WRL_REST,SI,2018-01-01,23.86
PCH_WRL_5Y,G,CRE,WRL_REST,SK,1999-01-01,
PCH_WRL_5Y,G,CRE,WRL_REST,SK,2000-01-01,
PCH_WRL_5Y,G,CRE,WRL_REST,SK,2001-01-01,
PCH_WRL_5Y,G,CRE,WRL_REST,SK,2002-01-01,
PCH_WRL_5Y,G,CRE,WRL_REST,SK,2003-01-01,
PCH_WRL_5Y,G,CRE,WRL_REST,SK,2004-01-01,
PCH_WRL_5Y,G,CRE,WRL_REST,SK,2005-01-01,
PCH_WRL_5Y,G,CRE,WRL_REST,SK,2006-01-01,
PCH_WRL_5Y,G,CRE,WRL_REST,SK,2007-01-01,
PCH_WRL_5Y,G,CRE,WRL_REST,SK,2008-01-01,
PCH_WRL_5Y,G,CRE,WRL_REST,SK,2009-01-01,17.69
PCH_WRL_5Y,G,CRE,WRL_REST,SK,2010-01-01,10.67
PCH_WRL_5Y,G,CRE,WRL_REST,SK,2011-01-01,2.28
PCH_WRL_5Y,G,CRE,WRL_REST,SK,2012-01-01,-7.89
PCH_WRL_5Y,G,CRE,WRL_REST,SK,2013-01-01,-1.56
PCH_WRL_5Y,G,CRE,WRL_REST,SK,2014-01-01,2.11
PCH_WRL_5Y,G,CRE,WRL_REST,SK,2015-01-01,6.92
PCH_WRL_5Y,G,CRE,WRL_REST,SK,2016-01-01,10.49
PCH_WRL_5Y,G,CRE,WRL_REST,SK,2017-01-01,7.14
PCH_WRL_5Y,G,CRE,WRL_REST,SK,2018-01-01,4.67
PCH_WRL_5Y,G,CRE,WRL_REST,UK,1999-01-01,
PCH_WRL_5Y,G,CRE,WRL_REST,UK,2000-01-01,
PCH_WRL_5Y,G,CRE,WRL_REST,UK,2001-01-01,
PCH_WRL_5Y,G,CRE,WRL_REST,UK,2002-01-01,-13.25
PCH_WRL_5Y,G,CRE,WRL_REST,UK,2003-01-01,-17.63
PCH_WRL_5Y,G,CRE,WRL_REST,UK,2004-01-01,-19.11
PCH_WRL_5Y,G,CRE,WRL_REST,UK,2005-01-01,-16.3
PCH_WRL_5Y,G,CRE,WRL_REST,UK,2006-01-01,-15.9
PCH_WRL_5Y,G,CRE,WRL_REST,UK,2007-01-01,-25.73
PCH_WRL_5Y,G,CRE,WRL_REST,UK,2008-01-01,-27.66
PCH_WRL_5Y,G,CRE,WRL_REST,UK,2009-01-01,-24.78
PCH_WRL_5Y,G,CRE,WRL_REST,UK,2010-01-01,-26.06
PCH_WRL_5Y,G,CRE,WRL_REST,UK,2011-01-01,-28.14
PCH_WRL_5Y,G,CRE,WRL_REST,UK,2012-01-01,-20.1
PCH_WRL_5Y,G,CRE,WRL_REST,UK,2013-01-01,-14.74
PCH_WRL_5Y,G,CRE,WRL_REST,UK,2014-01-01,-11.14
PCH_WRL_5Y,G,CRE,WRL_REST,UK,2015-01-01,-2.24
PCH_WRL_5Y,G,CRE,WRL_REST,UK,2016-01-01,-5.18
PCH_WRL_5Y,G,CRE,WRL_REST,UK,2017-01-01,-4.34
PCH_WRL_5Y,G,CRE,WRL_REST,UK,2018-01-01,-5.13
PCH_WRL_5Y,GS,CRE,WRL_REST,AT,1999-01-01,
PCH_WRL_5Y,GS,CRE,WRL_REST,AT,2000-01-01,-11.48
PCH_WRL_5Y,GS,CRE,WRL_REST,AT,2001-01-01,-2.23
PCH_WRL_5Y,GS,CRE,WRL_REST,AT,2002-01-01,6.28
PCH_WRL_5Y,GS,CRE,WRL_REST,AT,2003-01-01,1.96
PCH_WRL_5Y,GS,CRE,WRL_REST,AT,2004-01-01,3.85
PCH_WRL_5Y,GS,CRE,WRL_REST,AT,2005-01-01,11.65
PCH_WRL_5Y,GS,CRE,WRL_REST,AT,2006-01-01,1.25
PCH_WRL_5Y,GS,CRE,WRL_REST,AT,2007-01-01,1.57
PCH_WRL_5Y,GS,CRE,WRL_REST,AT,2008-01-01,-4.46
PCH_WRL_5Y,GS,CRE,WRL_REST,AT,2009-01-01,-6.08
PCH_WRL_5Y,GS,CRE,WRL_REST,AT,2010-01-01,-12.62
PCH_WRL_5Y,GS,CRE,WRL_REST,AT,2011-01-01,-12.5
PCH_WRL_5Y,GS,CRE,WRL_REST,AT,2012-01-01,-21.72
PCH_WRL_5Y,GS,CRE,WRL_REST,AT,2013-01-01,-18.42
PCH_WRL_5Y,GS,CRE,WRL_REST,AT,2014-01-01,-15.75
PCH_WRL_5Y,GS,CRE,WRL_REST,AT,2015-01-01,-9.15
PCH_WRL_5Y,GS,CRE,WRL_REST,AT,2016-01-01,-2.83
PCH_WRL_5Y,GS,CRE,WRL_REST,AT,2017-01-01,2.7
PCH_WRL_5Y,GS,CRE,WRL_REST,AT,2018-01-01,3.92
PCH_WRL_5Y,GS,CRE,WRL_REST,BE,1999-01-01,
PCH_WRL_5Y,GS,CRE,WRL_REST,BE,2000-01-01,
PCH_WRL_5Y,GS,CRE,WRL_REST,BE,2001-01-01,
PCH_WRL_5Y,GS,CRE,WRL_REST,BE,2002-01-01,
PCH_WRL_5Y,GS,CRE,WRL_REST,BE,2003-01-01,
PCH_WRL_5Y,GS,CRE,WRL_REST,BE,2004-01-01,
PCH_WRL_5Y,GS,CRE,WRL_REST,BE,2005-01-01,-5.66
PCH_WRL_5Y,GS,CRE,WRL_REST,BE,2006-01-01,-13.89
PCH_WRL_5Y,GS,CRE,WRL_REST,BE,2007-01-01,-6.74
PCH_WRL_5Y,GS,CRE,WRL_REST,BE,2008-01-01,-10.98
PCH_WRL_5Y,GS,CRE,WRL_REST,BE,2009-01-01,-9.01
PCH_WRL_5Y,GS,CRE,WRL_REST,BE,2010-01-01,-11.56
PCH_WRL_5Y,GS,CRE,WRL_REST,BE,2011-01-01,-7.75
PCH_WRL_5Y,GS,CRE,WRL_REST,BE,2012-01-01,-15.53
PCH_WRL_5Y,GS,CRE,WRL_REST,BE,2013-01-01,-12.95
PCH_WRL_5Y,GS,CRE,WRL_REST,BE,2014-01-01,-13.33
PCH_WRL_5Y,GS,CRE,WRL_REST,BE,2015-01-01,-13.57
PCH_WRL_5Y,GS,CRE,WRL_REST,BE,2016-01-01,-5.01
PCH_WRL_5Y,GS,CRE,WRL_REST,BE,2017-01-01,1.08
PCH_WRL_5Y,GS,CRE,WRL_REST,BE,2018-01-01,-1.46
PCH_WRL_5Y,GS,CRE,WRL_REST,BG,1999-01-01,
PCH_WRL_5Y,GS,CRE,WRL_REST,BG,2000-01-01,
PCH_WRL_5Y,GS,CRE,WRL_REST,BG,2001-01-01,
PCH_WRL_5Y,GS,CRE,WRL_REST,BG,2002-01-01,
PCH_WRL_5Y,GS,CRE,WRL_REST,BG,2003-01-01,30.4
PCH_WRL_5Y,GS,CRE,WRL_REST,BG,2004-01-01,51.73
PCH_WRL_5Y,GS,CRE,WRL_REST,BG,2005-01-01,40.73
PCH_WRL_5Y,GS,CRE,WRL_REST,BG,2006-01-01,42.71
PCH_WRL_5Y,GS,CRE,WRL_REST,BG,2007-01-01,45.17
PCH_WRL_5Y,GS,CRE,WRL_REST,BG,2008-01-01,35.08
PCH_WRL_5Y,GS,CRE,WRL_REST,BG,2009-01-01,19.01
PCH_WRL_5Y,GS,CRE,WRL_REST,BG,2010-01-01,7.97
PCH_WRL_5Y,GS,CRE,WRL_REST,BG,2011-01-01,11.12
PCH_WRL_5Y,GS,CRE,WRL_REST,BG,2012-01-01,-1.01
PCH_WRL_5Y,GS,CRE,WRL_REST,BG,2013-01-01,-0.15
PCH_WRL_5Y,GS,CRE,WRL_REST,BG,2014-01-01,5.59
PCH_WRL_5Y,GS,CRE,WRL_REST,BG,2015-01-01,13.16
PCH_WRL_5Y,GS,CRE,WRL_REST,BG,2016-01-01,9.44
PCH_WRL_5Y,GS,CRE,WRL_REST,BG,2017-01-01,20.41
PCH_WRL_5Y,GS,CRE,WRL_REST,BG,2018-01-01,13.38
PCH_WRL_5Y,GS,CRE,WRL_REST,CY,1999-01-01,
PCH_WRL_5Y,GS,CRE,WRL_REST,CY,2000-01-01,
PCH_WRL_5Y,GS,CRE,WRL_REST,CY,2001-01-01,
PCH_WRL_5Y,GS,CRE,WRL_REST,CY,2002-01-01,
PCH_WRL_5Y,GS,CRE,WRL_REST,CY,2003-01-01,
PCH_WRL_5Y,GS,CRE,WRL_REST,CY,2004-01-01,
PCH_WRL_5Y,GS,CRE,WRL_REST,CY,2005-01-01,
PCH_WRL_5Y,GS,CRE,WRL_REST,CY,2006-01-01,-24.85
PCH_WRL_5Y,GS,CRE,WRL_REST,CY,2007-01-01,-18.66
PCH_WRL_5Y,GS,CRE,WRL_REST,CY,2008-01-01,-25.32
PCH_WRL_5Y,GS,CRE,WRL_REST,CY,2009-01-01,-9.11
PCH_WRL_5Y,GS,CRE,WRL_REST,CY,2010-01-01,-15.78
PCH_WRL_5Y,GS,CRE,WRL_REST,CY,2011-01-01,-11.42
PCH_WRL_5Y,GS,CRE,WRL_REST,CY,2012-01-01,-21.67
PCH_WRL_5Y,GS,CRE,WRL_REST,CY,2013-01-01,-12.04
PCH_WRL_5Y,GS,CRE,WRL_REST,CY,2014-01-01,-20.1
PCH_WRL_5Y,GS,CRE,WRL_REST,CY,2015-01-01,-4.75
PCH_WRL_5Y,GS,CRE,WRL_REST,CY,2016-01-01,7.99
PCH_WRL_5Y,GS,CRE,WRL_REST,CY,2017-01-01,18.62
PCH_WRL_5Y,GS,CRE,WRL_REST,CY,2018-01-01,16.57
PCH_WRL_5Y,GS,CRE,WRL_REST,CZ,1999-01-01,11.05
PCH_WRL_5Y,GS,CRE,WRL_REST,CZ,2000-01-01,-1.47
PCH_WRL_5Y,GS,CRE,WRL_REST,CZ,2001-01-01,13.1
PCH_WRL_5Y,GS,CRE,WRL_REST,CZ,2002-01-01,30.05
PCH_WRL_5Y,GS,CRE,WRL_REST,CZ,2003-01-01,22.31
PCH_WRL_5Y,GS,CRE,WRL_REST,CZ,2004-01-01,54.75
PCH_WRL_5Y,GS,CRE,WRL_REST,CZ,2005-01-01,75.09
PCH_WRL_5Y,GS,CRE,WRL_REST,CZ,2006-01-01,57.72
PCH_WRL_5Y,GS,CRE,WRL_REST,CZ,2007-01-01,58.4
PCH_WRL_5Y,GS,CRE,WRL_REST,CZ,2008-01-01,53.06
PCH_WRL_5Y,GS,CRE,WRL_REST,CZ,2009-01-01,27.16
PCH_WRL_5Y,GS,CRE,WRL_REST,CZ,2010-01-01,11.7
PCH_WRL_5Y,GS,CRE,WRL_REST,CZ,2011-01-01,7.39
PCH_WRL_5Y,GS,CRE,WRL_REST,CZ,2012-01-01,-4.48
PCH_WRL_5Y,GS,CRE,WRL_REST,CZ,2013-01-01,-9.77
PCH_WRL_5Y,GS,CRE,WRL_REST,CZ,2014-01-01,-6.24
PCH_WRL_5Y,GS,CRE,WRL_REST,CZ,2015-01-01,-2.16
PCH_WRL_5Y,GS,CRE,WRL_REST,CZ,2016-01-01,2.44
PCH_WRL_5Y,GS,CRE,WRL_REST,CZ,2017-01-01,8.56
PCH_WRL_5Y,GS,CRE,WRL_REST,CZ,2018-01-01,11.9
PCH_WRL_5Y,GS,CRE,WRL_REST,DE,1999-01-01,-3.32
PCH_WRL_5Y,GS,CRE,WRL_REST,DE,2000-01-01,-11.57
PCH_WRL_5Y,GS,CRE,WRL_REST,DE,2001-01-01,-2.93
PCH_WRL_5Y,GS,CRE,WRL_REST,DE,2002-01-01,3.46
PCH_WRL_5Y,GS,CRE,WRL_REST,DE,2003-01-01,0.77
PCH_WRL_5Y,GS,CRE,WRL_REST,DE,2004-01-01,6.02
PCH_WRL_5Y,GS,CRE,WRL_REST,DE,2005-01-01,10.12
PCH_WRL_5Y,GS,CRE,WRL_REST,DE,2006-01-01,2.69
PCH_WRL_5Y,GS,CRE,WRL_REST,DE,2007-01-01,2.75
PCH_WRL_5Y,GS,CRE,WRL_REST,DE,2008-01-01,-4.62
PCH_WRL_5Y,GS,CRE,WRL_REST,DE,2009-01-01,-6.83
PCH_WRL_5Y,GS,CRE,WRL_REST,DE,2010-01-01,-8.11
PCH_WRL_5Y,GS,CRE,WRL_REST,DE,2011-01-01,-9.35
PCH_WRL_5Y,GS,CRE,WRL_REST,DE,2012-01-01,-16.75
PCH_WRL_5Y,GS,CRE,WRL_REST,DE,2013-01-01,-12.99
PCH_WRL_5Y,GS,CRE,WRL_REST,DE,2014-01-01,-9.53
PCH_WRL_5Y,GS,CRE,WRL_REST,DE,2015-01-01,-3.18
PCH_WRL_5Y,GS,CRE,WRL_REST,DE,2016-01-01,2.0
PCH_WRL_5Y,GS,CRE,WRL_REST,DE,2017-01-01,5.73
PCH_WRL_5Y,GS,CRE,WRL_REST,DE,2018-01-01,3.11
PCH_WRL_5Y,GS,CRE,WRL_REST,DK,1999-01-01,
PCH_WRL_5Y,GS,CRE,WRL_REST,DK,2000-01-01,
PCH_WRL_5Y,GS,CRE,WRL_REST,DK,2001-01-01,
PCH_WRL_5Y,GS,CRE,WRL_REST,DK,2002-01-01,
PCH_WRL_5Y,GS,CRE,WRL_REST,DK,2003-01-01,
PCH_WRL_5Y,GS,CRE,WRL_REST,DK,2004-01-01,
PCH_WRL_5Y,GS,CRE,WRL_REST,DK,2005-01-01,
PCH_WRL_5Y,GS,CRE,WRL_REST,DK,2006-01-01,
PCH_WRL_5Y,GS,CRE,WRL_REST,DK,2007-01-01,-5.95
PCH_WRL_5Y,GS,CRE,WRL_REST,DK,2008-01-01,-4.08
PCH_WRL_5Y,GS,CRE,WRL_REST,DK,2009-01-01,-1.12
PCH_WRL_5Y,GS,CRE,WRL_REST,DK,2010-01-01,-10.63
PCH_WRL_5Y,GS,CRE,WRL_REST,DK,2011-01-01,-13.78
PCH_WRL_5Y,GS,CRE,WRL_REST,DK,2012-01-01,-17.73
PCH_WRL_5Y,GS,CRE,WRL_REST,DK,2013-01-01,-17.81
PCH_WRL_5Y,GS,CRE,WRL_REST,DK,2014-01-01,-15.87
PCH_WRL_5Y,GS,CRE,WRL_REST,DK,2015-01-01,-8.55
PCH_WRL_5Y,GS,CRE,WRL_REST,DK,2016-01-01,-2.87
PCH_WRL_5Y,GS,CRE,WRL_REST,DK,2017-01-01,1.07
PCH_WRL_5Y,GS,CRE,WRL_REST,DK,2018-01-01,-1.5
PCH_WRL_5Y,GS,CRE,WRL_REST,EE,1999-01-01,76.58
PCH_WRL_5Y,GS,CRE,WRL_REST,EE,2000-01-01,14.23
PCH_WRL_5Y,GS,CRE,WRL_REST,EE,2001-01-01,16.96
PCH_WRL_5Y,GS,CRE,WRL_REST,EE,2002-01-01,1.17
PCH_WRL_5Y,GS,CRE,WRL_REST,EE,2003-01-01,-1.68
PCH_WRL_5Y,GS,CRE,WRL_REST,EE,2004-01-01,15.17
PCH_WRL_5Y,GS,CRE,WRL_REST,EE,2005-01-01,60.55
PCH_WRL_5Y,GS,CRE,WRL_REST,EE,2006-01-01,44.2
PCH_WRL_5Y,GS,CRE,WRL_REST,EE,2007-01-01,53.94
PCH_WRL_5Y,GS,CRE,WRL_REST,EE,2008-01-01,36.97
PCH_WRL_5Y,GS,CRE,WRL_REST,EE,2009-01-01,16.3
PCH_WRL_5Y,GS,CRE,WRL_REST,EE,2010-01-01,9.5
PCH_WRL_5Y,GS,CRE,WRL_REST,EE,2011-01-01,24.41
PCH_WRL_5Y,GS,CRE,WRL_REST,EE,2012-01-01,6.93
PCH_WRL_5Y,GS,CRE,WRL_REST,EE,2013-01-01,9.93
PCH_WRL_5Y,GS,CRE,WRL_REST,EE,2014-01-01,20.52
PCH_WRL_5Y,GS,CRE,WRL_REST,EE,2015-01-01,7.29
PCH_WRL_5Y,GS,CRE,WRL_REST,EE,2016-01-01,-0.34
PCH_WRL_5Y,GS,CRE,WRL_REST,EE,2017-01-01,2.18
PCH_WRL_5Y,GS,CRE,WRL_REST,EE,2018-01-01,0.75
PCH_WRL_5Y,GS,CRE,WRL_REST,EL,1999-01-01,
PCH_WRL_5Y,GS,CRE,WRL_REST,EL,2000-01-01,
PCH_WRL_5Y,GS,CRE,WRL_REST,EL,2001-01-01,
PCH_WRL_5Y,GS,CRE,WRL_REST,EL,2002-01-01,
PCH_WRL_5Y,GS,CRE,WRL_REST,EL,2003-01-01,
PCH_WRL_5Y,GS,CRE,WRL_REST,EL,2004-01-01,
PCH_WRL_5Y,GS,CRE,WRL_REST,EL,2005-01-01,
PCH_WRL_5Y,GS,CRE,WRL_REST,EL,2006-01-01,-3.88
PCH_WRL_5Y,GS,CRE,WRL_REST,EL,2007-01-01,9.31
PCH_WRL_5Y,GS,CRE,WRL_REST,EL,2008-01-01,4.83
PCH_WRL_5Y,GS,CRE,WRL_REST,EL,2009-01-01,-10.34
PCH_WRL_5Y,GS,CRE,WRL_REST,EL,2010-01-01,-15.68
PCH_WRL_5Y,GS,CRE,WRL_REST,EL,2011-01-01,-17.17
PCH_WRL_5Y,GS,CRE,WRL_REST,EL,2012-01-01,-26.26
PCH_WRL_5Y,GS,CRE,WRL_REST,EL,2013-01-01,-26.64
PCH_WRL_5Y,GS,CRE,WRL_REST,EL,2014-01-01,-19.39
PCH_WRL_5Y,GS,CRE,WRL_REST,EL,2015-01-01,-13.98
PCH_WRL_5Y,GS,CRE,WRL_REST,EL,2016-01-01,-9.78
PCH_WRL_5Y,GS,CRE,WRL_REST,EL,2017-01-01,-0.36
PCH_WRL_5Y,GS,CRE,WRL_REST,EL,2018-01-01,6.85
PCH_WRL_5Y,GS,CRE,WRL_REST,ES,1999-01-01,22.27
PCH_WRL_5Y,GS,CRE,WRL_REST,ES,2000-01-01,4.26
PCH_WRL_5Y,GS,CRE,WRL_REST,ES,2001-01-01,6.83
PCH_WRL_5Y,GS,CRE,WRL_REST,ES,2002-01-01,7.24
PCH_WRL_5Y,GS,CRE,WRL_REST,ES,2003-01-01,4.66
PCH_WRL_5Y,GS,CRE,WRL_REST,ES,2004-01-01,1.35
PCH_WRL_5Y,GS,CRE,WRL_REST,ES,2005-01-01,2.99
PCH_WRL_5Y,GS,CRE,WRL_REST,ES,2006-01-01,-6.74
PCH_WRL_5Y,GS,CRE,WRL_REST,ES,2007-01-01,-4.55
PCH_WRL_5Y,GS,CRE,WRL_REST,ES,2008-01-01,-14.2
PCH_WRL_5Y,GS,CRE,WRL_REST,ES,2009-01-01,-8.82
PCH_WRL_5Y,GS,CRE,WRL_REST,ES,2010-01-01,-11.71
PCH_WRL_5Y,GS,CRE,WRL_REST,ES,2011-01-01,-8.31
PCH_WRL_5Y,GS,CRE,WRL_REST,ES,2012-01-01,-17.51
PCH_WRL_5Y,GS,CRE,WRL_REST,ES,2013-01-01,-10.28
PCH_WRL_5Y,GS,CRE,WRL_REST,ES,2014-01-01,-11.49
PCH_WRL_5Y,GS,CRE,WRL_REST,ES,2015-01-01,-3.29
PCH_WRL_5Y,GS,CRE,WRL_REST,ES,2016-01-01,2.9
PCH_WRL_5Y,GS,CRE,WRL_REST,ES,2017-01-01,9.87
PCH_WRL_5Y,GS,CRE,WRL_REST,ES,2018-01-01,4.61
PCH_WRL_5Y,GS,CRE,WRL_REST,FI,1999-01-01,
PCH_WRL_5Y,GS,CRE,WRL_REST,FI,2000-01-01,-6.5
PCH_WRL_5Y,GS,CRE,WRL_REST,FI,2001-01-01,-3.02
PCH_WRL_5Y,GS,CRE,WRL_REST,FI,2002-01-01,0.56
PCH_WRL_5Y,GS,CRE,WRL_REST,FI,2003-01-01,-6.97
PCH_WRL_5Y,GS,CRE,WRL_REST,FI,2004-01-01,-2.17
PCH_WRL_5Y,GS,CRE,WRL_REST,FI,2005-01-01,-6.29
PCH_WRL_5Y,GS,CRE,WRL_REST,FI,2006-01-01,-8.02
PCH_WRL_5Y,GS,CRE,WRL_REST,FI,2007-01-01,-4.69
PCH_WRL_5Y,GS,CRE,WRL_REST,FI,2008-01-01,-4.46
PCH_WRL_5Y,GS,CRE,WRL_REST,FI,2009-01-01,-13.37
PCH_WRL_5Y,GS,CRE,WRL_REST,FI,2010-01-01,-19.72
PCH_WRL_5Y,GS,CRE,WRL_REST,FI,2011-01-01,-23.52
PCH_WRL_5Y,GS,CRE,WRL_REST,FI,2012-01-01,-32.36
PCH_WRL_5Y,GS,CRE,WRL_REST,FI,2013-01-01,-32.46
PCH_WRL_5Y,GS,CRE,WRL_REST,FI,2014-01-01,-27.3
PCH_WRL_5Y,GS,CRE,WRL_REST,FI,2015-01-01,-23.06
PCH_WRL_5Y,GS,CRE,WRL_REST,FI,2016-01-01,-15.78
PCH_WRL_5Y,GS,CRE,WRL_REST,FI,2017-01-01,-4.91
PCH_WRL_5Y,GS,CRE,WRL_REST,FI,2018-01-01,-3.0
PCH_WRL_5Y,GS,CRE,WRL_REST,FR,1999-01-01,
PCH_WRL_5Y,GS,CRE,WRL_REST,FR,2000-01-01,
PCH_WRL_5Y,GS,CRE,WRL_REST,FR,2001-01-01,
PCH_WRL_5Y,GS,CRE,WRL_REST,FR,2002-01-01,
PCH_WRL_5Y,GS,CRE,WRL_REST,FR,2003-01-01,
PCH_WRL_5Y,GS,CRE,WRL_REST,FR,2004-01-01,-13.14
PCH_WRL_5Y,GS,CRE,WRL_REST,FR,2005-01-01,-6.85
PCH_WRL_5Y,GS,CRE,WRL_REST,FR,2006-01-01,-14.29
PCH_WRL_5Y,GS,CRE,WRL_REST,FR,2007-01-01,-16.57
PCH_WRL_5Y,GS,CRE,WRL_REST,FR,2008-01-01,-18.47
PCH_WRL_5Y,GS,CRE,WRL_REST,FR,2009-01-01,-13.62
PCH_WRL_5Y,GS,CRE,WRL_REST,FR,2010-01-01,-17.18
PCH_WRL_5Y,GS,CRE,WRL_REST,FR,2011-01-01,-15.44
PCH_WRL_5Y,GS,CRE,WRL_REST,FR,2012-01-01,-18.3
PCH_WRL_5Y,GS,CRE,WRL_REST,FR,2013-01-01,-14.22
PCH_WRL_5Y,GS,CRE,WRL_REST,FR,2014-01-01,-14.53
PCH_WRL_5Y,GS,CRE,WRL_REST,FR,2015-01-01,-3.68
PCH_WRL_5Y,GS,CRE,WRL_REST,FR,2016-01-01,1.14
PCH_WRL_5Y,GS,CRE,WRL_REST,FR,2017-01-01,2.4
PCH_WRL_5Y,GS,CRE,WRL_REST,FR,2018-01-01,-0.16
PCH_WRL_5Y,GS,CRE,WRL_REST,HR,1999-01-01,
PCH_WRL_5Y,GS,CRE,WRL_REST,HR,2000-01-01,
PCH_WRL_5Y,GS,CRE,WRL_REST,HR,2001-01-01,
PCH_WRL_5Y,GS,CRE,WRL_REST,HR,2002-01-01,
PCH_WRL_5Y,GS,CRE,WRL_REST,HR,2003-01-01,
PCH_WRL_5Y,GS,CRE,WRL_REST,HR,2004-01-01,
PCH_WRL_5Y,GS,CRE,WRL_REST,HR,2005-01-01,33.2
PCH_WRL_5Y,GS,CRE,WRL_REST,HR,2006-01-01,13.56
PCH_WRL_5Y,GS,CRE,WRL_REST,HR,2007-01-01,9.64
PCH_WRL_5Y,GS,CRE,WRL_REST,HR,2008-01-01,-1.75
PCH_WRL_5Y,GS,CRE,WRL_REST,HR,2009-01-01,-4.09
PCH_WRL_5Y,GS,CRE,WRL_REST,HR,2010-01-01,-10.58
PCH_WRL_5Y,GS,CRE,WRL_REST,HR,2011-01-01,-15.63
PCH_WRL_5Y,GS,CRE,WRL_REST,HR,2012-01-01,-25.76
PCH_WRL_5Y,GS,CRE,WRL_REST,HR,2013-01-01,-23.33
PCH_WRL_5Y,GS,CRE,WRL_REST,HR,2014-01-01,-19.37
PCH_WRL_5Y,GS,CRE,WRL_REST,HR,2015-01-01,-5.77
PCH_WRL_5Y,GS,CRE,WRL_REST,HR,2016-01-01,9.47
PCH_WRL_5Y,GS,CRE,WRL_REST,HR,2017-01-01,23.24
PCH_WRL_5Y,GS,CRE,WRL_REST,HR,2018-01-01,22.94
PCH_WRL_5Y,GS,CRE,WRL_REST,HU,1999-01-01,
PCH_WRL_5Y,GS,CRE,WRL_REST,HU,2000-01-01,41.97
PCH_WRL_5Y,GS,CRE,WRL_REST,HU,2001-01-01,57.42
PCH_WRL_5Y,GS,CRE,WRL_REST,HU,2002-01-01,51.08
PCH_WRL_5Y,GS,CRE,WRL_REST,HU,2003-01-01,39.01
PCH_WRL_5Y,GS,CRE,WRL_REST,HU,2004-01-01,44.69
PCH_WRL_5Y,GS,CRE,WRL_REST,HU,2005-01-01,39.66
PCH_WRL_5Y,GS,CRE,WRL_REST,HU,2006-01-01,23.7
PCH_WRL_5Y,GS,CRE,WRL_REST,HU,2007-01-01,28.31
PCH_WRL_5Y,GS,CRE,WRL_REST,HU,2008-01-01,22.55
PCH_WRL_5Y,GS,CRE,WRL_REST,HU,2009-01-01,10.25
PCH_WRL_5Y,GS,CRE,WRL_REST,HU,2010-01-01,0.79
PCH_WRL_5Y,GS,CRE,WRL_REST,HU,2011-01-01,-4.32
PCH_WRL_5Y,GS,CRE,WRL_REST,HU,2012-01-01,-23.17
PCH_WRL_5Y,GS,CRE,WRL_REST,HU,2013-01-01,-22.85
PCH_WRL_5Y,GS,CRE,WRL_REST,HU,2014-01-01,-16.82
PCH_WRL_5Y,GS,CRE,WRL_REST,HU,2015-01-01,-9.31
PCH_WRL_5Y,GS,CRE,WRL_REST,HU,2016-01-01,-2.11
PCH_WRL_5Y,GS,CRE,WRL_REST,HU,2017-01-01,10.82
PCH_WRL_5Y,GS,CRE,WRL_REST,HU,2018-01-01,8.44
PCH_WRL_5Y,GS,CRE,WRL_REST,IE,1999-01-01,
PCH_WRL_5Y,GS,CRE,WRL_REST,IE,2000-01-01,44.08
PCH_WRL_5Y,GS,CRE,WRL_REST,IE,2001-01-01,59.02
PCH_WRL_5Y,GS,CRE,WRL_REST,IE,2002-01-01,65.06
PCH_WRL_5Y,GS,CRE,WRL_REST,IE,2003-01-01,28.05
PCH_WRL_5Y,GS,CRE,WRL_REST,IE,2004-01-01,13.94
PCH_WRL_5Y,GS,CRE,WRL_REST,IE,2005-01-01,8.8
PCH_WRL_5Y,GS,CRE,WRL_REST,IE,2006-01-01,-9.62
PCH_WRL_5Y,GS,CRE,WRL_REST,IE,2007-01-01,-11.97
PCH_WRL_5Y,GS,CRE,WRL_REST,IE,2008-01-01,-16.72
PCH_WRL_5Y,GS,CRE,WRL_REST,IE,2009-01-01,1.85
PCH_WRL_5Y,GS,CRE,WRL_REST,IE,2010-01-01,-6.27
PCH_WRL_5Y,GS,CRE,WRL_REST,IE,2011-01-01,-10.29
PCH_WRL_5Y,GS,CRE,WRL_REST,IE,2012-01-01,-18.34
PCH_WRL_5Y,GS,CRE,WRL_REST,IE,2013-01-01,-10.57
PCH_WRL_5Y,GS,CRE,WRL_REST,IE,2014-01-01,-14.64
PCH_WRL_5Y,GS,CRE,WRL_REST,IE,2015-01-01,37.84
PCH_WRL_5Y,GS,CRE,WRL_REST,IE,2016-01-01,58.59
PCH_WRL_5Y,GS,CRE,WRL_REST,IE,2017-01-01,71.33
PCH_WRL_5Y,GS,CRE,WRL_REST,IE,2018-01-01,77.37
PCH_WRL_5Y,GS,CRE,WRL_REST,IT,1999-01-01,
PCH_WRL_5Y,GS,CRE,WRL_REST,IT,2000-01-01,-26.09
PCH_WRL_5Y,GS,CRE,WRL_REST,IT,2001-01-01,-16.85
PCH_WRL_5Y,GS,CRE,WRL_REST,IT,2002-01-01,-10.27
PCH_WRL_5Y,GS,CRE,WRL_REST,IT,2003-01-01,-12.39
PCH_WRL_5Y,GS,CRE,WRL_REST,IT,2004-01-01,-6.83
PCH_WRL_5Y,GS,CRE,WRL_REST,IT,2005-01-01,-4.99
PCH_WRL_5Y,GS,CRE,WRL_REST,IT,2006-01-01,-12.66
PCH_WRL_5Y,GS,CRE,WRL_REST,IT,2007-01-01,-8.84
PCH_WRL_5Y,GS,CRE,WRL_REST,IT,2008-01-01,-15.96
PCH_WRL_5Y,GS,CRE,WRL_REST,IT,2009-01-01,-17.98
PCH_WRL_5Y,GS,CRE,WRL_REST,IT,2010-01-01,-19.08
PCH_WRL_5Y,GS,CRE,WRL_REST,IT,2011-01-01,-19.21
PCH_WRL_5Y,GS,CRE,WRL_REST,IT,2012-01-01,-25.74
PCH_WRL_5Y,GS,CRE,WRL_REST,IT,2013-01-01,-20.41
PCH_WRL_5Y,GS,CRE,WRL_REST,IT,2014-01-01,-15.53
PCH_WRL_5Y,GS,CRE,WRL_REST,IT,2015-01-01,-9.7
PCH_WRL_5Y,GS,CRE,WRL_REST,IT,2016-01-01,-4.02
PCH_WRL_5Y,GS,CRE,WRL_REST,IT,2017-01-01,1.19
PCH_WRL_5Y,GS,CRE,WRL_REST,IT,2018-01-01,0.27
PCH_WRL_5Y,GS,CRE,WRL_REST,LT,1999-01-01,
PCH_WRL_5Y,GS,CRE,WRL_REST,LT,2000-01-01,
PCH_WRL_5Y,GS,CRE,WRL_REST,LT,2001-01-01,
PCH_WRL_5Y,GS,CRE,WRL_REST,LT,2002-01-01,
PCH_WRL_5Y,GS,CRE,WRL_REST,LT,2003-01-01,
PCH_WRL_5Y,GS,CRE,WRL_REST,LT,2004-01-01,
PCH_WRL_5Y,GS,CRE,WRL_REST,LT,2005-01-01,
PCH_WRL_5Y,GS,CRE,WRL_REST,LT,2006-01-01,48.19
PCH_WRL_5Y,GS,CRE,WRL_REST,LT,2007-01-01,30.53
PCH_WRL_5Y,GS,CRE,WRL_REST,LT,2008-01-01,43.05
PCH_WRL_5Y,GS,CRE,WRL_REST,LT,2009-01-01,30.83
PCH_WRL_5Y,GS,CRE,WRL_REST,LT,2010-01-01,16.46
PCH_WRL_5Y,GS,CRE,WRL_REST,LT,2011-01-01,26.02
PCH_WRL_5Y,GS,CRE,WRL_REST,LT,2012-01-01,27.02
PCH_WRL_5Y,GS,CRE,WRL_REST,LT,2013-01-01,11.9
PCH_WRL_5Y,GS,CRE,WRL_REST,LT,2014-01-01,19.36
PCH_WRL_5Y,GS,CRE,WRL_REST,LT,2015-01-01,6.46
PCH_WRL_5Y,GS,CRE,WRL_REST,LT,2016-01-01,-1.35
PCH_WRL_5Y,GS,CRE,WRL_REST,LT,2017-01-01,3.79
PCH_WRL_5Y,GS,CRE,WRL_REST,LT,2018-01-01,3.49
PCH_WRL_5Y,GS,CRE,WRL_REST,LU,1999-01-01,
PCH_WRL_5Y,GS,CRE,WRL_REST,LU,2000-01-01,14.22
PCH_WRL_5Y,GS,CRE,WRL_REST,LU,2001-01-01,18.7
PCH_WRL_5Y,GS,CRE,WRL_REST,LU,2002-01-01,20.36
PCH_WRL_5Y,GS,CRE,WRL_REST,LU,2003-01-01,14.39
PCH_WRL_5Y,GS,CRE,WRL_REST,LU,2004-01-01,13.31
PCH_WRL_5Y,GS,CRE,WRL_REST,LU,2005-01-01,13.8
PCH_WRL_5Y,GS,CRE,WRL_REST,LU,2006-01-01,17.16
PCH_WRL_5Y,GS,CRE,WRL_REST,LU,2007-01-01,25.55
PCH_WRL_5Y,GS,CRE,WRL_REST,LU,2008-01-01,15.73
PCH_WRL_5Y,GS,CRE,WRL_REST,LU,2009-01-01,11.85
PCH_WRL_5Y,GS,CRE,WRL_REST,LU,2010-01-01,3.23
PCH_WRL_5Y,GS,CRE,WRL_REST,LU,2011-01-01,-3.82
PCH_WRL_5Y,GS,CRE,WRL_REST,LU,2012-01-01,-5.55
PCH_WRL_5Y,GS,CRE,WRL_REST,LU,2013-01-01,8.2
PCH_WRL_5Y,GS,CRE,WRL_REST,LU,2014-01-01,16.34
PCH_WRL_5Y,GS,CRE,WRL_REST,LU,2015-01-01,29.8
PCH_WRL_5Y,GS,CRE,WRL_REST,LU,2016-01-01,33.28
PCH_WRL_5Y,GS,CRE,WRL_REST,LU,2017-01-01,21.39
PCH_WRL_5Y,GS,CRE,WRL_REST,LU,2018-01-01,10.68
PCH_WRL_5Y,GS,CRE,WRL_REST,LV,1999-01-01,
PCH_WRL_5Y,GS,CRE,WRL_REST,LV,2000-01-01,
PCH_WRL_5Y,GS,CRE,WRL_REST,LV,2001-01-01,
PCH_WRL_5Y,GS,CRE,WRL_REST,LV,2002-01-01,
PCH_WRL_5Y,GS,CRE,WRL_REST,LV,2003-01-01,
PCH_WRL_5Y,GS,CRE,WRL_REST,LV,2004-01-01,
PCH_WRL_5Y,GS,CRE,WRL_REST,LV,2005-01-01,89.86
PCH_WRL_5Y,GS,CRE,WRL_REST,LV,2006-01-01,73.64
PCH_WRL_5Y,GS,CRE,WRL_REST,LV,2007-01-01,95.57
PCH_WRL_5Y,GS,CRE,WRL_REST,LV,2008-01-01,76.76
PCH_WRL_5Y,GS,CRE,WRL_REST,LV,2009-01-01,52.57
PCH_WRL_5Y,GS,CRE,WRL_REST,LV,2010-01-01,21.65
PCH_WRL_5Y,GS,CRE,WRL_REST,LV,2011-01-01,26.53
PCH_WRL_5Y,GS,CRE,WRL_REST,LV,2012-01-01,7.91
PCH_WRL_5Y,GS,CRE,WRL_REST,LV,2013-01-01,5.89
PCH_WRL_5Y,GS,CRE,WRL_REST,LV,2014-01-01,11.98
PCH_WRL_5Y,GS,CRE,WRL_REST,LV,2015-01-01,13.52
PCH_WRL_5Y,GS,CRE,WRL_REST,LV,2016-01-01,10.22
PCH_WRL_5Y,GS,CRE,WRL_REST,LV,2017-01-01,8.2
PCH_WRL_5Y,GS,CRE,WRL_REST,LV,2018-01-01,8.63
PCH_WRL_5Y,GS,CRE,WRL_REST,MT,1999-01-01,
PCH_WRL_5Y,GS,CRE,WRL_REST,MT,2000-01-01,
PCH_WRL_5Y,GS,CRE,WRL_REST,MT,2001-01-01,
PCH_WRL_5Y,GS,CRE,WRL_REST,MT,2002-01-01,
PCH_WRL_5Y,GS,CRE,WRL_REST,MT,2003-01-01,
PCH_WRL_5Y,GS,CRE,WRL_REST,MT,2004-01-01,
PCH_WRL_5Y,GS,CRE,WRL_REST,MT,2005-01-01,
PCH_WRL_5Y,GS,CRE,WRL_REST,MT,2006-01-01,
PCH_WRL_5Y,GS,CRE,WRL_REST,MT,2007-01-01,
PCH_WRL_5Y,GS,CRE,WRL_REST,MT,2008-01-01,10.93
PCH_WRL_5Y,GS,CRE,WRL_REST,MT,2009-01-01,45.77
PCH_WRL_5Y,GS,CRE,WRL_REST,MT,2010-01-01,37.83
PCH_WRL_5Y,GS,CRE,WRL_REST,MT,2011-01-01,17.63
PCH_WRL_5Y,GS,CRE,WRL_REST,MT,2012-01-01,12.18
PCH_WRL_5Y,GS,CRE,WRL_REST,MT,2013-01-01,-0.62
PCH_WRL_5Y,GS,CRE,WRL_REST,MT,2014-01-01,-12.48
PCH_WRL_5Y,GS,CRE,WRL_REST,MT,2015-01-01,9.08
PCH_WRL_5Y,GS,CRE,WRL_REST,MT,2016-01-01,22.52
PCH_WRL_5Y,GS,CRE,WRL_REST,MT,2017-01-01,24.19
PCH_WRL_5Y,GS,CRE,WRL_REST,MT,2018-01-01,23.97
PCH_WRL_5Y,GS,CRE,WRL_REST,NL,1999-01-01,
PCH_WRL_5Y,GS,CRE,WRL_REST,NL,2000-01-01,-9.97
PCH_WRL_5Y,GS,CRE,WRL_REST,NL,2001-01-01,-4.6
PCH_WRL_5Y,GS,CRE,WRL_REST,NL,2002-01-01,-2.58
PCH_WRL_5Y,GS,CRE,WRL_REST,NL,2003-01-01,-3.9
PCH_WRL_5Y,GS,CRE,WRL_REST,NL,2004-01-01,-2.96
PCH_WRL_5Y,GS,CRE,WRL_REST,NL,2005-01-01,0.36
PCH_WRL_5Y,GS,CRE,WRL_REST,NL,2006-01-01,-5.18
PCH_WRL_5Y,GS,CRE,WRL_REST,NL,2007-01-01,-2.48
PCH_WRL_5Y,GS,CRE,WRL_REST,NL,2008-01-01,-6.08
PCH_WRL_5Y,GS,CRE,WRL_REST,NL,2009-01-01,-5.39
PCH_WRL_5Y,GS,CRE,WRL_REST,NL,2010-01-01,-8.15
PCH_WRL_5Y,GS,CRE,WRL_REST,NL,2011-01-01,-8.35
PCH_WRL_5Y,GS,CRE,WRL_REST,NL,2012-01-01,-12.82
PCH_WRL_5Y,GS,CRE,WRL_REST,NL,2013-01-01,-11.34
PCH_WRL_5Y,GS,CRE,WRL_REST,NL,2014-01-01,-11.35
PCH_WRL_5Y,GS,CRE,WRL_REST,NL,2015-01-01,-6.74
PCH_WRL_5Y,GS,CRE,WRL_REST,NL,2016-01-01,-2.96
PCH_WRL_5Y,GS,CRE,WRL_REST,NL,2017-01-01,1.52
PCH_WRL_5Y,GS,CRE,WRL_REST,NL,2018-01-01,1.68
PCH_WRL_5Y,GS,CRE,WRL_REST,PL,1999-01-01,
PCH_WRL_5Y,GS,CRE,WRL_REST,PL,2000-01-01,
PCH_WRL_5Y,GS,CRE,WRL_REST,PL,2001-01-01,
PCH_WRL_5Y,GS,CRE,WRL_REST,PL,2002-01-01,
PCH_WRL_5Y,GS,CRE,WRL_REST,PL,2003-01-01,
PCH_WRL_5Y,GS,CRE,WRL_REST,PL,2004-01-01,
PCH_WRL_5Y,GS,CRE,WRL_REST,PL,2005-01-01,
PCH_WRL_5Y,GS,CRE,WRL_REST,PL,2006-01-01,50.16
PCH_WRL_5Y,GS,CRE,WRL_REST,PL,2007-01-01,55.69
PCH_WRL_5Y,GS,CRE,WRL_REST,PL,2008-01-01,51.37
PCH_WRL_5Y,GS,CRE,WRL_REST,PL,2009-01-01,34.41
PCH_WRL_5Y,GS,CRE,WRL_REST,PL,2010-01-01,24.68
PCH_WRL_5Y,GS,CRE,WRL_REST,PL,2011-01-01,15.13
PCH_WRL_5Y,GS,CRE,WRL_REST,PL,2012-01-01,1.39
PCH_WRL_5Y,GS,CRE,WRL_REST,PL,2013-01-01,-0.26
PCH_WRL_5Y,GS,CRE,WRL_REST,PL,2014-01-01,4.68
PCH_WRL_5Y,GS,CRE,WRL_REST,PL,2015-01-01,9.18
PCH_WRL_5Y,GS,CRE,WRL_REST,PL,2016-01-01,17.73
PCH_WRL_5Y,GS,CRE,WRL_REST,PL,2017-01-01,27.95
PCH_WRL_5Y,GS,CRE,WRL_REST,PL,2018-01-01,25.75
PCH_WRL_5Y,GS,CRE,WRL_REST,PT,1999-01-01,
PCH_WRL_5Y,GS,CRE,WRL_REST,PT,2000-01-01,
PCH_WRL_5Y,GS,CRE,WRL_REST,PT,2001-01-01,-7.78
PCH_WRL_5Y,GS,CRE,WRL_REST,PT,2002-01-01,0.22
PCH_WRL_5Y,GS,CRE,WRL_REST,PT,2003-01-01,-2.68
PCH_WRL_5Y,GS,CRE,WRL_REST,PT,2004-01-01,-2.7
PCH_WRL_5Y,GS,CRE,WRL_REST,PT,2005-01-01,-2.35
PCH_WRL_5Y,GS,CRE,WRL_REST,PT,2006-01-01,-3.04
PCH_WRL_5Y,GS,CRE,WRL_REST,PT,2007-01-01,-3.08
PCH_WRL_5Y,GS,CRE,WRL_REST,PT,2008-01-01,-12.61
PCH_WRL_5Y,GS,CRE,WRL_REST,PT,2009-01-01,-8.71
PCH_WRL_5Y,GS,CRE,WRL_REST,PT,2010-01-01,-7.63
PCH_WRL_5Y,GS,CRE,WRL_REST,PT,2011-01-01,-9.92
PCH_WRL_5Y,GS,CRE,WRL_REST,PT,2012-01-01,-17.3
PCH_WRL_5Y,GS,CRE,WRL_REST,PT,2013-01-01,-8.1
PCH_WRL_5Y,GS,CRE,WRL_REST,PT,2014-01-01,-7.32
PCH_WRL_5Y,GS,CRE,WRL_REST,PT,2015-01-01,0.87
PCH_WRL_5Y,GS,CRE,WRL_REST,PT,2016-01-01,5.22
PCH_WRL_5Y,GS,CRE,WRL_REST,PT,2017-01-01,14.29
PCH_WRL_5Y,GS,CRE,WRL_REST,PT,2018-01-01,9.41
PCH_WRL_5Y,GS,CRE,WRL_REST,RO,1999-01-01,
PCH_WRL_5Y,GS,CRE,WRL_REST,RO,2000-01-01,
PCH_WRL_5Y,GS,CRE,WRL_REST,RO,2001-01-01,
PCH_WRL_5Y,GS,CRE,WRL_REST,RO,2002-01-01,
PCH_WRL_5Y,GS,CRE,WRL_REST,RO,2003-01-01,
PCH_WRL_5Y,GS,CRE,WRL_REST,RO,2004-01-01,27.63
PCH_WRL_5Y,GS,CRE,WRL_REST,RO,2005-01-01,84.58
PCH_WRL_5Y,GS,CRE,WRL_REST,RO,2006-01-01,73.86
PCH_WRL_5Y,GS,CRE,WRL_REST,RO,2007-01-01,84.17
PCH_WRL_5Y,GS,CRE,WRL_REST,RO,2008-01-01,91.92
PCH_WRL_5Y,GS,CRE,WRL_REST,RO,2009-01-01,69.37
PCH_WRL_5Y,GS,CRE,WRL_REST,RO,2010-01-01,53.31
PCH_WRL_5Y,GS,CRE,WRL_REST,RO,2011-01-01,49.92
PCH_WRL_5Y,GS,CRE,WRL_REST,RO,2012-01-01,12.3
PCH_WRL_5Y,GS,CRE,WRL_REST,RO,2013-01-01,13.76
PCH_WRL_5Y,GS,CRE,WRL_REST,RO,2014-01-01,20.12
PCH_WRL_5Y,GS,CRE,WRL_REST,RO,2015-01-01,20.49
PCH_WRL_5Y,GS,CRE,WRL_REST,RO,2016-01-01,23.22
PCH_WRL_5Y,GS,CRE,WRL_REST,RO,2017-01-01,36.5
PCH_WRL_5Y,GS,CRE,WRL_REST,RO,2018-01-01,23.72
PCH_WRL_5Y,GS,CRE,WRL_REST,SE,1999-01-01,8.33
PCH_WRL_5Y,GS,CRE,WRL_REST,SE,2000-01-01,-7.64
PCH_WRL_5Y,GS,CRE,WRL_REST,SE,2001-01-01,-11.93
PCH_WRL_5Y,GS,CRE,WRL_REST,SE,2002-01-01,-8.77
PCH_WRL_5Y,GS,CRE,WRL_REST,SE,2003-01-01,-8.85
PCH_WRL_5Y,GS,CRE,WRL_REST,SE,2004-01-01,-6.48
PCH_WRL_5Y,GS,CRE,WRL_REST,SE,2005-01-01,-5.18
PCH_WRL_5Y,GS,CRE,WRL_REST,SE,2006-01-01,-1.41
PCH_WRL_5Y,GS,CRE,WRL_REST,SE,2007-01-01,1.35
PCH_WRL_5Y,GS,CRE,WRL_REST,SE,2008-01-01,-6.84
PCH_WRL_5Y,GS,CRE,WRL_REST,SE,2009-01-01,-15.89
PCH_WRL_5Y,GS,CRE,WRL_REST,SE,2010-01-01,-12.77
PCH_WRL_5Y,GS,CRE,WRL_REST,SE,2011-01-01,-12.21
PCH_WRL_5Y,GS,CRE,WRL_REST,SE,2012-01-01,-19.51
PCH_WRL_5Y,GS,CRE,WRL_REST,SE,2013-01-01,-17.19
PCH_WRL_5Y,GS,CRE,WRL_REST,SE,2014-01-01,-9.63
PCH_WRL_5Y,GS,CRE,WRL_REST,SE,2015-01-01,-9.32
PCH_WRL_5Y,GS,CRE,WRL_REST,SE,2016-01-01,-7.55
PCH_WRL_5Y,GS,CRE,WRL_REST,SE,2017-01-01,-4.56
PCH_WRL_5Y,GS,CRE,WRL_REST,SE,2018-01-01,-6.32
PCH_WRL_5Y,GS,CRE,WRL_REST,SI,1999-01-01,-6.8
PCH_WRL_5Y,GS,CRE,WRL_REST,SI,2000-01-01,-16.94
PCH_WRL_5Y,GS,CRE,WRL_REST,SI,2001-01-01,-5.77
PCH_WRL_5Y,GS,CRE,WRL_REST,SI,2002-01-01,7.14
PCH_WRL_5Y,GS,CRE,WRL_REST,SI,2003-01-01,5.41
PCH_WRL_5Y,GS,CRE,WRL_REST,SI,2004-01-01,18.27
PCH_WRL_5Y,GS,CRE,WRL_REST,SI,2005-01-01,29.66
PCH_WRL_5Y,GS,CRE,WRL_REST,SI,2006-01-01,21.43
PCH_WRL_5Y,GS,CRE,WRL_REST,SI,2007-01-01,23.63
PCH_WRL_5Y,GS,CRE,WRL_REST,SI,2008-01-01,16.33
PCH_WRL_5Y,GS,CRE,WRL_REST,SI,2009-01-01,9.88
PCH_WRL_5Y,GS,CRE,WRL_REST,SI,2010-01-01,-1.37
PCH_WRL_5Y,GS,CRE,WRL_REST,SI,2011-01-01,-5.63
PCH_WRL_5Y,GS,CRE,WRL_REST,SI,2012-01-01,-20.85
PCH_WRL_5Y,GS,CRE,WRL_REST,SI,2013-01-01,-18.21
PCH_WRL_5Y,GS,CRE,WRL_REST,SI,2014-01-01,-12.73
PCH_WRL_5Y,GS,CRE,WRL_REST,SI,2015-01-01,-4.61
PCH_WRL_5Y,GS,CRE,WRL_REST,SI,2016-01-01,3.7
PCH_WRL_5Y,GS,CRE,WRL_REST,SI,2017-01-01,18.08
PCH_WRL_5Y,GS,CRE,WRL_REST,SI,2018-01-01,20.41
PCH_WRL_5Y,GS,CRE,WRL_REST,SK,1999-01-01,
PCH_WRL_5Y,GS,CRE,WRL_REST,SK,2000-01-01,
PCH_WRL_5Y,GS,CRE,WRL_REST,SK,2001-01-01,
PCH_WRL_5Y,GS,CRE,WRL_REST,SK,2002-01-01,
PCH_WRL_5Y,GS,CRE,WRL_REST,SK,2003-01-01,
PCH_WRL_5Y,GS,CRE,WRL_REST,SK,2004-01-01,
PCH_WRL_5Y,GS,CRE,WRL_REST,SK,2005-01-01,
PCH_WRL_5Y,GS,CRE,WRL_REST,SK,2006-01-01,
PCH_WRL_5Y,GS,CRE,WRL_REST,SK,2007-01-01,67.57
PCH_WRL_5Y,GS,CRE,WRL_REST,SK,2008-01-01,31.89
PCH_WRL_5Y,GS,CRE,WRL_REST,SK,2009-01-01,9.5
PCH_WRL_5Y,GS,CRE,WRL_REST,SK,2010-01-01,3.83
PCH_WRL_5Y,GS,CRE,WRL_REST,SK,2011-01-01,-2.78
PCH_WRL_5Y,GS,CRE,WRL_REST,SK,2012-01-01,-10.3
PCH_WRL_5Y,GS,CRE,WRL_REST,SK,2013-01-01,-4.08
PCH_WRL_5Y,GS,CRE,WRL_REST,SK,2014-01-01,1.88
PCH_WRL_5Y,GS,CRE,WRL_REST,SK,2015-01-01,4.06
PCH_WRL_5Y,GS,CRE,WRL_REST,SK,2016-01-01,7.31
PCH_WRL_5Y,GS,CRE,WRL_REST,SK,2017-01-01,5.15
PCH_WRL_5Y,GS,CRE,WRL_REST,SK,2018-01-01,3.2
PCH_WRL_5Y,GS,CRE,WRL_REST,UK,1999-01-01,
PCH_WRL_5Y,GS,CRE,WRL_REST,UK,2000-01-01,
PCH_WRL_5Y,GS,CRE,WRL_REST,UK,2001-01-01,
PCH_WRL_5Y,GS,CRE,WRL_REST,UK,2002-01-01,-5.11
PCH_WRL_5Y,GS,CRE,WRL_REST,UK,2003-01-01,-7.62
PCH_WRL_5Y,GS,CRE,WRL_REST,UK,2004-01-01,-11.18
PCH_WRL_5Y,GS,CRE,WRL_REST,UK,2005-01-01,-7.4
PCH_WRL_5Y,GS,CRE,WRL_REST,UK,2006-01-01,-8.16
PCH_WRL_5Y,GS,CRE,WRL_REST,UK,2007-01-01,-14.91
PCH_WRL_5Y,GS,CRE,WRL_REST,UK,2008-01-01,-22.83
PCH_WRL_5Y,GS,CRE,WRL_REST,UK,2009-01-01,-19.79
PCH_WRL_5Y,GS,CRE,WRL_REST,UK,2010-01-01,-23.9
PCH_WRL_5Y,GS,CRE,WRL_REST,UK,2011-01-01,-25.92
PCH_WRL_5Y,GS,CRE,WRL_REST,UK,2012-01-01,-21.25
PCH_WRL_5Y,GS,CRE,WRL_REST,UK,2013-01-01,-11.62
PCH_WRL_5Y,GS,CRE,WRL_REST,UK,2014-01-01,-9.19
PCH_WRL_5Y,GS,CRE,WRL_REST,UK,2015-01-01,2.71
PCH_WRL_5Y,GS,CRE,WRL_REST,UK,2016-01-01,1.09
PCH_WRL_5Y,GS,CRE,WRL_REST,UK,2017-01-01,-1.18
PCH_WRL_5Y,GS,CRE,WRL_REST,UK,2018-01-01,-3.75
PCH_WRL_5Y,S,CRE,WRL_REST,AT,1999-01-01,
PCH_WRL_5Y,S,CRE,WRL_REST,AT,2000-01-01,-20.91
PCH_WRL_5Y,S,CRE,WRL_REST,AT,2001-01-01,-14.79
PCH_WRL_5Y,S,CRE,WRL_REST,AT,2002-01-01,-0.62
PCH_WRL_5Y,S,CRE,WRL_REST,AT,2003-01-01,3.15
PCH_WRL_5Y,S,CRE,WRL_REST,AT,2004-01-01,1.72
PCH_WRL_5Y,S,CRE,WRL_REST,AT,2005-01-01,8.41
PCH_WRL_5Y,S,CRE,WRL_REST,AT,2006-01-01,2.19
PCH_WRL_5Y,S,CRE,WRL_REST,AT,2007-01-01,-1.51
PCH_WRL_5Y,S,CRE,WRL_REST,AT,2008-01-01,-6.11
PCH_WRL_5Y,S,CRE,WRL_REST,AT,2009-01-01,-6.84
PCH_WRL_5Y,S,CRE,WRL_REST,AT,2010-01-01,-15.68
PCH_WRL_5Y,S,CRE,WRL_REST,AT,2011-01-01,-14.74
PCH_WRL_5Y,S,CRE,WRL_REST,AT,2012-01-01,-17.46
PCH_WRL_5Y,S,CRE,WRL_REST,AT,2013-01-01,-16.28
PCH_WRL_5Y,S,CRE,WRL_REST,AT,2014-01-01,-12.93
PCH_WRL_5Y,S,CRE,WRL_REST,AT,2015-01-01,-12.26
PCH_WRL_5Y,S,CRE,WRL_REST,AT,2016-01-01,-8.6
PCH_WRL_5Y,S,CRE,WRL_REST,AT,2017-01-01,-3.37
PCH_WRL_5Y,S,CRE,WRL_REST,AT,2018-01-01,-4.29
PCH_WRL_5Y,S,CRE,WRL_REST,BE,1999-01-01,
PCH_WRL_5Y,S,CRE,WRL_REST,BE,2000-01-01,
PCH_WRL_5Y,S,CRE,WRL_REST,BE,2001-01-01,
PCH_WRL_5Y,S,CRE,WRL_REST,BE,2002-01-01,
PCH_WRL_5Y,S,CRE,WRL_REST,BE,2003-01-01,
PCH_WRL_5Y,S,CRE,WRL_REST,BE,2004-01-01,
PCH_WRL_5Y,S,CRE,WRL_REST,BE,2005-01-01,-5.65
PCH_WRL_5Y,S,CRE,WRL_REST,BE,2006-01-01,-15.64
PCH_WRL_5Y,S,CRE,WRL_REST,BE,2007-01-01,-9.79
PCH_WRL_5Y,S,CRE,WRL_REST,BE,2008-01-01,-1.93
PCH_WRL_5Y,S,CRE,WRL_REST,BE,2009-01-01,6.58
PCH_WRL_5Y,S,CRE,WRL_REST,BE,2010-01-01,9.53
PCH_WRL_5Y,S,CRE,WRL_REST,BE,2011-01-01,10.49
PCH_WRL_5Y,S,CRE,WRL_REST,BE,2012-01-01,7.54
PCH_WRL_5Y,S,CRE,WRL_REST,BE,2013-01-01,-4.13
PCH_WRL_5Y,S,CRE,WRL_REST,BE,2014-01-01,-6.61
PCH_WRL_5Y,S,CRE,WRL_REST,BE,2015-01-01,-13.01
PCH_WRL_5Y,S,CRE,WRL_REST,BE,2016-01-01,-8.47
PCH_WRL_5Y,S,CRE,WRL_REST,BE,2017-01-01,-7.9
PCH_WRL_5Y,S,CRE,WRL_REST,BE,2018-01-01,-10.07
PCH_WRL_5Y,S,CRE,WRL_REST,BG,1999-01-01,
PCH_WRL_5Y,S,CRE,WRL_REST,BG,2000-01-01,
PCH_WRL_5Y,S,CRE,WRL_REST,BG,2001-01-01,
PCH_WRL_5Y,S,CRE,WRL_REST,BG,2002-01-01,
PCH_WRL_5Y,S,CRE,WRL_REST,BG,2003-01-01,28.3
PCH_WRL_5Y,S,CRE,WRL_REST,BG,2004-01-01,42.33
PCH_WRL_5Y,S,CRE,WRL_REST,BG,2005-01-01,21.35
PCH_WRL_5Y,S,CRE,WRL_REST,BG,2006-01-01,27.56
PCH_WRL_5Y,S,CRE,WRL_REST,BG,2007-01-01,65.9
PCH_WRL_5Y,S,CRE,WRL_REST,BG,2008-01-01,49.41
PCH_WRL_5Y,S,CRE,WRL_REST,BG,2009-01-01,31.8
PCH_WRL_5Y,S,CRE,WRL_REST,BG,2010-01-01,-1.26
PCH_WRL_5Y,S,CRE,WRL_REST,BG,2011-01-01,-7.99
PCH_WRL_5Y,S,CRE,WRL_REST,BG,2012-01-01,-29.76
PCH_WRL_5Y,S,CRE,WRL_REST,BG,2013-01-01,-33.84
PCH_WRL_5Y,S,CRE,WRL_REST,BG,2014-01-01,-25.54
PCH_WRL_5Y,S,CRE,WRL_REST,BG,2015-01-01,-4.49
PCH_WRL_5Y,S,CRE,WRL_REST,BG,2016-01-01,6.03
PCH_WRL_5Y,S,CRE,WRL_REST,BG,2017-01-01,4.24
PCH_WRL_5Y,S,CRE,WRL_REST,BG,2018-01-01,14.07
PCH_WRL_5Y,S,CRE,WRL_REST,CY,1999-01-01,
PCH_WRL_5Y,S,CRE,WRL_REST,CY,2000-01-01,
PCH_WRL_5Y,S,CRE,WRL_REST,CY,2001-01-01,
PCH_WRL_5Y,S,CRE,WRL_REST,CY,2002-01-01,
PCH_WRL_5Y,S,CRE,WRL_REST,CY,2003-01-01,
PCH_WRL_5Y,S,CRE,WRL_REST,CY,2004-01-01,
PCH_WRL_5Y,S,CRE,WRL_REST,CY,2005-01-01,
PCH_WRL_5Y,S,CRE,WRL_REST,CY,2006-01-01,
PCH_WRL_5Y,S,CRE,WRL_REST,CY,2007-01-01,
PCH_WRL_5Y,S,CRE,WRL_REST,CY,2008-01-01,
PCH_WRL_5Y,S,CRE,WRL_REST,CY,2009-01-01,
PCH_WRL_5Y,S,CRE,WRL_REST,CY,2010-01-01,
PCH_WRL_5Y,S,CRE,WRL_REST,CY,2011-01-01,
PCH_WRL_5Y,S,CRE,WRL_REST,CY,2012-01-01,
PCH_WRL_5Y,S,CRE,WRL_REST,CY,2013-01-01,-14.75
PCH_WRL_5Y,S,CRE,WRL_REST,CY,2014-01-01,-13.18
PCH_WRL_5Y,S,CRE,WRL_REST,CY,2015-01-01,-10.95
PCH_WRL_5Y,S,CRE,WRL_REST,CY,2016-01-01,-0.35
PCH_WRL_5Y,S,CRE,WRL_REST,CY,2017-01-01,13.31
PCH_WRL_5Y,S,CRE,WRL_REST,CY,2018-01-01,4.51
PCH_WRL_5Y,S,CRE,WRL_REST,CZ,1999-01-01,14.37
PCH_WRL_5Y,S,CRE,WRL_REST,CZ,2000-01-01,-3.42
PCH_WRL_5Y,S,CRE,WRL_REST,CZ,2001-01-01,-1.84
PCH_WRL_5Y,S,CRE,WRL_REST,CZ,2002-01-01,4.73
PCH_WRL_5Y,S,CRE,WRL_REST,CZ,2003-01-01,-6.94
PCH_WRL_5Y,S,CRE,WRL_REST,CZ,2004-01-01,-17.67
PCH_WRL_5Y,S,CRE,WRL_REST,CZ,2005-01-01,-21.63
PCH_WRL_5Y,S,CRE,WRL_REST,CZ,2006-01-01,-18.6
PCH_WRL_5Y,S,CRE,WRL_REST,CZ,2007-01-01,-13.22
PCH_WRL_5Y,S,CRE,WRL_REST,CZ,2008-01-01,-0.29
PCH_WRL_5Y,S,CRE,WRL_REST,CZ,2009-01-01,4.36
PCH_WRL_5Y,S,CRE,WRL_REST,CZ,2010-01-01,13.04
PCH_WRL_5Y,S,CRE,WRL_REST,CZ,2011-01-01,5.47
PCH_WRL_5Y,S,CRE,WRL_REST,CZ,2012-01-01,-0.33
PCH_WRL_5Y,S,CRE,WRL_REST,CZ,2013-01-01,-17.33
PCH_WRL_5Y,S,CRE,WRL_REST,CZ,2014-01-01,-16.2
PCH_WRL_5Y,S,CRE,WRL_REST,CZ,2015-01-01,-18.72
PCH_WRL_5Y,S,CRE,WRL_REST,CZ,2016-01-01,-14.25
PCH_WRL_5Y,S,CRE,WRL_REST,CZ,2017-01-01,-5.92
PCH_WRL_5Y,S,CRE,WRL_REST,CZ,2018-01-01,4.97
PCH_WRL_5Y,S,CRE,WRL_REST,DE,1999-01-01,0.32
PCH_WRL_5Y,S,CRE,WRL_REST,DE,2000-01-01,-7.25
PCH_WRL_5Y,S,CRE,WRL_REST,DE,2001-01-01,-2.19
PCH_WRL_5Y,S,CRE,WRL_REST,DE,2002-01-01,6.45
PCH_WRL_5Y,S,CRE,WRL_REST,DE,2003-01-01,7.91
PCH_WRL_5Y,S,CRE,WRL_REST,DE,2004-01-01,18.16
PCH_WRL_5Y,S,CRE,WRL_REST,DE,2005-01-01,19.05
PCH_WRL_5Y,S,CRE,WRL_REST,DE,2006-01-01,17.12
PCH_WRL_5Y,S,CRE,WRL_REST,DE,2007-01-01,1.77
PCH_WRL_5Y,S,CRE,WRL_REST,DE,2008-01-01,-1.72
PCH_WRL_5Y,S,CRE,WRL_REST,DE,2009-01-01,-3.39
PCH_WRL_5Y,S,CRE,WRL_REST,DE,2010-01-01,-6.05
PCH_WRL_5Y,S,CRE,WRL_REST,DE,2011-01-01,-8.81
PCH_WRL_5Y,S,CRE,WRL_REST,DE,2012-01-01,-7.04
PCH_WRL_5Y,S,CRE,WRL_REST,DE,2013-01-01,-7.49
PCH_WRL_5Y,S,CRE,WRL_REST,DE,2014-01-01,-7.91
PCH_WRL_5Y,S,CRE,WRL_REST,DE,2015-01-01,-5.1
PCH_WRL_5Y,S,CRE,WRL_REST,DE,2016-01-01,0.53
PCH_WRL_5Y,S,CRE,WRL_REST,DE,2017-01-01,3.86
PCH_WRL_5Y,S,CRE,WRL_REST,DE,2018-01-01,2.66
PCH_WRL_5Y,S,CRE,WRL_REST,DK,1999-01-01,
PCH_WRL_5Y,S,CRE,WRL_REST,DK,2000-01-01,
PCH_WRL_5Y,S,CRE,WRL_REST,DK,2001-01-01,
PCH_WRL_5Y,S,CRE,WRL_REST,DK,2002-01-01,
PCH_WRL_5Y,S,CRE,WRL_REST,DK,2003-01-01,
PCH_WRL_5Y,S,CRE,WRL_REST,DK,2004-01-01,
PCH_WRL_5Y,S,CRE,WRL_REST,DK,2005-01-01,
PCH_WRL_5Y,S,CRE,WRL_REST,DK,2006-01-01,
PCH_WRL_5Y,S,CRE,WRL_REST,DK,2007-01-01,
PCH_WRL_5Y,S,CRE,WRL_REST,DK,2008-01-01,
PCH_WRL_5Y,S,CRE,WRL_REST,DK,2009-01-01,
PCH_WRL_5Y,S,CRE,WRL_REST,DK,2010-01-01,-6.99
PCH_WRL_5Y,S,CRE,WRL_REST,DK,2011-01-01,-16.63
PCH_WRL_5Y,S,CRE,WRL_REST,DK,2012-01-01,-17.02
PCH_WRL_5Y,S,CRE,WRL_REST,DK,2013-01-01,-21.23
PCH_WRL_5Y,S,CRE,WRL_REST,DK,2014-01-01,-11.88
PCH_WRL_5Y,S,CRE,WRL_REST,DK,2015-01-01,-18.41
PCH_WRL_5Y,S,CRE,WRL_REST,DK,2016-01-01,-17.1
PCH_WRL_5Y,S,CRE,WRL_REST,DK,2017-01-01,-13.35
PCH_WRL_5Y,S,CRE,WRL_REST,DK,2018-01-01,-9.34
PCH_WRL_5Y,S,CRE,WRL_REST,EE,1999-01-01,132.27
PCH_WRL_5Y,S,CRE,WRL_REST,EE,2000-01-01,48.54
PCH_WRL_5Y,S,CRE,WRL_REST,EE,2001-01-01,31.8
PCH_WRL_5Y,S,CRE,WRL_REST,EE,2002-01-01,10.71
PCH_WRL_5Y,S,CRE,WRL_REST,EE,2003-01-01,8.6
PCH_WRL_5Y,S,CRE,WRL_REST,EE,2004-01-01,17.0
PCH_WRL_5Y,S,CRE,WRL_REST,EE,2005-01-01,29.22
PCH_WRL_5Y,S,CRE,WRL_REST,EE,2006-01-01,15.37
PCH_WRL_5Y,S,CRE,WRL_REST,EE,2007-01-01,17.88
PCH_WRL_5Y,S,CRE,WRL_REST,EE,2008-01-01,16.17
PCH_WRL_5Y,S,CRE,WRL_REST,EE,2009-01-01,-2.0
PCH_WRL_5Y,S,CRE,WRL_REST,EE,2010-01-01,-9.49
PCH_WRL_5Y,S,CRE,WRL_REST,EE,2011-01-01,-2.82
PCH_WRL_5Y,S,CRE,WRL_REST,EE,2012-01-01,-0.23
PCH_WRL_5Y,S,CRE,WRL_REST,EE,2013-01-01,-4.03
PCH_WRL_5Y,S,CRE,WRL_REST,EE,2014-01-01,6.57
PCH_WRL_5Y,S,CRE,WRL_REST,EE,2015-01-01,-3.52
PCH_WRL_5Y,S,CRE,WRL_REST,EE,2016-01-01,-4.84
PCH_WRL_5Y,S,CRE,WRL_REST,EE,2017-01-01,-5.0
PCH_WRL_5Y,S,CRE,WRL_REST,EE,2018-01-01,-3.2
PCH_WRL_5Y,S,CRE,WRL_REST,EL,1999-01-01,
PCH_WRL_5Y,S,CRE,WRL_REST,EL,2000-01-01,
PCH_WRL_5Y,S,CRE,WRL_REST,EL,2001-01-01,
PCH_WRL_5Y,S,CRE,WRL_REST,EL,2002-01-01,
PCH_WRL_5Y,S,CRE,WRL_REST,EL,2003-01-01,
PCH_WRL_5Y,S,CRE,WRL_REST,EL,2004-01-01,
PCH_WRL_5Y,S,CRE,WRL_REST,EL,2005-01-01,
PCH_WRL_5Y,S,CRE,WRL_REST,EL,2006-01-01,
PCH_WRL_5Y,S,CRE,WRL_REST,EL,2007-01-01,1.12
PCH_WRL_5Y,S,CRE,WRL_REST,EL,2008-01-01,-0.56
PCH_WRL_5Y,S,CRE,WRL_REST,EL,2009-01-01,-26.56
PCH_WRL_5Y,S,CRE,WRL_REST,EL,2010-01-01,-26.2
PCH_WRL_5Y,S,CRE,WRL_REST,EL,2011-01-01,-26.7
PCH_WRL_5Y,S,CRE,WRL_REST,EL,2012-01-01,-36.1
PCH_WRL_5Y,S,CRE,WRL_REST,EL,2013-01-01,-39.2
PCH_WRL_5Y,S,CRE,WRL_REST,EL,2014-01-01,-25.05
PCH_WRL_5Y,S,CRE,WRL_REST,EL,2015-01-01,-27.48
PCH_WRL_5Y,S,CRE,WRL_REST,EL,2016-01-01,-27.06
PCH_WRL_5Y,S,CRE,WRL_REST,EL,2017-01-01,-10.3
PCH_WRL_5Y,S,CRE,WRL_REST,EL,2018-01-01,-2.56
PCH_WRL_5Y,S,CRE,WRL_REST,ES,1999-01-01,23.75
PCH_WRL_5Y,S,CRE,WRL_REST,ES,2000-01-01,8.24
PCH_WRL_5Y,S,CRE,WRL_REST,ES,2001-01-01,13.07
PCH_WRL_5Y,S,CRE,WRL_REST,ES,2002-01-01,13.64
PCH_WRL_5Y,S,CRE,WRL_REST,ES,2003-01-01,11.06
PCH_WRL_5Y,S,CRE,WRL_REST,ES,2004-01-01,1.43
PCH_WRL_5Y,S,CRE,WRL_REST,ES,2005-01-01,4.73
PCH_WRL_5Y,S,CRE,WRL_REST,ES,2006-01-01,-1.59
PCH_WRL_5Y,S,CRE,WRL_REST,ES,2007-01-01,-5.68
PCH_WRL_5Y,S,CRE,WRL_REST,ES,2008-01-01,-13.53
PCH_WRL_5Y,S,CRE,WRL_REST,ES,2009-01-01,-13.02
PCH_WRL_5Y,S,CRE,WRL_REST,ES,2010-01-01,-18.47
PCH_WRL_5Y,S,CRE,WRL_REST,ES,2011-01-01,-16.49
PCH_WRL_5Y,S,CRE,WRL_REST,ES,2012-01-01,-19.49
PCH_WRL_5Y,S,CRE,WRL_REST,ES,2013-01-01,-20.18
PCH_WRL_5Y,S,CRE,WRL_REST,ES,2014-01-01,-17.28
PCH_WRL_5Y,S,CRE,WRL_REST,ES,2015-01-01,-17.08
PCH_WRL_5Y,S,CRE,WRL_REST,ES,2016-01-01,-13.53
PCH_WRL_5Y,S,CRE,WRL_REST,ES,2017-01-01,-3.97
PCH_WRL_5Y,S,CRE,WRL_REST,ES,2018-01-01,-0.95
PCH_WRL_5Y,S,CRE,WRL_REST,FI,1999-01-01,
PCH_WRL_5Y,S,CRE,WRL_REST,FI,2000-01-01,-13.88
PCH_WRL_5Y,S,CRE,WRL_REST,FI,2001-01-01,9.96
PCH_WRL_5Y,S,CRE,WRL_REST,FI,2002-01-01,27.46
PCH_WRL_5Y,S,CRE,WRL_REST,FI,2003-01-01,12.24
PCH_WRL_5Y,S,CRE,WRL_REST,FI,2004-01-01,32.68
PCH_WRL_5Y,S,CRE,WRL_REST,FI,2005-01-01,29.73
PCH_WRL_5Y,S,CRE,WRL_REST,FI,2006-01-01,-36.26
PCH_WRL_5Y,S,CRE,WRL_REST,FI,2007-01-01,-40.67
PCH_WRL_5Y,S,CRE,WRL_REST,FI,2008-01-01,-8.42
PCH_WRL_5Y,S,CRE,WRL_REST,FI,2009-01-01,-20.31
PCH_WRL_5Y,S,CRE,WRL_REST,FI,2010-01-01,-23.86
PCH_WRL_5Y,S,CRE,WRL_REST,FI,2011-01-01,35.47
PCH_WRL_5Y,S,CRE,WRL_REST,FI,2012-01-01,31.41
PCH_WRL_5Y,S,CRE,WRL_REST,FI,2013-01-01,-11.2
PCH_WRL_5Y,S,CRE,WRL_REST,FI,2014-01-01,-11.3
PCH_WRL_5Y,S,CRE,WRL_REST,FI,2015-01-01,-9.41
PCH_WRL_5Y,S,CRE,WRL_REST,FI,2016-01-01,-8.67
PCH_WRL_5Y,S,CRE,WRL_REST,FI,2017-01-01,1.58
PCH_WRL_5Y,S,CRE,WRL_REST,FI,2018-01-01,3.6
PCH_WRL_5Y,S,CRE,WRL_REST,FR,1999-01-01,
PCH_WRL_5Y,S,CRE,WRL_REST,FR,2000-01-01,
PCH_WRL_5Y,S,CRE,WRL_REST,FR,2001-01-01,
PCH_WRL_5Y,S,CRE,WRL_REST,FR,2002-01-01,
PCH_WRL_5Y,S,CRE,WRL_REST,FR,2003-01-01,
PCH_WRL_5Y,S,CRE,WRL_REST,FR,2004-01-01,-15.03
PCH_WRL_5Y,S,CRE,WRL_REST,FR,2005-01-01,-3.68
PCH_WRL_5Y,S,CRE,WRL_REST,FR,2006-01-01,-10.79
PCH_WRL_5Y,S,CRE,WRL_REST,FR,2007-01-01,-16.22
PCH_WRL_5Y,S,CRE,WRL_REST,FR,2008-01-01,-13.42
PCH_WRL_5Y,S,CRE,WRL_REST,FR,2009-01-01,-9.54
PCH_WRL_5Y,S,CRE,WRL_REST,FR,2010-01-01,-11.71
PCH_WRL_5Y,S,CRE,WRL_REST,FR,2011-01-01,-6.34
PCH_WRL_5Y,S,CRE,WRL_REST,FR,2012-01-01,-6.44
PCH_WRL_5Y,S,CRE,WRL_REST,FR,2013-01-01,-4.78
PCH_WRL_5Y,S,CRE,WRL_REST,FR,2014-01-01,-2.53
PCH_WRL_5Y,S,CRE,WRL_REST,FR,2015-01-01,-4.35
PCH_WRL_5Y,S,CRE,WRL_REST,FR,2016-01-01,-6.35
PCH_WRL_5Y,S,CRE,WRL_REST,FR,2017-01-01,-6.99
PCH_WRL_5Y,S,CRE,WRL_REST,FR,2018-01-01,-9.16
PCH_WRL_5Y,S,CRE,WRL_REST,HR,1999-01-01,
PCH_WRL_5Y,S,CRE,WRL_REST,HR,2000-01-01,
PCH_WRL_5Y,S,CRE,WRL_REST,HR,2001-01-01,
PCH_WRL_5Y,S,CRE,WRL_REST,HR,2002-01-01,
PCH_WRL_5Y,S,CRE,WRL_REST,HR,2003-01-01,
PCH_WRL_5Y,S,CRE,WRL_REST,HR,2004-01-01,
PCH_WRL_5Y,S,CRE,WRL_REST,HR,2005-01-01,21.53
PCH_WRL_5Y,S,CRE,WRL_REST,HR,2006-01-01,1.23
PCH_WRL_5Y,S,CRE,WRL_REST,HR,2007-01-01,0.07
PCH_WRL_5Y,S,CRE,WRL_REST,HR,2008-01-01,-11.29
PCH_WRL_5Y,S,CRE,WRL_REST,HR,2009-01-01,-16.45
PCH_WRL_5Y,S,CRE,WRL_REST,HR,2010-01-01,-20.46
PCH_WRL_5Y,S,CRE,WRL_REST,HR,2011-01-01,-22.32
PCH_WRL_5Y,S,CRE,WRL_REST,HR,2012-01-01,-29.37
PCH_WRL_5Y,S,CRE,WRL_REST,HR,2013-01-01,-31.86
PCH_WRL_5Y,S,CRE,WRL_REST,HR,2014-01-01,-24.65
PCH_WRL_5Y,S,CRE,WRL_REST,HR,2015-01-01,-16.93
PCH_WRL_5Y,S,CRE,WRL_REST,HR,2016-01-01,-5.13
PCH_WRL_5Y,S,CRE,WRL_REST,HR,2017-01-01,8.43
PCH_WRL_5Y,S,CRE,WRL_REST,HR,2018-01-01,16.11
PCH_WRL_5Y,S,CRE,WRL_REST,HU,1999-01-01,
PCH_WRL_5Y,S,CRE,WRL_REST,HU,2000-01-01,-11.6
PCH_WRL_5Y,S,CRE,WRL_REST,HU,2001-01-01,-2.62
PCH_WRL_5Y,S,CRE,WRL_REST,HU,2002-01-01,-2.54
PCH_WRL_5Y,S,CRE,WRL_REST,HU,2003-01-01,6.17
PCH_WRL_5Y,S,CRE,WRL_REST,HU,2004-01-01,3.2
PCH_WRL_5Y,S,CRE,WRL_REST,HU,2005-01-01,4.82
PCH_WRL_5Y,S,CRE,WRL_REST,HU,2006-01-01,-14.32
PCH_WRL_5Y,S,CRE,WRL_REST,HU,2007-01-01,-6.88
PCH_WRL_5Y,S,CRE,WRL_REST,HU,2008-01-01,-6.56
PCH_WRL_5Y,S,CRE,WRL_REST,HU,2009-01-01,2.6
PCH_WRL_5Y,S,CRE,WRL_REST,HU,2010-01-01,-0.84
PCH_WRL_5Y,S,CRE,WRL_REST,HU,2011-01-01,5.4
PCH_WRL_5Y,S,CRE,WRL_REST,HU,2012-01-01,-8.67
PCH_WRL_5Y,S,CRE,WRL_REST,HU,2013-01-01,-10.65
PCH_WRL_5Y,S,CRE,WRL_REST,HU,2014-01-01,-9.01
PCH_WRL_5Y,S,CRE,WRL_REST,HU,2015-01-01,-10.55
PCH_WRL_5Y,S,CRE,WRL_REST,HU,2016-01-01,-5.27
PCH_WRL_5Y,S,CRE,WRL_REST,HU,2017-01-01,8.46
PCH_WRL_5Y,S,CRE,WRL_REST,HU,2018-01-01,7.8
PCH_WRL_5Y,S,CRE,WRL_REST,IE,1999-01-01,
PCH_WRL_5Y,S,CRE,WRL_REST,IE,2000-01-01,
PCH_WRL_5Y,S,CRE,WRL_REST,IE,2001-01-01,
PCH_WRL_5Y,S,CRE,WRL_REST,IE,2002-01-01,
PCH_WRL_5Y,S,CRE,WRL_REST,IE,2003-01-01,
PCH_WRL_5Y,S,CRE,WRL_REST,IE,2004-01-01,
PCH_WRL_5Y,S,CRE,WRL_REST,IE,2005-01-01,
PCH_WRL_5Y,S,CRE,WRL_REST,IE,2006-01-01,
PCH_WRL_5Y,S,CRE,WRL_REST,IE,2007-01-01,25.88
PCH_WRL_5Y,S,CRE,WRL_REST,IE,2008-01-01,1.46
PCH_WRL_5Y,S,CRE,WRL_REST,IE,2009-01-01,8.5
PCH_WRL_5Y,S,CRE,WRL_REST,IE,2010-01-01,7.92
PCH_WRL_5Y,S,CRE,WRL_REST,IE,2011-01-01,5.73
PCH_WRL_5Y,S,CRE,WRL_REST,IE,2012-01-01,-0.7
PCH_WRL_5Y,S,CRE,WRL_REST,IE,2013-01-01,4.86
PCH_WRL_5Y,S,CRE,WRL_REST,IE,2014-01-01,6.54
PCH_WRL_5Y,S,CRE,WRL_REST,IE,2015-01-01,13.07
PCH_WRL_5Y,S,CRE,WRL_REST,IE,2016-01-01,23.41
PCH_WRL_5Y,S,CRE,WRL_REST,IE,2017-01-01,46.48
PCH_WRL_5Y,S,CRE,WRL_REST,IE,2018-01-01,51.34
PCH_WRL_5Y,S,CRE,WRL_REST,IT,1999-01-01,
PCH_WRL_5Y,S,CRE,WRL_REST,IT,2000-01-01,-25.48
PCH_WRL_5Y,S,CRE,WRL_REST,IT,2001-01-01,-17.26
PCH_WRL_5Y,S,CRE,WRL_REST,IT,2002-01-01,-17.48
PCH_WRL_5Y,S,CRE,WRL_REST,IT,2003-01-01,-16.58
PCH_WRL_5Y,S,CRE,WRL_REST,IT,2004-01-01,-9.61
PCH_WRL_5Y,S,CRE,WRL_REST,IT,2005-01-01,-7.52
PCH_WRL_5Y,S,CRE,WRL_REST,IT,2006-01-01,-10.79
PCH_WRL_5Y,S,CRE,WRL_REST,IT,2007-01-01,-12.81
PCH_WRL_5Y,S,CRE,WRL_REST,IT,2008-01-01,-24.95
PCH_WRL_5Y,S,CRE,WRL_REST,IT,2009-01-01,-28.48
PCH_WRL_5Y,S,CRE,WRL_REST,IT,2010-01-01,-27.13
PCH_WRL_5Y,S,CRE,WRL_REST,IT,2011-01-01,-28.57
PCH_WRL_5Y,S,CRE,WRL_REST,IT,2012-01-01,-26.98
PCH_WRL_5Y,S,CRE,WRL_REST,IT,2013-01-01,-20.58
PCH_WRL_5Y,S,CRE,WRL_REST,IT,2014-01-01,-18.92
PCH_WRL_5Y,S,CRE,WRL_REST,IT,2015-01-01,-24.18
PCH_WRL_5Y,S,CRE,WRL_REST,IT,2016-01-01,-20.03
PCH_WRL_5Y,S,CRE,WRL_REST,IT,2017-01-01,-14.61
PCH_WRL_5Y,S,CRE,WRL_REST,IT,2018-01-01,-9.17
PCH_WRL_5Y,S,CRE,WRL_REST,LT,1999-01-01,
PCH_WRL_5Y,S,CRE,WRL_REST,LT,2000-01-01,
PCH_WRL_5Y,S,CRE,WRL_REST,LT,2001-01-01,
PCH_WRL_5Y,S,CRE,WRL_REST,LT,2002-01-01,
PCH_WRL_5Y,S,CRE,WRL_REST,LT,2003-01-01,
PCH_WRL_5Y,S,CRE,WRL_REST,LT,2004-01-01,
PCH_WRL_5Y,S,CRE,WRL_REST,LT,2005-01-01,
PCH_WRL_5Y,S,CRE,WRL_REST,LT,2006-01-01,
PCH_WRL_5Y,S,CRE,WRL_REST,LT,2007-01-01,
PCH_WRL_5Y,S,CRE,WRL_REST,LT,2008-01-01,
PCH_WRL_5Y,S,CRE,WRL_REST,LT,2009-01-01,-4.39
PCH_WRL_5Y,S,CRE,WRL_REST,LT,2010-01-01,-5.76
PCH_WRL_5Y,S,CRE,WRL_REST,LT,2011-01-01,0.44
PCH_WRL_5Y,S,CRE,WRL_REST,LT,2012-01-01,11.51
PCH_WRL_5Y,S,CRE,WRL_REST,LT,2013-01-01,16.79
PCH_WRL_5Y,S,CRE,WRL_REST,LT,2014-01-01,31.17
PCH_WRL_5Y,S,CRE,WRL_REST,LT,2015-01-01,20.75
PCH_WRL_5Y,S,CRE,WRL_REST,LT,2016-01-01,19.97
PCH_WRL_5Y,S,CRE,WRL_REST,LT,2017-01-01,29.64
PCH_WRL_5Y,S,CRE,WRL_REST,LT,2018-01-01,30.89
PCH_WRL_5Y,S,CRE,WRL_REST,LU,1999-01-01,
PCH_WRL_5Y,S,CRE,WRL_REST,LU,2000-01-01,34.14
PCH_WRL_5Y,S,CRE,WRL_REST,LU,2001-01-01,26.69
PCH_WRL_5Y,S,CRE,WRL_REST,LU,2002-01-01,24.7
PCH_WRL_5Y,S,CRE,WRL_REST,LU,2003-01-01,26.4
PCH_WRL_5Y,S,CRE,WRL_REST,LU,2004-01-01,19.71
PCH_WRL_5Y,S,CRE,WRL_REST,LU,2005-01-01,15.5
PCH_WRL_5Y,S,CRE,WRL_REST,LU,2006-01-01,30.28
PCH_WRL_5Y,S,CRE,WRL_REST,LU,2007-01-01,39.56
PCH_WRL_5Y,S,CRE,WRL_REST,LU,2008-01-01,23.48
PCH_WRL_5Y,S,CRE,WRL_REST,LU,2009-01-01,7.32
PCH_WRL_5Y,S,CRE,WRL_REST,LU,2010-01-01,2.27
PCH_WRL_5Y,S,CRE,WRL_REST,LU,2011-01-01,-4.6
PCH_WRL_5Y,S,CRE,WRL_REST,LU,2012-01-01,-4.71
PCH_WRL_5Y,S,CRE,WRL_REST,LU,2013-01-01,9.06
PCH_WRL_5Y,S,CRE,WRL_REST,LU,2014-01-01,24.5
PCH_WRL_5Y,S,CRE,WRL_REST,LU,2015-01-01,24.59
PCH_WRL_5Y,S,CRE,WRL_REST,LU,2016-01-01,20.65
PCH_WRL_5Y,S,CRE,WRL_REST,LU,2017-01-01,11.87
PCH_WRL_5Y,S,CRE,WRL_REST,LU,2018-01-01,5.31
PCH_WRL_5Y,S,CRE,WRL_REST,LV,1999-01-01,
PCH_WRL_5Y,S,CRE,WRL_REST,LV,2000-01-01,
PCH_WRL_5Y,S,CRE,WRL_REST,LV,2001-01-01,
PCH_WRL_5Y,S,CRE,WRL_REST,LV,2002-01-01,
PCH_WRL_5Y,S,CRE,WRL_REST,LV,2003-01-01,
PCH_WRL_5Y,S,CRE,WRL_REST,LV,2004-01-01,
PCH_WRL_5Y,S,CRE,WRL_REST,LV,2005-01-01,44.35
PCH_WRL_5Y,S,CRE,WRL_REST,LV,2006-01-01,47.59
PCH_WRL_5Y,S,CRE,WRL_REST,LV,2007-01-01,72.12
PCH_WRL_5Y,S,CRE,WRL_REST,LV,2008-01-01,51.99
PCH_WRL_5Y,S,CRE,WRL_REST,LV,2009-01-01,40.67
PCH_WRL_5Y,S,CRE,WRL_REST,LV,2010-01-01,8.28
PCH_WRL_5Y,S,CRE,WRL_REST,LV,2011-01-01,4.68
PCH_WRL_5Y,S,CRE,WRL_REST,LV,2012-01-01,-13.67
PCH_WRL_5Y,S,CRE,WRL_REST,LV,2013-01-01,-21.1
PCH_WRL_5Y,S,CRE,WRL_REST,LV,2014-01-01,-14.95
PCH_WRL_5Y,S,CRE,WRL_REST,LV,2015-01-01,-6.71
PCH_WRL_5Y,S,CRE,WRL_REST,LV,2016-01-01,-7.07
PCH_WRL_5Y,S,CRE,WRL_REST,LV,2017-01-01,-3.24
PCH_WRL_5Y,S,CRE,WRL_REST,LV,2018-01-01,-0.66
PCH_WRL_5Y,S,CRE,WRL_REST,MT,1999-01-01,
PCH_WRL_5Y,S,CRE,WRL_REST,MT,2000-01-01,
PCH_WRL_5Y,S,CRE,WRL_REST,MT,2001-01-01,
PCH_WRL_5Y,S,CRE,WRL_REST,MT,2002-01-01,
PCH_WRL_5Y,S,CRE,WRL_REST,MT,2003-01-01,
PCH_WRL_5Y,S,CRE,WRL_REST,MT,2004-01-01,
PCH_WRL_5Y,S,CRE,WRL_REST,MT,2005-01-01,
PCH_WRL_5Y,S,CRE,WRL_REST,MT,2006-01-01,
PCH_WRL_5Y,S,CRE,WRL_REST,MT,2007-01-01,
PCH_WRL_5Y,S,CRE,WRL_REST,MT,2008-01-01,
PCH_WRL_5Y,S,CRE,WRL_REST,MT,2009-01-01,80.92
PCH_WRL_5Y,S,CRE,WRL_REST,MT,2010-01-01,60.45
PCH_WRL_5Y,S,CRE,WRL_REST,MT,2011-01-01,41.78
PCH_WRL_5Y,S,CRE,WRL_REST,MT,2012-01-01,30.78
PCH_WRL_5Y,S,CRE,WRL_REST,MT,2013-01-01,1.63
PCH_WRL_5Y,S,CRE,WRL_REST,MT,2014-01-01,-7.1
PCH_WRL_5Y,S,CRE,WRL_REST,MT,2015-01-01,4.79
PCH_WRL_5Y,S,CRE,WRL_REST,MT,2016-01-01,13.05
PCH_WRL_5Y,S,CRE,WRL_REST,MT,2017-01-01,17.76
PCH_WRL_5Y,S,CRE,WRL_REST,MT,2018-01-01,18.05
PCH_WRL_5Y,S,CRE,WRL_REST,NL,1999-01-01,
PCH_WRL_5Y,S,CRE,WRL_REST,NL,2000-01-01,
PCH_WRL_5Y,S,CRE,WRL_REST,NL,2001-01-01,
PCH_WRL_5Y,S,CRE,WRL_REST,NL,2002-01-01,
PCH_WRL_5Y,S,CRE,WRL_REST,NL,2003-01-01,
PCH_WRL_5Y,S,CRE,WRL_REST,NL,2004-01-01,
PCH_WRL_5Y,S,CRE,WRL_REST,NL,2005-01-01,
PCH_WRL_5Y,S,CRE,WRL_REST,NL,2006-01-01,
PCH_WRL_5Y,S,CRE,WRL_REST,NL,2007-01-01,
PCH_WRL_5Y,S,CRE,WRL_REST,NL,2008-01-01,
PCH_WRL_5Y,S,CRE,WRL_REST,NL,2009-01-01,-9.65
PCH_WRL_5Y,S,CRE,WRL_REST,NL,2010-01-01,-9.42
PCH_WRL_5Y,S,CRE,WRL_REST,NL,2011-01-01,-6.03
PCH_WRL_5Y,S,CRE,WRL_REST,NL,2012-01-01,-9.0
PCH_WRL_5Y,S,CRE,WRL_REST,NL,2013-01-01,-11.19
PCH_WRL_5Y,S,CRE,WRL_REST,NL,2014-01-01,-10.24
PCH_WRL_5Y,S,CRE,WRL_REST,NL,2015-01-01,5.62
PCH_WRL_5Y,S,CRE,WRL_REST,NL,2016-01-01,1.3
PCH_WRL_5Y,S,CRE,WRL_REST,NL,2017-01-01,10.14
PCH_WRL_5Y,S,CRE,WRL_REST,NL,2018-01-01,13.47
PCH_WRL_5Y,S,CRE,WRL_REST,PL,1999-01-01,
PCH_WRL_5Y,S,CRE,WRL_REST,PL,2000-01-01,
PCH_WRL_5Y,S,CRE,WRL_REST,PL,2001-01-01,
PCH_WRL_5Y,S,CRE,WRL_REST,PL,2002-01-01,
PCH_WRL_5Y,S,CRE,WRL_REST,PL,2003-01-01,
PCH_WRL_5Y,S,CRE,WRL_REST,PL,2004-01-01,
PCH_WRL_5Y,S,CRE,WRL_REST,PL,2005-01-01,
PCH_WRL_5Y,S,CRE,WRL_REST,PL,2006-01-01,
PCH_WRL_5Y,S,CRE,WRL_REST,PL,2007-01-01,
PCH_WRL_5Y,S,CRE,WRL_REST,PL,2008-01-01,
PCH_WRL_5Y,S,CRE,WRL_REST,PL,2009-01-01,33.72
PCH_WRL_5Y,S,CRE,WRL_REST,PL,2010-01-01,29.0
PCH_WRL_5Y,S,CRE,WRL_REST,PL,2011-01-01,19.15
PCH_WRL_5Y,S,CRE,WRL_REST,PL,2012-01-01,0.66
PCH_WRL_5Y,S,CRE,WRL_REST,PL,2013-01-01,-4.64
PCH_WRL_5Y,S,CRE,WRL_REST,PL,2014-01-01,6.91
PCH_WRL_5Y,S,CRE,WRL_REST,PL,2015-01-01,-0.6
PCH_WRL_5Y,S,CRE,WRL_REST,PL,2016-01-01,7.25
PCH_WRL_5Y,S,CRE,WRL_REST,PL,2017-01-01,19.28
PCH_WRL_5Y,S,CRE,WRL_REST,PL,2018-01-01,28.67
PCH_WRL_5Y,S,CRE,WRL_REST,PT,1999-01-01,
PCH_WRL_5Y,S,CRE,WRL_REST,PT,2000-01-01,
PCH_WRL_5Y,S,CRE,WRL_REST,PT,2001-01-01,-2.92
PCH_WRL_5Y,S,CRE,WRL_REST,PT,2002-01-01,2.86
PCH_WRL_5Y,S,CRE,WRL_REST,PT,2003-01-01,-5.38
PCH_WRL_5Y,S,CRE,WRL_REST,PT,2004-01-01,-0.98
PCH_WRL_5Y,S,CRE,WRL_REST,PT,2005-01-01,-3.64
PCH_WRL_5Y,S,CRE,WRL_REST,PT,2006-01-01,3.06
PCH_WRL_5Y,S,CRE,WRL_REST,PT,2007-01-01,7.8
PCH_WRL_5Y,S,CRE,WRL_REST,PT,2008-01-01,3.39
PCH_WRL_5Y,S,CRE,WRL_REST,PT,2009-01-01,1.15
PCH_WRL_5Y,S,CRE,WRL_REST,PT,2010-01-01,1.28
PCH_WRL_5Y,S,CRE,WRL_REST,PT,2011-01-01,-4.77
PCH_WRL_5Y,S,CRE,WRL_REST,PT,2012-01-01,-15.68
PCH_WRL_5Y,S,CRE,WRL_REST,PT,2013-01-01,-9.4
PCH_WRL_5Y,S,CRE,WRL_REST,PT,2014-01-01,-8.7
PCH_WRL_5Y,S,CRE,WRL_REST,PT,2015-01-01,-6.71
PCH_WRL_5Y,S,CRE,WRL_REST,PT,2016-01-01,-3.6
PCH_WRL_5Y,S,CRE,WRL_REST,PT,2017-01-01,13.9
PCH_WRL_5Y,S,CRE,WRL_REST,PT,2018-01-01,10.09
PCH_WRL_5Y,S,CRE,WRL_REST,RO,1999-01-01,
PCH_WRL_5Y,S,CRE,WRL_REST,RO,2000-01-01,
PCH_WRL_5Y,S,CRE,WRL_REST,RO,2001-01-01,
PCH_WRL_5Y,S,CRE,WRL_REST,RO,2002-01-01,
PCH_WRL_5Y,S,CRE,WRL_REST,RO,2003-01-01,
PCH_WRL_5Y,S,CRE,WRL_REST,RO,2004-01-01,142.8
PCH_WRL_5Y,S,CRE,WRL_REST,RO,2005-01-01,68.97
PCH_WRL_5Y,S,CRE,WRL_REST,RO,2006-01-01,50.6
PCH_WRL_5Y,S,CRE,WRL_REST,RO,2007-01-01,25.87
PCH_WRL_5Y,S,CRE,WRL_REST,RO,2008-01-01,28.15
PCH_WRL_5Y,S,CRE,WRL_REST,RO,2009-01-01,-5.98
PCH_WRL_5Y,S,CRE,WRL_REST,RO,2010-01-01,-29.01
PCH_WRL_5Y,S,CRE,WRL_REST,RO,2011-01-01,-35.2
PCH_WRL_5Y,S,CRE,WRL_REST,RO,2012-01-01,-24.86
PCH_WRL_5Y,S,CRE,WRL_REST,RO,2013-01-01,-10.73
PCH_WRL_5Y,S,CRE,WRL_REST,RO,2014-01-01,16.55
PCH_WRL_5Y,S,CRE,WRL_REST,RO,2015-01-01,38.97
PCH_WRL_5Y,S,CRE,WRL_REST,RO,2016-01-01,45.3
PCH_WRL_5Y,S,CRE,WRL_REST,RO,2017-01-01,54.01
PCH_WRL_5Y,S,CRE,WRL_REST,RO,2018-01-01,27.37
PCH_WRL_5Y,S,CRE,WRL_REST,SE,1999-01-01,14.39
PCH_WRL_5Y,S,CRE,WRL_REST,SE,2000-01-01,12.22
PCH_WRL_5Y,S,CRE,WRL_REST,SE,2001-01-01,15.64
PCH_WRL_5Y,S,CRE,WRL_REST,SE,2002-01-01,16.54
PCH_WRL_5Y,S,CRE,WRL_REST,SE,2003-01-01,11.42
PCH_WRL_5Y,S,CRE,WRL_REST,SE,2004-01-01,8.09
PCH_WRL_5Y,S,CRE,WRL_REST,SE,2005-01-01,10.15
PCH_WRL_5Y,S,CRE,WRL_REST,SE,2006-01-01,6.2
PCH_WRL_5Y,S,CRE,WRL_REST,SE,2007-01-01,8.96
PCH_WRL_5Y,S,CRE,WRL_REST,SE,2008-01-01,8.65
PCH_WRL_5Y,S,CRE,WRL_REST,SE,2009-01-01,-4.26
PCH_WRL_5Y,S,CRE,WRL_REST,SE,2010-01-01,-6.22
PCH_WRL_5Y,S,CRE,WRL_REST,SE,2011-01-01,-1.31
PCH_WRL_5Y,S,CRE,WRL_REST,SE,2012-01-01,-6.08
PCH_WRL_5Y,S,CRE,WRL_REST,SE,2013-01-01,1.84
PCH_WRL_5Y,S,CRE,WRL_REST,SE,2014-01-01,4.96
PCH_WRL_5Y,S,CRE,WRL_REST,SE,2015-01-01,5.12
PCH_WRL_5Y,S,CRE,WRL_REST,SE,2016-01-01,-1.59
PCH_WRL_5Y,S,CRE,WRL_REST,SE,2017-01-01,-4.16
PCH_WRL_5Y,S,CRE,WRL_REST,SE,2018-01-01,-16.97
PCH_WRL_5Y,S,CRE,WRL_REST,SI,1999-01-01,-24.22
PCH_WRL_5Y,S,CRE,WRL_REST,SI,2000-01-01,-32.31
PCH_WRL_5Y,S,CRE,WRL_REST,SI,2001-01-01,-26.57
PCH_WRL_5Y,S,CRE,WRL_REST,SI,2002-01-01,-13.4
PCH_WRL_5Y,S,CRE,WRL_REST,SI,2003-01-01,-4.19
PCH_WRL_5Y,S,CRE,WRL_REST,SI,2004-01-01,8.88
PCH_WRL_5Y,S,CRE,WRL_REST,SI,2005-01-01,21.11
PCH_WRL_5Y,S,CRE,WRL_REST,SI,2006-01-01,11.68
PCH_WRL_5Y,S,CRE,WRL_REST,SI,2007-01-01,10.45
PCH_WRL_5Y,S,CRE,WRL_REST,SI,2008-01-01,19.19
PCH_WRL_5Y,S,CRE,WRL_REST,SI,2009-01-01,9.43
PCH_WRL_5Y,S,CRE,WRL_REST,SI,2010-01-01,1.05
PCH_WRL_5Y,S,CRE,WRL_REST,SI,2011-01-01,0.0
PCH_WRL_5Y,S,CRE,WRL_REST,SI,2012-01-01,-10.56
PCH_WRL_5Y,S,CRE,WRL_REST,SI,2013-01-01,-21.47
PCH_WRL_5Y,S,CRE,WRL_REST,SI,2014-01-01,-16.41
PCH_WRL_5Y,S,CRE,WRL_REST,SI,2015-01-01,-17.71
PCH_WRL_5Y,S,CRE,WRL_REST,SI,2016-01-01,-8.34
PCH_WRL_5Y,S,CRE,WRL_REST,SI,2017-01-01,3.92
PCH_WRL_5Y,S,CRE,WRL_REST,SI,2018-01-01,9.1
PCH_WRL_5Y,S,CRE,WRL_REST,SK,1999-01-01,
PCH_WRL_5Y,S,CRE,WRL_REST,SK,2000-01-01,
PCH_WRL_5Y,S,CRE,WRL_REST,SK,2001-01-01,
PCH_WRL_5Y,S,CRE,WRL_REST,SK,2002-01-01,
PCH_WRL_5Y,S,CRE,WRL_REST,SK,2003-01-01,
PCH_WRL_5Y,S,CRE,WRL_REST,SK,2004-01-01,
PCH_WRL_5Y,S,CRE,WRL_REST,SK,2005-01-01,
PCH_WRL_5Y,S,CRE,WRL_REST,SK,2006-01-01,
PCH_WRL_5Y,S,CRE,WRL_REST,SK,2007-01-01,
PCH_WRL_5Y,S,CRE,WRL_REST,SK,2008-01-01,
PCH_WRL_5Y,S,CRE,WRL_REST,SK,2009-01-01,-26.81
PCH_WRL_5Y,S,CRE,WRL_REST,SK,2010-01-01,-33.66
PCH_WRL_5Y,S,CRE,WRL_REST,SK,2011-01-01,-35.26
PCH_WRL_5Y,S,CRE,WRL_REST,SK,2012-01-01,-30.33
PCH_WRL_5Y,S,CRE,WRL_REST,SK,2013-01-01,-20.37
PCH_WRL_5Y,S,CRE,WRL_REST,SK,2014-01-01,-4.87
PCH_WRL_5Y,S,CRE,WRL_REST,SK,2015-01-01,-0.96
PCH_WRL_5Y,S,CRE,WRL_REST,SK,2016-01-01,11.97
PCH_WRL_5Y,S,CRE,WRL_REST,SK,2017-01-01,13.39
PCH_WRL_5Y,S,CRE,WRL_REST,SK,2018-01-01,7.8
PCH_WRL_5Y,S,CRE,WRL_REST,UK,1999-01-01,
PCH_WRL_5Y,S,CRE,WRL_REST,UK,2000-01-01,
PCH_WRL_5Y,S,CRE,WRL_REST,UK,2001-01-01,
PCH_WRL_5Y,S,CRE,WRL_REST,UK,2002-01-01,13.7
PCH_WRL_5Y,S,CRE,WRL_REST,UK,2003-01-01,16.52
PCH_WRL_5Y,S,CRE,WRL_REST,UK,2004-01-01,5.13
PCH_WRL_5Y,S,CRE,WRL_REST,UK,2005-01-01,9.78
PCH_WRL_5Y,S,CRE,WRL_REST,UK,2006-01-01,9.03
PCH_WRL_5Y,S,CRE,WRL_REST,UK,2007-01-01,5.53
PCH_WRL_5Y,S,CRE,WRL_REST,UK,2008-01-01,-14.31
PCH_WRL_5Y,S,CRE,WRL_REST,UK,2009-01-01,-17.83
PCH_WRL_5Y,S,CRE,WRL_REST,UK,2010-01-01,-22.5
PCH_WRL_5Y,S,CRE,WRL_REST,UK,2011-01-01,-23.23
PCH_WRL_5Y,S,CRE,WRL_REST,UK,2012-01-01,-21.52
PCH_WRL_5Y,S,CRE,WRL_REST,UK,2013-01-01,-8.65
PCH_WRL_5Y,S,CRE,WRL_REST,UK,2014-01-01,-4.57
PCH_WRL_5Y,S,CRE,WRL_REST,UK,2015-01-01,0.88
PCH_WRL_5Y,S,CRE,WRL_REST,UK,2016-01-01,-3.72
PCH_WRL_5Y,S,CRE,WRL_REST,UK,2017-01-01,-7.89
PCH_WRL_5Y,S,CRE,WRL_REST,UK,2018-01-01,-9.77
