unit,s_adj,bop_item,stk_flow,partner,geo,date,value
PC_GDP_3Y,NSA,CA,BAL,WRL_REST,AT,1995-01-01,
PC_GDP_3Y,NSA,CA,BAL,WRL_REST,AT,1996-01-01,
PC_GDP_3Y,NSA,CA,BAL,WRL_REST,AT,1997-01-01,-2.7
PC_GDP_3Y,NSA,CA,BAL,WRL_REST,AT,1998-01-01,-2.4
PC_GDP_3Y,NSA,CA,BAL,WRL_REST,AT,1999-01-01,-2.2
PC_GDP_3Y,NSA,CA,BAL,WRL_REST,AT,2000-01-01,-1.6
PC_GDP_3Y,NSA,CA,BAL,WRL_REST,AT,2001-01-01,-1.3
PC_GDP_3Y,NSA,CA,BAL,WRL_REST,AT,2002-01-01,0.2
PC_GDP_3Y,NSA,CA,BAL,WRL_REST,AT,2003-01-01,1.0
PC_GDP_3Y,NSA,CA,BAL,WRL_REST,AT,2004-01-01,1.9
PC_GDP_3Y,NSA,CA,BAL,WRL_REST,AT,2005-01-01,2.0
PC_GDP_3Y,NSA,CA,BAL,WRL_REST,AT,2006-01-01,2.5
PC_GDP_3Y,NSA,CA,BAL,WRL_REST,AT,2007-01-01,3.1
PC_GDP_3Y,NSA,CA,BAL,WRL_REST,AT,2008-01-01,3.9
PC_GDP_3Y,NSA,CA,BAL,WRL_REST,AT,2009-01-01,3.6
PC_GDP_3Y,NSA,CA,BAL,WRL_REST,AT,2010-01-01,3.3
PC_GDP_3Y,NSA,CA,BAL,WRL_REST,AT,2011-01-01,2.4
PC_GDP_3Y,NSA,CA,BAL,WRL_REST,AT,2012-01-01,2.0
PC_GDP_3Y,NSA,CA,BAL,WRL_REST,AT,2013-01-01,1.7
PC_GDP_3Y,NSA,CA,BAL,WRL_REST,AT,2014-01-01,2.0
PC_GDP_3Y,NSA,CA,BAL,WRL_REST,AT,2015-01-01,2.0
PC_GDP_3Y,NSA,CA,BAL,WRL_REST,AT,2016-01-01,2.3
PC_GDP_3Y,NSA,CA,BAL,WRL_REST,AT,2017-01-01,2.0
PC_GDP_3Y,NSA,CA,BAL,WRL_REST,AT,2018-01-01,2.2
PC_GDP_3Y,NSA,CA,BAL,WRL_REST,BE,1995-01-01,
PC_GDP_3Y,NSA,CA,BAL,WRL_REST,BE,1996-01-01,
PC_GDP_3Y,NSA,CA,BAL,WRL_REST,BE,1997-01-01,
PC_GDP_3Y,NSA,CA,BAL,WRL_REST,BE,1998-01-01,
PC_GDP_3Y,NSA,CA,BAL,WRL_REST,BE,1999-01-01,
PC_GDP_3Y,NSA,CA,BAL,WRL_REST,BE,2000-01-01,
PC_GDP_3Y,NSA,CA,BAL,WRL_REST,BE,2001-01-01,
PC_GDP_3Y,NSA,CA,BAL,WRL_REST,BE,2002-01-01,
PC_GDP_3Y,NSA,CA,BAL,WRL_REST,BE,2003-01-01,
PC_GDP_3Y,NSA,CA,BAL,WRL_REST,BE,2004-01-01,
PC_GDP_3Y,NSA,CA,BAL,WRL_REST,BE,2005-01-01,3.0
PC_GDP_3Y,NSA,CA,BAL,WRL_REST,BE,2006-01-01,2.4
PC_GDP_3Y,NSA,CA,BAL,WRL_REST,BE,2007-01-01,2.0
PC_GDP_3Y,NSA,CA,BAL,WRL_REST,BE,2008-01-01,1.0
PC_GDP_3Y,NSA,CA,BAL,WRL_REST,BE,2009-01-01,0.9
PC_GDP_3Y,NSA,CA,BAL,WRL_REST,BE,2010-01-01,0.8
PC_GDP_3Y,NSA,CA,BAL,WRL_REST,BE,2011-01-01,0.4
PC_GDP_3Y,NSA,CA,BAL,WRL_REST,BE,2012-01-01,-0.1
PC_GDP_3Y,NSA,CA,BAL,WRL_REST,BE,2013-01-01,-0.4
PC_GDP_3Y,NSA,CA,BAL,WRL_REST,BE,2014-01-01,0.5
PC_GDP_3Y,NSA,CA,BAL,WRL_REST,BE,2015-01-01,1.0
PC_GDP_3Y,NSA,CA,BAL,WRL_REST,BE,2016-01-01,0.9
PC_GDP_3Y,NSA,CA,BAL,WRL_REST,BE,2017-01-01,1.1
PC_GDP_3Y,NSA,CA,BAL,WRL_REST,BE,2018-01-01,0.3
PC_GDP_3Y,NSA,CA,BAL,WRL_REST,BG,1995-01-01,
PC_GDP_3Y,NSA,CA,BAL,WRL_REST,BG,1996-01-01,
PC_GDP_3Y,NSA,CA,BAL,WRL_REST,BG,1997-01-01,
PC_GDP_3Y,NSA,CA,BAL,WRL_REST,BG,1998-01-01,
PC_GDP_3Y,NSA,CA,BAL,WRL_REST,BG,1999-01-01,
PC_GDP_3Y,NSA,CA,BAL,WRL_REST,BG,2000-01-01,-3.4
PC_GDP_3Y,NSA,CA,BAL,WRL_REST,BG,2001-01-01,-5.1
PC_GDP_3Y,NSA,CA,BAL,WRL_REST,BG,2002-01-01,-4.4
PC_GDP_3Y,NSA,CA,BAL,WRL_REST,BG,2003-01-01,-4.4
PC_GDP_3Y,NSA,CA,BAL,WRL_REST,BG,2004-01-01,-4.7
PC_GDP_3Y,NSA,CA,BAL,WRL_REST,BG,2005-01-01,-7.6
PC_GDP_3Y,NSA,CA,BAL,WRL_REST,BG,2006-01-01,-11.6
PC_GDP_3Y,NSA,CA,BAL,WRL_REST,BG,2007-01-01,-17.4
PC_GDP_3Y,NSA,CA,BAL,WRL_REST,BG,2008-01-01,-21.0
PC_GDP_3Y,NSA,CA,BAL,WRL_REST,BG,2009-01-01,-18.0
PC_GDP_3Y,NSA,CA,BAL,WRL_REST,BG,2010-01-01,-10.7
PC_GDP_3Y,NSA,CA,BAL,WRL_REST,BG,2011-01-01,-3.2
PC_GDP_3Y,NSA,CA,BAL,WRL_REST,BG,2012-01-01,-0.8
PC_GDP_3Y,NSA,CA,BAL,WRL_REST,BG,2013-01-01,0.3
PC_GDP_3Y,NSA,CA,BAL,WRL_REST,BG,2014-01-01,0.6
PC_GDP_3Y,NSA,CA,BAL,WRL_REST,BG,2015-01-01,0.9
PC_GDP_3Y,NSA,CA,BAL,WRL_REST,BG,2016-01-01,1.5
PC_GDP_3Y,NSA,CA,BAL,WRL_REST,BG,2017-01-01,2.3
PC_GDP_3Y,NSA,CA,BAL,WRL_REST,BG,2018-01-01,4.0
PC_GDP_3Y,NSA,CA,BAL,WRL_REST,CY,1995-01-01,
PC_GDP_3Y,NSA,CA,BAL,WRL_REST,CY,1996-01-01,
PC_GDP_3Y,NSA,CA,BAL,WRL_REST,CY,1997-01-01,
PC_GDP_3Y,NSA,CA,BAL,WRL_REST,CY,1998-01-01,
PC_GDP_3Y,NSA,CA,BAL,WRL_REST,CY,1999-01-01,
PC_GDP_3Y,NSA,CA,BAL,WRL_REST,CY,2000-01-01,
PC_GDP_3Y,NSA,CA,BAL,WRL_REST,CY,2001-01-01,
PC_GDP_3Y,NSA,CA,BAL,WRL_REST,CY,2002-01-01,
PC_GDP_3Y,NSA,CA,BAL,WRL_REST,CY,2003-01-01,
PC_GDP_3Y,NSA,CA,BAL,WRL_REST,CY,2004-01-01,
PC_GDP_3Y,NSA,CA,BAL,WRL_REST,CY,2005-01-01,
PC_GDP_3Y,NSA,CA,BAL,WRL_REST,CY,2006-01-01,-6.4
PC_GDP_3Y,NSA,CA,BAL,WRL_REST,CY,2007-01-01,-8.6
PC_GDP_3Y,NSA,CA,BAL,WRL_REST,CY,2008-01-01,-11.6
PC_GDP_3Y,NSA,CA,BAL,WRL_REST,CY,2009-01-01,-11.1
PC_GDP_3Y,NSA,CA,BAL,WRL_REST,CY,2010-01-01,-10.7
PC_GDP_3Y,NSA,CA,BAL,WRL_REST,CY,2011-01-01,-6.6
PC_GDP_3Y,NSA,CA,BAL,WRL_REST,CY,2012-01-01,-5.6
PC_GDP_3Y,NSA,CA,BAL,WRL_REST,CY,2013-01-01,-2.6
PC_GDP_3Y,NSA,CA,BAL,WRL_REST,CY,2014-01-01,-3.1
PC_GDP_3Y,NSA,CA,BAL,WRL_REST,CY,2015-01-01,-2.0
PC_GDP_3Y,NSA,CA,BAL,WRL_REST,CY,2016-01-01,-2.9
PC_GDP_3Y,NSA,CA,BAL,WRL_REST,CY,2017-01-01,-3.3
PC_GDP_3Y,NSA,CA,BAL,WRL_REST,CY,2018-01-01,-4.6
PC_GDP_3Y,NSA,CA,BAL,WRL_REST,CZ,1995-01-01,
PC_GDP_3Y,NSA,CA,BAL,WRL_REST,CZ,1996-01-01,
PC_GDP_3Y,NSA,CA,BAL,WRL_REST,CZ,1997-01-01,-4.7
PC_GDP_3Y,NSA,CA,BAL,WRL_REST,CZ,1998-01-01,-4.6
PC_GDP_3Y,NSA,CA,BAL,WRL_REST,CZ,1999-01-01,-3.3
PC_GDP_3Y,NSA,CA,BAL,WRL_REST,CZ,2000-01-01,-2.9
PC_GDP_3Y,NSA,CA,BAL,WRL_REST,CZ,2001-01-01,-3.8
PC_GDP_3Y,NSA,CA,BAL,WRL_REST,CZ,2002-01-01,-4.8
PC_GDP_3Y,NSA,CA,BAL,WRL_REST,CZ,2003-01-01,-5.2
PC_GDP_3Y,NSA,CA,BAL,WRL_REST,CZ,2004-01-01,-4.8
PC_GDP_3Y,NSA,CA,BAL,WRL_REST,CZ,2005-01-01,-3.9
PC_GDP_3Y,NSA,CA,BAL,WRL_REST,CZ,2006-01-01,-2.8
PC_GDP_3Y,NSA,CA,BAL,WRL_REST,CZ,2007-01-01,-3.1
PC_GDP_3Y,NSA,CA,BAL,WRL_REST,CZ,2008-01-01,-3.0
PC_GDP_3Y,NSA,CA,BAL,WRL_REST,CZ,2009-01-01,-2.9
PC_GDP_3Y,NSA,CA,BAL,WRL_REST,CZ,2010-01-01,-2.6
PC_GDP_3Y,NSA,CA,BAL,WRL_REST,CZ,2011-01-01,-2.6
PC_GDP_3Y,NSA,CA,BAL,WRL_REST,CZ,2012-01-01,-2.4
PC_GDP_3Y,NSA,CA,BAL,WRL_REST,CZ,2013-01-01,-1.4
PC_GDP_3Y,NSA,CA,BAL,WRL_REST,CZ,2014-01-01,-0.6
PC_GDP_3Y,NSA,CA,BAL,WRL_REST,CZ,2015-01-01,0.0
PC_GDP_3Y,NSA,CA,BAL,WRL_REST,CZ,2016-01-01,0.7
PC_GDP_3Y,NSA,CA,BAL,WRL_REST,CZ,2017-01-01,1.2
PC_GDP_3Y,NSA,CA,BAL,WRL_REST,CZ,2018-01-01,1.2
PC_GDP_3Y,NSA,CA,BAL,WRL_REST,DE,1995-01-01,-1.2
PC_GDP_3Y,NSA,CA,BAL,WRL_REST,DE,1996-01-01,-1.1
PC_GDP_3Y,NSA,CA,BAL,WRL_REST,DE,1997-01-01,-0.8
PC_GDP_3Y,NSA,CA,BAL,WRL_REST,DE,1998-01-01,-0.6
PC_GDP_3Y,NSA,CA,BAL,WRL_REST,DE,1999-01-01,-0.9
PC_GDP_3Y,NSA,CA,BAL,WRL_REST,DE,2000-01-01,-1.3
PC_GDP_3Y,NSA,CA,BAL,WRL_REST,DE,2001-01-01,-1.2
PC_GDP_3Y,NSA,CA,BAL,WRL_REST,DE,2002-01-01,-0.1
PC_GDP_3Y,NSA,CA,BAL,WRL_REST,DE,2003-01-01,1.0
PC_GDP_3Y,NSA,CA,BAL,WRL_REST,DE,2004-01-01,2.6
PC_GDP_3Y,NSA,CA,BAL,WRL_REST,DE,2005-01-01,3.5
PC_GDP_3Y,NSA,CA,BAL,WRL_REST,DE,2006-01-01,5.0
PC_GDP_3Y,NSA,CA,BAL,WRL_REST,DE,2007-01-01,5.8
PC_GDP_3Y,NSA,CA,BAL,WRL_REST,DE,2008-01-01,6.1
PC_GDP_3Y,NSA,CA,BAL,WRL_REST,DE,2009-01-01,6.1
PC_GDP_3Y,NSA,CA,BAL,WRL_REST,DE,2010-01-01,5.8
PC_GDP_3Y,NSA,CA,BAL,WRL_REST,DE,2011-01-01,5.9
PC_GDP_3Y,NSA,CA,BAL,WRL_REST,DE,2012-01-01,6.4
PC_GDP_3Y,NSA,CA,BAL,WRL_REST,DE,2013-01-01,6.6
PC_GDP_3Y,NSA,CA,BAL,WRL_REST,DE,2014-01-01,7.0
PC_GDP_3Y,NSA,CA,BAL,WRL_REST,DE,2015-01-01,7.4
PC_GDP_3Y,NSA,CA,BAL,WRL_REST,DE,2016-01-01,8.1
PC_GDP_3Y,NSA,CA,BAL,WRL_REST,DE,2017-01-01,8.4
PC_GDP_3Y,NSA,CA,BAL,WRL_REST,DE,2018-01-01,8.0
PC_GDP_3Y,NSA,CA,BAL,WRL_REST,DK,1995-01-01,
PC_GDP_3Y,NSA,CA,BAL,WRL_REST,DK,1996-01-01,
PC_GDP_3Y,NSA,CA,BAL,WRL_REST,DK,1997-01-01,
PC_GDP_3Y,NSA,CA,BAL,WRL_REST,DK,1998-01-01,
PC_GDP_3Y,NSA,CA,BAL,WRL_REST,DK,1999-01-01,
PC_GDP_3Y,NSA,CA,BAL,WRL_REST,DK,2000-01-01,
PC_GDP_3Y,NSA,CA,BAL,WRL_REST,DK,2001-01-01,
PC_GDP_3Y,NSA,CA,BAL,WRL_REST,DK,2002-01-01,
PC_GDP_3Y,NSA,CA,BAL,WRL_REST,DK,2003-01-01,
PC_GDP_3Y,NSA,CA,BAL,WRL_REST,DK,2004-01-01,
PC_GDP_3Y,NSA,CA,BAL,WRL_REST,DK,2005-01-01,
PC_GDP_3Y,NSA,CA,BAL,WRL_REST,DK,2006-01-01,
PC_GDP_3Y,NSA,CA,BAL,WRL_REST,DK,2007-01-01,3.0
PC_GDP_3Y,NSA,CA,BAL,WRL_REST,DK,2008-01-01,2.6
PC_GDP_3Y,NSA,CA,BAL,WRL_REST,DK,2009-01-01,2.6
PC_GDP_3Y,NSA,CA,BAL,WRL_REST,DK,2010-01-01,4.3
PC_GDP_3Y,NSA,CA,BAL,WRL_REST,DK,2011-01-01,5.5
PC_GDP_3Y,NSA,CA,BAL,WRL_REST,DK,2012-01-01,6.5
PC_GDP_3Y,NSA,CA,BAL,WRL_REST,DK,2013-01-01,6.9
PC_GDP_3Y,NSA,CA,BAL,WRL_REST,DK,2014-01-01,7.7
PC_GDP_3Y,NSA,CA,BAL,WRL_REST,DK,2015-01-01,8.3
PC_GDP_3Y,NSA,CA,BAL,WRL_REST,DK,2016-01-01,8.3
PC_GDP_3Y,NSA,CA,BAL,WRL_REST,DK,2017-01-01,7.9
PC_GDP_3Y,NSA,CA,BAL,WRL_REST,DK,2018-01-01,7.5
PC_GDP_3Y,NSA,CA,BAL,WRL_REST,EE,1995-01-01,
PC_GDP_3Y,NSA,CA,BAL,WRL_REST,EE,1996-01-01,
PC_GDP_3Y,NSA,CA,BAL,WRL_REST,EE,1997-01-01,-7.7
PC_GDP_3Y,NSA,CA,BAL,WRL_REST,EE,1998-01-01,-9.2
PC_GDP_3Y,NSA,CA,BAL,WRL_REST,EE,1999-01-01,-7.9
PC_GDP_3Y,NSA,CA,BAL,WRL_REST,EE,2000-01-01,-6.1
PC_GDP_3Y,NSA,CA,BAL,WRL_REST,EE,2001-01-01,-5.6
PC_GDP_3Y,NSA,CA,BAL,WRL_REST,EE,2002-01-01,-7.9
PC_GDP_3Y,NSA,CA,BAL,WRL_REST,EE,2003-01-01,-10.3
PC_GDP_3Y,NSA,CA,BAL,WRL_REST,EE,2004-01-01,-12.0
PC_GDP_3Y,NSA,CA,BAL,WRL_REST,EE,2005-01-01,-11.2
PC_GDP_3Y,NSA,CA,BAL,WRL_REST,EE,2006-01-01,-11.8
PC_GDP_3Y,NSA,CA,BAL,WRL_REST,EE,2007-01-01,-12.8
PC_GDP_3Y,NSA,CA,BAL,WRL_REST,EE,2008-01-01,-12.8
PC_GDP_3Y,NSA,CA,BAL,WRL_REST,EE,2009-01-01,-7.0
PC_GDP_3Y,NSA,CA,BAL,WRL_REST,EE,2010-01-01,-1.4
PC_GDP_3Y,NSA,CA,BAL,WRL_REST,EE,2011-01-01,1.9
PC_GDP_3Y,NSA,CA,BAL,WRL_REST,EE,2012-01-01,0.4
PC_GDP_3Y,NSA,CA,BAL,WRL_REST,EE,2013-01-01,-0.1
PC_GDP_3Y,NSA,CA,BAL,WRL_REST,EE,2014-01-01,-0.3
PC_GDP_3Y,NSA,CA,BAL,WRL_REST,EE,2015-01-01,0.9
PC_GDP_3Y,NSA,CA,BAL,WRL_REST,EE,2016-01-01,1.4
PC_GDP_3Y,NSA,CA,BAL,WRL_REST,EE,2017-01-01,2.0
PC_GDP_3Y,NSA,CA,BAL,WRL_REST,EE,2018-01-01,2.1
PC_GDP_3Y,NSA,CA,BAL,WRL_REST,EL,1995-01-01,
PC_GDP_3Y,NSA,CA,BAL,WRL_REST,EL,1996-01-01,
PC_GDP_3Y,NSA,CA,BAL,WRL_REST,EL,1997-01-01,
PC_GDP_3Y,NSA,CA,BAL,WRL_REST,EL,1998-01-01,
PC_GDP_3Y,NSA,CA,BAL,WRL_REST,EL,1999-01-01,
PC_GDP_3Y,NSA,CA,BAL,WRL_REST,EL,2000-01-01,
PC_GDP_3Y,NSA,CA,BAL,WRL_REST,EL,2001-01-01,
PC_GDP_3Y,NSA,CA,BAL,WRL_REST,EL,2002-01-01,
PC_GDP_3Y,NSA,CA,BAL,WRL_REST,EL,2003-01-01,
PC_GDP_3Y,NSA,CA,BAL,WRL_REST,EL,2004-01-01,-7.7
PC_GDP_3Y,NSA,CA,BAL,WRL_REST,EL,2005-01-01,-8.3
PC_GDP_3Y,NSA,CA,BAL,WRL_REST,EL,2006-01-01,-9.4
PC_GDP_3Y,NSA,CA,BAL,WRL_REST,EL,2007-01-01,-11.8
PC_GDP_3Y,NSA,CA,BAL,WRL_REST,EL,2008-01-01,-13.9
PC_GDP_3Y,NSA,CA,BAL,WRL_REST,EL,2009-01-01,-14.2
PC_GDP_3Y,NSA,CA,BAL,WRL_REST,EL,2010-01-01,-12.5
PC_GDP_3Y,NSA,CA,BAL,WRL_REST,EL,2011-01-01,-10.3
PC_GDP_3Y,NSA,CA,BAL,WRL_REST,EL,2012-01-01,-7.4
PC_GDP_3Y,NSA,CA,BAL,WRL_REST,EL,2013-01-01,-4.5
PC_GDP_3Y,NSA,CA,BAL,WRL_REST,EL,2014-01-01,-1.9
PC_GDP_3Y,NSA,CA,BAL,WRL_REST,EL,2015-01-01,-1.0
PC_GDP_3Y,NSA,CA,BAL,WRL_REST,EL,2016-01-01,-1.1
PC_GDP_3Y,NSA,CA,BAL,WRL_REST,EL,2017-01-01,-1.5
PC_GDP_3Y,NSA,CA,BAL,WRL_REST,EL,2018-01-01,-2.2
PC_GDP_3Y,NSA,CA,BAL,WRL_REST,ES,1995-01-01,
PC_GDP_3Y,NSA,CA,BAL,WRL_REST,ES,1996-01-01,
PC_GDP_3Y,NSA,CA,BAL,WRL_REST,ES,1997-01-01,-0.9
PC_GDP_3Y,NSA,CA,BAL,WRL_REST,ES,1998-01-01,-1.1
PC_GDP_3Y,NSA,CA,BAL,WRL_REST,ES,1999-01-01,-1.9
PC_GDP_3Y,NSA,CA,BAL,WRL_REST,ES,2000-01-01,-3.1
PC_GDP_3Y,NSA,CA,BAL,WRL_REST,ES,2001-01-01,-4.0
PC_GDP_3Y,NSA,CA,BAL,WRL_REST,ES,2002-01-01,-4.1
PC_GDP_3Y,NSA,CA,BAL,WRL_REST,ES,2003-01-01,-4.0
PC_GDP_3Y,NSA,CA,BAL,WRL_REST,ES,2004-01-01,-4.4
PC_GDP_3Y,NSA,CA,BAL,WRL_REST,ES,2005-01-01,-5.5
PC_GDP_3Y,NSA,CA,BAL,WRL_REST,ES,2006-01-01,-7.2
PC_GDP_3Y,NSA,CA,BAL,WRL_REST,ES,2007-01-01,-8.5
PC_GDP_3Y,NSA,CA,BAL,WRL_REST,ES,2008-01-01,-9.1
PC_GDP_3Y,NSA,CA,BAL,WRL_REST,ES,2009-01-01,-7.5
PC_GDP_3Y,NSA,CA,BAL,WRL_REST,ES,2010-01-01,-5.5
PC_GDP_3Y,NSA,CA,BAL,WRL_REST,ES,2011-01-01,-3.5
PC_GDP_3Y,NSA,CA,BAL,WRL_REST,ES,2012-01-01,-2.1
PC_GDP_3Y,NSA,CA,BAL,WRL_REST,ES,2013-01-01,-0.2
PC_GDP_3Y,NSA,CA,BAL,WRL_REST,ES,2014-01-01,1.3
PC_GDP_3Y,NSA,CA,BAL,WRL_REST,ES,2015-01-01,1.9
PC_GDP_3Y,NSA,CA,BAL,WRL_REST,ES,2016-01-01,2.3
PC_GDP_3Y,NSA,CA,BAL,WRL_REST,ES,2017-01-01,2.6
PC_GDP_3Y,NSA,CA,BAL,WRL_REST,ES,2018-01-01,2.6
PC_GDP_3Y,NSA,CA,BAL,WRL_REST,FI,1995-01-01,
PC_GDP_3Y,NSA,CA,BAL,WRL_REST,FI,1996-01-01,
PC_GDP_3Y,NSA,CA,BAL,WRL_REST,FI,1997-01-01,4.3
PC_GDP_3Y,NSA,CA,BAL,WRL_REST,FI,1998-01-01,4.7
PC_GDP_3Y,NSA,CA,BAL,WRL_REST,FI,1999-01-01,5.1
PC_GDP_3Y,NSA,CA,BAL,WRL_REST,FI,2000-01-01,6.0
PC_GDP_3Y,NSA,CA,BAL,WRL_REST,FI,2001-01-01,6.9
PC_GDP_3Y,NSA,CA,BAL,WRL_REST,FI,2002-01-01,7.9
PC_GDP_3Y,NSA,CA,BAL,WRL_REST,FI,2003-01-01,7.0
PC_GDP_3Y,NSA,CA,BAL,WRL_REST,FI,2004-01-01,6.2
PC_GDP_3Y,NSA,CA,BAL,WRL_REST,FI,2005-01-01,4.5
PC_GDP_3Y,NSA,CA,BAL,WRL_REST,FI,2006-01-01,4.2
PC_GDP_3Y,NSA,CA,BAL,WRL_REST,FI,2007-01-01,3.7
PC_GDP_3Y,NSA,CA,BAL,WRL_REST,FI,2008-01-01,3.5
PC_GDP_3Y,NSA,CA,BAL,WRL_REST,FI,2009-01-01,2.9
PC_GDP_3Y,NSA,CA,BAL,WRL_REST,FI,2010-01-01,2.0
PC_GDP_3Y,NSA,CA,BAL,WRL_REST,FI,2011-01-01,0.7
PC_GDP_3Y,NSA,CA,BAL,WRL_REST,FI,2012-01-01,-0.7
PC_GDP_3Y,NSA,CA,BAL,WRL_REST,FI,2013-01-01,-1.8
PC_GDP_3Y,NSA,CA,BAL,WRL_REST,FI,2014-01-01,-1.7
PC_GDP_3Y,NSA,CA,BAL,WRL_REST,FI,2015-01-01,-1.4
PC_GDP_3Y,NSA,CA,BAL,WRL_REST,FI,2016-01-01,-1.4
PC_GDP_3Y,NSA,CA,BAL,WRL_REST,FI,2017-01-01,-1.2
PC_GDP_3Y,NSA,CA,BAL,WRL_REST,FI,2018-01-01,-1.4
PC_GDP_3Y,NSA,CA,BAL,WRL_REST,FR,1995-01-01,
PC_GDP_3Y,NSA,CA,BAL,WRL_REST,FR,1996-01-01,
PC_GDP_3Y,NSA,CA,BAL,WRL_REST,FR,1997-01-01,
PC_GDP_3Y,NSA,CA,BAL,WRL_REST,FR,1998-01-01,
PC_GDP_3Y,NSA,CA,BAL,WRL_REST,FR,1999-01-01,
PC_GDP_3Y,NSA,CA,BAL,WRL_REST,FR,2000-01-01,
PC_GDP_3Y,NSA,CA,BAL,WRL_REST,FR,2001-01-01,2.0
PC_GDP_3Y,NSA,CA,BAL,WRL_REST,FR,2002-01-01,1.3
PC_GDP_3Y,NSA,CA,BAL,WRL_REST,FR,2003-01-01,1.2
PC_GDP_3Y,NSA,CA,BAL,WRL_REST,FR,2004-01-01,0.8
PC_GDP_3Y,NSA,CA,BAL,WRL_REST,FR,2005-01-01,0.5
PC_GDP_3Y,NSA,CA,BAL,WRL_REST,FR,2006-01-01,0.3
PC_GDP_3Y,NSA,CA,BAL,WRL_REST,FR,2007-01-01,0.1
PC_GDP_3Y,NSA,CA,BAL,WRL_REST,FR,2008-01-01,-0.2
PC_GDP_3Y,NSA,CA,BAL,WRL_REST,FR,2009-01-01,-0.4
PC_GDP_3Y,NSA,CA,BAL,WRL_REST,FR,2010-01-01,-0.6
PC_GDP_3Y,NSA,CA,BAL,WRL_REST,FR,2011-01-01,-0.7
PC_GDP_3Y,NSA,CA,BAL,WRL_REST,FR,2012-01-01,-0.8
PC_GDP_3Y,NSA,CA,BAL,WRL_REST,FR,2013-01-01,-0.8
PC_GDP_3Y,NSA,CA,BAL,WRL_REST,FR,2014-01-01,-0.8
PC_GDP_3Y,NSA,CA,BAL,WRL_REST,FR,2015-01-01,-0.6
PC_GDP_3Y,NSA,CA,BAL,WRL_REST,FR,2016-01-01,-0.6
PC_GDP_3Y,NSA,CA,BAL,WRL_REST,FR,2017-01-01,-0.5
PC_GDP_3Y,NSA,CA,BAL,WRL_REST,FR,2018-01-01,-0.6
PC_GDP_3Y,NSA,CA,BAL,WRL_REST,HR,1995-01-01,
PC_GDP_3Y,NSA,CA,BAL,WRL_REST,HR,1996-01-01,
PC_GDP_3Y,NSA,CA,BAL,WRL_REST,HR,1997-01-01,
PC_GDP_3Y,NSA,CA,BAL,WRL_REST,HR,1998-01-01,
PC_GDP_3Y,NSA,CA,BAL,WRL_REST,HR,1999-01-01,
PC_GDP_3Y,NSA,CA,BAL,WRL_REST,HR,2000-01-01,
PC_GDP_3Y,NSA,CA,BAL,WRL_REST,HR,2001-01-01,
PC_GDP_3Y,NSA,CA,BAL,WRL_REST,HR,2002-01-01,-3.4
PC_GDP_3Y,NSA,CA,BAL,WRL_REST,HR,2003-01-01,-6.0
PC_GDP_3Y,NSA,CA,BAL,WRL_REST,HR,2004-01-01,-7.3
PC_GDP_3Y,NSA,CA,BAL,WRL_REST,HR,2005-01-01,-7.6
PC_GDP_3Y,NSA,CA,BAL,WRL_REST,HR,2006-01-01,-7.1
PC_GDP_3Y,NSA,CA,BAL,WRL_REST,HR,2007-01-01,-7.7
PC_GDP_3Y,NSA,CA,BAL,WRL_REST,HR,2008-01-01,-8.9
PC_GDP_3Y,NSA,CA,BAL,WRL_REST,HR,2009-01-01,-8.5
PC_GDP_3Y,NSA,CA,BAL,WRL_REST,HR,2010-01-01,-6.6
PC_GDP_3Y,NSA,CA,BAL,WRL_REST,HR,2011-01-01,-3.6
PC_GDP_3Y,NSA,CA,BAL,WRL_REST,HR,2012-01-01,-2.0
PC_GDP_3Y,NSA,CA,BAL,WRL_REST,HR,2013-01-01,-1.6
PC_GDP_3Y,NSA,CA,BAL,WRL_REST,HR,2014-01-01,-0.9
PC_GDP_3Y,NSA,CA,BAL,WRL_REST,HR,2015-01-01,0.8
PC_GDP_3Y,NSA,CA,BAL,WRL_REST,HR,2016-01-01,1.8
PC_GDP_3Y,NSA,CA,BAL,WRL_REST,HR,2017-01-01,2.8
PC_GDP_3Y,NSA,CA,BAL,WRL_REST,HR,2018-01-01,2.4
PC_GDP_3Y,NSA,CA,BAL,WRL_REST,HU,1995-01-01,
PC_GDP_3Y,NSA,CA,BAL,WRL_REST,HU,1996-01-01,
PC_GDP_3Y,NSA,CA,BAL,WRL_REST,HU,1997-01-01,-3.9
PC_GDP_3Y,NSA,CA,BAL,WRL_REST,HU,1998-01-01,-5.3
PC_GDP_3Y,NSA,CA,BAL,WRL_REST,HU,1999-01-01,-6.8
PC_GDP_3Y,NSA,CA,BAL,WRL_REST,HU,2000-01-01,-8.3
PC_GDP_3Y,NSA,CA,BAL,WRL_REST,HU,2001-01-01,-7.8
PC_GDP_3Y,NSA,CA,BAL,WRL_REST,HU,2002-01-01,-7.1
PC_GDP_3Y,NSA,CA,BAL,WRL_REST,HU,2003-01-01,-6.9
PC_GDP_3Y,NSA,CA,BAL,WRL_REST,HU,2004-01-01,-7.9
PC_GDP_3Y,NSA,CA,BAL,WRL_REST,HU,2005-01-01,-8.2
PC_GDP_3Y,NSA,CA,BAL,WRL_REST,HU,2006-01-01,-7.9
PC_GDP_3Y,NSA,CA,BAL,WRL_REST,HU,2007-01-01,-7.2
PC_GDP_3Y,NSA,CA,BAL,WRL_REST,HU,2008-01-01,-7.2
PC_GDP_3Y,NSA,CA,BAL,WRL_REST,HU,2009-01-01,-5.0
PC_GDP_3Y,NSA,CA,BAL,WRL_REST,HU,2010-01-01,-2.5
PC_GDP_3Y,NSA,CA,BAL,WRL_REST,HU,2011-01-01,0.1
PC_GDP_3Y,NSA,CA,BAL,WRL_REST,HU,2012-01-01,0.8
PC_GDP_3Y,NSA,CA,BAL,WRL_REST,HU,2013-01-01,1.9
PC_GDP_3Y,NSA,CA,BAL,WRL_REST,HU,2014-01-01,2.1
PC_GDP_3Y,NSA,CA,BAL,WRL_REST,HU,2015-01-01,2.3
PC_GDP_3Y,NSA,CA,BAL,WRL_REST,HU,2016-01-01,2.7
PC_GDP_3Y,NSA,CA,BAL,WRL_REST,HU,2017-01-01,3.1
PC_GDP_3Y,NSA,CA,BAL,WRL_REST,HU,2018-01-01,2.1
PC_GDP_3Y,NSA,CA,BAL,WRL_REST,IE,1995-01-01,
PC_GDP_3Y,NSA,CA,BAL,WRL_REST,IE,1996-01-01,
PC_GDP_3Y,NSA,CA,BAL,WRL_REST,IE,1997-01-01,
PC_GDP_3Y,NSA,CA,BAL,WRL_REST,IE,1998-01-01,
PC_GDP_3Y,NSA,CA,BAL,WRL_REST,IE,1999-01-01,
PC_GDP_3Y,NSA,CA,BAL,WRL_REST,IE,2000-01-01,0.5
PC_GDP_3Y,NSA,CA,BAL,WRL_REST,IE,2001-01-01,0.3
PC_GDP_3Y,NSA,CA,BAL,WRL_REST,IE,2002-01-01,0.3
PC_GDP_3Y,NSA,CA,BAL,WRL_REST,IE,2003-01-01,0.3
PC_GDP_3Y,NSA,CA,BAL,WRL_REST,IE,2004-01-01,0.2
PC_GDP_3Y,NSA,CA,BAL,WRL_REST,IE,2005-01-01,-1.0
PC_GDP_3Y,NSA,CA,BAL,WRL_REST,IE,2006-01-01,-3.0
PC_GDP_3Y,NSA,CA,BAL,WRL_REST,IE,2007-01-01,-5.1
PC_GDP_3Y,NSA,CA,BAL,WRL_REST,IE,2008-01-01,-6.0
PC_GDP_3Y,NSA,CA,BAL,WRL_REST,IE,2009-01-01,-5.8
PC_GDP_3Y,NSA,CA,BAL,WRL_REST,IE,2010-01-01,-4.0
PC_GDP_3Y,NSA,CA,BAL,WRL_REST,IE,2011-01-01,-2.5
PC_GDP_3Y,NSA,CA,BAL,WRL_REST,IE,2012-01-01,-2.1
PC_GDP_3Y,NSA,CA,BAL,WRL_REST,IE,2013-01-01,-1.2
PC_GDP_3Y,NSA,CA,BAL,WRL_REST,IE,2014-01-01,-0.3
PC_GDP_3Y,NSA,CA,BAL,WRL_REST,IE,2015-01-01,2.3
PC_GDP_3Y,NSA,CA,BAL,WRL_REST,IE,2016-01-01,0.4
PC_GDP_3Y,NSA,CA,BAL,WRL_REST,IE,2017-01-01,0.2
PC_GDP_3Y,NSA,CA,BAL,WRL_REST,IE,2018-01-01,2.3
PC_GDP_3Y,NSA,CA,BAL,WRL_REST,IT,1995-01-01,
PC_GDP_3Y,NSA,CA,BAL,WRL_REST,IT,1996-01-01,
PC_GDP_3Y,NSA,CA,BAL,WRL_REST,IT,1997-01-01,2.5
PC_GDP_3Y,NSA,CA,BAL,WRL_REST,IT,1998-01-01,2.4
PC_GDP_3Y,NSA,CA,BAL,WRL_REST,IT,1999-01-01,1.7
PC_GDP_3Y,NSA,CA,BAL,WRL_REST,IT,2000-01-01,0.7
PC_GDP_3Y,NSA,CA,BAL,WRL_REST,IT,2001-01-01,0.2
PC_GDP_3Y,NSA,CA,BAL,WRL_REST,IT,2002-01-01,-0.2
PC_GDP_3Y,NSA,CA,BAL,WRL_REST,IT,2003-01-01,-0.4
PC_GDP_3Y,NSA,CA,BAL,WRL_REST,IT,2004-01-01,-0.6
PC_GDP_3Y,NSA,CA,BAL,WRL_REST,IT,2005-01-01,-0.7
PC_GDP_3Y,NSA,CA,BAL,WRL_REST,IT,2006-01-01,-0.9
PC_GDP_3Y,NSA,CA,BAL,WRL_REST,IT,2007-01-01,-1.2
PC_GDP_3Y,NSA,CA,BAL,WRL_REST,IT,2008-01-01,-1.9
PC_GDP_3Y,NSA,CA,BAL,WRL_REST,IT,2009-01-01,-2.0
PC_GDP_3Y,NSA,CA,BAL,WRL_REST,IT,2010-01-01,-2.7
PC_GDP_3Y,NSA,CA,BAL,WRL_REST,IT,2011-01-01,-2.7
PC_GDP_3Y,NSA,CA,BAL,WRL_REST,IT,2012-01-01,-2.1
PC_GDP_3Y,NSA,CA,BAL,WRL_REST,IT,2013-01-01,-0.6
PC_GDP_3Y,NSA,CA,BAL,WRL_REST,IT,2014-01-01,0.9
PC_GDP_3Y,NSA,CA,BAL,WRL_REST,IT,2015-01-01,1.5
PC_GDP_3Y,NSA,CA,BAL,WRL_REST,IT,2016-01-01,2.0
PC_GDP_3Y,NSA,CA,BAL,WRL_REST,IT,2017-01-01,2.2
PC_GDP_3Y,NSA,CA,BAL,WRL_REST,IT,2018-01-01,2.6
PC_GDP_3Y,NSA,CA,BAL,WRL_REST,LT,1995-01-01,
PC_GDP_3Y,NSA,CA,BAL,WRL_REST,LT,1996-01-01,
PC_GDP_3Y,NSA,CA,BAL,WRL_REST,LT,1997-01-01,-9.7
PC_GDP_3Y,NSA,CA,BAL,WRL_REST,LT,1998-01-01,-11.1
PC_GDP_3Y,NSA,CA,BAL,WRL_REST,LT,1999-01-01,-11.7
PC_GDP_3Y,NSA,CA,BAL,WRL_REST,LT,2000-01-01,-9.7
PC_GDP_3Y,NSA,CA,BAL,WRL_REST,LT,2001-01-01,-6.6
PC_GDP_3Y,NSA,CA,BAL,WRL_REST,LT,2002-01-01,-4.2
PC_GDP_3Y,NSA,CA,BAL,WRL_REST,LT,2003-01-01,-4.5
PC_GDP_3Y,NSA,CA,BAL,WRL_REST,LT,2004-01-01,-5.8
PC_GDP_3Y,NSA,CA,BAL,WRL_REST,LT,2005-01-01,-7.0
PC_GDP_3Y,NSA,CA,BAL,WRL_REST,LT,2006-01-01,-8.6
PC_GDP_3Y,NSA,CA,BAL,WRL_REST,LT,2007-01-01,-11.1
PC_GDP_3Y,NSA,CA,BAL,WRL_REST,LT,2008-01-01,-13.1
PC_GDP_3Y,NSA,CA,BAL,WRL_REST,LT,2009-01-01,-8.8
PC_GDP_3Y,NSA,CA,BAL,WRL_REST,LT,2010-01-01,-3.6
PC_GDP_3Y,NSA,CA,BAL,WRL_REST,LT,2011-01-01,-0.5
PC_GDP_3Y,NSA,CA,BAL,WRL_REST,LT,2012-01-01,-1.7
PC_GDP_3Y,NSA,CA,BAL,WRL_REST,LT,2013-01-01,-1.2
PC_GDP_3Y,NSA,CA,BAL,WRL_REST,LT,2014-01-01,1.2
PC_GDP_3Y,NSA,CA,BAL,WRL_REST,LT,2015-01-01,0.9
PC_GDP_3Y,NSA,CA,BAL,WRL_REST,LT,2016-01-01,0.0
PC_GDP_3Y,NSA,CA,BAL,WRL_REST,LT,2017-01-01,-1.0
PC_GDP_3Y,NSA,CA,BAL,WRL_REST,LT,2018-01-01,-0.1
PC_GDP_3Y,NSA,CA,BAL,WRL_REST,LU,1995-01-01,
PC_GDP_3Y,NSA,CA,BAL,WRL_REST,LU,1996-01-01,
PC_GDP_3Y,NSA,CA,BAL,WRL_REST,LU,1997-01-01,10.4
PC_GDP_3Y,NSA,CA,BAL,WRL_REST,LU,1998-01-01,9.7
PC_GDP_3Y,NSA,CA,BAL,WRL_REST,LU,1999-01-01,8.9
PC_GDP_3Y,NSA,CA,BAL,WRL_REST,LU,2000-01-01,9.8
PC_GDP_3Y,NSA,CA,BAL,WRL_REST,LU,2001-01-01,9.6
PC_GDP_3Y,NSA,CA,BAL,WRL_REST,LU,2002-01-01,10.1
PC_GDP_3Y,NSA,CA,BAL,WRL_REST,LU,2003-01-01,8.0
PC_GDP_3Y,NSA,CA,BAL,WRL_REST,LU,2004-01-01,9.2
PC_GDP_3Y,NSA,CA,BAL,WRL_REST,LU,2005-01-01,9.8
PC_GDP_3Y,NSA,CA,BAL,WRL_REST,LU,2006-01-01,10.9
PC_GDP_3Y,NSA,CA,BAL,WRL_REST,LU,2007-01-01,10.2
PC_GDP_3Y,NSA,CA,BAL,WRL_REST,LU,2008-01-01,9.1
PC_GDP_3Y,NSA,CA,BAL,WRL_REST,LU,2009-01-01,8.2
PC_GDP_3Y,NSA,CA,BAL,WRL_REST,LU,2010-01-01,7.1
PC_GDP_3Y,NSA,CA,BAL,WRL_REST,LU,2011-01-01,6.6
PC_GDP_3Y,NSA,CA,BAL,WRL_REST,LU,2012-01-01,6.1
PC_GDP_3Y,NSA,CA,BAL,WRL_REST,LU,2013-01-01,5.7
PC_GDP_3Y,NSA,CA,BAL,WRL_REST,LU,2014-01-01,5.4
PC_GDP_3Y,NSA,CA,BAL,WRL_REST,LU,2015-01-01,5.2
PC_GDP_3Y,NSA,CA,BAL,WRL_REST,LU,2016-01-01,5.1
PC_GDP_3Y,NSA,CA,BAL,WRL_REST,LU,2017-01-01,5.0
PC_GDP_3Y,NSA,CA,BAL,WRL_REST,LU,2018-01-01,4.9
PC_GDP_3Y,NSA,CA,BAL,WRL_REST,LV,1995-01-01,
PC_GDP_3Y,NSA,CA,BAL,WRL_REST,LV,1996-01-01,
PC_GDP_3Y,NSA,CA,BAL,WRL_REST,LV,1997-01-01,
PC_GDP_3Y,NSA,CA,BAL,WRL_REST,LV,1998-01-01,
PC_GDP_3Y,NSA,CA,BAL,WRL_REST,LV,1999-01-01,
PC_GDP_3Y,NSA,CA,BAL,WRL_REST,LV,2000-01-01,
PC_GDP_3Y,NSA,CA,BAL,WRL_REST,LV,2001-01-01,
PC_GDP_3Y,NSA,CA,BAL,WRL_REST,LV,2002-01-01,-5.0
PC_GDP_3Y,NSA,CA,BAL,WRL_REST,LV,2003-01-01,-6.2
PC_GDP_3Y,NSA,CA,BAL,WRL_REST,LV,2004-01-01,-8.0
PC_GDP_3Y,NSA,CA,BAL,WRL_REST,LV,2005-01-01,-10.2
PC_GDP_3Y,NSA,CA,BAL,WRL_REST,LV,2006-01-01,-14.7
PC_GDP_3Y,NSA,CA,BAL,WRL_REST,LV,2007-01-01,-17.7
PC_GDP_3Y,NSA,CA,BAL,WRL_REST,LV,2008-01-01,-17.9
PC_GDP_3Y,NSA,CA,BAL,WRL_REST,LV,2009-01-01,-8.4
PC_GDP_3Y,NSA,CA,BAL,WRL_REST,LV,2010-01-01,-0.9
PC_GDP_3Y,NSA,CA,BAL,WRL_REST,LV,2011-01-01,2.1
PC_GDP_3Y,NSA,CA,BAL,WRL_REST,LV,2012-01-01,-1.7
PC_GDP_3Y,NSA,CA,BAL,WRL_REST,LV,2013-01-01,-3.2
PC_GDP_3Y,NSA,CA,BAL,WRL_REST,LV,2014-01-01,-2.9
PC_GDP_3Y,NSA,CA,BAL,WRL_REST,LV,2015-01-01,-2.0
PC_GDP_3Y,NSA,CA,BAL,WRL_REST,LV,2016-01-01,-0.6
PC_GDP_3Y,NSA,CA,BAL,WRL_REST,LV,2017-01-01,0.5
PC_GDP_3Y,NSA,CA,BAL,WRL_REST,LV,2018-01-01,0.6
PC_GDP_3Y,NSA,CA,BAL,WRL_REST,MT,1995-01-01,
PC_GDP_3Y,NSA,CA,BAL,WRL_REST,MT,1996-01-01,
PC_GDP_3Y,NSA,CA,BAL,WRL_REST,MT,1997-01-01,
PC_GDP_3Y,NSA,CA,BAL,WRL_REST,MT,1998-01-01,
PC_GDP_3Y,NSA,CA,BAL,WRL_REST,MT,1999-01-01,
PC_GDP_3Y,NSA,CA,BAL,WRL_REST,MT,2000-01-01,
PC_GDP_3Y,NSA,CA,BAL,WRL_REST,MT,2001-01-01,
PC_GDP_3Y,NSA,CA,BAL,WRL_REST,MT,2002-01-01,
PC_GDP_3Y,NSA,CA,BAL,WRL_REST,MT,2003-01-01,
PC_GDP_3Y,NSA,CA,BAL,WRL_REST,MT,2004-01-01,
PC_GDP_3Y,NSA,CA,BAL,WRL_REST,MT,2005-01-01,
PC_GDP_3Y,NSA,CA,BAL,WRL_REST,MT,2006-01-01,-6.2
PC_GDP_3Y,NSA,CA,BAL,WRL_REST,MT,2007-01-01,-5.6
PC_GDP_3Y,NSA,CA,BAL,WRL_REST,MT,2008-01-01,-3.7
PC_GDP_3Y,NSA,CA,BAL,WRL_REST,MT,2009-01-01,-4.6
PC_GDP_3Y,NSA,CA,BAL,WRL_REST,MT,2010-01-01,-5.7
PC_GDP_3Y,NSA,CA,BAL,WRL_REST,MT,2011-01-01,-5.6
PC_GDP_3Y,NSA,CA,BAL,WRL_REST,MT,2012-01-01,-2.9
PC_GDP_3Y,NSA,CA,BAL,WRL_REST,MT,2013-01-01,-0.8
PC_GDP_3Y,NSA,CA,BAL,WRL_REST,MT,2014-01-01,1.8
PC_GDP_3Y,NSA,CA,BAL,WRL_REST,MT,2015-01-01,2.9
PC_GDP_3Y,NSA,CA,BAL,WRL_REST,MT,2016-01-01,4.1
PC_GDP_3Y,NSA,CA,BAL,WRL_REST,MT,2017-01-01,6.0
PC_GDP_3Y,NSA,CA,BAL,WRL_REST,MT,2018-01-01,8.9
PC_GDP_3Y,NSA,CA,BAL,WRL_REST,NL,1995-01-01,
PC_GDP_3Y,NSA,CA,BAL,WRL_REST,NL,1996-01-01,
PC_GDP_3Y,NSA,CA,BAL,WRL_REST,NL,1997-01-01,
PC_GDP_3Y,NSA,CA,BAL,WRL_REST,NL,1998-01-01,
PC_GDP_3Y,NSA,CA,BAL,WRL_REST,NL,1999-01-01,
PC_GDP_3Y,NSA,CA,BAL,WRL_REST,NL,2000-01-01,
PC_GDP_3Y,NSA,CA,BAL,WRL_REST,NL,2001-01-01,
PC_GDP_3Y,NSA,CA,BAL,WRL_REST,NL,2002-01-01,
PC_GDP_3Y,NSA,CA,BAL,WRL_REST,NL,2003-01-01,
PC_GDP_3Y,NSA,CA,BAL,WRL_REST,NL,2004-01-01,
PC_GDP_3Y,NSA,CA,BAL,WRL_REST,NL,2005-01-01,
PC_GDP_3Y,NSA,CA,BAL,WRL_REST,NL,2006-01-01,7.9
PC_GDP_3Y,NSA,CA,BAL,WRL_REST,NL,2007-01-01,7.7
PC_GDP_3Y,NSA,CA,BAL,WRL_REST,NL,2008-01-01,7.0
PC_GDP_3Y,NSA,CA,BAL,WRL_REST,NL,2009-01-01,5.8
PC_GDP_3Y,NSA,CA,BAL,WRL_REST,NL,2010-01-01,5.8
PC_GDP_3Y,NSA,CA,BAL,WRL_REST,NL,2011-01-01,7.0
PC_GDP_3Y,NSA,CA,BAL,WRL_REST,NL,2012-01-01,8.6
PC_GDP_3Y,NSA,CA,BAL,WRL_REST,NL,2013-01-01,9.5
PC_GDP_3Y,NSA,CA,BAL,WRL_REST,NL,2014-01-01,9.5
PC_GDP_3Y,NSA,CA,BAL,WRL_REST,NL,2015-01-01,8.2
PC_GDP_3Y,NSA,CA,BAL,WRL_REST,NL,2016-01-01,7.6
PC_GDP_3Y,NSA,CA,BAL,WRL_REST,NL,2017-01-01,8.4
PC_GDP_3Y,NSA,CA,BAL,WRL_REST,NL,2018-01-01,9.9
PC_GDP_3Y,NSA,CA,BAL,WRL_REST,PL,1995-01-01,
PC_GDP_3Y,NSA,CA,BAL,WRL_REST,PL,1996-01-01,
PC_GDP_3Y,NSA,CA,BAL,WRL_REST,PL,1997-01-01,
PC_GDP_3Y,NSA,CA,BAL,WRL_REST,PL,1998-01-01,
PC_GDP_3Y,NSA,CA,BAL,WRL_REST,PL,1999-01-01,
PC_GDP_3Y,NSA,CA,BAL,WRL_REST,PL,2000-01-01,
PC_GDP_3Y,NSA,CA,BAL,WRL_REST,PL,2001-01-01,
PC_GDP_3Y,NSA,CA,BAL,WRL_REST,PL,2002-01-01,
PC_GDP_3Y,NSA,CA,BAL,WRL_REST,PL,2003-01-01,
PC_GDP_3Y,NSA,CA,BAL,WRL_REST,PL,2004-01-01,
PC_GDP_3Y,NSA,CA,BAL,WRL_REST,PL,2005-01-01,
PC_GDP_3Y,NSA,CA,BAL,WRL_REST,PL,2006-01-01,-4.0
PC_GDP_3Y,NSA,CA,BAL,WRL_REST,PL,2007-01-01,-4.3
PC_GDP_3Y,NSA,CA,BAL,WRL_REST,PL,2008-01-01,-5.7
PC_GDP_3Y,NSA,CA,BAL,WRL_REST,PL,2009-01-01,-5.7
PC_GDP_3Y,NSA,CA,BAL,WRL_REST,PL,2010-01-01,-5.3
PC_GDP_3Y,NSA,CA,BAL,WRL_REST,PL,2011-01-01,-4.8
PC_GDP_3Y,NSA,CA,BAL,WRL_REST,PL,2012-01-01,-4.8
PC_GDP_3Y,NSA,CA,BAL,WRL_REST,PL,2013-01-01,-3.4
PC_GDP_3Y,NSA,CA,BAL,WRL_REST,PL,2014-01-01,-2.3
PC_GDP_3Y,NSA,CA,BAL,WRL_REST,PL,2015-01-01,-1.3
PC_GDP_3Y,NSA,CA,BAL,WRL_REST,PL,2016-01-01,-1.0
PC_GDP_3Y,NSA,CA,BAL,WRL_REST,PL,2017-01-01,-0.3
PC_GDP_3Y,NSA,CA,BAL,WRL_REST,PL,2018-01-01,-0.5
PC_GDP_3Y,NSA,CA,BAL,WRL_REST,PT,1995-01-01,
PC_GDP_3Y,NSA,CA,BAL,WRL_REST,PT,1996-01-01,
PC_GDP_3Y,NSA,CA,BAL,WRL_REST,PT,1997-01-01,
PC_GDP_3Y,NSA,CA,BAL,WRL_REST,PT,1998-01-01,-6.0
PC_GDP_3Y,NSA,CA,BAL,WRL_REST,PT,1999-01-01,-7.5
PC_GDP_3Y,NSA,CA,BAL,WRL_REST,PT,2000-01-01,-9.1
PC_GDP_3Y,NSA,CA,BAL,WRL_REST,PT,2001-01-01,-10.0
PC_GDP_3Y,NSA,CA,BAL,WRL_REST,PT,2002-01-01,-9.9
PC_GDP_3Y,NSA,CA,BAL,WRL_REST,PT,2003-01-01,-8.5
PC_GDP_3Y,NSA,CA,BAL,WRL_REST,PT,2004-01-01,-7.7
PC_GDP_3Y,NSA,CA,BAL,WRL_REST,PT,2005-01-01,-8.1
PC_GDP_3Y,NSA,CA,BAL,WRL_REST,PT,2006-01-01,-9.3
PC_GDP_3Y,NSA,CA,BAL,WRL_REST,PT,2007-01-01,-9.8
PC_GDP_3Y,NSA,CA,BAL,WRL_REST,PT,2008-01-01,-10.6
PC_GDP_3Y,NSA,CA,BAL,WRL_REST,PT,2009-01-01,-10.6
PC_GDP_3Y,NSA,CA,BAL,WRL_REST,PT,2010-01-01,-10.8
PC_GDP_3Y,NSA,CA,BAL,WRL_REST,PT,2011-01-01,-8.8
PC_GDP_3Y,NSA,CA,BAL,WRL_REST,PT,2012-01-01,-5.9
PC_GDP_3Y,NSA,CA,BAL,WRL_REST,PT,2013-01-01,-2.0
PC_GDP_3Y,NSA,CA,BAL,WRL_REST,PT,2014-01-01,0.1
PC_GDP_3Y,NSA,CA,BAL,WRL_REST,PT,2015-01-01,0.7
PC_GDP_3Y,NSA,CA,BAL,WRL_REST,PT,2016-01-01,0.5
PC_GDP_3Y,NSA,CA,BAL,WRL_REST,PT,2017-01-01,0.8
PC_GDP_3Y,NSA,CA,BAL,WRL_REST,PT,2018-01-01,0.9
PC_GDP_3Y,NSA,CA,BAL,WRL_REST,RO,1995-01-01,
PC_GDP_3Y,NSA,CA,BAL,WRL_REST,RO,1996-01-01,
PC_GDP_3Y,NSA,CA,BAL,WRL_REST,RO,1997-01-01,
PC_GDP_3Y,NSA,CA,BAL,WRL_REST,RO,1998-01-01,
PC_GDP_3Y,NSA,CA,BAL,WRL_REST,RO,1999-01-01,
PC_GDP_3Y,NSA,CA,BAL,WRL_REST,RO,2000-01-01,
PC_GDP_3Y,NSA,CA,BAL,WRL_REST,RO,2001-01-01,-4.5
PC_GDP_3Y,NSA,CA,BAL,WRL_REST,RO,2002-01-01,-4.3
PC_GDP_3Y,NSA,CA,BAL,WRL_REST,RO,2003-01-01,-5.1
PC_GDP_3Y,NSA,CA,BAL,WRL_REST,RO,2004-01-01,-6.0
PC_GDP_3Y,NSA,CA,BAL,WRL_REST,RO,2005-01-01,-7.8
PC_GDP_3Y,NSA,CA,BAL,WRL_REST,RO,2006-01-01,-9.2
PC_GDP_3Y,NSA,CA,BAL,WRL_REST,RO,2007-01-01,-10.9
PC_GDP_3Y,NSA,CA,BAL,WRL_REST,RO,2008-01-01,-11.8
PC_GDP_3Y,NSA,CA,BAL,WRL_REST,RO,2009-01-01,-9.9
PC_GDP_3Y,NSA,CA,BAL,WRL_REST,RO,2010-01-01,-7.1
PC_GDP_3Y,NSA,CA,BAL,WRL_REST,RO,2011-01-01,-4.9
PC_GDP_3Y,NSA,CA,BAL,WRL_REST,RO,2012-01-01,-5.0
PC_GDP_3Y,NSA,CA,BAL,WRL_REST,RO,2013-01-01,-3.6
PC_GDP_3Y,NSA,CA,BAL,WRL_REST,RO,2014-01-01,-2.2
PC_GDP_3Y,NSA,CA,BAL,WRL_REST,RO,2015-01-01,-1.0
PC_GDP_3Y,NSA,CA,BAL,WRL_REST,RO,2016-01-01,-1.3
PC_GDP_3Y,NSA,CA,BAL,WRL_REST,RO,2017-01-01,-2.2
PC_GDP_3Y,NSA,CA,BAL,WRL_REST,RO,2018-01-01,-3.3
PC_GDP_3Y,NSA,CA,BAL,WRL_REST,SE,1995-01-01,1.0
PC_GDP_3Y,NSA,CA,BAL,WRL_REST,SE,1996-01-01,2.5
PC_GDP_3Y,NSA,CA,BAL,WRL_REST,SE,1997-01-01,3.5
PC_GDP_3Y,NSA,CA,BAL,WRL_REST,SE,1998-01-01,3.6
PC_GDP_3Y,NSA,CA,BAL,WRL_REST,SE,1999-01-01,3.8
PC_GDP_3Y,NSA,CA,BAL,WRL_REST,SE,2000-01-01,3.8
PC_GDP_3Y,NSA,CA,BAL,WRL_REST,SE,2001-01-01,4.2
PC_GDP_3Y,NSA,CA,BAL,WRL_REST,SE,2002-01-01,4.4
PC_GDP_3Y,NSA,CA,BAL,WRL_REST,SE,2003-01-01,5.0
PC_GDP_3Y,NSA,CA,BAL,WRL_REST,SE,2004-01-01,5.4
PC_GDP_3Y,NSA,CA,BAL,WRL_REST,SE,2005-01-01,6.0
PC_GDP_3Y,NSA,CA,BAL,WRL_REST,SE,2006-01-01,6.7
PC_GDP_3Y,NSA,CA,BAL,WRL_REST,SE,2007-01-01,7.5
PC_GDP_3Y,NSA,CA,BAL,WRL_REST,SE,2008-01-01,8.1
PC_GDP_3Y,NSA,CA,BAL,WRL_REST,SE,2009-01-01,7.3
PC_GDP_3Y,NSA,CA,BAL,WRL_REST,SE,2010-01-01,6.6
PC_GDP_3Y,NSA,CA,BAL,WRL_REST,SE,2011-01-01,5.8
PC_GDP_3Y,NSA,CA,BAL,WRL_REST,SE,2012-01-01,5.6
PC_GDP_3Y,NSA,CA,BAL,WRL_REST,SE,2013-01-01,5.4
PC_GDP_3Y,NSA,CA,BAL,WRL_REST,SE,2014-01-01,5.1
PC_GDP_3Y,NSA,CA,BAL,WRL_REST,SE,2015-01-01,4.6
PC_GDP_3Y,NSA,CA,BAL,WRL_REST,SE,2016-01-01,4.1
PC_GDP_3Y,NSA,CA,BAL,WRL_REST,SE,2017-01-01,3.6
PC_GDP_3Y,NSA,CA,BAL,WRL_REST,SE,2018-01-01,2.8
PC_GDP_3Y,NSA,CA,BAL,WRL_REST,SI,1995-01-01,
PC_GDP_3Y,NSA,CA,BAL,WRL_REST,SI,1996-01-01,
PC_GDP_3Y,NSA,CA,BAL,WRL_REST,SI,1997-01-01,-0.1
PC_GDP_3Y,NSA,CA,BAL,WRL_REST,SI,1998-01-01,-0.2
PC_GDP_3Y,NSA,CA,BAL,WRL_REST,SI,1999-01-01,-1.3
PC_GDP_3Y,NSA,CA,BAL,WRL_REST,SI,2000-01-01,-2.2
PC_GDP_3Y,NSA,CA,BAL,WRL_REST,SI,2001-01-01,-2.0
PC_GDP_3Y,NSA,CA,BAL,WRL_REST,SI,2002-01-01,-0.6
PC_GDP_3Y,NSA,CA,BAL,WRL_REST,SI,2003-01-01,0.0
PC_GDP_3Y,NSA,CA,BAL,WRL_REST,SI,2004-01-01,-0.9
PC_GDP_3Y,NSA,CA,BAL,WRL_REST,SI,2005-01-01,-1.8
PC_GDP_3Y,NSA,CA,BAL,WRL_REST,SI,2006-01-01,-2.1
PC_GDP_3Y,NSA,CA,BAL,WRL_REST,SI,2007-01-01,-2.6
PC_GDP_3Y,NSA,CA,BAL,WRL_REST,SI,2008-01-01,-3.8
PC_GDP_3Y,NSA,CA,BAL,WRL_REST,SI,2009-01-01,-3.5
PC_GDP_3Y,NSA,CA,BAL,WRL_REST,SI,2010-01-01,-2.4
PC_GDP_3Y,NSA,CA,BAL,WRL_REST,SI,2011-01-01,-0.9
PC_GDP_3Y,NSA,CA,BAL,WRL_REST,SI,2012-01-01,-0.1
PC_GDP_3Y,NSA,CA,BAL,WRL_REST,SI,2013-01-01,1.3
PC_GDP_3Y,NSA,CA,BAL,WRL_REST,SI,2014-01-01,3.2
PC_GDP_3Y,NSA,CA,BAL,WRL_REST,SI,2015-01-01,4.1
PC_GDP_3Y,NSA,CA,BAL,WRL_REST,SI,2016-01-01,4.6
PC_GDP_3Y,NSA,CA,BAL,WRL_REST,SI,2017-01-01,4.9
PC_GDP_3Y,NSA,CA,BAL,WRL_REST,SI,2018-01-01,5.5
PC_GDP_3Y,NSA,CA,BAL,WRL_REST,SK,1995-01-01,
PC_GDP_3Y,NSA,CA,BAL,WRL_REST,SK,1996-01-01,
PC_GDP_3Y,NSA,CA,BAL,WRL_REST,SK,1997-01-01,
PC_GDP_3Y,NSA,CA,BAL,WRL_REST,SK,1998-01-01,
PC_GDP_3Y,NSA,CA,BAL,WRL_REST,SK,1999-01-01,
PC_GDP_3Y,NSA,CA,BAL,WRL_REST,SK,2000-01-01,
PC_GDP_3Y,NSA,CA,BAL,WRL_REST,SK,2001-01-01,
PC_GDP_3Y,NSA,CA,BAL,WRL_REST,SK,2002-01-01,
PC_GDP_3Y,NSA,CA,BAL,WRL_REST,SK,2003-01-01,
PC_GDP_3Y,NSA,CA,BAL,WRL_REST,SK,2004-01-01,
PC_GDP_3Y,NSA,CA,BAL,WRL_REST,SK,2005-01-01,
PC_GDP_3Y,NSA,CA,BAL,WRL_REST,SK,2006-01-01,-10.1
PC_GDP_3Y,NSA,CA,BAL,WRL_REST,SK,2007-01-01,-8.6
PC_GDP_3Y,NSA,CA,BAL,WRL_REST,SK,2008-01-01,-7.3
PC_GDP_3Y,NSA,CA,BAL,WRL_REST,SK,2009-01-01,-5.3
PC_GDP_3Y,NSA,CA,BAL,WRL_REST,SK,2010-01-01,-4.9
PC_GDP_3Y,NSA,CA,BAL,WRL_REST,SK,2011-01-01,-4.3
PC_GDP_3Y,NSA,CA,BAL,WRL_REST,SK,2012-01-01,-2.9
PC_GDP_3Y,NSA,CA,BAL,WRL_REST,SK,2013-01-01,-0.7
PC_GDP_3Y,NSA,CA,BAL,WRL_REST,SK,2014-01-01,1.3
PC_GDP_3Y,NSA,CA,BAL,WRL_REST,SK,2015-01-01,0.3
PC_GDP_3Y,NSA,CA,BAL,WRL_REST,SK,2016-01-01,-1.2
PC_GDP_3Y,NSA,CA,BAL,WRL_REST,SK,2017-01-01,-2.2
PC_GDP_3Y,NSA,CA,BAL,WRL_REST,SK,2018-01-01,-2.4
PC_GDP_3Y,NSA,CA,BAL,WRL_REST,UK,1995-01-01,
PC_GDP_3Y,NSA,CA,BAL,WRL_REST,UK,1996-01-01,
PC_GDP_3Y,NSA,CA,BAL,WRL_REST,UK,1997-01-01,
PC_GDP_3Y,NSA,CA,BAL,WRL_REST,UK,1998-01-01,
PC_GDP_3Y,NSA,CA,BAL,WRL_REST,UK,1999-01-01,-0.8
PC_GDP_3Y,NSA,CA,BAL,WRL_REST,UK,2000-01-01,-1.6
PC_GDP_3Y,NSA,CA,BAL,WRL_REST,UK,2001-01-01,-2.3
PC_GDP_3Y,NSA,CA,BAL,WRL_REST,UK,2002-01-01,-2.1
PC_GDP_3Y,NSA,CA,BAL,WRL_REST,UK,2003-01-01,-2.0
PC_GDP_3Y,NSA,CA,BAL,WRL_REST,UK,2004-01-01,-2.0
PC_GDP_3Y,NSA,CA,BAL,WRL_REST,UK,2005-01-01,-2.0
PC_GDP_3Y,NSA,CA,BAL,WRL_REST,UK,2006-01-01,-2.4
PC_GDP_3Y,NSA,CA,BAL,WRL_REST,UK,2007-01-01,-2.7
PC_GDP_3Y,NSA,CA,BAL,WRL_REST,UK,2008-01-01,-3.3
PC_GDP_3Y,NSA,CA,BAL,WRL_REST,UK,2009-01-01,-3.5
PC_GDP_3Y,NSA,CA,BAL,WRL_REST,UK,2010-01-01,-3.5
PC_GDP_3Y,NSA,CA,BAL,WRL_REST,UK,2011-01-01,-2.8
PC_GDP_3Y,NSA,CA,BAL,WRL_REST,UK,2012-01-01,-2.8
PC_GDP_3Y,NSA,CA,BAL,WRL_REST,UK,2013-01-01,-3.3
PC_GDP_3Y,NSA,CA,BAL,WRL_REST,UK,2014-01-01,-4.3
PC_GDP_3Y,NSA,CA,BAL,WRL_REST,UK,2015-01-01,-4.8
PC_GDP_3Y,NSA,CA,BAL,WRL_REST,UK,2016-01-01,-4.9
PC_GDP_3Y,NSA,CA,BAL,WRL_REST,UK,2017-01-01,-4.5
PC_GDP_3Y,NSA,CA,BAL,WRL_REST,UK,2018-01-01,-4.3
