"","1","2","3","4","MeanDecreaseAccuracy","MeanDecreaseGini"
"CA",0.0112292391807379,0.0621022977404636,0.153616183031038,0.358339544285039,0.144972222222222,18.2275377840798
"REER",0.0133937322130335,0.00660881338216122,0.0385435728196006,0.0157376695503282,0.0182685185185186,4.64517476752014
"XMS",0.0155572752038272,0.0268060787641633,0.0505330353588947,0.0554953470989854,0.0370462962962964,6.14051690401474
"FSL",0.0112894721252181,0.00400895923231043,0.040941814118479,0.0142988256953724,0.0172314814814815,4.48313481158083
"GGD",0.0663317911639258,0.0266725466999023,0.0836206676814843,0.132206216100931,0.0772314814814816,9.61235495508542
"HPI",0.0132171160182587,0.0181939186904568,0.105534021937773,0.031278584019394,0.0410740740740743,7.06402947998191
"NIIP",0.0680314639048657,0.0428876248857382,0.0880197776367233,0.195726839847753,0.0981203703703704,11.3603508594924
"ULC",0.0223701134176571,0.0524225777320112,0.0685199740746821,0.0913007162881196,0.0582129629629632,7.74561649053308
"AR",0.0159604016499569,0.00928012198334139,0.0200461105623473,0.041017821844524,0.0212777777777778,4.49067325682184
"LTU",0.0321943417279774,0.0222900342040405,0.0407623890038357,0.142795900724414,0.0596111111111113,8.15356250490875
"YUR",0.0297433119075175,0.0145241696031607,0.0527738869225766,0.14375466052045,0.0598240740740743,8.05968204468495
"PSCF",0.0295837314378592,0.0235327669939285,0.0501298937735568,0.0918163289531519,0.0483888888888892,6.58283997399496
"PSD",0.0715979717305435,0.0440728161025145,0.114332664589129,0.0843293884248877,0.0779074074074074,10.2693817350996
"UR",0.090474765638215,0.0637818537724965,0.163244330211363,0.0732872486867265,0.0965462962962961,14.3503419630658
