specification,variable,description,type_var,thresh_above1,thresh_above2,thresh_above1_NEA,thresh_above2_NEA
tipsbp10-PC_GDP_3Y-NSA-CA-BAL-WRL_REST,PC_CA-avg_3y,Current account balance - 3 year average,headline,-4,6,-4,6
tipser10-PCH_1Y,REER-pch_1y,Real effective exchange rate (42 trading partners based on HICP/CPI) - 1y pch,auxiliary,,,,
tipser10-PCH_3Y,REER-pch_3y,Real effective exchange rate (42 trading partners based on HICP/CPI) - 3y pch,headline,-5,5,-11,11
tipsex10-PCH_WRL_5Y-G-CRE-WRL_REST,X_G_share_M-pch_5y,G Export market shares - 5 years % change,auxiliary,,,,
tipsex10-PCH_WRL_5Y-GS-CRE-WRL_REST,X_GS_share_M-pch_5y,GS Export market shares - 5 years % change,headline,-6,,-6,
tipsex10-PCH_WRL_5Y-S-CRE-WRL_REST,X_S_share_M-pch_5y,G Export market shares - 5 years % change,auxiliary,,,,
tipsfs10-F-NCO-S12-LIAB-MIO_NAC,FSL-mil,Total financial sector liabilities non-consolidated - annual data - millions,auxiliary,,,,
tipsfs10-F-NCO-S12-LIAB-PCH_PRE,FSL-pch,Total financial sector liabilities non-consolidated - annual data - 1y change,headline,16.5,,16.5,
tipsfs10-F-NCO-S12-LIAB-PC_GDP,FSL-pc_gdp,Total financial sector liabilities non-consolidated - annual data - pc gdp,auxiliary,,,,
tipsgo10-GD-S13-MIO_NAC,GD-mil,General government gross debt (EDP concept) consolidated - annual data - millions,auxiliary,,,,
tipsgo10-GD-S13-PC_GDP,GD-pc_gdp,General government gross debt (EDP concept) consolidated - annual data - pc gdp,headline,60,,60,
tipsho10-INX_A_AVG,HPI-pch, House price index deflated - annual data - pch ,headline,6,,6,
tipsho10-RCH_A_AVG,HPI-index,House price index deflated - annual data - index,auxiliary,,,,
tipsii10-NSA-FA-S1-S1-N_LE-WRL_REST-MIO_NAC,NIIP-mil,Net international investment position - annual data - millions,auxiliary,,,,
tipsii10-NSA-FA-S1-S1-N_LE-WRL_REST-PC_GDP,NIIP-pc_gdp,Net international investment position - annual data - pc gdp,headline,-35,,-35,
tipslm10-NULC_PER-PCH_3Y,ULC-pch_3y,Nominal unit labour cost - 3 years % change,headline,9,,12,
tipslm60-T-PC_POP,ACT-pc_pop,Activity rate - % of total population aged 15-64 - pc pop,auxiliary,,,,
tipslm60-T-PPCH_3Y,ACT-pch_3y,Activity rate - % of total population aged 15-64 - pch 3y,headline,0.5,,0.5,
tipslm70-PC_ACT-T,LTU-pc_pop,Long-term unemployment rate % of active population aged 15-74 - pc pop,auxiliary,,,,
tipslm70-PPCH_3Y-T,LTU-pch_3y,Long-term unemployment rate % of active population aged 15-74 - pch 3y,headline,2,,2,
tipslm80-Y_LT25-T-PC_ACT,YUR-pc_act,Youth unemployment rate - % of active population aged 15-24 - pc act,auxiliary,,,,
tipslm80-Y_LT25-T-PPCH_3Y,YUR-pch_3y,Youth unemployment rate - % of active population aged 15-24 - pch 3y,headline,
tipspc20-CO-S11_S14_S15-LIAB-F3_F4-MIO_NAC,PSCF-mil,Private sector credit flow consolidated - % GDP - millions,auxiliary,,,,
tipspc20-CO-S11_S14_S15-LIAB-F3_F4-PC_GDP,PSCF-pc_gdp,Private sector credit flow consolidated - % GDP - pc gdp,headline,14,,14,
tipspd20-CO-S11_S14_S15-LIAB-F3_F4-MIO_NAC,PSD-mil,Private sector debt consolidated - % of GDP - millions,auxiliary,,,,
tipspd20-CO-S11_S14_S15-LIAB-F3_F4-PC_GDP,PSD-pc_gdp,Private sector debt consolidated - % of GDP - pc gdp,headline,133,,133,
tipsun10-TOTAL-AVG_3Y-T,UR-avg_3y,Unemployment rate - 3 year average,headline,10,,10,

